{
  "results" : [ {
    "data_year" : 2019,
    "population" : 331840279,
    "total_agency_count" : 0,
    "published_agency_count" : 0,
    "active_agency_count" : 0,
    "covered_agency_count" : 0,
    "population_covered" : 0,
    "agency_count_nibrs_submitting" : 8145,
    "agency_count_leoka_submitting" : 6244,
    "agency_count_pe_submitting" : 0,
    "agency_count_srs_submitting" : 0,
    "csv_header" : "data_year,population,total_agency_count,published_agency_count,active_agency_count,covered_agency_count,population_covered,agency_count_nibrs_submitting,agency_count_leoka_submitting,agency_count_pe_submitting,agency_count_srs_submitting"
  }, {
    "data_year" : 2018,
    "population" : 426203279,
    "total_agency_count" : 15123,
    "published_agency_count" : 15105,
    "active_agency_count" : 15123,
    "covered_agency_count" : 18,
    "population_covered" : 14996,
    "agency_count_nibrs_submitting" : 13965,
    "agency_count_leoka_submitting" : 11134,
    "agency_count_pe_submitting" : 15123,
    "agency_count_srs_submitting" : 15123,
    "csv_header" : "data_year,population,total_agency_count,published_agency_count,active_agency_count,covered_agency_count,population_covered,agency_count_nibrs_submitting,agency_count_leoka_submitting,agency_count_pe_submitting,agency_count_srs_submitting"
  }, {
    "data_year" : 2017,
    "population" : 334134228,
    "total_agency_count" : 16082,
    "published_agency_count" : 16007,
    "active_agency_count" : 16071,
    "covered_agency_count" : 64,
    "population_covered" : 171953,
    "agency_count_nibrs_submitting" : 8159,
    "agency_count_leoka_submitting" : 6180,
    "agency_count_pe_submitting" : 16082,
    "agency_count_srs_submitting" : 16082,
    "csv_header" : "data_year,population,total_agency_count,published_agency_count,active_agency_count,covered_agency_count,population_covered,agency_count_nibrs_submitting,agency_count_leoka_submitting,agency_count_pe_submitting,agency_count_srs_submitting"
  }, {
    "data_year" : 2016,
    "population" : 337990559,
    "total_agency_count" : 17437,
    "published_agency_count" : 17429,
    "active_agency_count" : 17436,
    "covered_agency_count" : 7,
    "population_covered" : 80974,
    "agency_count_nibrs_submitting" : 9478,
    "agency_count_leoka_submitting" : 6464,
    "agency_count_pe_submitting" : 17437,
    "agency_count_srs_submitting" : 17437,
    "csv_header" : "data_year,population,total_agency_count,published_agency_count,active_agency_count,covered_agency_count,population_covered,agency_count_nibrs_submitting,agency_count_leoka_submitting,agency_count_pe_submitting,agency_count_srs_submitting"
  }, {
    "data_year" : 2015,
    "population" : 343887734,
    "total_agency_count" : 17423,
    "published_agency_count" : 17422,
    "active_agency_count" : 17423,
    "covered_agency_count" : 1,
    "population_covered" : 717,
    "agency_count_nibrs_submitting" : 9636,
    "agency_count_leoka_submitting" : 6217,
    "agency_count_pe_submitting" : 17423,
    "agency_count_srs_submitting" : 17423,
    "csv_header" : "data_year,population,total_agency_count,published_agency_count,active_agency_count,covered_agency_count,population_covered,agency_count_nibrs_submitting,agency_count_leoka_submitting,agency_count_pe_submitting,agency_count_srs_submitting"
  }, {
    "data_year" : 2014,
    "population" : 336861983,
    "total_agency_count" : 17390,
    "published_agency_count" : 17389,
    "active_agency_count" : 17389,
    "covered_agency_count" : 0,
    "population_covered" : 0,
    "agency_count_nibrs_submitting" : 9966,
    "agency_count_leoka_submitting" : 6343,
    "agency_count_pe_submitting" : 17390,
    "agency_count_srs_submitting" : 17390,
    "csv_header" : "data_year,population,total_agency_count,published_agency_count,active_agency_count,covered_agency_count,population_covered,agency_count_nibrs_submitting,agency_count_leoka_submitting,agency_count_pe_submitting,agency_count_srs_submitting"
  }, {
    "data_year" : 2013,
    "population" : 336448773,
    "total_agency_count" : 17437,
    "published_agency_count" : 17437,
    "active_agency_count" : 17437,
    "covered_agency_count" : 0,
    "population_covered" : 0,
    "agency_count_nibrs_submitting" : 9674,
    "agency_count_leoka_submitting" : 5591,
    "agency_count_pe_submitting" : 17437,
    "agency_count_srs_submitting" : 17437,
    "csv_header" : "data_year,population,total_agency_count,published_agency_count,active_agency_count,covered_agency_count,population_covered,agency_count_nibrs_submitting,agency_count_leoka_submitting,agency_count_pe_submitting,agency_count_srs_submitting"
  }, {
    "data_year" : 2012,
    "population" : 330867842,
    "total_agency_count" : 17187,
    "published_agency_count" : 17187,
    "active_agency_count" : 17187,
    "covered_agency_count" : 0,
    "population_covered" : 0,
    "agency_count_nibrs_submitting" : 8809,
    "agency_count_leoka_submitting" : 4984,
    "agency_count_pe_submitting" : 17187,
    "agency_count_srs_submitting" : 17187,
    "csv_header" : "data_year,population,total_agency_count,published_agency_count,active_agency_count,covered_agency_count,population_covered,agency_count_nibrs_submitting,agency_count_leoka_submitting,agency_count_pe_submitting,agency_count_srs_submitting"
  }, {
    "data_year" : 2011,
    "population" : 328788301,
    "total_agency_count" : 17281,
    "published_agency_count" : 17280,
    "active_agency_count" : 17280,
    "covered_agency_count" : 0,
    "population_covered" : 0,
    "agency_count_nibrs_submitting" : 9063,
    "agency_count_leoka_submitting" : 5300,
    "agency_count_pe_submitting" : 17281,
    "agency_count_srs_submitting" : 17281,
    "csv_header" : "data_year,population,total_agency_count,published_agency_count,active_agency_count,covered_agency_count,population_covered,agency_count_nibrs_submitting,agency_count_leoka_submitting,agency_count_pe_submitting,agency_count_srs_submitting"
  }, {
    "data_year" : 2010,
    "population" : 327831270,
    "total_agency_count" : 17321,
    "published_agency_count" : 17321,
    "active_agency_count" : 17321,
    "covered_agency_count" : 0,
    "population_covered" : 0,
    "agency_count_nibrs_submitting" : 9091,
    "agency_count_leoka_submitting" : 5000,
    "agency_count_pe_submitting" : 17321,
    "agency_count_srs_submitting" : 17321,
    "csv_header" : "data_year,population,total_agency_count,published_agency_count,active_agency_count,covered_agency_count,population_covered,agency_count_nibrs_submitting,agency_count_leoka_submitting,agency_count_pe_submitting,agency_count_srs_submitting"
  }, {
    "data_year" : 2009,
    "population" : 324375505,
    "total_agency_count" : 16621,
    "published_agency_count" : 16621,
    "active_agency_count" : 16621,
    "covered_agency_count" : 0,
    "population_covered" : 0,
    "agency_count_nibrs_submitting" : 8235,
    "agency_count_leoka_submitting" : 3660,
    "agency_count_pe_submitting" : 16621,
    "agency_count_srs_submitting" : 16621,
    "csv_header" : "data_year,population,total_agency_count,published_agency_count,active_agency_count,covered_agency_count,population_covered,agency_count_nibrs_submitting,agency_count_leoka_submitting,agency_count_pe_submitting,agency_count_srs_submitting"
  }, {
    "data_year" : 2008,
    "population" : 322857271,
    "total_agency_count" : 16445,
    "published_agency_count" : 16445,
    "active_agency_count" : 16445,
    "covered_agency_count" : 0,
    "population_covered" : 0,
    "agency_count_nibrs_submitting" : 7874,
    "agency_count_leoka_submitting" : 2407,
    "agency_count_pe_submitting" : 16445,
    "agency_count_srs_submitting" : 16445,
    "csv_header" : "data_year,population,total_agency_count,published_agency_count,active_agency_count,covered_agency_count,population_covered,agency_count_nibrs_submitting,agency_count_leoka_submitting,agency_count_pe_submitting,agency_count_srs_submitting"
  }, {
    "data_year" : 2007,
    "population" : 319212469,
    "total_agency_count" : 16302,
    "published_agency_count" : 16302,
    "active_agency_count" : 16302,
    "covered_agency_count" : 0,
    "population_covered" : 0,
    "agency_count_nibrs_submitting" : 7430,
    "agency_count_leoka_submitting" : 2078,
    "agency_count_pe_submitting" : 16302,
    "agency_count_srs_submitting" : 16302,
    "csv_header" : "data_year,population,total_agency_count,published_agency_count,active_agency_count,covered_agency_count,population_covered,agency_count_nibrs_submitting,agency_count_leoka_submitting,agency_count_pe_submitting,agency_count_srs_submitting"
  }, {
    "data_year" : 2006,
    "population" : 317790109,
    "total_agency_count" : 16045,
    "published_agency_count" : 16044,
    "active_agency_count" : 16044,
    "covered_agency_count" : 0,
    "population_covered" : 0,
    "agency_count_nibrs_submitting" : 7666,
    "agency_count_leoka_submitting" : 1722,
    "agency_count_pe_submitting" : 16045,
    "agency_count_srs_submitting" : 16045,
    "csv_header" : "data_year,population,total_agency_count,published_agency_count,active_agency_count,covered_agency_count,population_covered,agency_count_nibrs_submitting,agency_count_leoka_submitting,agency_count_pe_submitting,agency_count_srs_submitting"
  }, {
    "data_year" : 2005,
    "population" : 317862979,
    "total_agency_count" : 15427,
    "published_agency_count" : 15427,
    "active_agency_count" : 15427,
    "covered_agency_count" : 0,
    "population_covered" : 0,
    "agency_count_nibrs_submitting" : 7593,
    "agency_count_leoka_submitting" : 1429,
    "agency_count_pe_submitting" : 15427,
    "agency_count_srs_submitting" : 15427,
    "csv_header" : "data_year,population,total_agency_count,published_agency_count,active_agency_count,covered_agency_count,population_covered,agency_count_nibrs_submitting,agency_count_leoka_submitting,agency_count_pe_submitting,agency_count_srs_submitting"
  }, {
    "data_year" : 2004,
    "population" : 316866776,
    "total_agency_count" : 15295,
    "published_agency_count" : 15294,
    "active_agency_count" : 15294,
    "covered_agency_count" : 0,
    "population_covered" : 0,
    "agency_count_nibrs_submitting" : 6724,
    "agency_count_leoka_submitting" : 1066,
    "agency_count_pe_submitting" : 15295,
    "agency_count_srs_submitting" : 15295,
    "csv_header" : "data_year,population,total_agency_count,published_agency_count,active_agency_count,covered_agency_count,population_covered,agency_count_nibrs_submitting,agency_count_leoka_submitting,agency_count_pe_submitting,agency_count_srs_submitting"
  }, {
    "data_year" : 2003,
    "population" : 318477770,
    "total_agency_count" : 14880,
    "published_agency_count" : 14880,
    "active_agency_count" : 14880,
    "covered_agency_count" : 0,
    "population_covered" : 0,
    "agency_count_nibrs_submitting" : 6659,
    "agency_count_leoka_submitting" : 167,
    "agency_count_pe_submitting" : 14880,
    "agency_count_srs_submitting" : 14880,
    "csv_header" : "data_year,population,total_agency_count,published_agency_count,active_agency_count,covered_agency_count,population_covered,agency_count_nibrs_submitting,agency_count_leoka_submitting,agency_count_pe_submitting,agency_count_srs_submitting"
  }, {
    "data_year" : 2002,
    "population" : 311122450,
    "total_agency_count" : 14770,
    "published_agency_count" : 14770,
    "active_agency_count" : 14770,
    "covered_agency_count" : 0,
    "population_covered" : 0,
    "agency_count_nibrs_submitting" : 6393,
    "agency_count_leoka_submitting" : 0,
    "agency_count_pe_submitting" : 14770,
    "agency_count_srs_submitting" : 14770,
    "csv_header" : "data_year,population,total_agency_count,published_agency_count,active_agency_count,covered_agency_count,population_covered,agency_count_nibrs_submitting,agency_count_leoka_submitting,agency_count_pe_submitting,agency_count_srs_submitting"
  }, {
    "data_year" : 2001,
    "population" : 309762400,
    "total_agency_count" : 14122,
    "published_agency_count" : 14122,
    "active_agency_count" : 14122,
    "covered_agency_count" : 0,
    "population_covered" : 0,
    "agency_count_nibrs_submitting" : 5794,
    "agency_count_leoka_submitting" : 0,
    "agency_count_pe_submitting" : 14122,
    "agency_count_srs_submitting" : 14122,
    "csv_header" : "data_year,population,total_agency_count,published_agency_count,active_agency_count,covered_agency_count,population_covered,agency_count_nibrs_submitting,agency_count_leoka_submitting,agency_count_pe_submitting,agency_count_srs_submitting"
  }, {
    "data_year" : 2000,
    "population" : 309128731,
    "total_agency_count" : 14031,
    "published_agency_count" : 14031,
    "active_agency_count" : 14031,
    "covered_agency_count" : 0,
    "population_covered" : 0,
    "agency_count_nibrs_submitting" : 5742,
    "agency_count_leoka_submitting" : 0,
    "agency_count_pe_submitting" : 14031,
    "agency_count_srs_submitting" : 14031,
    "csv_header" : "data_year,population,total_agency_count,published_agency_count,active_agency_count,covered_agency_count,population_covered,agency_count_nibrs_submitting,agency_count_leoka_submitting,agency_count_pe_submitting,agency_count_srs_submitting"
  } ],
  "pagination" : {
    "count" : 25,
    "page" : 0,
    "pages" : 2,
    "per_page" : 20
  }
}