{
  "results" : [ {
    "data_year" : 2019,
    "population" : 4894285,
    "total_agency_count" : 0,
    "published_agency_count" : 0,
    "active_agency_count" : 0,
    "covered_agency_count" : 0,
    "population_covered" : 0,
    "agency_count_nibrs_submitting" : 0,
    "agency_count_leoka_submitting" : 0,
    "agency_count_pe_submitting" : 0,
    "agency_count_srs_submitting" : 0,
    "state_id" : 2,
    "state_abbr" : "AL",
    "csv_header" : "data_year,population,total_agency_count,published_agency_count,active_agency_count,covered_agency_count,population_covered,agency_count_nibrs_submitting,agency_count_leoka_submitting,agency_count_pe_submitting,agency_count_srs_submitting"
  }, {
    "data_year" : 2018,
    "population" : 4979919,
    "total_agency_count" : 2,
    "published_agency_count" : 2,
    "active_agency_count" : 2,
    "covered_agency_count" : 0,
    "population_covered" : 0,
    "agency_count_nibrs_submitting" : 2,
    "agency_count_leoka_submitting" : 2,
    "agency_count_pe_submitting" : 2,
    "agency_count_srs_submitting" : 2,
    "state_id" : 2,
    "state_abbr" : "AL",
    "csv_header" : "data_year,population,total_agency_count,published_agency_count,active_agency_count,covered_agency_count,population_covered,agency_count_nibrs_submitting,agency_count_leoka_submitting,agency_count_pe_submitting,agency_count_srs_submitting"
  }, {
    "data_year" : 2017,
    "population" : 5135776,
    "total_agency_count" : 378,
    "published_agency_count" : 378,
    "active_agency_count" : 378,
    "covered_agency_count" : 0,
    "population_covered" : 0,
    "agency_count_nibrs_submitting" : 1,
    "agency_count_leoka_submitting" : 1,
    "agency_count_pe_submitting" : 378,
    "agency_count_srs_submitting" : 378,
    "state_id" : 2,
    "state_abbr" : "AL",
    "csv_header" : "data_year,population,total_agency_count,published_agency_count,active_agency_count,covered_agency_count,population_covered,agency_count_nibrs_submitting,agency_count_leoka_submitting,agency_count_pe_submitting,agency_count_srs_submitting"
  }, {
    "data_year" : 2016,
    "population" : 5145855,
    "total_agency_count" : 375,
    "published_agency_count" : 375,
    "active_agency_count" : 375,
    "covered_agency_count" : 0,
    "population_covered" : 0,
    "agency_count_nibrs_submitting" : 1,
    "agency_count_leoka_submitting" : 1,
    "agency_count_pe_submitting" : 375,
    "agency_count_srs_submitting" : 375,
    "state_id" : 2,
    "state_abbr" : "AL",
    "csv_header" : "data_year,population,total_agency_count,published_agency_count,active_agency_count,covered_agency_count,population_covered,agency_count_nibrs_submitting,agency_count_leoka_submitting,agency_count_pe_submitting,agency_count_srs_submitting"
  }, {
    "data_year" : 2015,
    "population" : 5295404,
    "total_agency_count" : 376,
    "published_agency_count" : 375,
    "active_agency_count" : 376,
    "covered_agency_count" : 1,
    "population_covered" : 717,
    "agency_count_nibrs_submitting" : 1,
    "agency_count_leoka_submitting" : 1,
    "agency_count_pe_submitting" : 376,
    "agency_count_srs_submitting" : 376,
    "state_id" : 2,
    "state_abbr" : "AL",
    "csv_header" : "data_year,population,total_agency_count,published_agency_count,active_agency_count,covered_agency_count,population_covered,agency_count_nibrs_submitting,agency_count_leoka_submitting,agency_count_pe_submitting,agency_count_srs_submitting"
  }, {
    "data_year" : 2014,
    "population" : 5486497,
    "total_agency_count" : 372,
    "published_agency_count" : 372,
    "active_agency_count" : 372,
    "covered_agency_count" : 0,
    "population_covered" : 0,
    "agency_count_nibrs_submitting" : 1,
    "agency_count_leoka_submitting" : 1,
    "agency_count_pe_submitting" : 372,
    "agency_count_srs_submitting" : 372,
    "state_id" : 2,
    "state_abbr" : "AL",
    "csv_header" : "data_year,population,total_agency_count,published_agency_count,active_agency_count,covered_agency_count,population_covered,agency_count_nibrs_submitting,agency_count_leoka_submitting,agency_count_pe_submitting,agency_count_srs_submitting"
  }, {
    "data_year" : 2013,
    "population" : 5363659,
    "total_agency_count" : 379,
    "published_agency_count" : 379,
    "active_agency_count" : 379,
    "covered_agency_count" : 0,
    "population_covered" : 0,
    "agency_count_nibrs_submitting" : 1,
    "agency_count_leoka_submitting" : 1,
    "agency_count_pe_submitting" : 379,
    "agency_count_srs_submitting" : 379,
    "state_id" : 2,
    "state_abbr" : "AL",
    "csv_header" : "data_year,population,total_agency_count,published_agency_count,active_agency_count,covered_agency_count,population_covered,agency_count_nibrs_submitting,agency_count_leoka_submitting,agency_count_pe_submitting,agency_count_srs_submitting"
  }, {
    "data_year" : 2012,
    "population" : 5190846,
    "total_agency_count" : 385,
    "published_agency_count" : 385,
    "active_agency_count" : 385,
    "covered_agency_count" : 0,
    "population_covered" : 0,
    "agency_count_nibrs_submitting" : 1,
    "agency_count_leoka_submitting" : 1,
    "agency_count_pe_submitting" : 385,
    "agency_count_srs_submitting" : 385,
    "state_id" : 2,
    "state_abbr" : "AL",
    "csv_header" : "data_year,population,total_agency_count,published_agency_count,active_agency_count,covered_agency_count,population_covered,agency_count_nibrs_submitting,agency_count_leoka_submitting,agency_count_pe_submitting,agency_count_srs_submitting"
  }, {
    "data_year" : 2011,
    "population" : 4950667,
    "total_agency_count" : 378,
    "published_agency_count" : 378,
    "active_agency_count" : 378,
    "covered_agency_count" : 0,
    "population_covered" : 0,
    "agency_count_nibrs_submitting" : 1,
    "agency_count_leoka_submitting" : 1,
    "agency_count_pe_submitting" : 378,
    "agency_count_srs_submitting" : 378,
    "state_id" : 2,
    "state_abbr" : "AL",
    "csv_header" : "data_year,population,total_agency_count,published_agency_count,active_agency_count,covered_agency_count,population_covered,agency_count_nibrs_submitting,agency_count_leoka_submitting,agency_count_pe_submitting,agency_count_srs_submitting"
  }, {
    "data_year" : 2010,
    "population" : 5638613,
    "total_agency_count" : 365,
    "published_agency_count" : 365,
    "active_agency_count" : 365,
    "covered_agency_count" : 0,
    "population_covered" : 0,
    "agency_count_nibrs_submitting" : 1,
    "agency_count_leoka_submitting" : 1,
    "agency_count_pe_submitting" : 365,
    "agency_count_srs_submitting" : 365,
    "state_id" : 2,
    "state_abbr" : "AL",
    "csv_header" : "data_year,population,total_agency_count,published_agency_count,active_agency_count,covered_agency_count,population_covered,agency_count_nibrs_submitting,agency_count_leoka_submitting,agency_count_pe_submitting,agency_count_srs_submitting"
  }, {
    "data_year" : 2009,
    "population" : 5319809,
    "total_agency_count" : 368,
    "published_agency_count" : 368,
    "active_agency_count" : 368,
    "covered_agency_count" : 0,
    "population_covered" : 0,
    "agency_count_nibrs_submitting" : 1,
    "agency_count_leoka_submitting" : 1,
    "agency_count_pe_submitting" : 368,
    "agency_count_srs_submitting" : 368,
    "state_id" : 2,
    "state_abbr" : "AL",
    "csv_header" : "data_year,population,total_agency_count,published_agency_count,active_agency_count,covered_agency_count,population_covered,agency_count_nibrs_submitting,agency_count_leoka_submitting,agency_count_pe_submitting,agency_count_srs_submitting"
  }, {
    "data_year" : 2008,
    "population" : 4940876,
    "total_agency_count" : 329,
    "published_agency_count" : 329,
    "active_agency_count" : 329,
    "covered_agency_count" : 0,
    "population_covered" : 0,
    "agency_count_nibrs_submitting" : 1,
    "agency_count_leoka_submitting" : 1,
    "agency_count_pe_submitting" : 329,
    "agency_count_srs_submitting" : 329,
    "state_id" : 2,
    "state_abbr" : "AL",
    "csv_header" : "data_year,population,total_agency_count,published_agency_count,active_agency_count,covered_agency_count,population_covered,agency_count_nibrs_submitting,agency_count_leoka_submitting,agency_count_pe_submitting,agency_count_srs_submitting"
  }, {
    "data_year" : 2007,
    "population" : 4646319,
    "total_agency_count" : 296,
    "published_agency_count" : 296,
    "active_agency_count" : 296,
    "covered_agency_count" : 0,
    "population_covered" : 0,
    "agency_count_nibrs_submitting" : 1,
    "agency_count_leoka_submitting" : 1,
    "agency_count_pe_submitting" : 296,
    "agency_count_srs_submitting" : 296,
    "state_id" : 2,
    "state_abbr" : "AL",
    "csv_header" : "data_year,population,total_agency_count,published_agency_count,active_agency_count,covered_agency_count,population_covered,agency_count_nibrs_submitting,agency_count_leoka_submitting,agency_count_pe_submitting,agency_count_srs_submitting"
  }, {
    "data_year" : 2006,
    "population" : 4616525,
    "total_agency_count" : 225,
    "published_agency_count" : 225,
    "active_agency_count" : 225,
    "covered_agency_count" : 0,
    "population_covered" : 0,
    "agency_count_nibrs_submitting" : 1,
    "agency_count_leoka_submitting" : 1,
    "agency_count_pe_submitting" : 225,
    "agency_count_srs_submitting" : 225,
    "state_id" : 2,
    "state_abbr" : "AL",
    "csv_header" : "data_year,population,total_agency_count,published_agency_count,active_agency_count,covered_agency_count,population_covered,agency_count_nibrs_submitting,agency_count_leoka_submitting,agency_count_pe_submitting,agency_count_srs_submitting"
  }, {
    "data_year" : 2005,
    "population" : 4575157,
    "total_agency_count" : 267,
    "published_agency_count" : 267,
    "active_agency_count" : 267,
    "covered_agency_count" : 0,
    "population_covered" : 0,
    "agency_count_nibrs_submitting" : 0,
    "agency_count_leoka_submitting" : 0,
    "agency_count_pe_submitting" : 267,
    "agency_count_srs_submitting" : 267,
    "state_id" : 2,
    "state_abbr" : "AL",
    "csv_header" : "data_year,population,total_agency_count,published_agency_count,active_agency_count,covered_agency_count,population_covered,agency_count_nibrs_submitting,agency_count_leoka_submitting,agency_count_pe_submitting,agency_count_srs_submitting"
  }, {
    "data_year" : 2004,
    "population" : 4689646,
    "total_agency_count" : 315,
    "published_agency_count" : 315,
    "active_agency_count" : 315,
    "covered_agency_count" : 0,
    "population_covered" : 0,
    "agency_count_nibrs_submitting" : 0,
    "agency_count_leoka_submitting" : 0,
    "agency_count_pe_submitting" : 315,
    "agency_count_srs_submitting" : 315,
    "state_id" : 2,
    "state_abbr" : "AL",
    "csv_header" : "data_year,population,total_agency_count,published_agency_count,active_agency_count,covered_agency_count,population_covered,agency_count_nibrs_submitting,agency_count_leoka_submitting,agency_count_pe_submitting,agency_count_srs_submitting"
  }, {
    "data_year" : 2003,
    "population" : 4531274,
    "total_agency_count" : 306,
    "published_agency_count" : 306,
    "active_agency_count" : 306,
    "covered_agency_count" : 0,
    "population_covered" : 0,
    "agency_count_nibrs_submitting" : 0,
    "agency_count_leoka_submitting" : 0,
    "agency_count_pe_submitting" : 306,
    "agency_count_srs_submitting" : 306,
    "state_id" : 2,
    "state_abbr" : "AL",
    "csv_header" : "data_year,population,total_agency_count,published_agency_count,active_agency_count,covered_agency_count,population_covered,agency_count_nibrs_submitting,agency_count_leoka_submitting,agency_count_pe_submitting,agency_count_srs_submitting"
  }, {
    "data_year" : 2002,
    "population" : 4516995,
    "total_agency_count" : 269,
    "published_agency_count" : 269,
    "active_agency_count" : 269,
    "covered_agency_count" : 0,
    "population_covered" : 0,
    "agency_count_nibrs_submitting" : 0,
    "agency_count_leoka_submitting" : 0,
    "agency_count_pe_submitting" : 269,
    "agency_count_srs_submitting" : 269,
    "state_id" : 2,
    "state_abbr" : "AL",
    "csv_header" : "data_year,population,total_agency_count,published_agency_count,active_agency_count,covered_agency_count,population_covered,agency_count_nibrs_submitting,agency_count_leoka_submitting,agency_count_pe_submitting,agency_count_srs_submitting"
  }, {
    "data_year" : 2001,
    "population" : 4508647,
    "total_agency_count" : 266,
    "published_agency_count" : 266,
    "active_agency_count" : 266,
    "covered_agency_count" : 0,
    "population_covered" : 0,
    "agency_count_nibrs_submitting" : 0,
    "agency_count_leoka_submitting" : 0,
    "agency_count_pe_submitting" : 266,
    "agency_count_srs_submitting" : 266,
    "state_id" : 2,
    "state_abbr" : "AL",
    "csv_header" : "data_year,population,total_agency_count,published_agency_count,active_agency_count,covered_agency_count,population_covered,agency_count_nibrs_submitting,agency_count_leoka_submitting,agency_count_pe_submitting,agency_count_srs_submitting"
  }, {
    "data_year" : 2000,
    "population" : 4488050,
    "total_agency_count" : 218,
    "published_agency_count" : 218,
    "active_agency_count" : 218,
    "covered_agency_count" : 0,
    "population_covered" : 0,
    "agency_count_nibrs_submitting" : 0,
    "agency_count_leoka_submitting" : 0,
    "agency_count_pe_submitting" : 218,
    "agency_count_srs_submitting" : 218,
    "state_id" : 2,
    "state_abbr" : "AL",
    "csv_header" : "data_year,population,total_agency_count,published_agency_count,active_agency_count,covered_agency_count,population_covered,agency_count_nibrs_submitting,agency_count_leoka_submitting,agency_count_pe_submitting,agency_count_srs_submitting"
  } ],
  "pagination" : {
    "count" : 25,
    "page" : 0,
    "pages" : 2,
    "per_page" : 20
  }
}