{
  "results" : [ {
    "data_year" : 2019,
    "population" : 3021597,
    "total_agency_count" : 0,
    "published_agency_count" : 0,
    "active_agency_count" : 0,
    "covered_agency_count" : 0,
    "population_covered" : 0,
    "agency_count_nibrs_submitting" : 0,
    "agency_count_leoka_submitting" : 0,
    "agency_count_pe_submitting" : 0,
    "agency_count_srs_submitting" : 0,
    "state_id" : 3,
    "state_abbr" : "AR",
    "csv_header" : "data_year,population,total_agency_count,published_agency_count,active_agency_count,covered_agency_count,population_covered,agency_count_nibrs_submitting,agency_count_leoka_submitting,agency_count_pe_submitting,agency_count_srs_submitting"
  }, {
    "data_year" : 2018,
    "population" : 5383815,
    "total_agency_count" : 432,
    "published_agency_count" : 432,
    "active_agency_count" : 432,
    "covered_agency_count" : 0,
    "population_covered" : 0,
    "agency_count_nibrs_submitting" : 432,
    "agency_count_leoka_submitting" : 432,
    "agency_count_pe_submitting" : 432,
    "agency_count_srs_submitting" : 432,
    "state_id" : 3,
    "state_abbr" : "AR",
    "csv_header" : "data_year,population,total_agency_count,published_agency_count,active_agency_count,covered_agency_count,population_covered,agency_count_nibrs_submitting,agency_count_leoka_submitting,agency_count_pe_submitting,agency_count_srs_submitting"
  }, {
    "data_year" : 2017,
    "population" : 3021597,
    "total_agency_count" : 292,
    "published_agency_count" : 292,
    "active_agency_count" : 292,
    "covered_agency_count" : 0,
    "population_covered" : 0,
    "agency_count_nibrs_submitting" : 292,
    "agency_count_leoka_submitting" : 292,
    "agency_count_pe_submitting" : 292,
    "agency_count_srs_submitting" : 292,
    "state_id" : 3,
    "state_abbr" : "AR",
    "csv_header" : "data_year,population,total_agency_count,published_agency_count,active_agency_count,covered_agency_count,population_covered,agency_count_nibrs_submitting,agency_count_leoka_submitting,agency_count_pe_submitting,agency_count_srs_submitting"
  }, {
    "data_year" : 2016,
    "population" : 3064998,
    "total_agency_count" : 303,
    "published_agency_count" : 303,
    "active_agency_count" : 303,
    "covered_agency_count" : 0,
    "population_covered" : 0,
    "agency_count_nibrs_submitting" : 303,
    "agency_count_leoka_submitting" : 299,
    "agency_count_pe_submitting" : 303,
    "agency_count_srs_submitting" : 303,
    "state_id" : 3,
    "state_abbr" : "AR",
    "csv_header" : "data_year,population,total_agency_count,published_agency_count,active_agency_count,covered_agency_count,population_covered,agency_count_nibrs_submitting,agency_count_leoka_submitting,agency_count_pe_submitting,agency_count_srs_submitting"
  }, {
    "data_year" : 2015,
    "population" : 3131415,
    "total_agency_count" : 298,
    "published_agency_count" : 298,
    "active_agency_count" : 298,
    "covered_agency_count" : 0,
    "population_covered" : 0,
    "agency_count_nibrs_submitting" : 298,
    "agency_count_leoka_submitting" : 291,
    "agency_count_pe_submitting" : 298,
    "agency_count_srs_submitting" : 298,
    "state_id" : 3,
    "state_abbr" : "AR",
    "csv_header" : "data_year,population,total_agency_count,published_agency_count,active_agency_count,covered_agency_count,population_covered,agency_count_nibrs_submitting,agency_count_leoka_submitting,agency_count_pe_submitting,agency_count_srs_submitting"
  }, {
    "data_year" : 2014,
    "population" : 3119997,
    "total_agency_count" : 290,
    "published_agency_count" : 290,
    "active_agency_count" : 290,
    "covered_agency_count" : 0,
    "population_covered" : 0,
    "agency_count_nibrs_submitting" : 290,
    "agency_count_leoka_submitting" : 232,
    "agency_count_pe_submitting" : 290,
    "agency_count_srs_submitting" : 290,
    "state_id" : 3,
    "state_abbr" : "AR",
    "csv_header" : "data_year,population,total_agency_count,published_agency_count,active_agency_count,covered_agency_count,population_covered,agency_count_nibrs_submitting,agency_count_leoka_submitting,agency_count_pe_submitting,agency_count_srs_submitting"
  }, {
    "data_year" : 2013,
    "population" : 3171490,
    "total_agency_count" : 300,
    "published_agency_count" : 300,
    "active_agency_count" : 300,
    "covered_agency_count" : 0,
    "population_covered" : 0,
    "agency_count_nibrs_submitting" : 300,
    "agency_count_leoka_submitting" : 0,
    "agency_count_pe_submitting" : 300,
    "agency_count_srs_submitting" : 300,
    "state_id" : 3,
    "state_abbr" : "AR",
    "csv_header" : "data_year,population,total_agency_count,published_agency_count,active_agency_count,covered_agency_count,population_covered,agency_count_nibrs_submitting,agency_count_leoka_submitting,agency_count_pe_submitting,agency_count_srs_submitting"
  }, {
    "data_year" : 2012,
    "population" : 3353356,
    "total_agency_count" : 305,
    "published_agency_count" : 305,
    "active_agency_count" : 305,
    "covered_agency_count" : 0,
    "population_covered" : 0,
    "agency_count_nibrs_submitting" : 305,
    "agency_count_leoka_submitting" : 0,
    "agency_count_pe_submitting" : 305,
    "agency_count_srs_submitting" : 305,
    "state_id" : 3,
    "state_abbr" : "AR",
    "csv_header" : "data_year,population,total_agency_count,published_agency_count,active_agency_count,covered_agency_count,population_covered,agency_count_nibrs_submitting,agency_count_leoka_submitting,agency_count_pe_submitting,agency_count_srs_submitting"
  }, {
    "data_year" : 2011,
    "population" : 3133400,
    "total_agency_count" : 289,
    "published_agency_count" : 289,
    "active_agency_count" : 289,
    "covered_agency_count" : 0,
    "population_covered" : 0,
    "agency_count_nibrs_submitting" : 289,
    "agency_count_leoka_submitting" : 0,
    "agency_count_pe_submitting" : 289,
    "agency_count_srs_submitting" : 289,
    "state_id" : 3,
    "state_abbr" : "AR",
    "csv_header" : "data_year,population,total_agency_count,published_agency_count,active_agency_count,covered_agency_count,population_covered,agency_count_nibrs_submitting,agency_count_leoka_submitting,agency_count_pe_submitting,agency_count_srs_submitting"
  }, {
    "data_year" : 2010,
    "population" : 3244947,
    "total_agency_count" : 308,
    "published_agency_count" : 308,
    "active_agency_count" : 308,
    "covered_agency_count" : 0,
    "population_covered" : 0,
    "agency_count_nibrs_submitting" : 308,
    "agency_count_leoka_submitting" : 0,
    "agency_count_pe_submitting" : 308,
    "agency_count_srs_submitting" : 308,
    "state_id" : 3,
    "state_abbr" : "AR",
    "csv_header" : "data_year,population,total_agency_count,published_agency_count,active_agency_count,covered_agency_count,population_covered,agency_count_nibrs_submitting,agency_count_leoka_submitting,agency_count_pe_submitting,agency_count_srs_submitting"
  }, {
    "data_year" : 2009,
    "population" : 3011786,
    "total_agency_count" : 278,
    "published_agency_count" : 278,
    "active_agency_count" : 278,
    "covered_agency_count" : 0,
    "population_covered" : 0,
    "agency_count_nibrs_submitting" : 276,
    "agency_count_leoka_submitting" : 0,
    "agency_count_pe_submitting" : 278,
    "agency_count_srs_submitting" : 278,
    "state_id" : 3,
    "state_abbr" : "AR",
    "csv_header" : "data_year,population,total_agency_count,published_agency_count,active_agency_count,covered_agency_count,population_covered,agency_count_nibrs_submitting,agency_count_leoka_submitting,agency_count_pe_submitting,agency_count_srs_submitting"
  }, {
    "data_year" : 2008,
    "population" : 3045519,
    "total_agency_count" : 304,
    "published_agency_count" : 304,
    "active_agency_count" : 304,
    "covered_agency_count" : 0,
    "population_covered" : 0,
    "agency_count_nibrs_submitting" : 293,
    "agency_count_leoka_submitting" : 0,
    "agency_count_pe_submitting" : 304,
    "agency_count_srs_submitting" : 304,
    "state_id" : 3,
    "state_abbr" : "AR",
    "csv_header" : "data_year,population,total_agency_count,published_agency_count,active_agency_count,covered_agency_count,population_covered,agency_count_nibrs_submitting,agency_count_leoka_submitting,agency_count_pe_submitting,agency_count_srs_submitting"
  }, {
    "data_year" : 2007,
    "population" : 3061835,
    "total_agency_count" : 297,
    "published_agency_count" : 297,
    "active_agency_count" : 297,
    "covered_agency_count" : 0,
    "population_covered" : 0,
    "agency_count_nibrs_submitting" : 267,
    "agency_count_leoka_submitting" : 0,
    "agency_count_pe_submitting" : 297,
    "agency_count_srs_submitting" : 297,
    "state_id" : 3,
    "state_abbr" : "AR",
    "csv_header" : "data_year,population,total_agency_count,published_agency_count,active_agency_count,covered_agency_count,population_covered,agency_count_nibrs_submitting,agency_count_leoka_submitting,agency_count_pe_submitting,agency_count_srs_submitting"
  }, {
    "data_year" : 2006,
    "population" : 3181296,
    "total_agency_count" : 286,
    "published_agency_count" : 286,
    "active_agency_count" : 286,
    "covered_agency_count" : 0,
    "population_covered" : 0,
    "agency_count_nibrs_submitting" : 247,
    "agency_count_leoka_submitting" : 0,
    "agency_count_pe_submitting" : 286,
    "agency_count_srs_submitting" : 286,
    "state_id" : 3,
    "state_abbr" : "AR",
    "csv_header" : "data_year,population,total_agency_count,published_agency_count,active_agency_count,covered_agency_count,population_covered,agency_count_nibrs_submitting,agency_count_leoka_submitting,agency_count_pe_submitting,agency_count_srs_submitting"
  }, {
    "data_year" : 2005,
    "population" : 3325915,
    "total_agency_count" : 294,
    "published_agency_count" : 294,
    "active_agency_count" : 294,
    "covered_agency_count" : 0,
    "population_covered" : 0,
    "agency_count_nibrs_submitting" : 257,
    "agency_count_leoka_submitting" : 0,
    "agency_count_pe_submitting" : 294,
    "agency_count_srs_submitting" : 294,
    "state_id" : 3,
    "state_abbr" : "AR",
    "csv_header" : "data_year,population,total_agency_count,published_agency_count,active_agency_count,covered_agency_count,population_covered,agency_count_nibrs_submitting,agency_count_leoka_submitting,agency_count_pe_submitting,agency_count_srs_submitting"
  }, {
    "data_year" : 2004,
    "population" : 3312968,
    "total_agency_count" : 289,
    "published_agency_count" : 289,
    "active_agency_count" : 289,
    "covered_agency_count" : 0,
    "population_covered" : 0,
    "agency_count_nibrs_submitting" : 242,
    "agency_count_leoka_submitting" : 0,
    "agency_count_pe_submitting" : 289,
    "agency_count_srs_submitting" : 289,
    "state_id" : 3,
    "state_abbr" : "AR",
    "csv_header" : "data_year,population,total_agency_count,published_agency_count,active_agency_count,covered_agency_count,population_covered,agency_count_nibrs_submitting,agency_count_leoka_submitting,agency_count_pe_submitting,agency_count_srs_submitting"
  }, {
    "data_year" : 2003,
    "population" : 4420373,
    "total_agency_count" : 252,
    "published_agency_count" : 252,
    "active_agency_count" : 252,
    "covered_agency_count" : 0,
    "population_covered" : 0,
    "agency_count_nibrs_submitting" : 188,
    "agency_count_leoka_submitting" : 0,
    "agency_count_pe_submitting" : 252,
    "agency_count_srs_submitting" : 252,
    "state_id" : 3,
    "state_abbr" : "AR",
    "csv_header" : "data_year,population,total_agency_count,published_agency_count,active_agency_count,covered_agency_count,population_covered,agency_count_nibrs_submitting,agency_count_leoka_submitting,agency_count_pe_submitting,agency_count_srs_submitting"
  }, {
    "data_year" : 2002,
    "population" : 4150375,
    "total_agency_count" : 211,
    "published_agency_count" : 211,
    "active_agency_count" : 211,
    "covered_agency_count" : 0,
    "population_covered" : 0,
    "agency_count_nibrs_submitting" : 19,
    "agency_count_leoka_submitting" : 0,
    "agency_count_pe_submitting" : 211,
    "agency_count_srs_submitting" : 211,
    "state_id" : 3,
    "state_abbr" : "AR",
    "csv_header" : "data_year,population,total_agency_count,published_agency_count,active_agency_count,covered_agency_count,population_covered,agency_count_nibrs_submitting,agency_count_leoka_submitting,agency_count_pe_submitting,agency_count_srs_submitting"
  }, {
    "data_year" : 2001,
    "population" : 3387417,
    "total_agency_count" : 197,
    "published_agency_count" : 197,
    "active_agency_count" : 197,
    "covered_agency_count" : 0,
    "population_covered" : 0,
    "agency_count_nibrs_submitting" : 4,
    "agency_count_leoka_submitting" : 0,
    "agency_count_pe_submitting" : 197,
    "agency_count_srs_submitting" : 197,
    "state_id" : 3,
    "state_abbr" : "AR",
    "csv_header" : "data_year,population,total_agency_count,published_agency_count,active_agency_count,covered_agency_count,population_covered,agency_count_nibrs_submitting,agency_count_leoka_submitting,agency_count_pe_submitting,agency_count_srs_submitting"
  }, {
    "data_year" : 2000,
    "population" : 2934348,
    "total_agency_count" : 197,
    "published_agency_count" : 197,
    "active_agency_count" : 197,
    "covered_agency_count" : 0,
    "population_covered" : 0,
    "agency_count_nibrs_submitting" : 3,
    "agency_count_leoka_submitting" : 0,
    "agency_count_pe_submitting" : 197,
    "agency_count_srs_submitting" : 197,
    "state_id" : 3,
    "state_abbr" : "AR",
    "csv_header" : "data_year,population,total_agency_count,published_agency_count,active_agency_count,covered_agency_count,population_covered,agency_count_nibrs_submitting,agency_count_leoka_submitting,agency_count_pe_submitting,agency_count_srs_submitting"
  } ],
  "pagination" : {
    "count" : 25,
    "page" : 0,
    "pages" : 2,
    "per_page" : 20
  }
}