{
  "results" : [ {
    "data_year" : 2019,
    "population" : 7037119,
    "total_agency_count" : 0,
    "published_agency_count" : 0,
    "active_agency_count" : 0,
    "covered_agency_count" : 0,
    "population_covered" : 0,
    "agency_count_nibrs_submitting" : 0,
    "agency_count_leoka_submitting" : 0,
    "agency_count_pe_submitting" : 0,
    "agency_count_srs_submitting" : 0,
    "state_id" : 5,
    "state_abbr" : "AZ",
    "csv_header" : "data_year,population,total_agency_count,published_agency_count,active_agency_count,covered_agency_count,population_covered,agency_count_nibrs_submitting,agency_count_leoka_submitting,agency_count_pe_submitting,agency_count_srs_submitting"
  }, {
    "data_year" : 2018,
    "population" : 7380370,
    "total_agency_count" : 61,
    "published_agency_count" : 61,
    "active_agency_count" : 61,
    "covered_agency_count" : 0,
    "population_covered" : 0,
    "agency_count_nibrs_submitting" : 6,
    "agency_count_leoka_submitting" : 7,
    "agency_count_pe_submitting" : 61,
    "agency_count_srs_submitting" : 61,
    "state_id" : 5,
    "state_abbr" : "AZ",
    "csv_header" : "data_year,population,total_agency_count,published_agency_count,active_agency_count,covered_agency_count,population_covered,agency_count_nibrs_submitting,agency_count_leoka_submitting,agency_count_pe_submitting,agency_count_srs_submitting"
  }, {
    "data_year" : 2017,
    "population" : 7037119,
    "total_agency_count" : 113,
    "published_agency_count" : 113,
    "active_agency_count" : 113,
    "covered_agency_count" : 0,
    "population_covered" : 0,
    "agency_count_nibrs_submitting" : 5,
    "agency_count_leoka_submitting" : 8,
    "agency_count_pe_submitting" : 113,
    "agency_count_srs_submitting" : 113,
    "state_id" : 5,
    "state_abbr" : "AZ",
    "csv_header" : "data_year,population,total_agency_count,published_agency_count,active_agency_count,covered_agency_count,population_covered,agency_count_nibrs_submitting,agency_count_leoka_submitting,agency_count_pe_submitting,agency_count_srs_submitting"
  }, {
    "data_year" : 2016,
    "population" : 7090429,
    "total_agency_count" : 117,
    "published_agency_count" : 117,
    "active_agency_count" : 117,
    "covered_agency_count" : 0,
    "population_covered" : 0,
    "agency_count_nibrs_submitting" : 5,
    "agency_count_leoka_submitting" : 8,
    "agency_count_pe_submitting" : 117,
    "agency_count_srs_submitting" : 117,
    "state_id" : 5,
    "state_abbr" : "AZ",
    "csv_header" : "data_year,population,total_agency_count,published_agency_count,active_agency_count,covered_agency_count,population_covered,agency_count_nibrs_submitting,agency_count_leoka_submitting,agency_count_pe_submitting,agency_count_srs_submitting"
  }, {
    "data_year" : 2015,
    "population" : 6885540,
    "total_agency_count" : 115,
    "published_agency_count" : 115,
    "active_agency_count" : 115,
    "covered_agency_count" : 0,
    "population_covered" : 0,
    "agency_count_nibrs_submitting" : 6,
    "agency_count_leoka_submitting" : 7,
    "agency_count_pe_submitting" : 115,
    "agency_count_srs_submitting" : 115,
    "state_id" : 5,
    "state_abbr" : "AZ",
    "csv_header" : "data_year,population,total_agency_count,published_agency_count,active_agency_count,covered_agency_count,population_covered,agency_count_nibrs_submitting,agency_count_leoka_submitting,agency_count_pe_submitting,agency_count_srs_submitting"
  }, {
    "data_year" : 2014,
    "population" : 6767669,
    "total_agency_count" : 115,
    "published_agency_count" : 115,
    "active_agency_count" : 115,
    "covered_agency_count" : 0,
    "population_covered" : 0,
    "agency_count_nibrs_submitting" : 6,
    "agency_count_leoka_submitting" : 8,
    "agency_count_pe_submitting" : 115,
    "agency_count_srs_submitting" : 115,
    "state_id" : 5,
    "state_abbr" : "AZ",
    "csv_header" : "data_year,population,total_agency_count,published_agency_count,active_agency_count,covered_agency_count,population_covered,agency_count_nibrs_submitting,agency_count_leoka_submitting,agency_count_pe_submitting,agency_count_srs_submitting"
  }, {
    "data_year" : 2013,
    "population" : 6777259,
    "total_agency_count" : 113,
    "published_agency_count" : 113,
    "active_agency_count" : 113,
    "covered_agency_count" : 0,
    "population_covered" : 0,
    "agency_count_nibrs_submitting" : 5,
    "agency_count_leoka_submitting" : 8,
    "agency_count_pe_submitting" : 113,
    "agency_count_srs_submitting" : 113,
    "state_id" : 5,
    "state_abbr" : "AZ",
    "csv_header" : "data_year,population,total_agency_count,published_agency_count,active_agency_count,covered_agency_count,population_covered,agency_count_nibrs_submitting,agency_count_leoka_submitting,agency_count_pe_submitting,agency_count_srs_submitting"
  }, {
    "data_year" : 2012,
    "population" : 6681678,
    "total_agency_count" : 115,
    "published_agency_count" : 115,
    "active_agency_count" : 115,
    "covered_agency_count" : 0,
    "population_covered" : 0,
    "agency_count_nibrs_submitting" : 7,
    "agency_count_leoka_submitting" : 7,
    "agency_count_pe_submitting" : 115,
    "agency_count_srs_submitting" : 115,
    "state_id" : 5,
    "state_abbr" : "AZ",
    "csv_header" : "data_year,population,total_agency_count,published_agency_count,active_agency_count,covered_agency_count,population_covered,agency_count_nibrs_submitting,agency_count_leoka_submitting,agency_count_pe_submitting,agency_count_srs_submitting"
  }, {
    "data_year" : 2011,
    "population" : 6520940,
    "total_agency_count" : 116,
    "published_agency_count" : 116,
    "active_agency_count" : 116,
    "covered_agency_count" : 0,
    "population_covered" : 0,
    "agency_count_nibrs_submitting" : 4,
    "agency_count_leoka_submitting" : 8,
    "agency_count_pe_submitting" : 116,
    "agency_count_srs_submitting" : 116,
    "state_id" : 5,
    "state_abbr" : "AZ",
    "csv_header" : "data_year,population,total_agency_count,published_agency_count,active_agency_count,covered_agency_count,population_covered,agency_count_nibrs_submitting,agency_count_leoka_submitting,agency_count_pe_submitting,agency_count_srs_submitting"
  }, {
    "data_year" : 2010,
    "population" : 6643848,
    "total_agency_count" : 117,
    "published_agency_count" : 117,
    "active_agency_count" : 117,
    "covered_agency_count" : 0,
    "population_covered" : 0,
    "agency_count_nibrs_submitting" : 3,
    "agency_count_leoka_submitting" : 6,
    "agency_count_pe_submitting" : 117,
    "agency_count_srs_submitting" : 117,
    "state_id" : 5,
    "state_abbr" : "AZ",
    "csv_header" : "data_year,population,total_agency_count,published_agency_count,active_agency_count,covered_agency_count,population_covered,agency_count_nibrs_submitting,agency_count_leoka_submitting,agency_count_pe_submitting,agency_count_srs_submitting"
  }, {
    "data_year" : 2009,
    "population" : 6630821,
    "total_agency_count" : 117,
    "published_agency_count" : 117,
    "active_agency_count" : 117,
    "covered_agency_count" : 0,
    "population_covered" : 0,
    "agency_count_nibrs_submitting" : 3,
    "agency_count_leoka_submitting" : 6,
    "agency_count_pe_submitting" : 117,
    "agency_count_srs_submitting" : 117,
    "state_id" : 5,
    "state_abbr" : "AZ",
    "csv_header" : "data_year,population,total_agency_count,published_agency_count,active_agency_count,covered_agency_count,population_covered,agency_count_nibrs_submitting,agency_count_leoka_submitting,agency_count_pe_submitting,agency_count_srs_submitting"
  }, {
    "data_year" : 2008,
    "population" : 6748004,
    "total_agency_count" : 117,
    "published_agency_count" : 117,
    "active_agency_count" : 117,
    "covered_agency_count" : 0,
    "population_covered" : 0,
    "agency_count_nibrs_submitting" : 4,
    "agency_count_leoka_submitting" : 5,
    "agency_count_pe_submitting" : 117,
    "agency_count_srs_submitting" : 117,
    "state_id" : 5,
    "state_abbr" : "AZ",
    "csv_header" : "data_year,population,total_agency_count,published_agency_count,active_agency_count,covered_agency_count,population_covered,agency_count_nibrs_submitting,agency_count_leoka_submitting,agency_count_pe_submitting,agency_count_srs_submitting"
  }, {
    "data_year" : 2007,
    "population" : 6614301,
    "total_agency_count" : 114,
    "published_agency_count" : 114,
    "active_agency_count" : 114,
    "covered_agency_count" : 0,
    "population_covered" : 0,
    "agency_count_nibrs_submitting" : 2,
    "agency_count_leoka_submitting" : 5,
    "agency_count_pe_submitting" : 114,
    "agency_count_srs_submitting" : 114,
    "state_id" : 5,
    "state_abbr" : "AZ",
    "csv_header" : "data_year,population,total_agency_count,published_agency_count,active_agency_count,covered_agency_count,population_covered,agency_count_nibrs_submitting,agency_count_leoka_submitting,agency_count_pe_submitting,agency_count_srs_submitting"
  }, {
    "data_year" : 2006,
    "population" : 6450151,
    "total_agency_count" : 119,
    "published_agency_count" : 119,
    "active_agency_count" : 119,
    "covered_agency_count" : 0,
    "population_covered" : 0,
    "agency_count_nibrs_submitting" : 3,
    "agency_count_leoka_submitting" : 6,
    "agency_count_pe_submitting" : 119,
    "agency_count_srs_submitting" : 119,
    "state_id" : 5,
    "state_abbr" : "AZ",
    "csv_header" : "data_year,population,total_agency_count,published_agency_count,active_agency_count,covered_agency_count,population_covered,agency_count_nibrs_submitting,agency_count_leoka_submitting,agency_count_pe_submitting,agency_count_srs_submitting"
  }, {
    "data_year" : 2005,
    "population" : 6409755,
    "total_agency_count" : 95,
    "published_agency_count" : 95,
    "active_agency_count" : 95,
    "covered_agency_count" : 0,
    "population_covered" : 0,
    "agency_count_nibrs_submitting" : 1,
    "agency_count_leoka_submitting" : 5,
    "agency_count_pe_submitting" : 95,
    "agency_count_srs_submitting" : 95,
    "state_id" : 5,
    "state_abbr" : "AZ",
    "csv_header" : "data_year,population,total_agency_count,published_agency_count,active_agency_count,covered_agency_count,population_covered,agency_count_nibrs_submitting,agency_count_leoka_submitting,agency_count_pe_submitting,agency_count_srs_submitting"
  }, {
    "data_year" : 2004,
    "population" : 6044315,
    "total_agency_count" : 93,
    "published_agency_count" : 93,
    "active_agency_count" : 93,
    "covered_agency_count" : 0,
    "population_covered" : 0,
    "agency_count_nibrs_submitting" : 1,
    "agency_count_leoka_submitting" : 3,
    "agency_count_pe_submitting" : 93,
    "agency_count_srs_submitting" : 93,
    "state_id" : 5,
    "state_abbr" : "AZ",
    "csv_header" : "data_year,population,total_agency_count,published_agency_count,active_agency_count,covered_agency_count,population_covered,agency_count_nibrs_submitting,agency_count_leoka_submitting,agency_count_pe_submitting,agency_count_srs_submitting"
  }, {
    "data_year" : 2003,
    "population" : 5746332,
    "total_agency_count" : 99,
    "published_agency_count" : 99,
    "active_agency_count" : 99,
    "covered_agency_count" : 0,
    "population_covered" : 0,
    "agency_count_nibrs_submitting" : 0,
    "agency_count_leoka_submitting" : 0,
    "agency_count_pe_submitting" : 99,
    "agency_count_srs_submitting" : 99,
    "state_id" : 5,
    "state_abbr" : "AZ",
    "csv_header" : "data_year,population,total_agency_count,published_agency_count,active_agency_count,covered_agency_count,population_covered,agency_count_nibrs_submitting,agency_count_leoka_submitting,agency_count_pe_submitting,agency_count_srs_submitting"
  }, {
    "data_year" : 2002,
    "population" : 5599140,
    "total_agency_count" : 97,
    "published_agency_count" : 97,
    "active_agency_count" : 97,
    "covered_agency_count" : 0,
    "population_covered" : 0,
    "agency_count_nibrs_submitting" : 0,
    "agency_count_leoka_submitting" : 0,
    "agency_count_pe_submitting" : 97,
    "agency_count_srs_submitting" : 97,
    "state_id" : 5,
    "state_abbr" : "AZ",
    "csv_header" : "data_year,population,total_agency_count,published_agency_count,active_agency_count,covered_agency_count,population_covered,agency_count_nibrs_submitting,agency_count_leoka_submitting,agency_count_pe_submitting,agency_count_srs_submitting"
  }, {
    "data_year" : 2001,
    "population" : 5451960,
    "total_agency_count" : 101,
    "published_agency_count" : 101,
    "active_agency_count" : 101,
    "covered_agency_count" : 0,
    "population_covered" : 0,
    "agency_count_nibrs_submitting" : 0,
    "agency_count_leoka_submitting" : 0,
    "agency_count_pe_submitting" : 101,
    "agency_count_srs_submitting" : 101,
    "state_id" : 5,
    "state_abbr" : "AZ",
    "csv_header" : "data_year,population,total_agency_count,published_agency_count,active_agency_count,covered_agency_count,population_covered,agency_count_nibrs_submitting,agency_count_leoka_submitting,agency_count_pe_submitting,agency_count_srs_submitting"
  }, {
    "data_year" : 2000,
    "population" : 5248863,
    "total_agency_count" : 99,
    "published_agency_count" : 99,
    "active_agency_count" : 99,
    "covered_agency_count" : 0,
    "population_covered" : 0,
    "agency_count_nibrs_submitting" : 0,
    "agency_count_leoka_submitting" : 0,
    "agency_count_pe_submitting" : 99,
    "agency_count_srs_submitting" : 99,
    "state_id" : 5,
    "state_abbr" : "AZ",
    "csv_header" : "data_year,population,total_agency_count,published_agency_count,active_agency_count,covered_agency_count,population_covered,agency_count_nibrs_submitting,agency_count_leoka_submitting,agency_count_pe_submitting,agency_count_srs_submitting"
  } ],
  "pagination" : {
    "count" : 25,
    "page" : 0,
    "pages" : 2,
    "per_page" : 20
  }
}