{
  "results" : [ {
    "data_year" : 2019,
    "population" : 5661236,
    "total_agency_count" : 0,
    "published_agency_count" : 0,
    "active_agency_count" : 0,
    "covered_agency_count" : 0,
    "population_covered" : 0,
    "agency_count_nibrs_submitting" : 0,
    "agency_count_leoka_submitting" : 0,
    "agency_count_pe_submitting" : 0,
    "agency_count_srs_submitting" : 0,
    "state_id" : 7,
    "state_abbr" : "CO",
    "csv_header" : "data_year,population,total_agency_count,published_agency_count,active_agency_count,covered_agency_count,population_covered,agency_count_nibrs_submitting,agency_count_leoka_submitting,agency_count_pe_submitting,agency_count_srs_submitting"
  }, {
    "data_year" : 2018,
    "population" : 11026437,
    "total_agency_count" : 392,
    "published_agency_count" : 392,
    "active_agency_count" : 392,
    "covered_agency_count" : 0,
    "population_covered" : 0,
    "agency_count_nibrs_submitting" : 392,
    "agency_count_leoka_submitting" : 392,
    "agency_count_pe_submitting" : 392,
    "agency_count_srs_submitting" : 392,
    "state_id" : 7,
    "state_abbr" : "CO",
    "csv_header" : "data_year,population,total_agency_count,published_agency_count,active_agency_count,covered_agency_count,population_covered,agency_count_nibrs_submitting,agency_count_leoka_submitting,agency_count_pe_submitting,agency_count_srs_submitting"
  }, {
    "data_year" : 2017,
    "population" : 5661529,
    "total_agency_count" : 223,
    "published_agency_count" : 223,
    "active_agency_count" : 223,
    "covered_agency_count" : 0,
    "population_covered" : 0,
    "agency_count_nibrs_submitting" : 221,
    "agency_count_leoka_submitting" : 221,
    "agency_count_pe_submitting" : 223,
    "agency_count_srs_submitting" : 223,
    "state_id" : 7,
    "state_abbr" : "CO",
    "csv_header" : "data_year,population,total_agency_count,published_agency_count,active_agency_count,covered_agency_count,population_covered,agency_count_nibrs_submitting,agency_count_leoka_submitting,agency_count_pe_submitting,agency_count_srs_submitting"
  }, {
    "data_year" : 2016,
    "population" : 5915026,
    "total_agency_count" : 251,
    "published_agency_count" : 251,
    "active_agency_count" : 251,
    "covered_agency_count" : 0,
    "population_covered" : 0,
    "agency_count_nibrs_submitting" : 249,
    "agency_count_leoka_submitting" : 249,
    "agency_count_pe_submitting" : 251,
    "agency_count_srs_submitting" : 251,
    "state_id" : 7,
    "state_abbr" : "CO",
    "csv_header" : "data_year,population,total_agency_count,published_agency_count,active_agency_count,covered_agency_count,population_covered,agency_count_nibrs_submitting,agency_count_leoka_submitting,agency_count_pe_submitting,agency_count_srs_submitting"
  }, {
    "data_year" : 2015,
    "population" : 5831521,
    "total_agency_count" : 269,
    "published_agency_count" : 269,
    "active_agency_count" : 269,
    "covered_agency_count" : 0,
    "population_covered" : 0,
    "agency_count_nibrs_submitting" : 267,
    "agency_count_leoka_submitting" : 267,
    "agency_count_pe_submitting" : 269,
    "agency_count_srs_submitting" : 269,
    "state_id" : 7,
    "state_abbr" : "CO",
    "csv_header" : "data_year,population,total_agency_count,published_agency_count,active_agency_count,covered_agency_count,population_covered,agency_count_nibrs_submitting,agency_count_leoka_submitting,agency_count_pe_submitting,agency_count_srs_submitting"
  }, {
    "data_year" : 2014,
    "population" : 5630858,
    "total_agency_count" : 255,
    "published_agency_count" : 255,
    "active_agency_count" : 255,
    "covered_agency_count" : 0,
    "population_covered" : 0,
    "agency_count_nibrs_submitting" : 253,
    "agency_count_leoka_submitting" : 245,
    "agency_count_pe_submitting" : 255,
    "agency_count_srs_submitting" : 255,
    "state_id" : 7,
    "state_abbr" : "CO",
    "csv_header" : "data_year,population,total_agency_count,published_agency_count,active_agency_count,covered_agency_count,population_covered,agency_count_nibrs_submitting,agency_count_leoka_submitting,agency_count_pe_submitting,agency_count_srs_submitting"
  }, {
    "data_year" : 2013,
    "population" : 5460630,
    "total_agency_count" : 245,
    "published_agency_count" : 245,
    "active_agency_count" : 245,
    "covered_agency_count" : 0,
    "population_covered" : 0,
    "agency_count_nibrs_submitting" : 243,
    "agency_count_leoka_submitting" : 242,
    "agency_count_pe_submitting" : 245,
    "agency_count_srs_submitting" : 245,
    "state_id" : 7,
    "state_abbr" : "CO",
    "csv_header" : "data_year,population,total_agency_count,published_agency_count,active_agency_count,covered_agency_count,population_covered,agency_count_nibrs_submitting,agency_count_leoka_submitting,agency_count_pe_submitting,agency_count_srs_submitting"
  }, {
    "data_year" : 2012,
    "population" : 5498748,
    "total_agency_count" : 251,
    "published_agency_count" : 251,
    "active_agency_count" : 251,
    "covered_agency_count" : 0,
    "population_covered" : 0,
    "agency_count_nibrs_submitting" : 248,
    "agency_count_leoka_submitting" : 235,
    "agency_count_pe_submitting" : 251,
    "agency_count_srs_submitting" : 251,
    "state_id" : 7,
    "state_abbr" : "CO",
    "csv_header" : "data_year,population,total_agency_count,published_agency_count,active_agency_count,covered_agency_count,population_covered,agency_count_nibrs_submitting,agency_count_leoka_submitting,agency_count_pe_submitting,agency_count_srs_submitting"
  }, {
    "data_year" : 2011,
    "population" : 5480305,
    "total_agency_count" : 254,
    "published_agency_count" : 254,
    "active_agency_count" : 254,
    "covered_agency_count" : 0,
    "population_covered" : 0,
    "agency_count_nibrs_submitting" : 221,
    "agency_count_leoka_submitting" : 201,
    "agency_count_pe_submitting" : 254,
    "agency_count_srs_submitting" : 254,
    "state_id" : 7,
    "state_abbr" : "CO",
    "csv_header" : "data_year,population,total_agency_count,published_agency_count,active_agency_count,covered_agency_count,population_covered,agency_count_nibrs_submitting,agency_count_leoka_submitting,agency_count_pe_submitting,agency_count_srs_submitting"
  }, {
    "data_year" : 2010,
    "population" : 5508107,
    "total_agency_count" : 255,
    "published_agency_count" : 255,
    "active_agency_count" : 255,
    "covered_agency_count" : 0,
    "population_covered" : 0,
    "agency_count_nibrs_submitting" : 216,
    "agency_count_leoka_submitting" : 203,
    "agency_count_pe_submitting" : 255,
    "agency_count_srs_submitting" : 255,
    "state_id" : 7,
    "state_abbr" : "CO",
    "csv_header" : "data_year,population,total_agency_count,published_agency_count,active_agency_count,covered_agency_count,population_covered,agency_count_nibrs_submitting,agency_count_leoka_submitting,agency_count_pe_submitting,agency_count_srs_submitting"
  }, {
    "data_year" : 2009,
    "population" : 5226268,
    "total_agency_count" : 233,
    "published_agency_count" : 233,
    "active_agency_count" : 233,
    "covered_agency_count" : 0,
    "population_covered" : 0,
    "agency_count_nibrs_submitting" : 191,
    "agency_count_leoka_submitting" : 169,
    "agency_count_pe_submitting" : 233,
    "agency_count_srs_submitting" : 233,
    "state_id" : 7,
    "state_abbr" : "CO",
    "csv_header" : "data_year,population,total_agency_count,published_agency_count,active_agency_count,covered_agency_count,population_covered,agency_count_nibrs_submitting,agency_count_leoka_submitting,agency_count_pe_submitting,agency_count_srs_submitting"
  }, {
    "data_year" : 2008,
    "population" : 5272577,
    "total_agency_count" : 235,
    "published_agency_count" : 235,
    "active_agency_count" : 235,
    "covered_agency_count" : 0,
    "population_covered" : 0,
    "agency_count_nibrs_submitting" : 193,
    "agency_count_leoka_submitting" : 178,
    "agency_count_pe_submitting" : 235,
    "agency_count_srs_submitting" : 235,
    "state_id" : 7,
    "state_abbr" : "CO",
    "csv_header" : "data_year,population,total_agency_count,published_agency_count,active_agency_count,covered_agency_count,population_covered,agency_count_nibrs_submitting,agency_count_leoka_submitting,agency_count_pe_submitting,agency_count_srs_submitting"
  }, {
    "data_year" : 2007,
    "population" : 5058043,
    "total_agency_count" : 233,
    "published_agency_count" : 233,
    "active_agency_count" : 233,
    "covered_agency_count" : 0,
    "population_covered" : 0,
    "agency_count_nibrs_submitting" : 189,
    "agency_count_leoka_submitting" : 173,
    "agency_count_pe_submitting" : 233,
    "agency_count_srs_submitting" : 233,
    "state_id" : 7,
    "state_abbr" : "CO",
    "csv_header" : "data_year,population,total_agency_count,published_agency_count,active_agency_count,covered_agency_count,population_covered,agency_count_nibrs_submitting,agency_count_leoka_submitting,agency_count_pe_submitting,agency_count_srs_submitting"
  }, {
    "data_year" : 2006,
    "population" : 4908722,
    "total_agency_count" : 243,
    "published_agency_count" : 243,
    "active_agency_count" : 243,
    "covered_agency_count" : 0,
    "population_covered" : 0,
    "agency_count_nibrs_submitting" : 195,
    "agency_count_leoka_submitting" : 178,
    "agency_count_pe_submitting" : 243,
    "agency_count_srs_submitting" : 243,
    "state_id" : 7,
    "state_abbr" : "CO",
    "csv_header" : "data_year,population,total_agency_count,published_agency_count,active_agency_count,covered_agency_count,population_covered,agency_count_nibrs_submitting,agency_count_leoka_submitting,agency_count_pe_submitting,agency_count_srs_submitting"
  }, {
    "data_year" : 2005,
    "population" : 4814561,
    "total_agency_count" : 224,
    "published_agency_count" : 224,
    "active_agency_count" : 224,
    "covered_agency_count" : 0,
    "population_covered" : 0,
    "agency_count_nibrs_submitting" : 185,
    "agency_count_leoka_submitting" : 161,
    "agency_count_pe_submitting" : 224,
    "agency_count_srs_submitting" : 224,
    "state_id" : 7,
    "state_abbr" : "CO",
    "csv_header" : "data_year,population,total_agency_count,published_agency_count,active_agency_count,covered_agency_count,population_covered,agency_count_nibrs_submitting,agency_count_leoka_submitting,agency_count_pe_submitting,agency_count_srs_submitting"
  }, {
    "data_year" : 2004,
    "population" : 5057138,
    "total_agency_count" : 220,
    "published_agency_count" : 220,
    "active_agency_count" : 220,
    "covered_agency_count" : 0,
    "population_covered" : 0,
    "agency_count_nibrs_submitting" : 171,
    "agency_count_leoka_submitting" : 152,
    "agency_count_pe_submitting" : 220,
    "agency_count_srs_submitting" : 220,
    "state_id" : 7,
    "state_abbr" : "CO",
    "csv_header" : "data_year,population,total_agency_count,published_agency_count,active_agency_count,covered_agency_count,population_covered,agency_count_nibrs_submitting,agency_count_leoka_submitting,agency_count_pe_submitting,agency_count_srs_submitting"
  }, {
    "data_year" : 2003,
    "population" : 5142626,
    "total_agency_count" : 212,
    "published_agency_count" : 212,
    "active_agency_count" : 212,
    "covered_agency_count" : 0,
    "population_covered" : 0,
    "agency_count_nibrs_submitting" : 163,
    "agency_count_leoka_submitting" : 140,
    "agency_count_pe_submitting" : 212,
    "agency_count_srs_submitting" : 212,
    "state_id" : 7,
    "state_abbr" : "CO",
    "csv_header" : "data_year,population,total_agency_count,published_agency_count,active_agency_count,covered_agency_count,population_covered,agency_count_nibrs_submitting,agency_count_leoka_submitting,agency_count_pe_submitting,agency_count_srs_submitting"
  }, {
    "data_year" : 2002,
    "population" : 4926932,
    "total_agency_count" : 213,
    "published_agency_count" : 213,
    "active_agency_count" : 213,
    "covered_agency_count" : 0,
    "population_covered" : 0,
    "agency_count_nibrs_submitting" : 165,
    "agency_count_leoka_submitting" : 0,
    "agency_count_pe_submitting" : 213,
    "agency_count_srs_submitting" : 213,
    "state_id" : 7,
    "state_abbr" : "CO",
    "csv_header" : "data_year,population,total_agency_count,published_agency_count,active_agency_count,covered_agency_count,population_covered,agency_count_nibrs_submitting,agency_count_leoka_submitting,agency_count_pe_submitting,agency_count_srs_submitting"
  }, {
    "data_year" : 2001,
    "population" : 5412707,
    "total_agency_count" : 229,
    "published_agency_count" : 229,
    "active_agency_count" : 229,
    "covered_agency_count" : 0,
    "population_covered" : 0,
    "agency_count_nibrs_submitting" : 179,
    "agency_count_leoka_submitting" : 0,
    "agency_count_pe_submitting" : 229,
    "agency_count_srs_submitting" : 229,
    "state_id" : 7,
    "state_abbr" : "CO",
    "csv_header" : "data_year,population,total_agency_count,published_agency_count,active_agency_count,covered_agency_count,population_covered,agency_count_nibrs_submitting,agency_count_leoka_submitting,agency_count_pe_submitting,agency_count_srs_submitting"
  }, {
    "data_year" : 2000,
    "population" : 5445709,
    "total_agency_count" : 239,
    "published_agency_count" : 239,
    "active_agency_count" : 239,
    "covered_agency_count" : 0,
    "population_covered" : 0,
    "agency_count_nibrs_submitting" : 177,
    "agency_count_leoka_submitting" : 0,
    "agency_count_pe_submitting" : 239,
    "agency_count_srs_submitting" : 239,
    "state_id" : 7,
    "state_abbr" : "CO",
    "csv_header" : "data_year,population,total_agency_count,published_agency_count,active_agency_count,covered_agency_count,population_covered,agency_count_nibrs_submitting,agency_count_leoka_submitting,agency_count_pe_submitting,agency_count_srs_submitting"
  } ],
  "pagination" : {
    "count" : 25,
    "page" : 0,
    "pages" : 2,
    "per_page" : 20
  }
}