{
  "results" : [ {
    "data_year" : 2019,
    "population" : 3645220,
    "total_agency_count" : 0,
    "published_agency_count" : 0,
    "active_agency_count" : 0,
    "covered_agency_count" : 0,
    "population_covered" : 0,
    "agency_count_nibrs_submitting" : 0,
    "agency_count_leoka_submitting" : 0,
    "agency_count_pe_submitting" : 0,
    "agency_count_srs_submitting" : 0,
    "state_id" : 8,
    "state_abbr" : "CT",
    "csv_header" : "data_year,population,total_agency_count,published_agency_count,active_agency_count,covered_agency_count,population_covered,agency_count_nibrs_submitting,agency_count_leoka_submitting,agency_count_pe_submitting,agency_count_srs_submitting"
  }, {
    "data_year" : 2018,
    "population" : 6505962,
    "total_agency_count" : 191,
    "published_agency_count" : 191,
    "active_agency_count" : 191,
    "covered_agency_count" : 0,
    "population_covered" : 0,
    "agency_count_nibrs_submitting" : 179,
    "agency_count_leoka_submitting" : 3,
    "agency_count_pe_submitting" : 191,
    "agency_count_srs_submitting" : 191,
    "state_id" : 8,
    "state_abbr" : "CT",
    "csv_header" : "data_year,population,total_agency_count,published_agency_count,active_agency_count,covered_agency_count,population_covered,agency_count_nibrs_submitting,agency_count_leoka_submitting,agency_count_pe_submitting,agency_count_srs_submitting"
  }, {
    "data_year" : 2017,
    "population" : 3645220,
    "total_agency_count" : 107,
    "published_agency_count" : 107,
    "active_agency_count" : 107,
    "covered_agency_count" : 0,
    "population_covered" : 0,
    "agency_count_nibrs_submitting" : 94,
    "agency_count_leoka_submitting" : 2,
    "agency_count_pe_submitting" : 107,
    "agency_count_srs_submitting" : 107,
    "state_id" : 8,
    "state_abbr" : "CT",
    "csv_header" : "data_year,population,total_agency_count,published_agency_count,active_agency_count,covered_agency_count,population_covered,agency_count_nibrs_submitting,agency_count_leoka_submitting,agency_count_pe_submitting,agency_count_srs_submitting"
  }, {
    "data_year" : 2016,
    "population" : 3837385,
    "total_agency_count" : 109,
    "published_agency_count" : 109,
    "active_agency_count" : 109,
    "covered_agency_count" : 0,
    "population_covered" : 0,
    "agency_count_nibrs_submitting" : 93,
    "agency_count_leoka_submitting" : 2,
    "agency_count_pe_submitting" : 109,
    "agency_count_srs_submitting" : 109,
    "state_id" : 8,
    "state_abbr" : "CT",
    "csv_header" : "data_year,population,total_agency_count,published_agency_count,active_agency_count,covered_agency_count,population_covered,agency_count_nibrs_submitting,agency_count_leoka_submitting,agency_count_pe_submitting,agency_count_srs_submitting"
  }, {
    "data_year" : 2015,
    "population" : 3703110,
    "total_agency_count" : 105,
    "published_agency_count" : 105,
    "active_agency_count" : 105,
    "covered_agency_count" : 0,
    "population_covered" : 0,
    "agency_count_nibrs_submitting" : 86,
    "agency_count_leoka_submitting" : 2,
    "agency_count_pe_submitting" : 105,
    "agency_count_srs_submitting" : 105,
    "state_id" : 8,
    "state_abbr" : "CT",
    "csv_header" : "data_year,population,total_agency_count,published_agency_count,active_agency_count,covered_agency_count,population_covered,agency_count_nibrs_submitting,agency_count_leoka_submitting,agency_count_pe_submitting,agency_count_srs_submitting"
  }, {
    "data_year" : 2014,
    "population" : 3772833,
    "total_agency_count" : 105,
    "published_agency_count" : 105,
    "active_agency_count" : 105,
    "covered_agency_count" : 0,
    "population_covered" : 0,
    "agency_count_nibrs_submitting" : 84,
    "agency_count_leoka_submitting" : 2,
    "agency_count_pe_submitting" : 105,
    "agency_count_srs_submitting" : 105,
    "state_id" : 8,
    "state_abbr" : "CT",
    "csv_header" : "data_year,population,total_agency_count,published_agency_count,active_agency_count,covered_agency_count,population_covered,agency_count_nibrs_submitting,agency_count_leoka_submitting,agency_count_pe_submitting,agency_count_srs_submitting"
  }, {
    "data_year" : 2013,
    "population" : 3687931,
    "total_agency_count" : 104,
    "published_agency_count" : 104,
    "active_agency_count" : 104,
    "covered_agency_count" : 0,
    "population_covered" : 0,
    "agency_count_nibrs_submitting" : 82,
    "agency_count_leoka_submitting" : 2,
    "agency_count_pe_submitting" : 104,
    "agency_count_srs_submitting" : 104,
    "state_id" : 8,
    "state_abbr" : "CT",
    "csv_header" : "data_year,population,total_agency_count,published_agency_count,active_agency_count,covered_agency_count,population_covered,agency_count_nibrs_submitting,agency_count_leoka_submitting,agency_count_pe_submitting,agency_count_srs_submitting"
  }, {
    "data_year" : 2012,
    "population" : 3702874,
    "total_agency_count" : 106,
    "published_agency_count" : 106,
    "active_agency_count" : 106,
    "covered_agency_count" : 0,
    "population_covered" : 0,
    "agency_count_nibrs_submitting" : 84,
    "agency_count_leoka_submitting" : 2,
    "agency_count_pe_submitting" : 106,
    "agency_count_srs_submitting" : 106,
    "state_id" : 8,
    "state_abbr" : "CT",
    "csv_header" : "data_year,population,total_agency_count,published_agency_count,active_agency_count,covered_agency_count,population_covered,agency_count_nibrs_submitting,agency_count_leoka_submitting,agency_count_pe_submitting,agency_count_srs_submitting"
  }, {
    "data_year" : 2011,
    "population" : 3672721,
    "total_agency_count" : 104,
    "published_agency_count" : 104,
    "active_agency_count" : 104,
    "covered_agency_count" : 0,
    "population_covered" : 0,
    "agency_count_nibrs_submitting" : 80,
    "agency_count_leoka_submitting" : 2,
    "agency_count_pe_submitting" : 104,
    "agency_count_srs_submitting" : 104,
    "state_id" : 8,
    "state_abbr" : "CT",
    "csv_header" : "data_year,population,total_agency_count,published_agency_count,active_agency_count,covered_agency_count,population_covered,agency_count_nibrs_submitting,agency_count_leoka_submitting,agency_count_pe_submitting,agency_count_srs_submitting"
  }, {
    "data_year" : 2010,
    "population" : 3694281,
    "total_agency_count" : 106,
    "published_agency_count" : 106,
    "active_agency_count" : 106,
    "covered_agency_count" : 0,
    "population_covered" : 0,
    "agency_count_nibrs_submitting" : 81,
    "agency_count_leoka_submitting" : 2,
    "agency_count_pe_submitting" : 106,
    "agency_count_srs_submitting" : 106,
    "state_id" : 8,
    "state_abbr" : "CT",
    "csv_header" : "data_year,population,total_agency_count,published_agency_count,active_agency_count,covered_agency_count,population_covered,agency_count_nibrs_submitting,agency_count_leoka_submitting,agency_count_pe_submitting,agency_count_srs_submitting"
  }, {
    "data_year" : 2009,
    "population" : 3609641,
    "total_agency_count" : 105,
    "published_agency_count" : 105,
    "active_agency_count" : 105,
    "covered_agency_count" : 0,
    "population_covered" : 0,
    "agency_count_nibrs_submitting" : 78,
    "agency_count_leoka_submitting" : 2,
    "agency_count_pe_submitting" : 105,
    "agency_count_srs_submitting" : 105,
    "state_id" : 8,
    "state_abbr" : "CT",
    "csv_header" : "data_year,population,total_agency_count,published_agency_count,active_agency_count,covered_agency_count,population_covered,agency_count_nibrs_submitting,agency_count_leoka_submitting,agency_count_pe_submitting,agency_count_srs_submitting"
  }, {
    "data_year" : 2008,
    "population" : 3640379,
    "total_agency_count" : 106,
    "published_agency_count" : 106,
    "active_agency_count" : 106,
    "covered_agency_count" : 0,
    "population_covered" : 0,
    "agency_count_nibrs_submitting" : 77,
    "agency_count_leoka_submitting" : 2,
    "agency_count_pe_submitting" : 106,
    "agency_count_srs_submitting" : 106,
    "state_id" : 8,
    "state_abbr" : "CT",
    "csv_header" : "data_year,population,total_agency_count,published_agency_count,active_agency_count,covered_agency_count,population_covered,agency_count_nibrs_submitting,agency_count_leoka_submitting,agency_count_pe_submitting,agency_count_srs_submitting"
  }, {
    "data_year" : 2007,
    "population" : 3817352,
    "total_agency_count" : 108,
    "published_agency_count" : 108,
    "active_agency_count" : 108,
    "covered_agency_count" : 0,
    "population_covered" : 0,
    "agency_count_nibrs_submitting" : 77,
    "agency_count_leoka_submitting" : 3,
    "agency_count_pe_submitting" : 108,
    "agency_count_srs_submitting" : 108,
    "state_id" : 8,
    "state_abbr" : "CT",
    "csv_header" : "data_year,population,total_agency_count,published_agency_count,active_agency_count,covered_agency_count,population_covered,agency_count_nibrs_submitting,agency_count_leoka_submitting,agency_count_pe_submitting,agency_count_srs_submitting"
  }, {
    "data_year" : 2006,
    "population" : 3764006,
    "total_agency_count" : 108,
    "published_agency_count" : 108,
    "active_agency_count" : 108,
    "covered_agency_count" : 0,
    "population_covered" : 0,
    "agency_count_nibrs_submitting" : 76,
    "agency_count_leoka_submitting" : 2,
    "agency_count_pe_submitting" : 108,
    "agency_count_srs_submitting" : 108,
    "state_id" : 8,
    "state_abbr" : "CT",
    "csv_header" : "data_year,population,total_agency_count,published_agency_count,active_agency_count,covered_agency_count,population_covered,agency_count_nibrs_submitting,agency_count_leoka_submitting,agency_count_pe_submitting,agency_count_srs_submitting"
  }, {
    "data_year" : 2005,
    "population" : 4061364,
    "total_agency_count" : 106,
    "published_agency_count" : 106,
    "active_agency_count" : 106,
    "covered_agency_count" : 0,
    "population_covered" : 0,
    "agency_count_nibrs_submitting" : 74,
    "agency_count_leoka_submitting" : 2,
    "agency_count_pe_submitting" : 106,
    "agency_count_srs_submitting" : 106,
    "state_id" : 8,
    "state_abbr" : "CT",
    "csv_header" : "data_year,population,total_agency_count,published_agency_count,active_agency_count,covered_agency_count,population_covered,agency_count_nibrs_submitting,agency_count_leoka_submitting,agency_count_pe_submitting,agency_count_srs_submitting"
  }, {
    "data_year" : 2004,
    "population" : 4083112,
    "total_agency_count" : 106,
    "published_agency_count" : 106,
    "active_agency_count" : 106,
    "covered_agency_count" : 0,
    "population_covered" : 0,
    "agency_count_nibrs_submitting" : 68,
    "agency_count_leoka_submitting" : 0,
    "agency_count_pe_submitting" : 106,
    "agency_count_srs_submitting" : 106,
    "state_id" : 8,
    "state_abbr" : "CT",
    "csv_header" : "data_year,population,total_agency_count,published_agency_count,active_agency_count,covered_agency_count,population_covered,agency_count_nibrs_submitting,agency_count_leoka_submitting,agency_count_pe_submitting,agency_count_srs_submitting"
  }, {
    "data_year" : 2003,
    "population" : 4202611,
    "total_agency_count" : 110,
    "published_agency_count" : 110,
    "active_agency_count" : 110,
    "covered_agency_count" : 0,
    "population_covered" : 0,
    "agency_count_nibrs_submitting" : 71,
    "agency_count_leoka_submitting" : 0,
    "agency_count_pe_submitting" : 110,
    "agency_count_srs_submitting" : 110,
    "state_id" : 8,
    "state_abbr" : "CT",
    "csv_header" : "data_year,population,total_agency_count,published_agency_count,active_agency_count,covered_agency_count,population_covered,agency_count_nibrs_submitting,agency_count_leoka_submitting,agency_count_pe_submitting,agency_count_srs_submitting"
  }, {
    "data_year" : 2002,
    "population" : 5233694,
    "total_agency_count" : 110,
    "published_agency_count" : 110,
    "active_agency_count" : 110,
    "covered_agency_count" : 0,
    "population_covered" : 0,
    "agency_count_nibrs_submitting" : 64,
    "agency_count_leoka_submitting" : 0,
    "agency_count_pe_submitting" : 110,
    "agency_count_srs_submitting" : 110,
    "state_id" : 8,
    "state_abbr" : "CT",
    "csv_header" : "data_year,population,total_agency_count,published_agency_count,active_agency_count,covered_agency_count,population_covered,agency_count_nibrs_submitting,agency_count_leoka_submitting,agency_count_pe_submitting,agency_count_srs_submitting"
  }, {
    "data_year" : 2001,
    "population" : 4178846,
    "total_agency_count" : 109,
    "published_agency_count" : 109,
    "active_agency_count" : 109,
    "covered_agency_count" : 0,
    "population_covered" : 0,
    "agency_count_nibrs_submitting" : 58,
    "agency_count_leoka_submitting" : 0,
    "agency_count_pe_submitting" : 109,
    "agency_count_srs_submitting" : 109,
    "state_id" : 8,
    "state_abbr" : "CT",
    "csv_header" : "data_year,population,total_agency_count,published_agency_count,active_agency_count,covered_agency_count,population_covered,agency_count_nibrs_submitting,agency_count_leoka_submitting,agency_count_pe_submitting,agency_count_srs_submitting"
  }, {
    "data_year" : 2000,
    "population" : 4283356,
    "total_agency_count" : 111,
    "published_agency_count" : 111,
    "active_agency_count" : 111,
    "covered_agency_count" : 0,
    "population_covered" : 0,
    "agency_count_nibrs_submitting" : 48,
    "agency_count_leoka_submitting" : 0,
    "agency_count_pe_submitting" : 111,
    "agency_count_srs_submitting" : 111,
    "state_id" : 8,
    "state_abbr" : "CT",
    "csv_header" : "data_year,population,total_agency_count,published_agency_count,active_agency_count,covered_agency_count,population_covered,agency_count_nibrs_submitting,agency_count_leoka_submitting,agency_count_pe_submitting,agency_count_srs_submitting"
  } ],
  "pagination" : {
    "count" : 25,
    "page" : 0,
    "pages" : 2,
    "per_page" : 20
  }
}