{
  "results" : [ {
    "data_year" : 2019,
    "population" : 693972,
    "total_agency_count" : 0,
    "published_agency_count" : 0,
    "active_agency_count" : 0,
    "covered_agency_count" : 0,
    "population_covered" : 0,
    "agency_count_nibrs_submitting" : 0,
    "agency_count_leoka_submitting" : 0,
    "agency_count_pe_submitting" : 0,
    "agency_count_srs_submitting" : 0,
    "state_id" : 10,
    "state_abbr" : "DC",
    "csv_header" : "data_year,population,total_agency_count,published_agency_count,active_agency_count,covered_agency_count,population_covered,agency_count_nibrs_submitting,agency_count_leoka_submitting,agency_count_pe_submitting,agency_count_srs_submitting"
  }, {
    "data_year" : 2018,
    "population" : 693972,
    "total_agency_count" : 2,
    "published_agency_count" : 2,
    "active_agency_count" : 2,
    "covered_agency_count" : 0,
    "population_covered" : 0,
    "agency_count_nibrs_submitting" : 2,
    "agency_count_leoka_submitting" : 2,
    "agency_count_pe_submitting" : 2,
    "agency_count_srs_submitting" : 2,
    "state_id" : 10,
    "state_abbr" : "DC",
    "csv_header" : "data_year,population,total_agency_count,published_agency_count,active_agency_count,covered_agency_count,population_covered,agency_count_nibrs_submitting,agency_count_leoka_submitting,agency_count_pe_submitting,agency_count_srs_submitting"
  }, {
    "data_year" : 2017,
    "population" : 693972,
    "total_agency_count" : 3,
    "published_agency_count" : 3,
    "active_agency_count" : 3,
    "covered_agency_count" : 0,
    "population_covered" : 0,
    "agency_count_nibrs_submitting" : 1,
    "agency_count_leoka_submitting" : 1,
    "agency_count_pe_submitting" : 3,
    "agency_count_srs_submitting" : 3,
    "state_id" : 10,
    "state_abbr" : "DC",
    "csv_header" : "data_year,population,total_agency_count,published_agency_count,active_agency_count,covered_agency_count,population_covered,agency_count_nibrs_submitting,agency_count_leoka_submitting,agency_count_pe_submitting,agency_count_srs_submitting"
  }, {
    "data_year" : 2016,
    "population" : 681170,
    "total_agency_count" : 3,
    "published_agency_count" : 3,
    "active_agency_count" : 3,
    "covered_agency_count" : 0,
    "population_covered" : 0,
    "agency_count_nibrs_submitting" : 1,
    "agency_count_leoka_submitting" : 1,
    "agency_count_pe_submitting" : 3,
    "agency_count_srs_submitting" : 3,
    "state_id" : 10,
    "state_abbr" : "DC",
    "csv_header" : "data_year,population,total_agency_count,published_agency_count,active_agency_count,covered_agency_count,population_covered,agency_count_nibrs_submitting,agency_count_leoka_submitting,agency_count_pe_submitting,agency_count_srs_submitting"
  }, {
    "data_year" : 2015,
    "population" : 672228,
    "total_agency_count" : 3,
    "published_agency_count" : 3,
    "active_agency_count" : 3,
    "covered_agency_count" : 0,
    "population_covered" : 0,
    "agency_count_nibrs_submitting" : 1,
    "agency_count_leoka_submitting" : 0,
    "agency_count_pe_submitting" : 3,
    "agency_count_srs_submitting" : 3,
    "state_id" : 10,
    "state_abbr" : "DC",
    "csv_header" : "data_year,population,total_agency_count,published_agency_count,active_agency_count,covered_agency_count,population_covered,agency_count_nibrs_submitting,agency_count_leoka_submitting,agency_count_pe_submitting,agency_count_srs_submitting"
  }, {
    "data_year" : 2014,
    "population" : 658893,
    "total_agency_count" : 3,
    "published_agency_count" : 3,
    "active_agency_count" : 3,
    "covered_agency_count" : 0,
    "population_covered" : 0,
    "agency_count_nibrs_submitting" : 1,
    "agency_count_leoka_submitting" : 0,
    "agency_count_pe_submitting" : 3,
    "agency_count_srs_submitting" : 3,
    "state_id" : 10,
    "state_abbr" : "DC",
    "csv_header" : "data_year,population,total_agency_count,published_agency_count,active_agency_count,covered_agency_count,population_covered,agency_count_nibrs_submitting,agency_count_leoka_submitting,agency_count_pe_submitting,agency_count_srs_submitting"
  }, {
    "data_year" : 2013,
    "population" : 646449,
    "total_agency_count" : 2,
    "published_agency_count" : 2,
    "active_agency_count" : 2,
    "covered_agency_count" : 0,
    "population_covered" : 0,
    "agency_count_nibrs_submitting" : 1,
    "agency_count_leoka_submitting" : 0,
    "agency_count_pe_submitting" : 2,
    "agency_count_srs_submitting" : 2,
    "state_id" : 10,
    "state_abbr" : "DC",
    "csv_header" : "data_year,population,total_agency_count,published_agency_count,active_agency_count,covered_agency_count,population_covered,agency_count_nibrs_submitting,agency_count_leoka_submitting,agency_count_pe_submitting,agency_count_srs_submitting"
  }, {
    "data_year" : 2012,
    "population" : 632323,
    "total_agency_count" : 2,
    "published_agency_count" : 2,
    "active_agency_count" : 2,
    "covered_agency_count" : 0,
    "population_covered" : 0,
    "agency_count_nibrs_submitting" : 1,
    "agency_count_leoka_submitting" : 0,
    "agency_count_pe_submitting" : 2,
    "agency_count_srs_submitting" : 2,
    "state_id" : 10,
    "state_abbr" : "DC",
    "csv_header" : "data_year,population,total_agency_count,published_agency_count,active_agency_count,covered_agency_count,population_covered,agency_count_nibrs_submitting,agency_count_leoka_submitting,agency_count_pe_submitting,agency_count_srs_submitting"
  }, {
    "data_year" : 2011,
    "population" : 617996,
    "total_agency_count" : 2,
    "published_agency_count" : 2,
    "active_agency_count" : 2,
    "covered_agency_count" : 0,
    "population_covered" : 0,
    "agency_count_nibrs_submitting" : 1,
    "agency_count_leoka_submitting" : 0,
    "agency_count_pe_submitting" : 2,
    "agency_count_srs_submitting" : 2,
    "state_id" : 10,
    "state_abbr" : "DC",
    "csv_header" : "data_year,population,total_agency_count,published_agency_count,active_agency_count,covered_agency_count,population_covered,agency_count_nibrs_submitting,agency_count_leoka_submitting,agency_count_pe_submitting,agency_count_srs_submitting"
  }, {
    "data_year" : 2010,
    "population" : 601723,
    "total_agency_count" : 2,
    "published_agency_count" : 2,
    "active_agency_count" : 2,
    "covered_agency_count" : 0,
    "population_covered" : 0,
    "agency_count_nibrs_submitting" : 1,
    "agency_count_leoka_submitting" : 0,
    "agency_count_pe_submitting" : 2,
    "agency_count_srs_submitting" : 2,
    "state_id" : 10,
    "state_abbr" : "DC",
    "csv_header" : "data_year,population,total_agency_count,published_agency_count,active_agency_count,covered_agency_count,population_covered,agency_count_nibrs_submitting,agency_count_leoka_submitting,agency_count_pe_submitting,agency_count_srs_submitting"
  }, {
    "data_year" : 2009,
    "population" : 599657,
    "total_agency_count" : 2,
    "published_agency_count" : 2,
    "active_agency_count" : 2,
    "covered_agency_count" : 0,
    "population_covered" : 0,
    "agency_count_nibrs_submitting" : 1,
    "agency_count_leoka_submitting" : 0,
    "agency_count_pe_submitting" : 2,
    "agency_count_srs_submitting" : 2,
    "state_id" : 10,
    "state_abbr" : "DC",
    "csv_header" : "data_year,population,total_agency_count,published_agency_count,active_agency_count,covered_agency_count,population_covered,agency_count_nibrs_submitting,agency_count_leoka_submitting,agency_count_pe_submitting,agency_count_srs_submitting"
  }, {
    "data_year" : 2008,
    "population" : 591833,
    "total_agency_count" : 2,
    "published_agency_count" : 2,
    "active_agency_count" : 2,
    "covered_agency_count" : 0,
    "population_covered" : 0,
    "agency_count_nibrs_submitting" : 1,
    "agency_count_leoka_submitting" : 0,
    "agency_count_pe_submitting" : 2,
    "agency_count_srs_submitting" : 2,
    "state_id" : 10,
    "state_abbr" : "DC",
    "csv_header" : "data_year,population,total_agency_count,published_agency_count,active_agency_count,covered_agency_count,population_covered,agency_count_nibrs_submitting,agency_count_leoka_submitting,agency_count_pe_submitting,agency_count_srs_submitting"
  }, {
    "data_year" : 2007,
    "population" : 588292,
    "total_agency_count" : 2,
    "published_agency_count" : 2,
    "active_agency_count" : 2,
    "covered_agency_count" : 0,
    "population_covered" : 0,
    "agency_count_nibrs_submitting" : 1,
    "agency_count_leoka_submitting" : 0,
    "agency_count_pe_submitting" : 2,
    "agency_count_srs_submitting" : 2,
    "state_id" : 10,
    "state_abbr" : "DC",
    "csv_header" : "data_year,population,total_agency_count,published_agency_count,active_agency_count,covered_agency_count,population_covered,agency_count_nibrs_submitting,agency_count_leoka_submitting,agency_count_pe_submitting,agency_count_srs_submitting"
  }, {
    "data_year" : 2006,
    "population" : 581530,
    "total_agency_count" : 2,
    "published_agency_count" : 2,
    "active_agency_count" : 2,
    "covered_agency_count" : 0,
    "population_covered" : 0,
    "agency_count_nibrs_submitting" : 1,
    "agency_count_leoka_submitting" : 0,
    "agency_count_pe_submitting" : 2,
    "agency_count_srs_submitting" : 2,
    "state_id" : 10,
    "state_abbr" : "DC",
    "csv_header" : "data_year,population,total_agency_count,published_agency_count,active_agency_count,covered_agency_count,population_covered,agency_count_nibrs_submitting,agency_count_leoka_submitting,agency_count_pe_submitting,agency_count_srs_submitting"
  }, {
    "data_year" : 2005,
    "population" : 550521,
    "total_agency_count" : 2,
    "published_agency_count" : 2,
    "active_agency_count" : 2,
    "covered_agency_count" : 0,
    "population_covered" : 0,
    "agency_count_nibrs_submitting" : 1,
    "agency_count_leoka_submitting" : 0,
    "agency_count_pe_submitting" : 2,
    "agency_count_srs_submitting" : 2,
    "state_id" : 10,
    "state_abbr" : "DC",
    "csv_header" : "data_year,population,total_agency_count,published_agency_count,active_agency_count,covered_agency_count,population_covered,agency_count_nibrs_submitting,agency_count_leoka_submitting,agency_count_pe_submitting,agency_count_srs_submitting"
  }, {
    "data_year" : 2004,
    "population" : 553523,
    "total_agency_count" : 2,
    "published_agency_count" : 2,
    "active_agency_count" : 2,
    "covered_agency_count" : 0,
    "population_covered" : 0,
    "agency_count_nibrs_submitting" : 1,
    "agency_count_leoka_submitting" : 0,
    "agency_count_pe_submitting" : 2,
    "agency_count_srs_submitting" : 2,
    "state_id" : 10,
    "state_abbr" : "DC",
    "csv_header" : "data_year,population,total_agency_count,published_agency_count,active_agency_count,covered_agency_count,population_covered,agency_count_nibrs_submitting,agency_count_leoka_submitting,agency_count_pe_submitting,agency_count_srs_submitting"
  }, {
    "data_year" : 2003,
    "population" : 563384,
    "total_agency_count" : 2,
    "published_agency_count" : 2,
    "active_agency_count" : 2,
    "covered_agency_count" : 0,
    "population_covered" : 0,
    "agency_count_nibrs_submitting" : 1,
    "agency_count_leoka_submitting" : 0,
    "agency_count_pe_submitting" : 2,
    "agency_count_srs_submitting" : 2,
    "state_id" : 10,
    "state_abbr" : "DC",
    "csv_header" : "data_year,population,total_agency_count,published_agency_count,active_agency_count,covered_agency_count,population_covered,agency_count_nibrs_submitting,agency_count_leoka_submitting,agency_count_pe_submitting,agency_count_srs_submitting"
  }, {
    "data_year" : 2002,
    "population" : 570898,
    "total_agency_count" : 2,
    "published_agency_count" : 2,
    "active_agency_count" : 2,
    "covered_agency_count" : 0,
    "population_covered" : 0,
    "agency_count_nibrs_submitting" : 1,
    "agency_count_leoka_submitting" : 0,
    "agency_count_pe_submitting" : 2,
    "agency_count_srs_submitting" : 2,
    "state_id" : 10,
    "state_abbr" : "DC",
    "csv_header" : "data_year,population,total_agency_count,published_agency_count,active_agency_count,covered_agency_count,population_covered,agency_count_nibrs_submitting,agency_count_leoka_submitting,agency_count_pe_submitting,agency_count_srs_submitting"
  }, {
    "data_year" : 2001,
    "population" : 571822,
    "total_agency_count" : 2,
    "published_agency_count" : 2,
    "active_agency_count" : 2,
    "covered_agency_count" : 0,
    "population_covered" : 0,
    "agency_count_nibrs_submitting" : 1,
    "agency_count_leoka_submitting" : 0,
    "agency_count_pe_submitting" : 2,
    "agency_count_srs_submitting" : 2,
    "state_id" : 10,
    "state_abbr" : "DC",
    "csv_header" : "data_year,population,total_agency_count,published_agency_count,active_agency_count,covered_agency_count,population_covered,agency_count_nibrs_submitting,agency_count_leoka_submitting,agency_count_pe_submitting,agency_count_srs_submitting"
  }, {
    "data_year" : 2000,
    "population" : 572059,
    "total_agency_count" : 1,
    "published_agency_count" : 1,
    "active_agency_count" : 1,
    "covered_agency_count" : 0,
    "population_covered" : 0,
    "agency_count_nibrs_submitting" : 0,
    "agency_count_leoka_submitting" : 0,
    "agency_count_pe_submitting" : 1,
    "agency_count_srs_submitting" : 1,
    "state_id" : 10,
    "state_abbr" : "DC",
    "csv_header" : "data_year,population,total_agency_count,published_agency_count,active_agency_count,covered_agency_count,population_covered,agency_count_nibrs_submitting,agency_count_leoka_submitting,agency_count_pe_submitting,agency_count_srs_submitting"
  } ],
  "pagination" : {
    "count" : 25,
    "page" : 0,
    "pages" : 2,
    "per_page" : 20
  }
}