{
  "results" : [ {
    "data_year" : 2019,
    "population" : 978771,
    "total_agency_count" : 0,
    "published_agency_count" : 0,
    "active_agency_count" : 0,
    "covered_agency_count" : 0,
    "population_covered" : 0,
    "agency_count_nibrs_submitting" : 0,
    "agency_count_leoka_submitting" : 0,
    "agency_count_pe_submitting" : 0,
    "agency_count_srs_submitting" : 0,
    "state_id" : 11,
    "state_abbr" : "DE",
    "csv_header" : "data_year,population,total_agency_count,published_agency_count,active_agency_count,covered_agency_count,population_covered,agency_count_nibrs_submitting,agency_count_leoka_submitting,agency_count_pe_submitting,agency_count_srs_submitting"
  }, {
    "data_year" : 2018,
    "population" : 1940710,
    "total_agency_count" : 124,
    "published_agency_count" : 124,
    "active_agency_count" : 124,
    "covered_agency_count" : 0,
    "population_covered" : 0,
    "agency_count_nibrs_submitting" : 124,
    "agency_count_leoka_submitting" : 124,
    "agency_count_pe_submitting" : 124,
    "agency_count_srs_submitting" : 124,
    "state_id" : 11,
    "state_abbr" : "DE",
    "csv_header" : "data_year,population,total_agency_count,published_agency_count,active_agency_count,covered_agency_count,population_covered,agency_count_nibrs_submitting,agency_count_leoka_submitting,agency_count_pe_submitting,agency_count_srs_submitting"
  }, {
    "data_year" : 2017,
    "population" : 978771,
    "total_agency_count" : 62,
    "published_agency_count" : 62,
    "active_agency_count" : 62,
    "covered_agency_count" : 0,
    "population_covered" : 0,
    "agency_count_nibrs_submitting" : 62,
    "agency_count_leoka_submitting" : 62,
    "agency_count_pe_submitting" : 62,
    "agency_count_srs_submitting" : 62,
    "state_id" : 11,
    "state_abbr" : "DE",
    "csv_header" : "data_year,population,total_agency_count,published_agency_count,active_agency_count,covered_agency_count,population_covered,agency_count_nibrs_submitting,agency_count_leoka_submitting,agency_count_pe_submitting,agency_count_srs_submitting"
  }, {
    "data_year" : 2016,
    "population" : 972572,
    "total_agency_count" : 68,
    "published_agency_count" : 68,
    "active_agency_count" : 68,
    "covered_agency_count" : 0,
    "population_covered" : 0,
    "agency_count_nibrs_submitting" : 68,
    "agency_count_leoka_submitting" : 68,
    "agency_count_pe_submitting" : 68,
    "agency_count_srs_submitting" : 68,
    "state_id" : 11,
    "state_abbr" : "DE",
    "csv_header" : "data_year,population,total_agency_count,published_agency_count,active_agency_count,covered_agency_count,population_covered,agency_count_nibrs_submitting,agency_count_leoka_submitting,agency_count_pe_submitting,agency_count_srs_submitting"
  }, {
    "data_year" : 2015,
    "population" : 962461,
    "total_agency_count" : 60,
    "published_agency_count" : 60,
    "active_agency_count" : 60,
    "covered_agency_count" : 0,
    "population_covered" : 0,
    "agency_count_nibrs_submitting" : 60,
    "agency_count_leoka_submitting" : 60,
    "agency_count_pe_submitting" : 60,
    "agency_count_srs_submitting" : 60,
    "state_id" : 11,
    "state_abbr" : "DE",
    "csv_header" : "data_year,population,total_agency_count,published_agency_count,active_agency_count,covered_agency_count,population_covered,agency_count_nibrs_submitting,agency_count_leoka_submitting,agency_count_pe_submitting,agency_count_srs_submitting"
  }, {
    "data_year" : 2014,
    "population" : 958690,
    "total_agency_count" : 68,
    "published_agency_count" : 68,
    "active_agency_count" : 68,
    "covered_agency_count" : 0,
    "population_covered" : 0,
    "agency_count_nibrs_submitting" : 68,
    "agency_count_leoka_submitting" : 68,
    "agency_count_pe_submitting" : 68,
    "agency_count_srs_submitting" : 68,
    "state_id" : 11,
    "state_abbr" : "DE",
    "csv_header" : "data_year,population,total_agency_count,published_agency_count,active_agency_count,covered_agency_count,population_covered,agency_count_nibrs_submitting,agency_count_leoka_submitting,agency_count_pe_submitting,agency_count_srs_submitting"
  }, {
    "data_year" : 2013,
    "population" : 949243,
    "total_agency_count" : 66,
    "published_agency_count" : 66,
    "active_agency_count" : 66,
    "covered_agency_count" : 0,
    "population_covered" : 0,
    "agency_count_nibrs_submitting" : 66,
    "agency_count_leoka_submitting" : 66,
    "agency_count_pe_submitting" : 66,
    "agency_count_srs_submitting" : 66,
    "state_id" : 11,
    "state_abbr" : "DE",
    "csv_header" : "data_year,population,total_agency_count,published_agency_count,active_agency_count,covered_agency_count,population_covered,agency_count_nibrs_submitting,agency_count_leoka_submitting,agency_count_pe_submitting,agency_count_srs_submitting"
  }, {
    "data_year" : 2012,
    "population" : 935504,
    "total_agency_count" : 59,
    "published_agency_count" : 59,
    "active_agency_count" : 59,
    "covered_agency_count" : 0,
    "population_covered" : 0,
    "agency_count_nibrs_submitting" : 59,
    "agency_count_leoka_submitting" : 59,
    "agency_count_pe_submitting" : 59,
    "agency_count_srs_submitting" : 59,
    "state_id" : 11,
    "state_abbr" : "DE",
    "csv_header" : "data_year,population,total_agency_count,published_agency_count,active_agency_count,covered_agency_count,population_covered,agency_count_nibrs_submitting,agency_count_leoka_submitting,agency_count_pe_submitting,agency_count_srs_submitting"
  }, {
    "data_year" : 2011,
    "population" : 923759,
    "total_agency_count" : 56,
    "published_agency_count" : 56,
    "active_agency_count" : 56,
    "covered_agency_count" : 0,
    "population_covered" : 0,
    "agency_count_nibrs_submitting" : 56,
    "agency_count_leoka_submitting" : 56,
    "agency_count_pe_submitting" : 56,
    "agency_count_srs_submitting" : 56,
    "state_id" : 11,
    "state_abbr" : "DE",
    "csv_header" : "data_year,population,total_agency_count,published_agency_count,active_agency_count,covered_agency_count,population_covered,agency_count_nibrs_submitting,agency_count_leoka_submitting,agency_count_pe_submitting,agency_count_srs_submitting"
  }, {
    "data_year" : 2010,
    "population" : 915164,
    "total_agency_count" : 58,
    "published_agency_count" : 58,
    "active_agency_count" : 58,
    "covered_agency_count" : 0,
    "population_covered" : 0,
    "agency_count_nibrs_submitting" : 58,
    "agency_count_leoka_submitting" : 58,
    "agency_count_pe_submitting" : 58,
    "agency_count_srs_submitting" : 58,
    "state_id" : 11,
    "state_abbr" : "DE",
    "csv_header" : "data_year,population,total_agency_count,published_agency_count,active_agency_count,covered_agency_count,population_covered,agency_count_nibrs_submitting,agency_count_leoka_submitting,agency_count_pe_submitting,agency_count_srs_submitting"
  }, {
    "data_year" : 2009,
    "population" : 907237,
    "total_agency_count" : 55,
    "published_agency_count" : 55,
    "active_agency_count" : 55,
    "covered_agency_count" : 0,
    "population_covered" : 0,
    "agency_count_nibrs_submitting" : 55,
    "agency_count_leoka_submitting" : 53,
    "agency_count_pe_submitting" : 55,
    "agency_count_srs_submitting" : 55,
    "state_id" : 11,
    "state_abbr" : "DE",
    "csv_header" : "data_year,population,total_agency_count,published_agency_count,active_agency_count,covered_agency_count,population_covered,agency_count_nibrs_submitting,agency_count_leoka_submitting,agency_count_pe_submitting,agency_count_srs_submitting"
  }, {
    "data_year" : 2008,
    "population" : 892606,
    "total_agency_count" : 53,
    "published_agency_count" : 53,
    "active_agency_count" : 53,
    "covered_agency_count" : 0,
    "population_covered" : 0,
    "agency_count_nibrs_submitting" : 53,
    "agency_count_leoka_submitting" : 53,
    "agency_count_pe_submitting" : 53,
    "agency_count_srs_submitting" : 53,
    "state_id" : 11,
    "state_abbr" : "DE",
    "csv_header" : "data_year,population,total_agency_count,published_agency_count,active_agency_count,covered_agency_count,population_covered,agency_count_nibrs_submitting,agency_count_leoka_submitting,agency_count_pe_submitting,agency_count_srs_submitting"
  }, {
    "data_year" : 2007,
    "population" : 917216,
    "total_agency_count" : 54,
    "published_agency_count" : 54,
    "active_agency_count" : 54,
    "covered_agency_count" : 0,
    "population_covered" : 0,
    "agency_count_nibrs_submitting" : 54,
    "agency_count_leoka_submitting" : 52,
    "agency_count_pe_submitting" : 54,
    "agency_count_srs_submitting" : 54,
    "state_id" : 11,
    "state_abbr" : "DE",
    "csv_header" : "data_year,population,total_agency_count,published_agency_count,active_agency_count,covered_agency_count,population_covered,agency_count_nibrs_submitting,agency_count_leoka_submitting,agency_count_pe_submitting,agency_count_srs_submitting"
  }, {
    "data_year" : 2006,
    "population" : 881748,
    "total_agency_count" : 54,
    "published_agency_count" : 54,
    "active_agency_count" : 54,
    "covered_agency_count" : 0,
    "population_covered" : 0,
    "agency_count_nibrs_submitting" : 54,
    "agency_count_leoka_submitting" : 53,
    "agency_count_pe_submitting" : 54,
    "agency_count_srs_submitting" : 54,
    "state_id" : 11,
    "state_abbr" : "DE",
    "csv_header" : "data_year,population,total_agency_count,published_agency_count,active_agency_count,covered_agency_count,population_covered,agency_count_nibrs_submitting,agency_count_leoka_submitting,agency_count_pe_submitting,agency_count_srs_submitting"
  }, {
    "data_year" : 2005,
    "population" : 870075,
    "total_agency_count" : 55,
    "published_agency_count" : 55,
    "active_agency_count" : 55,
    "covered_agency_count" : 0,
    "population_covered" : 0,
    "agency_count_nibrs_submitting" : 55,
    "agency_count_leoka_submitting" : 54,
    "agency_count_pe_submitting" : 55,
    "agency_count_srs_submitting" : 55,
    "state_id" : 11,
    "state_abbr" : "DE",
    "csv_header" : "data_year,population,total_agency_count,published_agency_count,active_agency_count,covered_agency_count,population_covered,agency_count_nibrs_submitting,agency_count_leoka_submitting,agency_count_pe_submitting,agency_count_srs_submitting"
  }, {
    "data_year" : 2004,
    "population" : 854779,
    "total_agency_count" : 54,
    "published_agency_count" : 54,
    "active_agency_count" : 54,
    "covered_agency_count" : 0,
    "population_covered" : 0,
    "agency_count_nibrs_submitting" : 54,
    "agency_count_leoka_submitting" : 53,
    "agency_count_pe_submitting" : 54,
    "agency_count_srs_submitting" : 54,
    "state_id" : 11,
    "state_abbr" : "DE",
    "csv_header" : "data_year,population,total_agency_count,published_agency_count,active_agency_count,covered_agency_count,population_covered,agency_count_nibrs_submitting,agency_count_leoka_submitting,agency_count_pe_submitting,agency_count_srs_submitting"
  }, {
    "data_year" : 2003,
    "population" : 845023,
    "total_agency_count" : 60,
    "published_agency_count" : 60,
    "active_agency_count" : 60,
    "covered_agency_count" : 0,
    "population_covered" : 0,
    "agency_count_nibrs_submitting" : 60,
    "agency_count_leoka_submitting" : 2,
    "agency_count_pe_submitting" : 60,
    "agency_count_srs_submitting" : 60,
    "state_id" : 11,
    "state_abbr" : "DE",
    "csv_header" : "data_year,population,total_agency_count,published_agency_count,active_agency_count,covered_agency_count,population_covered,agency_count_nibrs_submitting,agency_count_leoka_submitting,agency_count_pe_submitting,agency_count_srs_submitting"
  }, {
    "data_year" : 2002,
    "population" : 849575,
    "total_agency_count" : 64,
    "published_agency_count" : 64,
    "active_agency_count" : 64,
    "covered_agency_count" : 0,
    "population_covered" : 0,
    "agency_count_nibrs_submitting" : 64,
    "agency_count_leoka_submitting" : 0,
    "agency_count_pe_submitting" : 64,
    "agency_count_srs_submitting" : 64,
    "state_id" : 11,
    "state_abbr" : "DE",
    "csv_header" : "data_year,population,total_agency_count,published_agency_count,active_agency_count,covered_agency_count,population_covered,agency_count_nibrs_submitting,agency_count_leoka_submitting,agency_count_pe_submitting,agency_count_srs_submitting"
  }, {
    "data_year" : 2001,
    "population" : 825603,
    "total_agency_count" : 62,
    "published_agency_count" : 62,
    "active_agency_count" : 62,
    "covered_agency_count" : 0,
    "population_covered" : 0,
    "agency_count_nibrs_submitting" : 62,
    "agency_count_leoka_submitting" : 0,
    "agency_count_pe_submitting" : 62,
    "agency_count_srs_submitting" : 62,
    "state_id" : 11,
    "state_abbr" : "DE",
    "csv_header" : "data_year,population,total_agency_count,published_agency_count,active_agency_count,covered_agency_count,population_covered,agency_count_nibrs_submitting,agency_count_leoka_submitting,agency_count_pe_submitting,agency_count_srs_submitting"
  }, {
    "data_year" : 2000,
    "population" : 806621,
    "total_agency_count" : 53,
    "published_agency_count" : 53,
    "active_agency_count" : 53,
    "covered_agency_count" : 0,
    "population_covered" : 0,
    "agency_count_nibrs_submitting" : 0,
    "agency_count_leoka_submitting" : 0,
    "agency_count_pe_submitting" : 53,
    "agency_count_srs_submitting" : 53,
    "state_id" : 11,
    "state_abbr" : "DE",
    "csv_header" : "data_year,population,total_agency_count,published_agency_count,active_agency_count,covered_agency_count,population_covered,agency_count_nibrs_submitting,agency_count_leoka_submitting,agency_count_pe_submitting,agency_count_srs_submitting"
  } ],
  "pagination" : {
    "count" : 25,
    "page" : 0,
    "pages" : 2,
    "per_page" : 20
  }
}