{
  "results" : [ {
    "data_year" : 2019,
    "population" : 10694367,
    "total_agency_count" : 0,
    "published_agency_count" : 0,
    "active_agency_count" : 0,
    "covered_agency_count" : 0,
    "population_covered" : 0,
    "agency_count_nibrs_submitting" : 0,
    "agency_count_leoka_submitting" : 0,
    "agency_count_pe_submitting" : 0,
    "agency_count_srs_submitting" : 0,
    "state_id" : 13,
    "state_abbr" : "GA",
    "csv_header" : "data_year,population,total_agency_count,published_agency_count,active_agency_count,covered_agency_count,population_covered,agency_count_nibrs_submitting,agency_count_leoka_submitting,agency_count_pe_submitting,agency_count_srs_submitting"
  }, {
    "data_year" : 2018,
    "population" : 10694367,
    "total_agency_count" : 488,
    "published_agency_count" : 488,
    "active_agency_count" : 488,
    "covered_agency_count" : 0,
    "population_covered" : 0,
    "agency_count_nibrs_submitting" : 0,
    "agency_count_leoka_submitting" : 1,
    "agency_count_pe_submitting" : 488,
    "agency_count_srs_submitting" : 488,
    "state_id" : 13,
    "state_abbr" : "GA",
    "csv_header" : "data_year,population,total_agency_count,published_agency_count,active_agency_count,covered_agency_count,population_covered,agency_count_nibrs_submitting,agency_count_leoka_submitting,agency_count_pe_submitting,agency_count_srs_submitting"
  }, {
    "data_year" : 2017,
    "population" : 10694367,
    "total_agency_count" : 545,
    "published_agency_count" : 545,
    "active_agency_count" : 545,
    "covered_agency_count" : 0,
    "population_covered" : 0,
    "agency_count_nibrs_submitting" : 0,
    "agency_count_leoka_submitting" : 1,
    "agency_count_pe_submitting" : 545,
    "agency_count_srs_submitting" : 545,
    "state_id" : 13,
    "state_abbr" : "GA",
    "csv_header" : "data_year,population,total_agency_count,published_agency_count,active_agency_count,covered_agency_count,population_covered,agency_count_nibrs_submitting,agency_count_leoka_submitting,agency_count_pe_submitting,agency_count_srs_submitting"
  }, {
    "data_year" : 2016,
    "population" : 10662998,
    "total_agency_count" : 546,
    "published_agency_count" : 546,
    "active_agency_count" : 546,
    "covered_agency_count" : 0,
    "population_covered" : 0,
    "agency_count_nibrs_submitting" : 0,
    "agency_count_leoka_submitting" : 1,
    "agency_count_pe_submitting" : 546,
    "agency_count_srs_submitting" : 546,
    "state_id" : 13,
    "state_abbr" : "GA",
    "csv_header" : "data_year,population,total_agency_count,published_agency_count,active_agency_count,covered_agency_count,population_covered,agency_count_nibrs_submitting,agency_count_leoka_submitting,agency_count_pe_submitting,agency_count_srs_submitting"
  }, {
    "data_year" : 2015,
    "population" : 10812277,
    "total_agency_count" : 534,
    "published_agency_count" : 534,
    "active_agency_count" : 534,
    "covered_agency_count" : 0,
    "population_covered" : 0,
    "agency_count_nibrs_submitting" : 0,
    "agency_count_leoka_submitting" : 1,
    "agency_count_pe_submitting" : 534,
    "agency_count_srs_submitting" : 534,
    "state_id" : 13,
    "state_abbr" : "GA",
    "csv_header" : "data_year,population,total_agency_count,published_agency_count,active_agency_count,covered_agency_count,population_covered,agency_count_nibrs_submitting,agency_count_leoka_submitting,agency_count_pe_submitting,agency_count_srs_submitting"
  }, {
    "data_year" : 2014,
    "population" : 10503162,
    "total_agency_count" : 547,
    "published_agency_count" : 547,
    "active_agency_count" : 547,
    "covered_agency_count" : 0,
    "population_covered" : 0,
    "agency_count_nibrs_submitting" : 0,
    "agency_count_leoka_submitting" : 1,
    "agency_count_pe_submitting" : 547,
    "agency_count_srs_submitting" : 547,
    "state_id" : 13,
    "state_abbr" : "GA",
    "csv_header" : "data_year,population,total_agency_count,published_agency_count,active_agency_count,covered_agency_count,population_covered,agency_count_nibrs_submitting,agency_count_leoka_submitting,agency_count_pe_submitting,agency_count_srs_submitting"
  }, {
    "data_year" : 2013,
    "population" : 10552837,
    "total_agency_count" : 557,
    "published_agency_count" : 557,
    "active_agency_count" : 557,
    "covered_agency_count" : 0,
    "population_covered" : 0,
    "agency_count_nibrs_submitting" : 0,
    "agency_count_leoka_submitting" : 1,
    "agency_count_pe_submitting" : 557,
    "agency_count_srs_submitting" : 557,
    "state_id" : 13,
    "state_abbr" : "GA",
    "csv_header" : "data_year,population,total_agency_count,published_agency_count,active_agency_count,covered_agency_count,population_covered,agency_count_nibrs_submitting,agency_count_leoka_submitting,agency_count_pe_submitting,agency_count_srs_submitting"
  }, {
    "data_year" : 2012,
    "population" : 10078833,
    "total_agency_count" : 562,
    "published_agency_count" : 562,
    "active_agency_count" : 562,
    "covered_agency_count" : 0,
    "population_covered" : 0,
    "agency_count_nibrs_submitting" : 0,
    "agency_count_leoka_submitting" : 1,
    "agency_count_pe_submitting" : 562,
    "agency_count_srs_submitting" : 562,
    "state_id" : 13,
    "state_abbr" : "GA",
    "csv_header" : "data_year,population,total_agency_count,published_agency_count,active_agency_count,covered_agency_count,population_covered,agency_count_nibrs_submitting,agency_count_leoka_submitting,agency_count_pe_submitting,agency_count_srs_submitting"
  }, {
    "data_year" : 2011,
    "population" : 10121544,
    "total_agency_count" : 556,
    "published_agency_count" : 556,
    "active_agency_count" : 556,
    "covered_agency_count" : 0,
    "population_covered" : 0,
    "agency_count_nibrs_submitting" : 0,
    "agency_count_leoka_submitting" : 1,
    "agency_count_pe_submitting" : 556,
    "agency_count_srs_submitting" : 556,
    "state_id" : 13,
    "state_abbr" : "GA",
    "csv_header" : "data_year,population,total_agency_count,published_agency_count,active_agency_count,covered_agency_count,population_covered,agency_count_nibrs_submitting,agency_count_leoka_submitting,agency_count_pe_submitting,agency_count_srs_submitting"
  }, {
    "data_year" : 2010,
    "population" : 10591328,
    "total_agency_count" : 534,
    "published_agency_count" : 534,
    "active_agency_count" : 534,
    "covered_agency_count" : 0,
    "population_covered" : 0,
    "agency_count_nibrs_submitting" : 0,
    "agency_count_leoka_submitting" : 1,
    "agency_count_pe_submitting" : 534,
    "agency_count_srs_submitting" : 534,
    "state_id" : 13,
    "state_abbr" : "GA",
    "csv_header" : "data_year,population,total_agency_count,published_agency_count,active_agency_count,covered_agency_count,population_covered,agency_count_nibrs_submitting,agency_count_leoka_submitting,agency_count_pe_submitting,agency_count_srs_submitting"
  }, {
    "data_year" : 2009,
    "population" : 10492556,
    "total_agency_count" : 540,
    "published_agency_count" : 540,
    "active_agency_count" : 540,
    "covered_agency_count" : 0,
    "population_covered" : 0,
    "agency_count_nibrs_submitting" : 0,
    "agency_count_leoka_submitting" : 1,
    "agency_count_pe_submitting" : 540,
    "agency_count_srs_submitting" : 540,
    "state_id" : 13,
    "state_abbr" : "GA",
    "csv_header" : "data_year,population,total_agency_count,published_agency_count,active_agency_count,covered_agency_count,population_covered,agency_count_nibrs_submitting,agency_count_leoka_submitting,agency_count_pe_submitting,agency_count_srs_submitting"
  }, {
    "data_year" : 2008,
    "population" : 10934614,
    "total_agency_count" : 531,
    "published_agency_count" : 531,
    "active_agency_count" : 531,
    "covered_agency_count" : 0,
    "population_covered" : 0,
    "agency_count_nibrs_submitting" : 0,
    "agency_count_leoka_submitting" : 1,
    "agency_count_pe_submitting" : 531,
    "agency_count_srs_submitting" : 531,
    "state_id" : 13,
    "state_abbr" : "GA",
    "csv_header" : "data_year,population,total_agency_count,published_agency_count,active_agency_count,covered_agency_count,population_covered,agency_count_nibrs_submitting,agency_count_leoka_submitting,agency_count_pe_submitting,agency_count_srs_submitting"
  }, {
    "data_year" : 2007,
    "population" : 10168475,
    "total_agency_count" : 525,
    "published_agency_count" : 525,
    "active_agency_count" : 525,
    "covered_agency_count" : 0,
    "population_covered" : 0,
    "agency_count_nibrs_submitting" : 0,
    "agency_count_leoka_submitting" : 1,
    "agency_count_pe_submitting" : 525,
    "agency_count_srs_submitting" : 525,
    "state_id" : 13,
    "state_abbr" : "GA",
    "csv_header" : "data_year,population,total_agency_count,published_agency_count,active_agency_count,covered_agency_count,population_covered,agency_count_nibrs_submitting,agency_count_leoka_submitting,agency_count_pe_submitting,agency_count_srs_submitting"
  }, {
    "data_year" : 2006,
    "population" : 11743145,
    "total_agency_count" : 502,
    "published_agency_count" : 502,
    "active_agency_count" : 502,
    "covered_agency_count" : 0,
    "population_covered" : 0,
    "agency_count_nibrs_submitting" : 0,
    "agency_count_leoka_submitting" : 1,
    "agency_count_pe_submitting" : 502,
    "agency_count_srs_submitting" : 502,
    "state_id" : 13,
    "state_abbr" : "GA",
    "csv_header" : "data_year,population,total_agency_count,published_agency_count,active_agency_count,covered_agency_count,population_covered,agency_count_nibrs_submitting,agency_count_leoka_submitting,agency_count_pe_submitting,agency_count_srs_submitting"
  }, {
    "data_year" : 2005,
    "population" : 10497970,
    "total_agency_count" : 488,
    "published_agency_count" : 488,
    "active_agency_count" : 488,
    "covered_agency_count" : 0,
    "population_covered" : 0,
    "agency_count_nibrs_submitting" : 0,
    "agency_count_leoka_submitting" : 1,
    "agency_count_pe_submitting" : 488,
    "agency_count_srs_submitting" : 488,
    "state_id" : 13,
    "state_abbr" : "GA",
    "csv_header" : "data_year,population,total_agency_count,published_agency_count,active_agency_count,covered_agency_count,population_covered,agency_count_nibrs_submitting,agency_count_leoka_submitting,agency_count_pe_submitting,agency_count_srs_submitting"
  }, {
    "data_year" : 2004,
    "population" : 11101346,
    "total_agency_count" : 514,
    "published_agency_count" : 514,
    "active_agency_count" : 514,
    "covered_agency_count" : 0,
    "population_covered" : 0,
    "agency_count_nibrs_submitting" : 0,
    "agency_count_leoka_submitting" : 0,
    "agency_count_pe_submitting" : 514,
    "agency_count_srs_submitting" : 514,
    "state_id" : 13,
    "state_abbr" : "GA",
    "csv_header" : "data_year,population,total_agency_count,published_agency_count,active_agency_count,covered_agency_count,population_covered,agency_count_nibrs_submitting,agency_count_leoka_submitting,agency_count_pe_submitting,agency_count_srs_submitting"
  }, {
    "data_year" : 2003,
    "population" : 9839287,
    "total_agency_count" : 525,
    "published_agency_count" : 525,
    "active_agency_count" : 525,
    "covered_agency_count" : 0,
    "population_covered" : 0,
    "agency_count_nibrs_submitting" : 0,
    "agency_count_leoka_submitting" : 0,
    "agency_count_pe_submitting" : 525,
    "agency_count_srs_submitting" : 525,
    "state_id" : 13,
    "state_abbr" : "GA",
    "csv_header" : "data_year,population,total_agency_count,published_agency_count,active_agency_count,covered_agency_count,population_covered,agency_count_nibrs_submitting,agency_count_leoka_submitting,agency_count_pe_submitting,agency_count_srs_submitting"
  }, {
    "data_year" : 2002,
    "population" : 9138797,
    "total_agency_count" : 555,
    "published_agency_count" : 555,
    "active_agency_count" : 555,
    "covered_agency_count" : 0,
    "population_covered" : 0,
    "agency_count_nibrs_submitting" : 0,
    "agency_count_leoka_submitting" : 0,
    "agency_count_pe_submitting" : 555,
    "agency_count_srs_submitting" : 555,
    "state_id" : 13,
    "state_abbr" : "GA",
    "csv_header" : "data_year,population,total_agency_count,published_agency_count,active_agency_count,covered_agency_count,population_covered,agency_count_nibrs_submitting,agency_count_leoka_submitting,agency_count_pe_submitting,agency_count_srs_submitting"
  }, {
    "data_year" : 2001,
    "population" : 9426907,
    "total_agency_count" : 552,
    "published_agency_count" : 552,
    "active_agency_count" : 552,
    "covered_agency_count" : 0,
    "population_covered" : 0,
    "agency_count_nibrs_submitting" : 0,
    "agency_count_leoka_submitting" : 0,
    "agency_count_pe_submitting" : 552,
    "agency_count_srs_submitting" : 552,
    "state_id" : 13,
    "state_abbr" : "GA",
    "csv_header" : "data_year,population,total_agency_count,published_agency_count,active_agency_count,covered_agency_count,population_covered,agency_count_nibrs_submitting,agency_count_leoka_submitting,agency_count_pe_submitting,agency_count_srs_submitting"
  }, {
    "data_year" : 2000,
    "population" : 9339048,
    "total_agency_count" : 557,
    "published_agency_count" : 557,
    "active_agency_count" : 557,
    "covered_agency_count" : 0,
    "population_covered" : 0,
    "agency_count_nibrs_submitting" : 0,
    "agency_count_leoka_submitting" : 0,
    "agency_count_pe_submitting" : 557,
    "agency_count_srs_submitting" : 557,
    "state_id" : 13,
    "state_abbr" : "GA",
    "csv_header" : "data_year,population,total_agency_count,published_agency_count,active_agency_count,covered_agency_count,population_covered,agency_count_nibrs_submitting,agency_count_leoka_submitting,agency_count_pe_submitting,agency_count_srs_submitting"
  } ],
  "pagination" : {
    "count" : 25,
    "page" : 0,
    "pages" : 2,
    "per_page" : 20
  }
}