{
  "results" : [ {
    "data_year" : 2019,
    "population" : 3179051,
    "total_agency_count" : 0,
    "published_agency_count" : 0,
    "active_agency_count" : 0,
    "covered_agency_count" : 0,
    "population_covered" : 0,
    "agency_count_nibrs_submitting" : 0,
    "agency_count_leoka_submitting" : 0,
    "agency_count_pe_submitting" : 0,
    "agency_count_srs_submitting" : 0,
    "state_id" : 16,
    "state_abbr" : "IA",
    "csv_header" : "data_year,population,total_agency_count,published_agency_count,active_agency_count,covered_agency_count,population_covered,agency_count_nibrs_submitting,agency_count_leoka_submitting,agency_count_pe_submitting,agency_count_srs_submitting"
  }, {
    "data_year" : 2018,
    "population" : 5939129,
    "total_agency_count" : 361,
    "published_agency_count" : 361,
    "active_agency_count" : 361,
    "covered_agency_count" : 0,
    "population_covered" : 0,
    "agency_count_nibrs_submitting" : 360,
    "agency_count_leoka_submitting" : 0,
    "agency_count_pe_submitting" : 361,
    "agency_count_srs_submitting" : 361,
    "state_id" : 16,
    "state_abbr" : "IA",
    "csv_header" : "data_year,population,total_agency_count,published_agency_count,active_agency_count,covered_agency_count,population_covered,agency_count_nibrs_submitting,agency_count_leoka_submitting,agency_count_pe_submitting,agency_count_srs_submitting"
  }, {
    "data_year" : 2017,
    "population" : 3179051,
    "total_agency_count" : 239,
    "published_agency_count" : 239,
    "active_agency_count" : 239,
    "covered_agency_count" : 0,
    "population_covered" : 0,
    "agency_count_nibrs_submitting" : 239,
    "agency_count_leoka_submitting" : 0,
    "agency_count_pe_submitting" : 239,
    "agency_count_srs_submitting" : 239,
    "state_id" : 16,
    "state_abbr" : "IA",
    "csv_header" : "data_year,population,total_agency_count,published_agency_count,active_agency_count,covered_agency_count,population_covered,agency_count_nibrs_submitting,agency_count_leoka_submitting,agency_count_pe_submitting,agency_count_srs_submitting"
  }, {
    "data_year" : 2016,
    "population" : 3622675,
    "total_agency_count" : 265,
    "published_agency_count" : 265,
    "active_agency_count" : 265,
    "covered_agency_count" : 0,
    "population_covered" : 0,
    "agency_count_nibrs_submitting" : 261,
    "agency_count_leoka_submitting" : 0,
    "agency_count_pe_submitting" : 265,
    "agency_count_srs_submitting" : 265,
    "state_id" : 16,
    "state_abbr" : "IA",
    "csv_header" : "data_year,population,total_agency_count,published_agency_count,active_agency_count,covered_agency_count,population_covered,agency_count_nibrs_submitting,agency_count_leoka_submitting,agency_count_pe_submitting,agency_count_srs_submitting"
  }, {
    "data_year" : 2015,
    "population" : 3755941,
    "total_agency_count" : 271,
    "published_agency_count" : 271,
    "active_agency_count" : 271,
    "covered_agency_count" : 0,
    "population_covered" : 0,
    "agency_count_nibrs_submitting" : 271,
    "agency_count_leoka_submitting" : 0,
    "agency_count_pe_submitting" : 271,
    "agency_count_srs_submitting" : 271,
    "state_id" : 16,
    "state_abbr" : "IA",
    "csv_header" : "data_year,population,total_agency_count,published_agency_count,active_agency_count,covered_agency_count,population_covered,agency_count_nibrs_submitting,agency_count_leoka_submitting,agency_count_pe_submitting,agency_count_srs_submitting"
  }, {
    "data_year" : 2014,
    "population" : 3670976,
    "total_agency_count" : 263,
    "published_agency_count" : 263,
    "active_agency_count" : 263,
    "covered_agency_count" : 0,
    "population_covered" : 0,
    "agency_count_nibrs_submitting" : 263,
    "agency_count_leoka_submitting" : 0,
    "agency_count_pe_submitting" : 263,
    "agency_count_srs_submitting" : 263,
    "state_id" : 16,
    "state_abbr" : "IA",
    "csv_header" : "data_year,population,total_agency_count,published_agency_count,active_agency_count,covered_agency_count,population_covered,agency_count_nibrs_submitting,agency_count_leoka_submitting,agency_count_pe_submitting,agency_count_srs_submitting"
  }, {
    "data_year" : 2013,
    "population" : 3505211,
    "total_agency_count" : 247,
    "published_agency_count" : 247,
    "active_agency_count" : 247,
    "covered_agency_count" : 0,
    "population_covered" : 0,
    "agency_count_nibrs_submitting" : 247,
    "agency_count_leoka_submitting" : 0,
    "agency_count_pe_submitting" : 247,
    "agency_count_srs_submitting" : 247,
    "state_id" : 16,
    "state_abbr" : "IA",
    "csv_header" : "data_year,population,total_agency_count,published_agency_count,active_agency_count,covered_agency_count,population_covered,agency_count_nibrs_submitting,agency_count_leoka_submitting,agency_count_pe_submitting,agency_count_srs_submitting"
  }, {
    "data_year" : 2012,
    "population" : 3542549,
    "total_agency_count" : 245,
    "published_agency_count" : 245,
    "active_agency_count" : 245,
    "covered_agency_count" : 0,
    "population_covered" : 0,
    "agency_count_nibrs_submitting" : 245,
    "agency_count_leoka_submitting" : 0,
    "agency_count_pe_submitting" : 245,
    "agency_count_srs_submitting" : 245,
    "state_id" : 16,
    "state_abbr" : "IA",
    "csv_header" : "data_year,population,total_agency_count,published_agency_count,active_agency_count,covered_agency_count,population_covered,agency_count_nibrs_submitting,agency_count_leoka_submitting,agency_count_pe_submitting,agency_count_srs_submitting"
  }, {
    "data_year" : 2011,
    "population" : 3360752,
    "total_agency_count" : 230,
    "published_agency_count" : 230,
    "active_agency_count" : 230,
    "covered_agency_count" : 0,
    "population_covered" : 0,
    "agency_count_nibrs_submitting" : 230,
    "agency_count_leoka_submitting" : 0,
    "agency_count_pe_submitting" : 230,
    "agency_count_srs_submitting" : 230,
    "state_id" : 16,
    "state_abbr" : "IA",
    "csv_header" : "data_year,population,total_agency_count,published_agency_count,active_agency_count,covered_agency_count,population_covered,agency_count_nibrs_submitting,agency_count_leoka_submitting,agency_count_pe_submitting,agency_count_srs_submitting"
  }, {
    "data_year" : 2010,
    "population" : 3560199,
    "total_agency_count" : 252,
    "published_agency_count" : 252,
    "active_agency_count" : 252,
    "covered_agency_count" : 0,
    "population_covered" : 0,
    "agency_count_nibrs_submitting" : 252,
    "agency_count_leoka_submitting" : 0,
    "agency_count_pe_submitting" : 252,
    "agency_count_srs_submitting" : 252,
    "state_id" : 16,
    "state_abbr" : "IA",
    "csv_header" : "data_year,population,total_agency_count,published_agency_count,active_agency_count,covered_agency_count,population_covered,agency_count_nibrs_submitting,agency_count_leoka_submitting,agency_count_pe_submitting,agency_count_srs_submitting"
  }, {
    "data_year" : 2009,
    "population" : 3549105,
    "total_agency_count" : 259,
    "published_agency_count" : 259,
    "active_agency_count" : 259,
    "covered_agency_count" : 0,
    "population_covered" : 0,
    "agency_count_nibrs_submitting" : 259,
    "agency_count_leoka_submitting" : 0,
    "agency_count_pe_submitting" : 259,
    "agency_count_srs_submitting" : 259,
    "state_id" : 16,
    "state_abbr" : "IA",
    "csv_header" : "data_year,population,total_agency_count,published_agency_count,active_agency_count,covered_agency_count,population_covered,agency_count_nibrs_submitting,agency_count_leoka_submitting,agency_count_pe_submitting,agency_count_srs_submitting"
  }, {
    "data_year" : 2008,
    "population" : 3454799,
    "total_agency_count" : 255,
    "published_agency_count" : 255,
    "active_agency_count" : 255,
    "covered_agency_count" : 0,
    "population_covered" : 0,
    "agency_count_nibrs_submitting" : 255,
    "agency_count_leoka_submitting" : 0,
    "agency_count_pe_submitting" : 255,
    "agency_count_srs_submitting" : 255,
    "state_id" : 16,
    "state_abbr" : "IA",
    "csv_header" : "data_year,population,total_agency_count,published_agency_count,active_agency_count,covered_agency_count,population_covered,agency_count_nibrs_submitting,agency_count_leoka_submitting,agency_count_pe_submitting,agency_count_srs_submitting"
  }, {
    "data_year" : 2007,
    "population" : 3515498,
    "total_agency_count" : 256,
    "published_agency_count" : 256,
    "active_agency_count" : 256,
    "covered_agency_count" : 0,
    "population_covered" : 0,
    "agency_count_nibrs_submitting" : 252,
    "agency_count_leoka_submitting" : 0,
    "agency_count_pe_submitting" : 256,
    "agency_count_srs_submitting" : 256,
    "state_id" : 16,
    "state_abbr" : "IA",
    "csv_header" : "data_year,population,total_agency_count,published_agency_count,active_agency_count,covered_agency_count,population_covered,agency_count_nibrs_submitting,agency_count_leoka_submitting,agency_count_pe_submitting,agency_count_srs_submitting"
  }, {
    "data_year" : 2006,
    "population" : 3489369,
    "total_agency_count" : 252,
    "published_agency_count" : 252,
    "active_agency_count" : 252,
    "covered_agency_count" : 0,
    "population_covered" : 0,
    "agency_count_nibrs_submitting" : 250,
    "agency_count_leoka_submitting" : 0,
    "agency_count_pe_submitting" : 252,
    "agency_count_srs_submitting" : 252,
    "state_id" : 16,
    "state_abbr" : "IA",
    "csv_header" : "data_year,population,total_agency_count,published_agency_count,active_agency_count,covered_agency_count,population_covered,agency_count_nibrs_submitting,agency_count_leoka_submitting,agency_count_pe_submitting,agency_count_srs_submitting"
  }, {
    "data_year" : 2005,
    "population" : 3517975,
    "total_agency_count" : 258,
    "published_agency_count" : 258,
    "active_agency_count" : 258,
    "covered_agency_count" : 0,
    "population_covered" : 0,
    "agency_count_nibrs_submitting" : 258,
    "agency_count_leoka_submitting" : 0,
    "agency_count_pe_submitting" : 258,
    "agency_count_srs_submitting" : 258,
    "state_id" : 16,
    "state_abbr" : "IA",
    "csv_header" : "data_year,population,total_agency_count,published_agency_count,active_agency_count,covered_agency_count,population_covered,agency_count_nibrs_submitting,agency_count_leoka_submitting,agency_count_pe_submitting,agency_count_srs_submitting"
  }, {
    "data_year" : 2004,
    "population" : 3480184,
    "total_agency_count" : 246,
    "published_agency_count" : 246,
    "active_agency_count" : 246,
    "covered_agency_count" : 0,
    "population_covered" : 0,
    "agency_count_nibrs_submitting" : 246,
    "agency_count_leoka_submitting" : 0,
    "agency_count_pe_submitting" : 246,
    "agency_count_srs_submitting" : 246,
    "state_id" : 16,
    "state_abbr" : "IA",
    "csv_header" : "data_year,population,total_agency_count,published_agency_count,active_agency_count,covered_agency_count,population_covered,agency_count_nibrs_submitting,agency_count_leoka_submitting,agency_count_pe_submitting,agency_count_srs_submitting"
  }, {
    "data_year" : 2003,
    "population" : 3633788,
    "total_agency_count" : 258,
    "published_agency_count" : 258,
    "active_agency_count" : 258,
    "covered_agency_count" : 0,
    "population_covered" : 0,
    "agency_count_nibrs_submitting" : 258,
    "agency_count_leoka_submitting" : 0,
    "agency_count_pe_submitting" : 258,
    "agency_count_srs_submitting" : 258,
    "state_id" : 16,
    "state_abbr" : "IA",
    "csv_header" : "data_year,population,total_agency_count,published_agency_count,active_agency_count,covered_agency_count,population_covered,agency_count_nibrs_submitting,agency_count_leoka_submitting,agency_count_pe_submitting,agency_count_srs_submitting"
  }, {
    "data_year" : 2002,
    "population" : 3511372,
    "total_agency_count" : 247,
    "published_agency_count" : 247,
    "active_agency_count" : 247,
    "covered_agency_count" : 0,
    "population_covered" : 0,
    "agency_count_nibrs_submitting" : 247,
    "agency_count_leoka_submitting" : 0,
    "agency_count_pe_submitting" : 247,
    "agency_count_srs_submitting" : 247,
    "state_id" : 16,
    "state_abbr" : "IA",
    "csv_header" : "data_year,population,total_agency_count,published_agency_count,active_agency_count,covered_agency_count,population_covered,agency_count_nibrs_submitting,agency_count_leoka_submitting,agency_count_pe_submitting,agency_count_srs_submitting"
  }, {
    "data_year" : 2001,
    "population" : 3652073,
    "total_agency_count" : 249,
    "published_agency_count" : 249,
    "active_agency_count" : 249,
    "covered_agency_count" : 0,
    "population_covered" : 0,
    "agency_count_nibrs_submitting" : 249,
    "agency_count_leoka_submitting" : 0,
    "agency_count_pe_submitting" : 249,
    "agency_count_srs_submitting" : 249,
    "state_id" : 16,
    "state_abbr" : "IA",
    "csv_header" : "data_year,population,total_agency_count,published_agency_count,active_agency_count,covered_agency_count,population_covered,agency_count_nibrs_submitting,agency_count_leoka_submitting,agency_count_pe_submitting,agency_count_srs_submitting"
  }, {
    "data_year" : 2000,
    "population" : 3565389,
    "total_agency_count" : 246,
    "published_agency_count" : 246,
    "active_agency_count" : 246,
    "covered_agency_count" : 0,
    "population_covered" : 0,
    "agency_count_nibrs_submitting" : 246,
    "agency_count_leoka_submitting" : 0,
    "agency_count_pe_submitting" : 246,
    "agency_count_srs_submitting" : 246,
    "state_id" : 16,
    "state_abbr" : "IA",
    "csv_header" : "data_year,population,total_agency_count,published_agency_count,active_agency_count,covered_agency_count,population_covered,agency_count_nibrs_submitting,agency_count_leoka_submitting,agency_count_pe_submitting,agency_count_srs_submitting"
  } ],
  "pagination" : {
    "count" : 25,
    "page" : 0,
    "pages" : 2,
    "per_page" : 20
  }
}