{
  "results" : [ {
    "data_year" : 2019,
    "population" : 1779810,
    "total_agency_count" : 0,
    "published_agency_count" : 0,
    "active_agency_count" : 0,
    "covered_agency_count" : 0,
    "population_covered" : 0,
    "agency_count_nibrs_submitting" : 0,
    "agency_count_leoka_submitting" : 0,
    "agency_count_pe_submitting" : 0,
    "agency_count_srs_submitting" : 0,
    "state_id" : 17,
    "state_abbr" : "ID",
    "csv_header" : "data_year,population,total_agency_count,published_agency_count,active_agency_count,covered_agency_count,population_covered,agency_count_nibrs_submitting,agency_count_leoka_submitting,agency_count_pe_submitting,agency_count_srs_submitting"
  }, {
    "data_year" : 2018,
    "population" : 3289248,
    "total_agency_count" : 136,
    "published_agency_count" : 136,
    "active_agency_count" : 136,
    "covered_agency_count" : 0,
    "population_covered" : 0,
    "agency_count_nibrs_submitting" : 136,
    "agency_count_leoka_submitting" : 136,
    "agency_count_pe_submitting" : 136,
    "agency_count_srs_submitting" : 136,
    "state_id" : 17,
    "state_abbr" : "ID",
    "csv_header" : "data_year,population,total_agency_count,published_agency_count,active_agency_count,covered_agency_count,population_covered,agency_count_nibrs_submitting,agency_count_leoka_submitting,agency_count_pe_submitting,agency_count_srs_submitting"
  }, {
    "data_year" : 2017,
    "population" : 1779810,
    "total_agency_count" : 108,
    "published_agency_count" : 108,
    "active_agency_count" : 108,
    "covered_agency_count" : 0,
    "population_covered" : 0,
    "agency_count_nibrs_submitting" : 104,
    "agency_count_leoka_submitting" : 104,
    "agency_count_pe_submitting" : 108,
    "agency_count_srs_submitting" : 108,
    "state_id" : 17,
    "state_abbr" : "ID",
    "csv_header" : "data_year,population,total_agency_count,published_agency_count,active_agency_count,covered_agency_count,population_covered,agency_count_nibrs_submitting,agency_count_leoka_submitting,agency_count_pe_submitting,agency_count_srs_submitting"
  }, {
    "data_year" : 2016,
    "population" : 1743721,
    "total_agency_count" : 112,
    "published_agency_count" : 112,
    "active_agency_count" : 112,
    "covered_agency_count" : 0,
    "population_covered" : 0,
    "agency_count_nibrs_submitting" : 108,
    "agency_count_leoka_submitting" : 108,
    "agency_count_pe_submitting" : 112,
    "agency_count_srs_submitting" : 112,
    "state_id" : 17,
    "state_abbr" : "ID",
    "csv_header" : "data_year,population,total_agency_count,published_agency_count,active_agency_count,covered_agency_count,population_covered,agency_count_nibrs_submitting,agency_count_leoka_submitting,agency_count_pe_submitting,agency_count_srs_submitting"
  }, {
    "data_year" : 2015,
    "population" : 1732511,
    "total_agency_count" : 114,
    "published_agency_count" : 114,
    "active_agency_count" : 114,
    "covered_agency_count" : 0,
    "population_covered" : 0,
    "agency_count_nibrs_submitting" : 110,
    "agency_count_leoka_submitting" : 110,
    "agency_count_pe_submitting" : 114,
    "agency_count_srs_submitting" : 114,
    "state_id" : 17,
    "state_abbr" : "ID",
    "csv_header" : "data_year,population,total_agency_count,published_agency_count,active_agency_count,covered_agency_count,population_covered,agency_count_nibrs_submitting,agency_count_leoka_submitting,agency_count_pe_submitting,agency_count_srs_submitting"
  }, {
    "data_year" : 2014,
    "population" : 1692343,
    "total_agency_count" : 113,
    "published_agency_count" : 113,
    "active_agency_count" : 113,
    "covered_agency_count" : 0,
    "population_covered" : 0,
    "agency_count_nibrs_submitting" : 109,
    "agency_count_leoka_submitting" : 109,
    "agency_count_pe_submitting" : 113,
    "agency_count_srs_submitting" : 113,
    "state_id" : 17,
    "state_abbr" : "ID",
    "csv_header" : "data_year,population,total_agency_count,published_agency_count,active_agency_count,covered_agency_count,population_covered,agency_count_nibrs_submitting,agency_count_leoka_submitting,agency_count_pe_submitting,agency_count_srs_submitting"
  }, {
    "data_year" : 2013,
    "population" : 1685521,
    "total_agency_count" : 112,
    "published_agency_count" : 112,
    "active_agency_count" : 112,
    "covered_agency_count" : 0,
    "population_covered" : 0,
    "agency_count_nibrs_submitting" : 109,
    "agency_count_leoka_submitting" : 109,
    "agency_count_pe_submitting" : 112,
    "agency_count_srs_submitting" : 112,
    "state_id" : 17,
    "state_abbr" : "ID",
    "csv_header" : "data_year,population,total_agency_count,published_agency_count,active_agency_count,covered_agency_count,population_covered,agency_count_nibrs_submitting,agency_count_leoka_submitting,agency_count_pe_submitting,agency_count_srs_submitting"
  }, {
    "data_year" : 2012,
    "population" : 1670163,
    "total_agency_count" : 115,
    "published_agency_count" : 115,
    "active_agency_count" : 115,
    "covered_agency_count" : 0,
    "population_covered" : 0,
    "agency_count_nibrs_submitting" : 112,
    "agency_count_leoka_submitting" : 112,
    "agency_count_pe_submitting" : 115,
    "agency_count_srs_submitting" : 115,
    "state_id" : 17,
    "state_abbr" : "ID",
    "csv_header" : "data_year,population,total_agency_count,published_agency_count,active_agency_count,covered_agency_count,population_covered,agency_count_nibrs_submitting,agency_count_leoka_submitting,agency_count_pe_submitting,agency_count_srs_submitting"
  }, {
    "data_year" : 2011,
    "population" : 1662947,
    "total_agency_count" : 115,
    "published_agency_count" : 115,
    "active_agency_count" : 115,
    "covered_agency_count" : 0,
    "population_covered" : 0,
    "agency_count_nibrs_submitting" : 112,
    "agency_count_leoka_submitting" : 109,
    "agency_count_pe_submitting" : 115,
    "agency_count_srs_submitting" : 115,
    "state_id" : 17,
    "state_abbr" : "ID",
    "csv_header" : "data_year,population,total_agency_count,published_agency_count,active_agency_count,covered_agency_count,population_covered,agency_count_nibrs_submitting,agency_count_leoka_submitting,agency_count_pe_submitting,agency_count_srs_submitting"
  }, {
    "data_year" : 2010,
    "population" : 1695574,
    "total_agency_count" : 112,
    "published_agency_count" : 112,
    "active_agency_count" : 112,
    "covered_agency_count" : 0,
    "population_covered" : 0,
    "agency_count_nibrs_submitting" : 109,
    "agency_count_leoka_submitting" : 84,
    "agency_count_pe_submitting" : 112,
    "agency_count_srs_submitting" : 112,
    "state_id" : 17,
    "state_abbr" : "ID",
    "csv_header" : "data_year,population,total_agency_count,published_agency_count,active_agency_count,covered_agency_count,population_covered,agency_count_nibrs_submitting,agency_count_leoka_submitting,agency_count_pe_submitting,agency_count_srs_submitting"
  }, {
    "data_year" : 2009,
    "population" : 1620426,
    "total_agency_count" : 111,
    "published_agency_count" : 111,
    "active_agency_count" : 111,
    "covered_agency_count" : 0,
    "population_covered" : 0,
    "agency_count_nibrs_submitting" : 108,
    "agency_count_leoka_submitting" : 0,
    "agency_count_pe_submitting" : 111,
    "agency_count_srs_submitting" : 111,
    "state_id" : 17,
    "state_abbr" : "ID",
    "csv_header" : "data_year,population,total_agency_count,published_agency_count,active_agency_count,covered_agency_count,population_covered,agency_count_nibrs_submitting,agency_count_leoka_submitting,agency_count_pe_submitting,agency_count_srs_submitting"
  }, {
    "data_year" : 2008,
    "population" : 1575635,
    "total_agency_count" : 110,
    "published_agency_count" : 110,
    "active_agency_count" : 110,
    "covered_agency_count" : 0,
    "population_covered" : 0,
    "agency_count_nibrs_submitting" : 107,
    "agency_count_leoka_submitting" : 0,
    "agency_count_pe_submitting" : 110,
    "agency_count_srs_submitting" : 110,
    "state_id" : 17,
    "state_abbr" : "ID",
    "csv_header" : "data_year,population,total_agency_count,published_agency_count,active_agency_count,covered_agency_count,population_covered,agency_count_nibrs_submitting,agency_count_leoka_submitting,agency_count_pe_submitting,agency_count_srs_submitting"
  }, {
    "data_year" : 2007,
    "population" : 1550280,
    "total_agency_count" : 112,
    "published_agency_count" : 112,
    "active_agency_count" : 112,
    "covered_agency_count" : 0,
    "population_covered" : 0,
    "agency_count_nibrs_submitting" : 109,
    "agency_count_leoka_submitting" : 0,
    "agency_count_pe_submitting" : 112,
    "agency_count_srs_submitting" : 112,
    "state_id" : 17,
    "state_abbr" : "ID",
    "csv_header" : "data_year,population,total_agency_count,published_agency_count,active_agency_count,covered_agency_count,population_covered,agency_count_nibrs_submitting,agency_count_leoka_submitting,agency_count_pe_submitting,agency_count_srs_submitting"
  }, {
    "data_year" : 2006,
    "population" : 1537222,
    "total_agency_count" : 113,
    "published_agency_count" : 113,
    "active_agency_count" : 113,
    "covered_agency_count" : 0,
    "population_covered" : 0,
    "agency_count_nibrs_submitting" : 110,
    "agency_count_leoka_submitting" : 0,
    "agency_count_pe_submitting" : 113,
    "agency_count_srs_submitting" : 113,
    "state_id" : 17,
    "state_abbr" : "ID",
    "csv_header" : "data_year,population,total_agency_count,published_agency_count,active_agency_count,covered_agency_count,population_covered,agency_count_nibrs_submitting,agency_count_leoka_submitting,agency_count_pe_submitting,agency_count_srs_submitting"
  }, {
    "data_year" : 2005,
    "population" : 1649378,
    "total_agency_count" : 119,
    "published_agency_count" : 119,
    "active_agency_count" : 119,
    "covered_agency_count" : 0,
    "population_covered" : 0,
    "agency_count_nibrs_submitting" : 119,
    "agency_count_leoka_submitting" : 0,
    "agency_count_pe_submitting" : 119,
    "agency_count_srs_submitting" : 119,
    "state_id" : 17,
    "state_abbr" : "ID",
    "csv_header" : "data_year,population,total_agency_count,published_agency_count,active_agency_count,covered_agency_count,population_covered,agency_count_nibrs_submitting,agency_count_leoka_submitting,agency_count_pe_submitting,agency_count_srs_submitting"
  }, {
    "data_year" : 2004,
    "population" : 1443504,
    "total_agency_count" : 122,
    "published_agency_count" : 122,
    "active_agency_count" : 122,
    "covered_agency_count" : 0,
    "population_covered" : 0,
    "agency_count_nibrs_submitting" : 121,
    "agency_count_leoka_submitting" : 0,
    "agency_count_pe_submitting" : 122,
    "agency_count_srs_submitting" : 122,
    "state_id" : 17,
    "state_abbr" : "ID",
    "csv_header" : "data_year,population,total_agency_count,published_agency_count,active_agency_count,covered_agency_count,population_covered,agency_count_nibrs_submitting,agency_count_leoka_submitting,agency_count_pe_submitting,agency_count_srs_submitting"
  }, {
    "data_year" : 2003,
    "population" : 1423233,
    "total_agency_count" : 123,
    "published_agency_count" : 123,
    "active_agency_count" : 123,
    "covered_agency_count" : 0,
    "population_covered" : 0,
    "agency_count_nibrs_submitting" : 121,
    "agency_count_leoka_submitting" : 0,
    "agency_count_pe_submitting" : 123,
    "agency_count_srs_submitting" : 123,
    "state_id" : 17,
    "state_abbr" : "ID",
    "csv_header" : "data_year,population,total_agency_count,published_agency_count,active_agency_count,covered_agency_count,population_covered,agency_count_nibrs_submitting,agency_count_leoka_submitting,agency_count_pe_submitting,agency_count_srs_submitting"
  }, {
    "data_year" : 2002,
    "population" : 1397903,
    "total_agency_count" : 119,
    "published_agency_count" : 119,
    "active_agency_count" : 119,
    "covered_agency_count" : 0,
    "population_covered" : 0,
    "agency_count_nibrs_submitting" : 116,
    "agency_count_leoka_submitting" : 0,
    "agency_count_pe_submitting" : 119,
    "agency_count_srs_submitting" : 119,
    "state_id" : 17,
    "state_abbr" : "ID",
    "csv_header" : "data_year,population,total_agency_count,published_agency_count,active_agency_count,covered_agency_count,population_covered,agency_count_nibrs_submitting,agency_count_leoka_submitting,agency_count_pe_submitting,agency_count_srs_submitting"
  }, {
    "data_year" : 2001,
    "population" : 1364496,
    "total_agency_count" : 115,
    "published_agency_count" : 115,
    "active_agency_count" : 115,
    "covered_agency_count" : 0,
    "population_covered" : 0,
    "agency_count_nibrs_submitting" : 111,
    "agency_count_leoka_submitting" : 0,
    "agency_count_pe_submitting" : 115,
    "agency_count_srs_submitting" : 115,
    "state_id" : 17,
    "state_abbr" : "ID",
    "csv_header" : "data_year,population,total_agency_count,published_agency_count,active_agency_count,covered_agency_count,population_covered,agency_count_nibrs_submitting,agency_count_leoka_submitting,agency_count_pe_submitting,agency_count_srs_submitting"
  }, {
    "data_year" : 2000,
    "population" : 1345069,
    "total_agency_count" : 120,
    "published_agency_count" : 120,
    "active_agency_count" : 120,
    "covered_agency_count" : 0,
    "population_covered" : 0,
    "agency_count_nibrs_submitting" : 116,
    "agency_count_leoka_submitting" : 0,
    "agency_count_pe_submitting" : 120,
    "agency_count_srs_submitting" : 120,
    "state_id" : 17,
    "state_abbr" : "ID",
    "csv_header" : "data_year,population,total_agency_count,published_agency_count,active_agency_count,covered_agency_count,population_covered,agency_count_nibrs_submitting,agency_count_leoka_submitting,agency_count_pe_submitting,agency_count_srs_submitting"
  } ],
  "pagination" : {
    "count" : 25,
    "page" : 0,
    "pages" : 2,
    "per_page" : 20
  }
}