{
  "results" : [ {
    "data_year" : 2019,
    "population" : 12871297,
    "total_agency_count" : 0,
    "published_agency_count" : 0,
    "active_agency_count" : 0,
    "covered_agency_count" : 0,
    "population_covered" : 0,
    "agency_count_nibrs_submitting" : 0,
    "agency_count_leoka_submitting" : 0,
    "agency_count_pe_submitting" : 0,
    "agency_count_srs_submitting" : 0,
    "state_id" : 18,
    "state_abbr" : "IL",
    "csv_header" : "data_year,population,total_agency_count,published_agency_count,active_agency_count,covered_agency_count,population_covered,agency_count_nibrs_submitting,agency_count_leoka_submitting,agency_count_pe_submitting,agency_count_srs_submitting"
  }, {
    "data_year" : 2018,
    "population" : 13018067,
    "total_agency_count" : 564,
    "published_agency_count" : 564,
    "active_agency_count" : 564,
    "covered_agency_count" : 0,
    "population_covered" : 0,
    "agency_count_nibrs_submitting" : 2,
    "agency_count_leoka_submitting" : 2,
    "agency_count_pe_submitting" : 564,
    "agency_count_srs_submitting" : 564,
    "state_id" : 18,
    "state_abbr" : "IL",
    "csv_header" : "data_year,population,total_agency_count,published_agency_count,active_agency_count,covered_agency_count,population_covered,agency_count_nibrs_submitting,agency_count_leoka_submitting,agency_count_pe_submitting,agency_count_srs_submitting"
  }, {
    "data_year" : 2017,
    "population" : 12911525,
    "total_agency_count" : 740,
    "published_agency_count" : 740,
    "active_agency_count" : 740,
    "covered_agency_count" : 0,
    "population_covered" : 0,
    "agency_count_nibrs_submitting" : 1,
    "agency_count_leoka_submitting" : 1,
    "agency_count_pe_submitting" : 740,
    "agency_count_srs_submitting" : 740,
    "state_id" : 18,
    "state_abbr" : "IL",
    "csv_header" : "data_year,population,total_agency_count,published_agency_count,active_agency_count,covered_agency_count,population_covered,agency_count_nibrs_submitting,agency_count_leoka_submitting,agency_count_pe_submitting,agency_count_srs_submitting"
  }, {
    "data_year" : 2016,
    "population" : 12985528,
    "total_agency_count" : 746,
    "published_agency_count" : 746,
    "active_agency_count" : 746,
    "covered_agency_count" : 0,
    "population_covered" : 0,
    "agency_count_nibrs_submitting" : 1,
    "agency_count_leoka_submitting" : 1,
    "agency_count_pe_submitting" : 746,
    "agency_count_srs_submitting" : 746,
    "state_id" : 18,
    "state_abbr" : "IL",
    "csv_header" : "data_year,population,total_agency_count,published_agency_count,active_agency_count,covered_agency_count,population_covered,agency_count_nibrs_submitting,agency_count_leoka_submitting,agency_count_pe_submitting,agency_count_srs_submitting"
  }, {
    "data_year" : 2015,
    "population" : 13117464,
    "total_agency_count" : 757,
    "published_agency_count" : 757,
    "active_agency_count" : 757,
    "covered_agency_count" : 0,
    "population_covered" : 0,
    "agency_count_nibrs_submitting" : 1,
    "agency_count_leoka_submitting" : 1,
    "agency_count_pe_submitting" : 757,
    "agency_count_srs_submitting" : 757,
    "state_id" : 18,
    "state_abbr" : "IL",
    "csv_header" : "data_year,population,total_agency_count,published_agency_count,active_agency_count,covered_agency_count,population_covered,agency_count_nibrs_submitting,agency_count_leoka_submitting,agency_count_pe_submitting,agency_count_srs_submitting"
  }, {
    "data_year" : 2014,
    "population" : 13023192,
    "total_agency_count" : 751,
    "published_agency_count" : 751,
    "active_agency_count" : 751,
    "covered_agency_count" : 0,
    "population_covered" : 0,
    "agency_count_nibrs_submitting" : 1,
    "agency_count_leoka_submitting" : 1,
    "agency_count_pe_submitting" : 751,
    "agency_count_srs_submitting" : 751,
    "state_id" : 18,
    "state_abbr" : "IL",
    "csv_header" : "data_year,population,total_agency_count,published_agency_count,active_agency_count,covered_agency_count,population_covered,agency_count_nibrs_submitting,agency_count_leoka_submitting,agency_count_pe_submitting,agency_count_srs_submitting"
  }, {
    "data_year" : 2013,
    "population" : 13054780,
    "total_agency_count" : 754,
    "published_agency_count" : 754,
    "active_agency_count" : 754,
    "covered_agency_count" : 0,
    "population_covered" : 0,
    "agency_count_nibrs_submitting" : 1,
    "agency_count_leoka_submitting" : 1,
    "agency_count_pe_submitting" : 754,
    "agency_count_srs_submitting" : 754,
    "state_id" : 18,
    "state_abbr" : "IL",
    "csv_header" : "data_year,population,total_agency_count,published_agency_count,active_agency_count,covered_agency_count,population_covered,agency_count_nibrs_submitting,agency_count_leoka_submitting,agency_count_pe_submitting,agency_count_srs_submitting"
  }, {
    "data_year" : 2012,
    "population" : 13076273,
    "total_agency_count" : 740,
    "published_agency_count" : 740,
    "active_agency_count" : 740,
    "covered_agency_count" : 0,
    "population_covered" : 0,
    "agency_count_nibrs_submitting" : 1,
    "agency_count_leoka_submitting" : 1,
    "agency_count_pe_submitting" : 740,
    "agency_count_srs_submitting" : 740,
    "state_id" : 18,
    "state_abbr" : "IL",
    "csv_header" : "data_year,population,total_agency_count,published_agency_count,active_agency_count,covered_agency_count,population_covered,agency_count_nibrs_submitting,agency_count_leoka_submitting,agency_count_pe_submitting,agency_count_srs_submitting"
  }, {
    "data_year" : 2011,
    "population" : 12995173,
    "total_agency_count" : 712,
    "published_agency_count" : 712,
    "active_agency_count" : 712,
    "covered_agency_count" : 0,
    "population_covered" : 0,
    "agency_count_nibrs_submitting" : 1,
    "agency_count_leoka_submitting" : 1,
    "agency_count_pe_submitting" : 712,
    "agency_count_srs_submitting" : 712,
    "state_id" : 18,
    "state_abbr" : "IL",
    "csv_header" : "data_year,population,total_agency_count,published_agency_count,active_agency_count,covered_agency_count,population_covered,agency_count_nibrs_submitting,agency_count_leoka_submitting,agency_count_pe_submitting,agency_count_srs_submitting"
  }, {
    "data_year" : 2010,
    "population" : 12953308,
    "total_agency_count" : 726,
    "published_agency_count" : 726,
    "active_agency_count" : 726,
    "covered_agency_count" : 0,
    "population_covered" : 0,
    "agency_count_nibrs_submitting" : 1,
    "agency_count_leoka_submitting" : 1,
    "agency_count_pe_submitting" : 726,
    "agency_count_srs_submitting" : 726,
    "state_id" : 18,
    "state_abbr" : "IL",
    "csv_header" : "data_year,population,total_agency_count,published_agency_count,active_agency_count,covered_agency_count,population_covered,agency_count_nibrs_submitting,agency_count_leoka_submitting,agency_count_pe_submitting,agency_count_srs_submitting"
  }, {
    "data_year" : 2009,
    "population" : 13914378,
    "total_agency_count" : 283,
    "published_agency_count" : 283,
    "active_agency_count" : 283,
    "covered_agency_count" : 0,
    "population_covered" : 0,
    "agency_count_nibrs_submitting" : 1,
    "agency_count_leoka_submitting" : 1,
    "agency_count_pe_submitting" : 283,
    "agency_count_srs_submitting" : 283,
    "state_id" : 18,
    "state_abbr" : "IL",
    "csv_header" : "data_year,population,total_agency_count,published_agency_count,active_agency_count,covered_agency_count,population_covered,agency_count_nibrs_submitting,agency_count_leoka_submitting,agency_count_pe_submitting,agency_count_srs_submitting"
  }, {
    "data_year" : 2008,
    "population" : 13005246,
    "total_agency_count" : 223,
    "published_agency_count" : 223,
    "active_agency_count" : 223,
    "covered_agency_count" : 0,
    "population_covered" : 0,
    "agency_count_nibrs_submitting" : 1,
    "agency_count_leoka_submitting" : 1,
    "agency_count_pe_submitting" : 223,
    "agency_count_srs_submitting" : 223,
    "state_id" : 18,
    "state_abbr" : "IL",
    "csv_header" : "data_year,population,total_agency_count,published_agency_count,active_agency_count,covered_agency_count,population_covered,agency_count_nibrs_submitting,agency_count_leoka_submitting,agency_count_pe_submitting,agency_count_srs_submitting"
  }, {
    "data_year" : 2007,
    "population" : 12950887,
    "total_agency_count" : 213,
    "published_agency_count" : 213,
    "active_agency_count" : 213,
    "covered_agency_count" : 0,
    "population_covered" : 0,
    "agency_count_nibrs_submitting" : 1,
    "agency_count_leoka_submitting" : 1,
    "agency_count_pe_submitting" : 213,
    "agency_count_srs_submitting" : 213,
    "state_id" : 18,
    "state_abbr" : "IL",
    "csv_header" : "data_year,population,total_agency_count,published_agency_count,active_agency_count,covered_agency_count,population_covered,agency_count_nibrs_submitting,agency_count_leoka_submitting,agency_count_pe_submitting,agency_count_srs_submitting"
  }, {
    "data_year" : 2006,
    "population" : 12971437,
    "total_agency_count" : 205,
    "published_agency_count" : 205,
    "active_agency_count" : 205,
    "covered_agency_count" : 0,
    "population_covered" : 0,
    "agency_count_nibrs_submitting" : 1,
    "agency_count_leoka_submitting" : 1,
    "agency_count_pe_submitting" : 205,
    "agency_count_srs_submitting" : 205,
    "state_id" : 18,
    "state_abbr" : "IL",
    "csv_header" : "data_year,population,total_agency_count,published_agency_count,active_agency_count,covered_agency_count,population_covered,agency_count_nibrs_submitting,agency_count_leoka_submitting,agency_count_pe_submitting,agency_count_srs_submitting"
  }, {
    "data_year" : 2005,
    "population" : 12979219,
    "total_agency_count" : 8,
    "published_agency_count" : 8,
    "active_agency_count" : 8,
    "covered_agency_count" : 0,
    "population_covered" : 0,
    "agency_count_nibrs_submitting" : 2,
    "agency_count_leoka_submitting" : 0,
    "agency_count_pe_submitting" : 8,
    "agency_count_srs_submitting" : 8,
    "state_id" : 18,
    "state_abbr" : "IL",
    "csv_header" : "data_year,population,total_agency_count,published_agency_count,active_agency_count,covered_agency_count,population_covered,agency_count_nibrs_submitting,agency_count_leoka_submitting,agency_count_pe_submitting,agency_count_srs_submitting"
  }, {
    "data_year" : 2004,
    "population" : 12932050,
    "total_agency_count" : 8,
    "published_agency_count" : 8,
    "active_agency_count" : 8,
    "covered_agency_count" : 0,
    "population_covered" : 0,
    "agency_count_nibrs_submitting" : 2,
    "agency_count_leoka_submitting" : 0,
    "agency_count_pe_submitting" : 8,
    "agency_count_srs_submitting" : 8,
    "state_id" : 18,
    "state_abbr" : "IL",
    "csv_header" : "data_year,population,total_agency_count,published_agency_count,active_agency_count,covered_agency_count,population_covered,agency_count_nibrs_submitting,agency_count_leoka_submitting,agency_count_pe_submitting,agency_count_srs_submitting"
  }, {
    "data_year" : 2003,
    "population" : 12871302,
    "total_agency_count" : 8,
    "published_agency_count" : 8,
    "active_agency_count" : 8,
    "covered_agency_count" : 0,
    "population_covered" : 0,
    "agency_count_nibrs_submitting" : 2,
    "agency_count_leoka_submitting" : 0,
    "agency_count_pe_submitting" : 8,
    "agency_count_srs_submitting" : 8,
    "state_id" : 18,
    "state_abbr" : "IL",
    "csv_header" : "data_year,population,total_agency_count,published_agency_count,active_agency_count,covered_agency_count,population_covered,agency_count_nibrs_submitting,agency_count_leoka_submitting,agency_count_pe_submitting,agency_count_srs_submitting"
  }, {
    "data_year" : 2002,
    "population" : 12823437,
    "total_agency_count" : 8,
    "published_agency_count" : 8,
    "active_agency_count" : 8,
    "covered_agency_count" : 0,
    "population_covered" : 0,
    "agency_count_nibrs_submitting" : 2,
    "agency_count_leoka_submitting" : 0,
    "agency_count_pe_submitting" : 8,
    "agency_count_srs_submitting" : 8,
    "state_id" : 18,
    "state_abbr" : "IL",
    "csv_header" : "data_year,population,total_agency_count,published_agency_count,active_agency_count,covered_agency_count,population_covered,agency_count_nibrs_submitting,agency_count_leoka_submitting,agency_count_pe_submitting,agency_count_srs_submitting"
  }, {
    "data_year" : 2001,
    "population" : 12709255,
    "total_agency_count" : 8,
    "published_agency_count" : 8,
    "active_agency_count" : 8,
    "covered_agency_count" : 0,
    "population_covered" : 0,
    "agency_count_nibrs_submitting" : 2,
    "agency_count_leoka_submitting" : 0,
    "agency_count_pe_submitting" : 8,
    "agency_count_srs_submitting" : 8,
    "state_id" : 18,
    "state_abbr" : "IL",
    "csv_header" : "data_year,population,total_agency_count,published_agency_count,active_agency_count,covered_agency_count,population_covered,agency_count_nibrs_submitting,agency_count_leoka_submitting,agency_count_pe_submitting,agency_count_srs_submitting"
  }, {
    "data_year" : 2000,
    "population" : 12649892,
    "total_agency_count" : 7,
    "published_agency_count" : 7,
    "active_agency_count" : 7,
    "covered_agency_count" : 0,
    "population_covered" : 0,
    "agency_count_nibrs_submitting" : 2,
    "agency_count_leoka_submitting" : 0,
    "agency_count_pe_submitting" : 7,
    "agency_count_srs_submitting" : 7,
    "state_id" : 18,
    "state_abbr" : "IL",
    "csv_header" : "data_year,population,total_agency_count,published_agency_count,active_agency_count,covered_agency_count,population_covered,agency_count_nibrs_submitting,agency_count_leoka_submitting,agency_count_pe_submitting,agency_count_srs_submitting"
  } ],
  "pagination" : {
    "count" : 25,
    "page" : 0,
    "pages" : 2,
    "per_page" : 20
  }
}