{
  "results" : [ {
    "data_year" : 2019,
    "population" : 6677713,
    "total_agency_count" : 0,
    "published_agency_count" : 0,
    "active_agency_count" : 0,
    "covered_agency_count" : 0,
    "population_covered" : 0,
    "agency_count_nibrs_submitting" : 0,
    "agency_count_leoka_submitting" : 0,
    "agency_count_pe_submitting" : 0,
    "agency_count_srs_submitting" : 0,
    "state_id" : 19,
    "state_abbr" : "IN",
    "csv_header" : "data_year,population,total_agency_count,published_agency_count,active_agency_count,covered_agency_count,population_covered,agency_count_nibrs_submitting,agency_count_leoka_submitting,agency_count_pe_submitting,agency_count_srs_submitting"
  }, {
    "data_year" : 2018,
    "population" : 6677713,
    "total_agency_count" : 289,
    "published_agency_count" : 289,
    "active_agency_count" : 289,
    "covered_agency_count" : 0,
    "population_covered" : 0,
    "agency_count_nibrs_submitting" : 181,
    "agency_count_leoka_submitting" : 181,
    "agency_count_pe_submitting" : 289,
    "agency_count_srs_submitting" : 289,
    "state_id" : 19,
    "state_abbr" : "IN",
    "csv_header" : "data_year,population,total_agency_count,published_agency_count,active_agency_count,covered_agency_count,population_covered,agency_count_nibrs_submitting,agency_count_leoka_submitting,agency_count_pe_submitting,agency_count_srs_submitting"
  }, {
    "data_year" : 2017,
    "population" : 6677713,
    "total_agency_count" : 270,
    "published_agency_count" : 270,
    "active_agency_count" : 270,
    "covered_agency_count" : 0,
    "population_covered" : 0,
    "agency_count_nibrs_submitting" : 102,
    "agency_count_leoka_submitting" : 103,
    "agency_count_pe_submitting" : 270,
    "agency_count_srs_submitting" : 270,
    "state_id" : 19,
    "state_abbr" : "IN",
    "csv_header" : "data_year,population,total_agency_count,published_agency_count,active_agency_count,covered_agency_count,population_covered,agency_count_nibrs_submitting,agency_count_leoka_submitting,agency_count_pe_submitting,agency_count_srs_submitting"
  }, {
    "data_year" : 2016,
    "population" : 7745711,
    "total_agency_count" : 306,
    "published_agency_count" : 306,
    "active_agency_count" : 306,
    "covered_agency_count" : 0,
    "population_covered" : 0,
    "agency_count_nibrs_submitting" : 126,
    "agency_count_leoka_submitting" : 114,
    "agency_count_pe_submitting" : 306,
    "agency_count_srs_submitting" : 306,
    "state_id" : 19,
    "state_abbr" : "IN",
    "csv_header" : "data_year,population,total_agency_count,published_agency_count,active_agency_count,covered_agency_count,population_covered,agency_count_nibrs_submitting,agency_count_leoka_submitting,agency_count_pe_submitting,agency_count_srs_submitting"
  }, {
    "data_year" : 2015,
    "population" : 7010202,
    "total_agency_count" : 287,
    "published_agency_count" : 287,
    "active_agency_count" : 287,
    "covered_agency_count" : 0,
    "population_covered" : 0,
    "agency_count_nibrs_submitting" : 96,
    "agency_count_leoka_submitting" : 92,
    "agency_count_pe_submitting" : 287,
    "agency_count_srs_submitting" : 287,
    "state_id" : 19,
    "state_abbr" : "IN",
    "csv_header" : "data_year,population,total_agency_count,published_agency_count,active_agency_count,covered_agency_count,population_covered,agency_count_nibrs_submitting,agency_count_leoka_submitting,agency_count_pe_submitting,agency_count_srs_submitting"
  }, {
    "data_year" : 2014,
    "population" : 6835443,
    "total_agency_count" : 285,
    "published_agency_count" : 285,
    "active_agency_count" : 285,
    "covered_agency_count" : 0,
    "population_covered" : 0,
    "agency_count_nibrs_submitting" : 96,
    "agency_count_leoka_submitting" : 92,
    "agency_count_pe_submitting" : 285,
    "agency_count_srs_submitting" : 285,
    "state_id" : 19,
    "state_abbr" : "IN",
    "csv_header" : "data_year,population,total_agency_count,published_agency_count,active_agency_count,covered_agency_count,population_covered,agency_count_nibrs_submitting,agency_count_leoka_submitting,agency_count_pe_submitting,agency_count_srs_submitting"
  }, {
    "data_year" : 2013,
    "population" : 7078258,
    "total_agency_count" : 338,
    "published_agency_count" : 338,
    "active_agency_count" : 338,
    "covered_agency_count" : 0,
    "population_covered" : 0,
    "agency_count_nibrs_submitting" : 128,
    "agency_count_leoka_submitting" : 0,
    "agency_count_pe_submitting" : 338,
    "agency_count_srs_submitting" : 338,
    "state_id" : 19,
    "state_abbr" : "IN",
    "csv_header" : "data_year,population,total_agency_count,published_agency_count,active_agency_count,covered_agency_count,population_covered,agency_count_nibrs_submitting,agency_count_leoka_submitting,agency_count_pe_submitting,agency_count_srs_submitting"
  }, {
    "data_year" : 2012,
    "population" : 7073312,
    "total_agency_count" : 316,
    "published_agency_count" : 316,
    "active_agency_count" : 316,
    "covered_agency_count" : 0,
    "population_covered" : 0,
    "agency_count_nibrs_submitting" : 0,
    "agency_count_leoka_submitting" : 0,
    "agency_count_pe_submitting" : 316,
    "agency_count_srs_submitting" : 316,
    "state_id" : 19,
    "state_abbr" : "IN",
    "csv_header" : "data_year,population,total_agency_count,published_agency_count,active_agency_count,covered_agency_count,population_covered,agency_count_nibrs_submitting,agency_count_leoka_submitting,agency_count_pe_submitting,agency_count_srs_submitting"
  }, {
    "data_year" : 2011,
    "population" : 6670393,
    "total_agency_count" : 310,
    "published_agency_count" : 310,
    "active_agency_count" : 310,
    "covered_agency_count" : 0,
    "population_covered" : 0,
    "agency_count_nibrs_submitting" : 0,
    "agency_count_leoka_submitting" : 0,
    "agency_count_pe_submitting" : 310,
    "agency_count_srs_submitting" : 310,
    "state_id" : 19,
    "state_abbr" : "IN",
    "csv_header" : "data_year,population,total_agency_count,published_agency_count,active_agency_count,covered_agency_count,population_covered,agency_count_nibrs_submitting,agency_count_leoka_submitting,agency_count_pe_submitting,agency_count_srs_submitting"
  }, {
    "data_year" : 2010,
    "population" : 6704215,
    "total_agency_count" : 309,
    "published_agency_count" : 309,
    "active_agency_count" : 309,
    "covered_agency_count" : 0,
    "population_covered" : 0,
    "agency_count_nibrs_submitting" : 0,
    "agency_count_leoka_submitting" : 0,
    "agency_count_pe_submitting" : 309,
    "agency_count_srs_submitting" : 309,
    "state_id" : 19,
    "state_abbr" : "IN",
    "csv_header" : "data_year,population,total_agency_count,published_agency_count,active_agency_count,covered_agency_count,population_covered,agency_count_nibrs_submitting,agency_count_leoka_submitting,agency_count_pe_submitting,agency_count_srs_submitting"
  }, {
    "data_year" : 2009,
    "population" : 6603470,
    "total_agency_count" : 308,
    "published_agency_count" : 308,
    "active_agency_count" : 308,
    "covered_agency_count" : 0,
    "population_covered" : 0,
    "agency_count_nibrs_submitting" : 0,
    "agency_count_leoka_submitting" : 0,
    "agency_count_pe_submitting" : 308,
    "agency_count_srs_submitting" : 308,
    "state_id" : 19,
    "state_abbr" : "IN",
    "csv_header" : "data_year,population,total_agency_count,published_agency_count,active_agency_count,covered_agency_count,population_covered,agency_count_nibrs_submitting,agency_count_leoka_submitting,agency_count_pe_submitting,agency_count_srs_submitting"
  }, {
    "data_year" : 2008,
    "population" : 6564511,
    "total_agency_count" : 304,
    "published_agency_count" : 304,
    "active_agency_count" : 304,
    "covered_agency_count" : 0,
    "population_covered" : 0,
    "agency_count_nibrs_submitting" : 0,
    "agency_count_leoka_submitting" : 0,
    "agency_count_pe_submitting" : 304,
    "agency_count_srs_submitting" : 304,
    "state_id" : 19,
    "state_abbr" : "IN",
    "csv_header" : "data_year,population,total_agency_count,published_agency_count,active_agency_count,covered_agency_count,population_covered,agency_count_nibrs_submitting,agency_count_leoka_submitting,agency_count_pe_submitting,agency_count_srs_submitting"
  }, {
    "data_year" : 2007,
    "population" : 6497294,
    "total_agency_count" : 303,
    "published_agency_count" : 303,
    "active_agency_count" : 303,
    "covered_agency_count" : 0,
    "population_covered" : 0,
    "agency_count_nibrs_submitting" : 0,
    "agency_count_leoka_submitting" : 0,
    "agency_count_pe_submitting" : 303,
    "agency_count_srs_submitting" : 303,
    "state_id" : 19,
    "state_abbr" : "IN",
    "csv_header" : "data_year,population,total_agency_count,published_agency_count,active_agency_count,covered_agency_count,population_covered,agency_count_nibrs_submitting,agency_count_leoka_submitting,agency_count_pe_submitting,agency_count_srs_submitting"
  }, {
    "data_year" : 2006,
    "population" : 6414971,
    "total_agency_count" : 299,
    "published_agency_count" : 299,
    "active_agency_count" : 299,
    "covered_agency_count" : 0,
    "population_covered" : 0,
    "agency_count_nibrs_submitting" : 0,
    "agency_count_leoka_submitting" : 0,
    "agency_count_pe_submitting" : 299,
    "agency_count_srs_submitting" : 299,
    "state_id" : 19,
    "state_abbr" : "IN",
    "csv_header" : "data_year,population,total_agency_count,published_agency_count,active_agency_count,covered_agency_count,population_covered,agency_count_nibrs_submitting,agency_count_leoka_submitting,agency_count_pe_submitting,agency_count_srs_submitting"
  }, {
    "data_year" : 2005,
    "population" : 6432599,
    "total_agency_count" : 281,
    "published_agency_count" : 281,
    "active_agency_count" : 281,
    "covered_agency_count" : 0,
    "population_covered" : 0,
    "agency_count_nibrs_submitting" : 0,
    "agency_count_leoka_submitting" : 0,
    "agency_count_pe_submitting" : 281,
    "agency_count_srs_submitting" : 281,
    "state_id" : 19,
    "state_abbr" : "IN",
    "csv_header" : "data_year,population,total_agency_count,published_agency_count,active_agency_count,covered_agency_count,population_covered,agency_count_nibrs_submitting,agency_count_leoka_submitting,agency_count_pe_submitting,agency_count_srs_submitting"
  }, {
    "data_year" : 2004,
    "population" : 6472976,
    "total_agency_count" : 285,
    "published_agency_count" : 285,
    "active_agency_count" : 285,
    "covered_agency_count" : 0,
    "population_covered" : 0,
    "agency_count_nibrs_submitting" : 0,
    "agency_count_leoka_submitting" : 0,
    "agency_count_pe_submitting" : 285,
    "agency_count_srs_submitting" : 285,
    "state_id" : 19,
    "state_abbr" : "IN",
    "csv_header" : "data_year,population,total_agency_count,published_agency_count,active_agency_count,covered_agency_count,population_covered,agency_count_nibrs_submitting,agency_count_leoka_submitting,agency_count_pe_submitting,agency_count_srs_submitting"
  }, {
    "data_year" : 2003,
    "population" : 6343592,
    "total_agency_count" : 284,
    "published_agency_count" : 284,
    "active_agency_count" : 284,
    "covered_agency_count" : 0,
    "population_covered" : 0,
    "agency_count_nibrs_submitting" : 0,
    "agency_count_leoka_submitting" : 0,
    "agency_count_pe_submitting" : 284,
    "agency_count_srs_submitting" : 284,
    "state_id" : 19,
    "state_abbr" : "IN",
    "csv_header" : "data_year,population,total_agency_count,published_agency_count,active_agency_count,covered_agency_count,population_covered,agency_count_nibrs_submitting,agency_count_leoka_submitting,agency_count_pe_submitting,agency_count_srs_submitting"
  }, {
    "data_year" : 2002,
    "population" : 6403590,
    "total_agency_count" : 279,
    "published_agency_count" : 279,
    "active_agency_count" : 279,
    "covered_agency_count" : 0,
    "population_covered" : 0,
    "agency_count_nibrs_submitting" : 0,
    "agency_count_leoka_submitting" : 0,
    "agency_count_pe_submitting" : 279,
    "agency_count_srs_submitting" : 279,
    "state_id" : 19,
    "state_abbr" : "IN",
    "csv_header" : "data_year,population,total_agency_count,published_agency_count,active_agency_count,covered_agency_count,population_covered,agency_count_nibrs_submitting,agency_count_leoka_submitting,agency_count_pe_submitting,agency_count_srs_submitting"
  }, {
    "data_year" : 2001,
    "population" : 6381228,
    "total_agency_count" : 273,
    "published_agency_count" : 273,
    "active_agency_count" : 273,
    "covered_agency_count" : 0,
    "population_covered" : 0,
    "agency_count_nibrs_submitting" : 0,
    "agency_count_leoka_submitting" : 0,
    "agency_count_pe_submitting" : 273,
    "agency_count_srs_submitting" : 273,
    "state_id" : 19,
    "state_abbr" : "IN",
    "csv_header" : "data_year,population,total_agency_count,published_agency_count,active_agency_count,covered_agency_count,population_covered,agency_count_nibrs_submitting,agency_count_leoka_submitting,agency_count_pe_submitting,agency_count_srs_submitting"
  }, {
    "data_year" : 2000,
    "population" : 6316200,
    "total_agency_count" : 266,
    "published_agency_count" : 266,
    "active_agency_count" : 266,
    "covered_agency_count" : 0,
    "population_covered" : 0,
    "agency_count_nibrs_submitting" : 0,
    "agency_count_leoka_submitting" : 0,
    "agency_count_pe_submitting" : 266,
    "agency_count_srs_submitting" : 266,
    "state_id" : 19,
    "state_abbr" : "IN",
    "csv_header" : "data_year,population,total_agency_count,published_agency_count,active_agency_count,covered_agency_count,population_covered,agency_count_nibrs_submitting,agency_count_leoka_submitting,agency_count_pe_submitting,agency_count_srs_submitting"
  } ],
  "pagination" : {
    "count" : 25,
    "page" : 0,
    "pages" : 2,
    "per_page" : 20
  }
}