{
  "results" : [ {
    "data_year" : 2019,
    "population" : 3006891,
    "total_agency_count" : 0,
    "published_agency_count" : 0,
    "active_agency_count" : 0,
    "covered_agency_count" : 0,
    "population_covered" : 0,
    "agency_count_nibrs_submitting" : 0,
    "agency_count_leoka_submitting" : 0,
    "agency_count_pe_submitting" : 0,
    "agency_count_srs_submitting" : 0,
    "state_id" : 20,
    "state_abbr" : "KS",
    "csv_header" : "data_year,population,total_agency_count,published_agency_count,active_agency_count,covered_agency_count,population_covered,agency_count_nibrs_submitting,agency_count_leoka_submitting,agency_count_pe_submitting,agency_count_srs_submitting"
  }, {
    "data_year" : 2018,
    "population" : 4957346,
    "total_agency_count" : 521,
    "published_agency_count" : 521,
    "active_agency_count" : 521,
    "covered_agency_count" : 0,
    "population_covered" : 0,
    "agency_count_nibrs_submitting" : 521,
    "agency_count_leoka_submitting" : 0,
    "agency_count_pe_submitting" : 521,
    "agency_count_srs_submitting" : 521,
    "state_id" : 20,
    "state_abbr" : "KS",
    "csv_header" : "data_year,population,total_agency_count,published_agency_count,active_agency_count,covered_agency_count,population_covered,agency_count_nibrs_submitting,agency_count_leoka_submitting,agency_count_pe_submitting,agency_count_srs_submitting"
  }, {
    "data_year" : 2017,
    "population" : 3006891,
    "total_agency_count" : 370,
    "published_agency_count" : 369,
    "active_agency_count" : 370,
    "covered_agency_count" : 1,
    "population_covered" : 1424,
    "agency_count_nibrs_submitting" : 364,
    "agency_count_leoka_submitting" : 1,
    "agency_count_pe_submitting" : 370,
    "agency_count_srs_submitting" : 370,
    "state_id" : 20,
    "state_abbr" : "KS",
    "csv_header" : "data_year,population,total_agency_count,published_agency_count,active_agency_count,covered_agency_count,population_covered,agency_count_nibrs_submitting,agency_count_leoka_submitting,agency_count_pe_submitting,agency_count_srs_submitting"
  }, {
    "data_year" : 2016,
    "population" : 3460077,
    "total_agency_count" : 447,
    "published_agency_count" : 447,
    "active_agency_count" : 447,
    "covered_agency_count" : 0,
    "population_covered" : 0,
    "agency_count_nibrs_submitting" : 438,
    "agency_count_leoka_submitting" : 0,
    "agency_count_pe_submitting" : 447,
    "agency_count_srs_submitting" : 447,
    "state_id" : 20,
    "state_abbr" : "KS",
    "csv_header" : "data_year,population,total_agency_count,published_agency_count,active_agency_count,covered_agency_count,population_covered,agency_count_nibrs_submitting,agency_count_leoka_submitting,agency_count_pe_submitting,agency_count_srs_submitting"
  }, {
    "data_year" : 2015,
    "population" : 3493349,
    "total_agency_count" : 455,
    "published_agency_count" : 455,
    "active_agency_count" : 455,
    "covered_agency_count" : 0,
    "population_covered" : 0,
    "agency_count_nibrs_submitting" : 447,
    "agency_count_leoka_submitting" : 0,
    "agency_count_pe_submitting" : 455,
    "agency_count_srs_submitting" : 455,
    "state_id" : 20,
    "state_abbr" : "KS",
    "csv_header" : "data_year,population,total_agency_count,published_agency_count,active_agency_count,covered_agency_count,population_covered,agency_count_nibrs_submitting,agency_count_leoka_submitting,agency_count_pe_submitting,agency_count_srs_submitting"
  }, {
    "data_year" : 2014,
    "population" : 3766467,
    "total_agency_count" : 490,
    "published_agency_count" : 490,
    "active_agency_count" : 490,
    "covered_agency_count" : 0,
    "population_covered" : 0,
    "agency_count_nibrs_submitting" : 481,
    "agency_count_leoka_submitting" : 0,
    "agency_count_pe_submitting" : 490,
    "agency_count_srs_submitting" : 490,
    "state_id" : 20,
    "state_abbr" : "KS",
    "csv_header" : "data_year,population,total_agency_count,published_agency_count,active_agency_count,covered_agency_count,population_covered,agency_count_nibrs_submitting,agency_count_leoka_submitting,agency_count_pe_submitting,agency_count_srs_submitting"
  }, {
    "data_year" : 2013,
    "population" : 3419303,
    "total_agency_count" : 474,
    "published_agency_count" : 474,
    "active_agency_count" : 474,
    "covered_agency_count" : 0,
    "population_covered" : 0,
    "agency_count_nibrs_submitting" : 467,
    "agency_count_leoka_submitting" : 0,
    "agency_count_pe_submitting" : 474,
    "agency_count_srs_submitting" : 474,
    "state_id" : 20,
    "state_abbr" : "KS",
    "csv_header" : "data_year,population,total_agency_count,published_agency_count,active_agency_count,covered_agency_count,population_covered,agency_count_nibrs_submitting,agency_count_leoka_submitting,agency_count_pe_submitting,agency_count_srs_submitting"
  }, {
    "data_year" : 2012,
    "population" : 3359603,
    "total_agency_count" : 472,
    "published_agency_count" : 472,
    "active_agency_count" : 472,
    "covered_agency_count" : 0,
    "population_covered" : 0,
    "agency_count_nibrs_submitting" : 463,
    "agency_count_leoka_submitting" : 0,
    "agency_count_pe_submitting" : 472,
    "agency_count_srs_submitting" : 472,
    "state_id" : 20,
    "state_abbr" : "KS",
    "csv_header" : "data_year,population,total_agency_count,published_agency_count,active_agency_count,covered_agency_count,population_covered,agency_count_nibrs_submitting,agency_count_leoka_submitting,agency_count_pe_submitting,agency_count_srs_submitting"
  }, {
    "data_year" : 2011,
    "population" : 3313209,
    "total_agency_count" : 467,
    "published_agency_count" : 467,
    "active_agency_count" : 467,
    "covered_agency_count" : 0,
    "population_covered" : 0,
    "agency_count_nibrs_submitting" : 456,
    "agency_count_leoka_submitting" : 0,
    "agency_count_pe_submitting" : 467,
    "agency_count_srs_submitting" : 467,
    "state_id" : 20,
    "state_abbr" : "KS",
    "csv_header" : "data_year,population,total_agency_count,published_agency_count,active_agency_count,covered_agency_count,population_covered,agency_count_nibrs_submitting,agency_count_leoka_submitting,agency_count_pe_submitting,agency_count_srs_submitting"
  }, {
    "data_year" : 2010,
    "population" : 3335269,
    "total_agency_count" : 477,
    "published_agency_count" : 477,
    "active_agency_count" : 477,
    "covered_agency_count" : 0,
    "population_covered" : 0,
    "agency_count_nibrs_submitting" : 466,
    "agency_count_leoka_submitting" : 0,
    "agency_count_pe_submitting" : 477,
    "agency_count_srs_submitting" : 477,
    "state_id" : 20,
    "state_abbr" : "KS",
    "csv_header" : "data_year,population,total_agency_count,published_agency_count,active_agency_count,covered_agency_count,population_covered,agency_count_nibrs_submitting,agency_count_leoka_submitting,agency_count_pe_submitting,agency_count_srs_submitting"
  }, {
    "data_year" : 2009,
    "population" : 3517857,
    "total_agency_count" : 511,
    "published_agency_count" : 511,
    "active_agency_count" : 511,
    "covered_agency_count" : 0,
    "population_covered" : 0,
    "agency_count_nibrs_submitting" : 499,
    "agency_count_leoka_submitting" : 0,
    "agency_count_pe_submitting" : 511,
    "agency_count_srs_submitting" : 511,
    "state_id" : 20,
    "state_abbr" : "KS",
    "csv_header" : "data_year,population,total_agency_count,published_agency_count,active_agency_count,covered_agency_count,population_covered,agency_count_nibrs_submitting,agency_count_leoka_submitting,agency_count_pe_submitting,agency_count_srs_submitting"
  }, {
    "data_year" : 2008,
    "population" : 3482614,
    "total_agency_count" : 467,
    "published_agency_count" : 467,
    "active_agency_count" : 467,
    "covered_agency_count" : 0,
    "population_covered" : 0,
    "agency_count_nibrs_submitting" : 457,
    "agency_count_leoka_submitting" : 0,
    "agency_count_pe_submitting" : 467,
    "agency_count_srs_submitting" : 467,
    "state_id" : 20,
    "state_abbr" : "KS",
    "csv_header" : "data_year,population,total_agency_count,published_agency_count,active_agency_count,covered_agency_count,population_covered,agency_count_nibrs_submitting,agency_count_leoka_submitting,agency_count_pe_submitting,agency_count_srs_submitting"
  }, {
    "data_year" : 2007,
    "population" : 3369490,
    "total_agency_count" : 485,
    "published_agency_count" : 485,
    "active_agency_count" : 485,
    "covered_agency_count" : 0,
    "population_covered" : 0,
    "agency_count_nibrs_submitting" : 476,
    "agency_count_leoka_submitting" : 0,
    "agency_count_pe_submitting" : 485,
    "agency_count_srs_submitting" : 485,
    "state_id" : 20,
    "state_abbr" : "KS",
    "csv_header" : "data_year,population,total_agency_count,published_agency_count,active_agency_count,covered_agency_count,population_covered,agency_count_nibrs_submitting,agency_count_leoka_submitting,agency_count_pe_submitting,agency_count_srs_submitting"
  }, {
    "data_year" : 2006,
    "population" : 3313172,
    "total_agency_count" : 493,
    "published_agency_count" : 493,
    "active_agency_count" : 493,
    "covered_agency_count" : 0,
    "population_covered" : 0,
    "agency_count_nibrs_submitting" : 482,
    "agency_count_leoka_submitting" : 0,
    "agency_count_pe_submitting" : 493,
    "agency_count_srs_submitting" : 493,
    "state_id" : 20,
    "state_abbr" : "KS",
    "csv_header" : "data_year,population,total_agency_count,published_agency_count,active_agency_count,covered_agency_count,population_covered,agency_count_nibrs_submitting,agency_count_leoka_submitting,agency_count_pe_submitting,agency_count_srs_submitting"
  }, {
    "data_year" : 2005,
    "population" : 3243367,
    "total_agency_count" : 483,
    "published_agency_count" : 483,
    "active_agency_count" : 483,
    "covered_agency_count" : 0,
    "population_covered" : 0,
    "agency_count_nibrs_submitting" : 469,
    "agency_count_leoka_submitting" : 0,
    "agency_count_pe_submitting" : 483,
    "agency_count_srs_submitting" : 483,
    "state_id" : 20,
    "state_abbr" : "KS",
    "csv_header" : "data_year,population,total_agency_count,published_agency_count,active_agency_count,covered_agency_count,population_covered,agency_count_nibrs_submitting,agency_count_leoka_submitting,agency_count_pe_submitting,agency_count_srs_submitting"
  }, {
    "data_year" : 2004,
    "population" : 3283186,
    "total_agency_count" : 472,
    "published_agency_count" : 472,
    "active_agency_count" : 472,
    "covered_agency_count" : 0,
    "population_covered" : 0,
    "agency_count_nibrs_submitting" : 463,
    "agency_count_leoka_submitting" : 0,
    "agency_count_pe_submitting" : 472,
    "agency_count_srs_submitting" : 472,
    "state_id" : 20,
    "state_abbr" : "KS",
    "csv_header" : "data_year,population,total_agency_count,published_agency_count,active_agency_count,covered_agency_count,population_covered,agency_count_nibrs_submitting,agency_count_leoka_submitting,agency_count_pe_submitting,agency_count_srs_submitting"
  }, {
    "data_year" : 2003,
    "population" : 4157807,
    "total_agency_count" : 441,
    "published_agency_count" : 441,
    "active_agency_count" : 441,
    "covered_agency_count" : 0,
    "population_covered" : 0,
    "agency_count_nibrs_submitting" : 433,
    "agency_count_leoka_submitting" : 0,
    "agency_count_pe_submitting" : 441,
    "agency_count_srs_submitting" : 441,
    "state_id" : 20,
    "state_abbr" : "KS",
    "csv_header" : "data_year,population,total_agency_count,published_agency_count,active_agency_count,covered_agency_count,population_covered,agency_count_nibrs_submitting,agency_count_leoka_submitting,agency_count_pe_submitting,agency_count_srs_submitting"
  }, {
    "data_year" : 2002,
    "population" : 3440432,
    "total_agency_count" : 435,
    "published_agency_count" : 435,
    "active_agency_count" : 435,
    "covered_agency_count" : 0,
    "population_covered" : 0,
    "agency_count_nibrs_submitting" : 429,
    "agency_count_leoka_submitting" : 0,
    "agency_count_pe_submitting" : 435,
    "agency_count_srs_submitting" : 435,
    "state_id" : 20,
    "state_abbr" : "KS",
    "csv_header" : "data_year,population,total_agency_count,published_agency_count,active_agency_count,covered_agency_count,population_covered,agency_count_nibrs_submitting,agency_count_leoka_submitting,agency_count_pe_submitting,agency_count_srs_submitting"
  }, {
    "data_year" : 2001,
    "population" : 3742569,
    "total_agency_count" : 451,
    "published_agency_count" : 451,
    "active_agency_count" : 451,
    "covered_agency_count" : 0,
    "population_covered" : 0,
    "agency_count_nibrs_submitting" : 443,
    "agency_count_leoka_submitting" : 0,
    "agency_count_pe_submitting" : 451,
    "agency_count_srs_submitting" : 451,
    "state_id" : 20,
    "state_abbr" : "KS",
    "csv_header" : "data_year,population,total_agency_count,published_agency_count,active_agency_count,covered_agency_count,population_covered,agency_count_nibrs_submitting,agency_count_leoka_submitting,agency_count_pe_submitting,agency_count_srs_submitting"
  }, {
    "data_year" : 2000,
    "population" : 4149346,
    "total_agency_count" : 409,
    "published_agency_count" : 409,
    "active_agency_count" : 409,
    "covered_agency_count" : 0,
    "population_covered" : 0,
    "agency_count_nibrs_submitting" : 402,
    "agency_count_leoka_submitting" : 0,
    "agency_count_pe_submitting" : 409,
    "agency_count_srs_submitting" : 409,
    "state_id" : 20,
    "state_abbr" : "KS",
    "csv_header" : "data_year,population,total_agency_count,published_agency_count,active_agency_count,covered_agency_count,population_covered,agency_count_nibrs_submitting,agency_count_leoka_submitting,agency_count_pe_submitting,agency_count_srs_submitting"
  } ],
  "pagination" : {
    "count" : 25,
    "page" : 0,
    "pages" : 2,
    "per_page" : 20
  }
}