{
  "results" : [ {
    "data_year" : 2019,
    "population" : 4495007,
    "total_agency_count" : 0,
    "published_agency_count" : 0,
    "active_agency_count" : 0,
    "covered_agency_count" : 0,
    "population_covered" : 0,
    "agency_count_nibrs_submitting" : 0,
    "agency_count_leoka_submitting" : 0,
    "agency_count_pe_submitting" : 0,
    "agency_count_srs_submitting" : 0,
    "state_id" : 21,
    "state_abbr" : "KY",
    "csv_header" : "data_year,population,total_agency_count,published_agency_count,active_agency_count,covered_agency_count,population_covered,agency_count_nibrs_submitting,agency_count_leoka_submitting,agency_count_pe_submitting,agency_count_srs_submitting"
  }, {
    "data_year" : 2018,
    "population" : 8840332,
    "total_agency_count" : 724,
    "published_agency_count" : 724,
    "active_agency_count" : 724,
    "covered_agency_count" : 0,
    "population_covered" : 0,
    "agency_count_nibrs_submitting" : 724,
    "agency_count_leoka_submitting" : 722,
    "agency_count_pe_submitting" : 724,
    "agency_count_srs_submitting" : 724,
    "state_id" : 21,
    "state_abbr" : "KY",
    "csv_header" : "data_year,population,total_agency_count,published_agency_count,active_agency_count,covered_agency_count,population_covered,agency_count_nibrs_submitting,agency_count_leoka_submitting,agency_count_pe_submitting,agency_count_srs_submitting"
  }, {
    "data_year" : 2017,
    "population" : 4494059,
    "total_agency_count" : 494,
    "published_agency_count" : 438,
    "active_agency_count" : 493,
    "covered_agency_count" : 55,
    "population_covered" : 30386,
    "agency_count_nibrs_submitting" : 494,
    "agency_count_leoka_submitting" : 418,
    "agency_count_pe_submitting" : 494,
    "agency_count_srs_submitting" : 494,
    "state_id" : 21,
    "state_abbr" : "KY",
    "csv_header" : "data_year,population,total_agency_count,published_agency_count,active_agency_count,covered_agency_count,population_covered,agency_count_nibrs_submitting,agency_count_leoka_submitting,agency_count_pe_submitting,agency_count_srs_submitting"
  }, {
    "data_year" : 2016,
    "population" : 4514658,
    "total_agency_count" : 435,
    "published_agency_count" : 435,
    "active_agency_count" : 435,
    "covered_agency_count" : 0,
    "population_covered" : 0,
    "agency_count_nibrs_submitting" : 433,
    "agency_count_leoka_submitting" : 412,
    "agency_count_pe_submitting" : 435,
    "agency_count_srs_submitting" : 435,
    "state_id" : 21,
    "state_abbr" : "KY",
    "csv_header" : "data_year,population,total_agency_count,published_agency_count,active_agency_count,covered_agency_count,population_covered,agency_count_nibrs_submitting,agency_count_leoka_submitting,agency_count_pe_submitting,agency_count_srs_submitting"
  }, {
    "data_year" : 2015,
    "population" : 4558115,
    "total_agency_count" : 463,
    "published_agency_count" : 463,
    "active_agency_count" : 463,
    "covered_agency_count" : 0,
    "population_covered" : 0,
    "agency_count_nibrs_submitting" : 457,
    "agency_count_leoka_submitting" : 416,
    "agency_count_pe_submitting" : 463,
    "agency_count_srs_submitting" : 463,
    "state_id" : 21,
    "state_abbr" : "KY",
    "csv_header" : "data_year,population,total_agency_count,published_agency_count,active_agency_count,covered_agency_count,population_covered,agency_count_nibrs_submitting,agency_count_leoka_submitting,agency_count_pe_submitting,agency_count_srs_submitting"
  }, {
    "data_year" : 2014,
    "population" : 4517111,
    "total_agency_count" : 409,
    "published_agency_count" : 409,
    "active_agency_count" : 409,
    "covered_agency_count" : 0,
    "population_covered" : 0,
    "agency_count_nibrs_submitting" : 409,
    "agency_count_leoka_submitting" : 406,
    "agency_count_pe_submitting" : 409,
    "agency_count_srs_submitting" : 409,
    "state_id" : 21,
    "state_abbr" : "KY",
    "csv_header" : "data_year,population,total_agency_count,published_agency_count,active_agency_count,covered_agency_count,population_covered,agency_count_nibrs_submitting,agency_count_leoka_submitting,agency_count_pe_submitting,agency_count_srs_submitting"
  }, {
    "data_year" : 2013,
    "population" : 4436400,
    "total_agency_count" : 402,
    "published_agency_count" : 402,
    "active_agency_count" : 402,
    "covered_agency_count" : 0,
    "population_covered" : 0,
    "agency_count_nibrs_submitting" : 401,
    "agency_count_leoka_submitting" : 399,
    "agency_count_pe_submitting" : 402,
    "agency_count_srs_submitting" : 402,
    "state_id" : 21,
    "state_abbr" : "KY",
    "csv_header" : "data_year,population,total_agency_count,published_agency_count,active_agency_count,covered_agency_count,population_covered,agency_count_nibrs_submitting,agency_count_leoka_submitting,agency_count_pe_submitting,agency_count_srs_submitting"
  }, {
    "data_year" : 2012,
    "population" : 4560013,
    "total_agency_count" : 397,
    "published_agency_count" : 397,
    "active_agency_count" : 397,
    "covered_agency_count" : 0,
    "population_covered" : 0,
    "agency_count_nibrs_submitting" : 396,
    "agency_count_leoka_submitting" : 381,
    "agency_count_pe_submitting" : 397,
    "agency_count_srs_submitting" : 397,
    "state_id" : 21,
    "state_abbr" : "KY",
    "csv_header" : "data_year,population,total_agency_count,published_agency_count,active_agency_count,covered_agency_count,population_covered,agency_count_nibrs_submitting,agency_count_leoka_submitting,agency_count_pe_submitting,agency_count_srs_submitting"
  }, {
    "data_year" : 2011,
    "population" : 4458245,
    "total_agency_count" : 387,
    "published_agency_count" : 387,
    "active_agency_count" : 387,
    "covered_agency_count" : 0,
    "population_covered" : 0,
    "agency_count_nibrs_submitting" : 385,
    "agency_count_leoka_submitting" : 383,
    "agency_count_pe_submitting" : 387,
    "agency_count_srs_submitting" : 387,
    "state_id" : 21,
    "state_abbr" : "KY",
    "csv_header" : "data_year,population,total_agency_count,published_agency_count,active_agency_count,covered_agency_count,population_covered,agency_count_nibrs_submitting,agency_count_leoka_submitting,agency_count_pe_submitting,agency_count_srs_submitting"
  }, {
    "data_year" : 2010,
    "population" : 4912792,
    "total_agency_count" : 410,
    "published_agency_count" : 410,
    "active_agency_count" : 410,
    "covered_agency_count" : 0,
    "population_covered" : 0,
    "agency_count_nibrs_submitting" : 405,
    "agency_count_leoka_submitting" : 380,
    "agency_count_pe_submitting" : 410,
    "agency_count_srs_submitting" : 410,
    "state_id" : 21,
    "state_abbr" : "KY",
    "csv_header" : "data_year,population,total_agency_count,published_agency_count,active_agency_count,covered_agency_count,population_covered,agency_count_nibrs_submitting,agency_count_leoka_submitting,agency_count_pe_submitting,agency_count_srs_submitting"
  }, {
    "data_year" : 2009,
    "population" : 5207550,
    "total_agency_count" : 368,
    "published_agency_count" : 368,
    "active_agency_count" : 368,
    "covered_agency_count" : 0,
    "population_covered" : 0,
    "agency_count_nibrs_submitting" : 364,
    "agency_count_leoka_submitting" : 345,
    "agency_count_pe_submitting" : 368,
    "agency_count_srs_submitting" : 368,
    "state_id" : 21,
    "state_abbr" : "KY",
    "csv_header" : "data_year,population,total_agency_count,published_agency_count,active_agency_count,covered_agency_count,population_covered,agency_count_nibrs_submitting,agency_count_leoka_submitting,agency_count_pe_submitting,agency_count_srs_submitting"
  }, {
    "data_year" : 2008,
    "population" : 6150346,
    "total_agency_count" : 417,
    "published_agency_count" : 417,
    "active_agency_count" : 417,
    "covered_agency_count" : 0,
    "population_covered" : 0,
    "agency_count_nibrs_submitting" : 40,
    "agency_count_leoka_submitting" : 1,
    "agency_count_pe_submitting" : 417,
    "agency_count_srs_submitting" : 417,
    "state_id" : 21,
    "state_abbr" : "KY",
    "csv_header" : "data_year,population,total_agency_count,published_agency_count,active_agency_count,covered_agency_count,population_covered,agency_count_nibrs_submitting,agency_count_leoka_submitting,agency_count_pe_submitting,agency_count_srs_submitting"
  }, {
    "data_year" : 2007,
    "population" : 5693180,
    "total_agency_count" : 367,
    "published_agency_count" : 367,
    "active_agency_count" : 367,
    "covered_agency_count" : 0,
    "population_covered" : 0,
    "agency_count_nibrs_submitting" : 18,
    "agency_count_leoka_submitting" : 0,
    "agency_count_pe_submitting" : 367,
    "agency_count_srs_submitting" : 367,
    "state_id" : 21,
    "state_abbr" : "KY",
    "csv_header" : "data_year,population,total_agency_count,published_agency_count,active_agency_count,covered_agency_count,population_covered,agency_count_nibrs_submitting,agency_count_leoka_submitting,agency_count_pe_submitting,agency_count_srs_submitting"
  }, {
    "data_year" : 2006,
    "population" : 4654251,
    "total_agency_count" : 343,
    "published_agency_count" : 343,
    "active_agency_count" : 343,
    "covered_agency_count" : 0,
    "population_covered" : 0,
    "agency_count_nibrs_submitting" : 16,
    "agency_count_leoka_submitting" : 0,
    "agency_count_pe_submitting" : 343,
    "agency_count_srs_submitting" : 343,
    "state_id" : 21,
    "state_abbr" : "KY",
    "csv_header" : "data_year,population,total_agency_count,published_agency_count,active_agency_count,covered_agency_count,population_covered,agency_count_nibrs_submitting,agency_count_leoka_submitting,agency_count_pe_submitting,agency_count_srs_submitting"
  }, {
    "data_year" : 2005,
    "population" : 5322585,
    "total_agency_count" : 348,
    "published_agency_count" : 348,
    "active_agency_count" : 348,
    "covered_agency_count" : 0,
    "population_covered" : 0,
    "agency_count_nibrs_submitting" : 26,
    "agency_count_leoka_submitting" : 2,
    "agency_count_pe_submitting" : 348,
    "agency_count_srs_submitting" : 348,
    "state_id" : 21,
    "state_abbr" : "KY",
    "csv_header" : "data_year,population,total_agency_count,published_agency_count,active_agency_count,covered_agency_count,population_covered,agency_count_nibrs_submitting,agency_count_leoka_submitting,agency_count_pe_submitting,agency_count_srs_submitting"
  }, {
    "data_year" : 2004,
    "population" : 4988125,
    "total_agency_count" : 315,
    "published_agency_count" : 315,
    "active_agency_count" : 315,
    "covered_agency_count" : 0,
    "population_covered" : 0,
    "agency_count_nibrs_submitting" : 18,
    "agency_count_leoka_submitting" : 1,
    "agency_count_pe_submitting" : 315,
    "agency_count_srs_submitting" : 315,
    "state_id" : 21,
    "state_abbr" : "KY",
    "csv_header" : "data_year,population,total_agency_count,published_agency_count,active_agency_count,covered_agency_count,population_covered,agency_count_nibrs_submitting,agency_count_leoka_submitting,agency_count_pe_submitting,agency_count_srs_submitting"
  }, {
    "data_year" : 2003,
    "population" : 6029437,
    "total_agency_count" : 32,
    "published_agency_count" : 32,
    "active_agency_count" : 32,
    "covered_agency_count" : 0,
    "population_covered" : 0,
    "agency_count_nibrs_submitting" : 18,
    "agency_count_leoka_submitting" : 0,
    "agency_count_pe_submitting" : 32,
    "agency_count_srs_submitting" : 32,
    "state_id" : 21,
    "state_abbr" : "KY",
    "csv_header" : "data_year,population,total_agency_count,published_agency_count,active_agency_count,covered_agency_count,population_covered,agency_count_nibrs_submitting,agency_count_leoka_submitting,agency_count_pe_submitting,agency_count_srs_submitting"
  }, {
    "data_year" : 2002,
    "population" : 4496702,
    "total_agency_count" : 27,
    "published_agency_count" : 27,
    "active_agency_count" : 27,
    "covered_agency_count" : 0,
    "population_covered" : 0,
    "agency_count_nibrs_submitting" : 15,
    "agency_count_leoka_submitting" : 0,
    "agency_count_pe_submitting" : 27,
    "agency_count_srs_submitting" : 27,
    "state_id" : 21,
    "state_abbr" : "KY",
    "csv_header" : "data_year,population,total_agency_count,published_agency_count,active_agency_count,covered_agency_count,population_covered,agency_count_nibrs_submitting,agency_count_leoka_submitting,agency_count_pe_submitting,agency_count_srs_submitting"
  }, {
    "data_year" : 2001,
    "population" : 4421128,
    "total_agency_count" : 26,
    "published_agency_count" : 26,
    "active_agency_count" : 26,
    "covered_agency_count" : 0,
    "population_covered" : 0,
    "agency_count_nibrs_submitting" : 13,
    "agency_count_leoka_submitting" : 0,
    "agency_count_pe_submitting" : 26,
    "agency_count_srs_submitting" : 26,
    "state_id" : 21,
    "state_abbr" : "KY",
    "csv_header" : "data_year,population,total_agency_count,published_agency_count,active_agency_count,covered_agency_count,population_covered,agency_count_nibrs_submitting,agency_count_leoka_submitting,agency_count_pe_submitting,agency_count_srs_submitting"
  }, {
    "data_year" : 2000,
    "population" : 4524298,
    "total_agency_count" : 20,
    "published_agency_count" : 20,
    "active_agency_count" : 20,
    "covered_agency_count" : 0,
    "population_covered" : 0,
    "agency_count_nibrs_submitting" : 7,
    "agency_count_leoka_submitting" : 0,
    "agency_count_pe_submitting" : 20,
    "agency_count_srs_submitting" : 20,
    "state_id" : 21,
    "state_abbr" : "KY",
    "csv_header" : "data_year,population,total_agency_count,published_agency_count,active_agency_count,covered_agency_count,population_covered,agency_count_nibrs_submitting,agency_count_leoka_submitting,agency_count_pe_submitting,agency_count_srs_submitting"
  } ],
  "pagination" : {
    "count" : 25,
    "page" : 0,
    "pages" : 2,
    "per_page" : 20
  }
}