{
  "results" : [ {
    "data_year" : 2019,
    "population" : 4819273,
    "total_agency_count" : 0,
    "published_agency_count" : 0,
    "active_agency_count" : 0,
    "covered_agency_count" : 0,
    "population_covered" : 0,
    "agency_count_nibrs_submitting" : 0,
    "agency_count_leoka_submitting" : 0,
    "agency_count_pe_submitting" : 0,
    "agency_count_srs_submitting" : 0,
    "state_id" : 22,
    "state_abbr" : "LA",
    "csv_header" : "data_year,population,total_agency_count,published_agency_count,active_agency_count,covered_agency_count,population_covered,agency_count_nibrs_submitting,agency_count_leoka_submitting,agency_count_pe_submitting,agency_count_srs_submitting"
  }, {
    "data_year" : 2018,
    "population" : 5446347,
    "total_agency_count" : 167,
    "published_agency_count" : 167,
    "active_agency_count" : 167,
    "covered_agency_count" : 0,
    "population_covered" : 0,
    "agency_count_nibrs_submitting" : 55,
    "agency_count_leoka_submitting" : 0,
    "agency_count_pe_submitting" : 167,
    "agency_count_srs_submitting" : 167,
    "state_id" : 22,
    "state_abbr" : "LA",
    "csv_header" : "data_year,population,total_agency_count,published_agency_count,active_agency_count,covered_agency_count,population_covered,agency_count_nibrs_submitting,agency_count_leoka_submitting,agency_count_pe_submitting,agency_count_srs_submitting"
  }, {
    "data_year" : 2017,
    "population" : 4819273,
    "total_agency_count" : 197,
    "published_agency_count" : 197,
    "active_agency_count" : 197,
    "covered_agency_count" : 0,
    "population_covered" : 0,
    "agency_count_nibrs_submitting" : 32,
    "agency_count_leoka_submitting" : 0,
    "agency_count_pe_submitting" : 197,
    "agency_count_srs_submitting" : 197,
    "state_id" : 22,
    "state_abbr" : "LA",
    "csv_header" : "data_year,population,total_agency_count,published_agency_count,active_agency_count,covered_agency_count,population_covered,agency_count_nibrs_submitting,agency_count_leoka_submitting,agency_count_pe_submitting,agency_count_srs_submitting"
  }, {
    "data_year" : 2016,
    "population" : 4907781,
    "total_agency_count" : 211,
    "published_agency_count" : 211,
    "active_agency_count" : 211,
    "covered_agency_count" : 0,
    "population_covered" : 0,
    "agency_count_nibrs_submitting" : 43,
    "agency_count_leoka_submitting" : 0,
    "agency_count_pe_submitting" : 211,
    "agency_count_srs_submitting" : 211,
    "state_id" : 22,
    "state_abbr" : "LA",
    "csv_header" : "data_year,population,total_agency_count,published_agency_count,active_agency_count,covered_agency_count,population_covered,agency_count_nibrs_submitting,agency_count_leoka_submitting,agency_count_pe_submitting,agency_count_srs_submitting"
  }, {
    "data_year" : 2015,
    "population" : 4841777,
    "total_agency_count" : 209,
    "published_agency_count" : 209,
    "active_agency_count" : 209,
    "covered_agency_count" : 0,
    "population_covered" : 0,
    "agency_count_nibrs_submitting" : 35,
    "agency_count_leoka_submitting" : 0,
    "agency_count_pe_submitting" : 209,
    "agency_count_srs_submitting" : 209,
    "state_id" : 22,
    "state_abbr" : "LA",
    "csv_header" : "data_year,population,total_agency_count,published_agency_count,active_agency_count,covered_agency_count,population_covered,agency_count_nibrs_submitting,agency_count_leoka_submitting,agency_count_pe_submitting,agency_count_srs_submitting"
  }, {
    "data_year" : 2014,
    "population" : 4975083,
    "total_agency_count" : 212,
    "published_agency_count" : 212,
    "active_agency_count" : 212,
    "covered_agency_count" : 0,
    "population_covered" : 0,
    "agency_count_nibrs_submitting" : 39,
    "agency_count_leoka_submitting" : 0,
    "agency_count_pe_submitting" : 212,
    "agency_count_srs_submitting" : 212,
    "state_id" : 22,
    "state_abbr" : "LA",
    "csv_header" : "data_year,population,total_agency_count,published_agency_count,active_agency_count,covered_agency_count,population_covered,agency_count_nibrs_submitting,agency_count_leoka_submitting,agency_count_pe_submitting,agency_count_srs_submitting"
  }, {
    "data_year" : 2013,
    "population" : 4784006,
    "total_agency_count" : 219,
    "published_agency_count" : 219,
    "active_agency_count" : 219,
    "covered_agency_count" : 0,
    "population_covered" : 0,
    "agency_count_nibrs_submitting" : 34,
    "agency_count_leoka_submitting" : 0,
    "agency_count_pe_submitting" : 219,
    "agency_count_srs_submitting" : 219,
    "state_id" : 22,
    "state_abbr" : "LA",
    "csv_header" : "data_year,population,total_agency_count,published_agency_count,active_agency_count,covered_agency_count,population_covered,agency_count_nibrs_submitting,agency_count_leoka_submitting,agency_count_pe_submitting,agency_count_srs_submitting"
  }, {
    "data_year" : 2012,
    "population" : 4956654,
    "total_agency_count" : 210,
    "published_agency_count" : 210,
    "active_agency_count" : 210,
    "covered_agency_count" : 0,
    "population_covered" : 0,
    "agency_count_nibrs_submitting" : 36,
    "agency_count_leoka_submitting" : 0,
    "agency_count_pe_submitting" : 210,
    "agency_count_srs_submitting" : 210,
    "state_id" : 22,
    "state_abbr" : "LA",
    "csv_header" : "data_year,population,total_agency_count,published_agency_count,active_agency_count,covered_agency_count,population_covered,agency_count_nibrs_submitting,agency_count_leoka_submitting,agency_count_pe_submitting,agency_count_srs_submitting"
  }, {
    "data_year" : 2011,
    "population" : 5064961,
    "total_agency_count" : 208,
    "published_agency_count" : 208,
    "active_agency_count" : 208,
    "covered_agency_count" : 0,
    "population_covered" : 0,
    "agency_count_nibrs_submitting" : 31,
    "agency_count_leoka_submitting" : 0,
    "agency_count_pe_submitting" : 208,
    "agency_count_srs_submitting" : 208,
    "state_id" : 22,
    "state_abbr" : "LA",
    "csv_header" : "data_year,population,total_agency_count,published_agency_count,active_agency_count,covered_agency_count,population_covered,agency_count_nibrs_submitting,agency_count_leoka_submitting,agency_count_pe_submitting,agency_count_srs_submitting"
  }, {
    "data_year" : 2010,
    "population" : 4703076,
    "total_agency_count" : 202,
    "published_agency_count" : 202,
    "active_agency_count" : 202,
    "covered_agency_count" : 0,
    "population_covered" : 0,
    "agency_count_nibrs_submitting" : 29,
    "agency_count_leoka_submitting" : 0,
    "agency_count_pe_submitting" : 202,
    "agency_count_srs_submitting" : 202,
    "state_id" : 22,
    "state_abbr" : "LA",
    "csv_header" : "data_year,population,total_agency_count,published_agency_count,active_agency_count,covered_agency_count,population_covered,agency_count_nibrs_submitting,agency_count_leoka_submitting,agency_count_pe_submitting,agency_count_srs_submitting"
  }, {
    "data_year" : 2009,
    "population" : 4990980,
    "total_agency_count" : 200,
    "published_agency_count" : 200,
    "active_agency_count" : 200,
    "covered_agency_count" : 0,
    "population_covered" : 0,
    "agency_count_nibrs_submitting" : 33,
    "agency_count_leoka_submitting" : 0,
    "agency_count_pe_submitting" : 200,
    "agency_count_srs_submitting" : 200,
    "state_id" : 22,
    "state_abbr" : "LA",
    "csv_header" : "data_year,population,total_agency_count,published_agency_count,active_agency_count,covered_agency_count,population_covered,agency_count_nibrs_submitting,agency_count_leoka_submitting,agency_count_pe_submitting,agency_count_srs_submitting"
  }, {
    "data_year" : 2008,
    "population" : 4739025,
    "total_agency_count" : 195,
    "published_agency_count" : 195,
    "active_agency_count" : 195,
    "covered_agency_count" : 0,
    "population_covered" : 0,
    "agency_count_nibrs_submitting" : 27,
    "agency_count_leoka_submitting" : 0,
    "agency_count_pe_submitting" : 195,
    "agency_count_srs_submitting" : 195,
    "state_id" : 22,
    "state_abbr" : "LA",
    "csv_header" : "data_year,population,total_agency_count,published_agency_count,active_agency_count,covered_agency_count,population_covered,agency_count_nibrs_submitting,agency_count_leoka_submitting,agency_count_pe_submitting,agency_count_srs_submitting"
  }, {
    "data_year" : 2007,
    "population" : 4450169,
    "total_agency_count" : 190,
    "published_agency_count" : 190,
    "active_agency_count" : 190,
    "covered_agency_count" : 0,
    "population_covered" : 0,
    "agency_count_nibrs_submitting" : 23,
    "agency_count_leoka_submitting" : 0,
    "agency_count_pe_submitting" : 190,
    "agency_count_srs_submitting" : 190,
    "state_id" : 22,
    "state_abbr" : "LA",
    "csv_header" : "data_year,population,total_agency_count,published_agency_count,active_agency_count,covered_agency_count,population_covered,agency_count_nibrs_submitting,agency_count_leoka_submitting,agency_count_pe_submitting,agency_count_srs_submitting"
  }, {
    "data_year" : 2006,
    "population" : 4689450,
    "total_agency_count" : 188,
    "published_agency_count" : 188,
    "active_agency_count" : 188,
    "covered_agency_count" : 0,
    "population_covered" : 0,
    "agency_count_nibrs_submitting" : 18,
    "agency_count_leoka_submitting" : 0,
    "agency_count_pe_submitting" : 188,
    "agency_count_srs_submitting" : 188,
    "state_id" : 22,
    "state_abbr" : "LA",
    "csv_header" : "data_year,population,total_agency_count,published_agency_count,active_agency_count,covered_agency_count,population_covered,agency_count_nibrs_submitting,agency_count_leoka_submitting,agency_count_pe_submitting,agency_count_srs_submitting"
  }, {
    "data_year" : 2005,
    "population" : 5782512,
    "total_agency_count" : 162,
    "published_agency_count" : 162,
    "active_agency_count" : 162,
    "covered_agency_count" : 0,
    "population_covered" : 0,
    "agency_count_nibrs_submitting" : 16,
    "agency_count_leoka_submitting" : 0,
    "agency_count_pe_submitting" : 162,
    "agency_count_srs_submitting" : 162,
    "state_id" : 22,
    "state_abbr" : "LA",
    "csv_header" : "data_year,population,total_agency_count,published_agency_count,active_agency_count,covered_agency_count,population_covered,agency_count_nibrs_submitting,agency_count_leoka_submitting,agency_count_pe_submitting,agency_count_srs_submitting"
  }, {
    "data_year" : 2004,
    "population" : 4871086,
    "total_agency_count" : 180,
    "published_agency_count" : 180,
    "active_agency_count" : 180,
    "covered_agency_count" : 0,
    "population_covered" : 0,
    "agency_count_nibrs_submitting" : 13,
    "agency_count_leoka_submitting" : 0,
    "agency_count_pe_submitting" : 180,
    "agency_count_srs_submitting" : 180,
    "state_id" : 22,
    "state_abbr" : "LA",
    "csv_header" : "data_year,population,total_agency_count,published_agency_count,active_agency_count,covered_agency_count,population_covered,agency_count_nibrs_submitting,agency_count_leoka_submitting,agency_count_pe_submitting,agency_count_srs_submitting"
  }, {
    "data_year" : 2003,
    "population" : 4769732,
    "total_agency_count" : 182,
    "published_agency_count" : 182,
    "active_agency_count" : 182,
    "covered_agency_count" : 0,
    "population_covered" : 0,
    "agency_count_nibrs_submitting" : 8,
    "agency_count_leoka_submitting" : 0,
    "agency_count_pe_submitting" : 182,
    "agency_count_srs_submitting" : 182,
    "state_id" : 22,
    "state_abbr" : "LA",
    "csv_header" : "data_year,population,total_agency_count,published_agency_count,active_agency_count,covered_agency_count,population_covered,agency_count_nibrs_submitting,agency_count_leoka_submitting,agency_count_pe_submitting,agency_count_srs_submitting"
  }, {
    "data_year" : 2002,
    "population" : 4794653,
    "total_agency_count" : 188,
    "published_agency_count" : 188,
    "active_agency_count" : 188,
    "covered_agency_count" : 0,
    "population_covered" : 0,
    "agency_count_nibrs_submitting" : 0,
    "agency_count_leoka_submitting" : 0,
    "agency_count_pe_submitting" : 188,
    "agency_count_srs_submitting" : 188,
    "state_id" : 22,
    "state_abbr" : "LA",
    "csv_header" : "data_year,population,total_agency_count,published_agency_count,active_agency_count,covered_agency_count,population_covered,agency_count_nibrs_submitting,agency_count_leoka_submitting,agency_count_pe_submitting,agency_count_srs_submitting"
  }, {
    "data_year" : 2001,
    "population" : 4969291,
    "total_agency_count" : 194,
    "published_agency_count" : 194,
    "active_agency_count" : 194,
    "covered_agency_count" : 0,
    "population_covered" : 0,
    "agency_count_nibrs_submitting" : 0,
    "agency_count_leoka_submitting" : 0,
    "agency_count_pe_submitting" : 194,
    "agency_count_srs_submitting" : 194,
    "state_id" : 22,
    "state_abbr" : "LA",
    "csv_header" : "data_year,population,total_agency_count,published_agency_count,active_agency_count,covered_agency_count,population_covered,agency_count_nibrs_submitting,agency_count_leoka_submitting,agency_count_pe_submitting,agency_count_srs_submitting"
  }, {
    "data_year" : 2000,
    "population" : 4672187,
    "total_agency_count" : 192,
    "published_agency_count" : 192,
    "active_agency_count" : 192,
    "covered_agency_count" : 0,
    "population_covered" : 0,
    "agency_count_nibrs_submitting" : 0,
    "agency_count_leoka_submitting" : 0,
    "agency_count_pe_submitting" : 192,
    "agency_count_srs_submitting" : 192,
    "state_id" : 22,
    "state_abbr" : "LA",
    "csv_header" : "data_year,population,total_agency_count,published_agency_count,active_agency_count,covered_agency_count,population_covered,agency_count_nibrs_submitting,agency_count_leoka_submitting,agency_count_pe_submitting,agency_count_srs_submitting"
  } ],
  "pagination" : {
    "count" : 25,
    "page" : 0,
    "pages" : 2,
    "per_page" : 20
  }
}