{
  "results" : [ {
    "data_year" : 2019,
    "population" : 6872032,
    "total_agency_count" : 0,
    "published_agency_count" : 0,
    "active_agency_count" : 0,
    "covered_agency_count" : 0,
    "population_covered" : 0,
    "agency_count_nibrs_submitting" : 0,
    "agency_count_leoka_submitting" : 0,
    "agency_count_pe_submitting" : 0,
    "agency_count_srs_submitting" : 0,
    "state_id" : 23,
    "state_abbr" : "MA",
    "csv_header" : "data_year,population,total_agency_count,published_agency_count,active_agency_count,covered_agency_count,population_covered,agency_count_nibrs_submitting,agency_count_leoka_submitting,agency_count_pe_submitting,agency_count_srs_submitting"
  }, {
    "data_year" : 2018,
    "population" : 11007305,
    "total_agency_count" : 418,
    "published_agency_count" : 418,
    "active_agency_count" : 418,
    "covered_agency_count" : 0,
    "population_covered" : 0,
    "agency_count_nibrs_submitting" : 386,
    "agency_count_leoka_submitting" : 386,
    "agency_count_pe_submitting" : 418,
    "agency_count_srs_submitting" : 418,
    "state_id" : 23,
    "state_abbr" : "MA",
    "csv_header" : "data_year,population,total_agency_count,published_agency_count,active_agency_count,covered_agency_count,population_covered,agency_count_nibrs_submitting,agency_count_leoka_submitting,agency_count_pe_submitting,agency_count_srs_submitting"
  }, {
    "data_year" : 2017,
    "population" : 6872032,
    "total_agency_count" : 357,
    "published_agency_count" : 357,
    "active_agency_count" : 357,
    "covered_agency_count" : 0,
    "population_covered" : 0,
    "agency_count_nibrs_submitting" : 300,
    "agency_count_leoka_submitting" : 298,
    "agency_count_pe_submitting" : 357,
    "agency_count_srs_submitting" : 357,
    "state_id" : 23,
    "state_abbr" : "MA",
    "csv_header" : "data_year,population,total_agency_count,published_agency_count,active_agency_count,covered_agency_count,population_covered,agency_count_nibrs_submitting,agency_count_leoka_submitting,agency_count_pe_submitting,agency_count_srs_submitting"
  }, {
    "data_year" : 2016,
    "population" : 6852336,
    "total_agency_count" : 364,
    "published_agency_count" : 364,
    "active_agency_count" : 364,
    "covered_agency_count" : 0,
    "population_covered" : 0,
    "agency_count_nibrs_submitting" : 303,
    "agency_count_leoka_submitting" : 300,
    "agency_count_pe_submitting" : 364,
    "agency_count_srs_submitting" : 364,
    "state_id" : 23,
    "state_abbr" : "MA",
    "csv_header" : "data_year,population,total_agency_count,published_agency_count,active_agency_count,covered_agency_count,population_covered,agency_count_nibrs_submitting,agency_count_leoka_submitting,agency_count_pe_submitting,agency_count_srs_submitting"
  }, {
    "data_year" : 2015,
    "population" : 7085175,
    "total_agency_count" : 365,
    "published_agency_count" : 365,
    "active_agency_count" : 365,
    "covered_agency_count" : 0,
    "population_covered" : 0,
    "agency_count_nibrs_submitting" : 310,
    "agency_count_leoka_submitting" : 302,
    "agency_count_pe_submitting" : 365,
    "agency_count_srs_submitting" : 365,
    "state_id" : 23,
    "state_abbr" : "MA",
    "csv_header" : "data_year,population,total_agency_count,published_agency_count,active_agency_count,covered_agency_count,population_covered,agency_count_nibrs_submitting,agency_count_leoka_submitting,agency_count_pe_submitting,agency_count_srs_submitting"
  }, {
    "data_year" : 2014,
    "population" : 7098473,
    "total_agency_count" : 379,
    "published_agency_count" : 378,
    "active_agency_count" : 378,
    "covered_agency_count" : 0,
    "population_covered" : 0,
    "agency_count_nibrs_submitting" : 321,
    "agency_count_leoka_submitting" : 282,
    "agency_count_pe_submitting" : 379,
    "agency_count_srs_submitting" : 379,
    "state_id" : 23,
    "state_abbr" : "MA",
    "csv_header" : "data_year,population,total_agency_count,published_agency_count,active_agency_count,covered_agency_count,population_covered,agency_count_nibrs_submitting,agency_count_leoka_submitting,agency_count_pe_submitting,agency_count_srs_submitting"
  }, {
    "data_year" : 2013,
    "population" : 6900982,
    "total_agency_count" : 372,
    "published_agency_count" : 372,
    "active_agency_count" : 372,
    "covered_agency_count" : 0,
    "population_covered" : 0,
    "agency_count_nibrs_submitting" : 318,
    "agency_count_leoka_submitting" : 0,
    "agency_count_pe_submitting" : 372,
    "agency_count_srs_submitting" : 372,
    "state_id" : 23,
    "state_abbr" : "MA",
    "csv_header" : "data_year,population,total_agency_count,published_agency_count,active_agency_count,covered_agency_count,population_covered,agency_count_nibrs_submitting,agency_count_leoka_submitting,agency_count_pe_submitting,agency_count_srs_submitting"
  }, {
    "data_year" : 2012,
    "population" : 6891374,
    "total_agency_count" : 377,
    "published_agency_count" : 377,
    "active_agency_count" : 377,
    "covered_agency_count" : 0,
    "population_covered" : 0,
    "agency_count_nibrs_submitting" : 321,
    "agency_count_leoka_submitting" : 0,
    "agency_count_pe_submitting" : 377,
    "agency_count_srs_submitting" : 377,
    "state_id" : 23,
    "state_abbr" : "MA",
    "csv_header" : "data_year,population,total_agency_count,published_agency_count,active_agency_count,covered_agency_count,population_covered,agency_count_nibrs_submitting,agency_count_leoka_submitting,agency_count_pe_submitting,agency_count_srs_submitting"
  }, {
    "data_year" : 2011,
    "population" : 6863985,
    "total_agency_count" : 376,
    "published_agency_count" : 376,
    "active_agency_count" : 376,
    "covered_agency_count" : 0,
    "population_covered" : 0,
    "agency_count_nibrs_submitting" : 316,
    "agency_count_leoka_submitting" : 0,
    "agency_count_pe_submitting" : 376,
    "agency_count_srs_submitting" : 376,
    "state_id" : 23,
    "state_abbr" : "MA",
    "csv_header" : "data_year,population,total_agency_count,published_agency_count,active_agency_count,covered_agency_count,population_covered,agency_count_nibrs_submitting,agency_count_leoka_submitting,agency_count_pe_submitting,agency_count_srs_submitting"
  }, {
    "data_year" : 2010,
    "population" : 6800338,
    "total_agency_count" : 384,
    "published_agency_count" : 384,
    "active_agency_count" : 384,
    "covered_agency_count" : 0,
    "population_covered" : 0,
    "agency_count_nibrs_submitting" : 317,
    "agency_count_leoka_submitting" : 0,
    "agency_count_pe_submitting" : 384,
    "agency_count_srs_submitting" : 384,
    "state_id" : 23,
    "state_abbr" : "MA",
    "csv_header" : "data_year,population,total_agency_count,published_agency_count,active_agency_count,covered_agency_count,population_covered,agency_count_nibrs_submitting,agency_count_leoka_submitting,agency_count_pe_submitting,agency_count_srs_submitting"
  }, {
    "data_year" : 2009,
    "population" : 6770127,
    "total_agency_count" : 370,
    "published_agency_count" : 370,
    "active_agency_count" : 370,
    "covered_agency_count" : 0,
    "population_covered" : 0,
    "agency_count_nibrs_submitting" : 304,
    "agency_count_leoka_submitting" : 0,
    "agency_count_pe_submitting" : 370,
    "agency_count_srs_submitting" : 370,
    "state_id" : 23,
    "state_abbr" : "MA",
    "csv_header" : "data_year,population,total_agency_count,published_agency_count,active_agency_count,covered_agency_count,population_covered,agency_count_nibrs_submitting,agency_count_leoka_submitting,agency_count_pe_submitting,agency_count_srs_submitting"
  }, {
    "data_year" : 2008,
    "population" : 6734340,
    "total_agency_count" : 372,
    "published_agency_count" : 372,
    "active_agency_count" : 372,
    "covered_agency_count" : 0,
    "population_covered" : 0,
    "agency_count_nibrs_submitting" : 301,
    "agency_count_leoka_submitting" : 0,
    "agency_count_pe_submitting" : 372,
    "agency_count_srs_submitting" : 372,
    "state_id" : 23,
    "state_abbr" : "MA",
    "csv_header" : "data_year,population,total_agency_count,published_agency_count,active_agency_count,covered_agency_count,population_covered,agency_count_nibrs_submitting,agency_count_leoka_submitting,agency_count_pe_submitting,agency_count_srs_submitting"
  }, {
    "data_year" : 2007,
    "population" : 6986373,
    "total_agency_count" : 374,
    "published_agency_count" : 374,
    "active_agency_count" : 374,
    "covered_agency_count" : 0,
    "population_covered" : 0,
    "agency_count_nibrs_submitting" : 295,
    "agency_count_leoka_submitting" : 0,
    "agency_count_pe_submitting" : 374,
    "agency_count_srs_submitting" : 374,
    "state_id" : 23,
    "state_abbr" : "MA",
    "csv_header" : "data_year,population,total_agency_count,published_agency_count,active_agency_count,covered_agency_count,population_covered,agency_count_nibrs_submitting,agency_count_leoka_submitting,agency_count_pe_submitting,agency_count_srs_submitting"
  }, {
    "data_year" : 2006,
    "population" : 6799132,
    "total_agency_count" : 375,
    "published_agency_count" : 375,
    "active_agency_count" : 375,
    "covered_agency_count" : 0,
    "population_covered" : 0,
    "agency_count_nibrs_submitting" : 281,
    "agency_count_leoka_submitting" : 0,
    "agency_count_pe_submitting" : 375,
    "agency_count_srs_submitting" : 375,
    "state_id" : 23,
    "state_abbr" : "MA",
    "csv_header" : "data_year,population,total_agency_count,published_agency_count,active_agency_count,covered_agency_count,population_covered,agency_count_nibrs_submitting,agency_count_leoka_submitting,agency_count_pe_submitting,agency_count_srs_submitting"
  }, {
    "data_year" : 2005,
    "population" : 7001197,
    "total_agency_count" : 362,
    "published_agency_count" : 362,
    "active_agency_count" : 362,
    "covered_agency_count" : 0,
    "population_covered" : 0,
    "agency_count_nibrs_submitting" : 272,
    "agency_count_leoka_submitting" : 0,
    "agency_count_pe_submitting" : 362,
    "agency_count_srs_submitting" : 362,
    "state_id" : 23,
    "state_abbr" : "MA",
    "csv_header" : "data_year,population,total_agency_count,published_agency_count,active_agency_count,covered_agency_count,population_covered,agency_count_nibrs_submitting,agency_count_leoka_submitting,agency_count_pe_submitting,agency_count_srs_submitting"
  }, {
    "data_year" : 2004,
    "population" : 7250474,
    "total_agency_count" : 365,
    "published_agency_count" : 365,
    "active_agency_count" : 365,
    "covered_agency_count" : 0,
    "population_covered" : 0,
    "agency_count_nibrs_submitting" : 269,
    "agency_count_leoka_submitting" : 0,
    "agency_count_pe_submitting" : 365,
    "agency_count_srs_submitting" : 365,
    "state_id" : 23,
    "state_abbr" : "MA",
    "csv_header" : "data_year,population,total_agency_count,published_agency_count,active_agency_count,covered_agency_count,population_covered,agency_count_nibrs_submitting,agency_count_leoka_submitting,agency_count_pe_submitting,agency_count_srs_submitting"
  }, {
    "data_year" : 2003,
    "population" : 7062748,
    "total_agency_count" : 352,
    "published_agency_count" : 352,
    "active_agency_count" : 352,
    "covered_agency_count" : 0,
    "population_covered" : 0,
    "agency_count_nibrs_submitting" : 250,
    "agency_count_leoka_submitting" : 0,
    "agency_count_pe_submitting" : 352,
    "agency_count_srs_submitting" : 352,
    "state_id" : 23,
    "state_abbr" : "MA",
    "csv_header" : "data_year,population,total_agency_count,published_agency_count,active_agency_count,covered_agency_count,population_covered,agency_count_nibrs_submitting,agency_count_leoka_submitting,agency_count_pe_submitting,agency_count_srs_submitting"
  }, {
    "data_year" : 2002,
    "population" : 7663498,
    "total_agency_count" : 363,
    "published_agency_count" : 363,
    "active_agency_count" : 363,
    "covered_agency_count" : 0,
    "population_covered" : 0,
    "agency_count_nibrs_submitting" : 249,
    "agency_count_leoka_submitting" : 0,
    "agency_count_pe_submitting" : 363,
    "agency_count_srs_submitting" : 363,
    "state_id" : 23,
    "state_abbr" : "MA",
    "csv_header" : "data_year,population,total_agency_count,published_agency_count,active_agency_count,covered_agency_count,population_covered,agency_count_nibrs_submitting,agency_count_leoka_submitting,agency_count_pe_submitting,agency_count_srs_submitting"
  }, {
    "data_year" : 2001,
    "population" : 6988891,
    "total_agency_count" : 352,
    "published_agency_count" : 352,
    "active_agency_count" : 352,
    "covered_agency_count" : 0,
    "population_covered" : 0,
    "agency_count_nibrs_submitting" : 220,
    "agency_count_leoka_submitting" : 0,
    "agency_count_pe_submitting" : 352,
    "agency_count_srs_submitting" : 352,
    "state_id" : 23,
    "state_abbr" : "MA",
    "csv_header" : "data_year,population,total_agency_count,published_agency_count,active_agency_count,covered_agency_count,population_covered,agency_count_nibrs_submitting,agency_count_leoka_submitting,agency_count_pe_submitting,agency_count_srs_submitting"
  }, {
    "data_year" : 2000,
    "population" : 7207900,
    "total_agency_count" : 348,
    "published_agency_count" : 348,
    "active_agency_count" : 348,
    "covered_agency_count" : 0,
    "population_covered" : 0,
    "agency_count_nibrs_submitting" : 209,
    "agency_count_leoka_submitting" : 0,
    "agency_count_pe_submitting" : 348,
    "agency_count_srs_submitting" : 348,
    "state_id" : 23,
    "state_abbr" : "MA",
    "csv_header" : "data_year,population,total_agency_count,published_agency_count,active_agency_count,covered_agency_count,population_covered,agency_count_nibrs_submitting,agency_count_leoka_submitting,agency_count_pe_submitting,agency_count_srs_submitting"
  } ],
  "pagination" : {
    "count" : 25,
    "page" : 0,
    "pages" : 2,
    "per_page" : 20
  }
}