{
  "results" : [ {
    "data_year" : 2019,
    "population" : 6249375,
    "total_agency_count" : 0,
    "published_agency_count" : 0,
    "active_agency_count" : 0,
    "covered_agency_count" : 0,
    "population_covered" : 0,
    "agency_count_nibrs_submitting" : 0,
    "agency_count_leoka_submitting" : 0,
    "agency_count_pe_submitting" : 0,
    "agency_count_srs_submitting" : 0,
    "state_id" : 24,
    "state_abbr" : "MD",
    "csv_header" : "data_year,population,total_agency_count,published_agency_count,active_agency_count,covered_agency_count,population_covered,agency_count_nibrs_submitting,agency_count_leoka_submitting,agency_count_pe_submitting,agency_count_srs_submitting"
  }, {
    "data_year" : 2018,
    "population" : 7284295,
    "total_agency_count" : 2,
    "published_agency_count" : 2,
    "active_agency_count" : 2,
    "covered_agency_count" : 0,
    "population_covered" : 0,
    "agency_count_nibrs_submitting" : 2,
    "agency_count_leoka_submitting" : 2,
    "agency_count_pe_submitting" : 2,
    "agency_count_srs_submitting" : 2,
    "state_id" : 24,
    "state_abbr" : "MD",
    "csv_header" : "data_year,population,total_agency_count,published_agency_count,active_agency_count,covered_agency_count,population_covered,agency_count_nibrs_submitting,agency_count_leoka_submitting,agency_count_pe_submitting,agency_count_srs_submitting"
  }, {
    "data_year" : 2017,
    "population" : 6249375,
    "total_agency_count" : 166,
    "published_agency_count" : 155,
    "active_agency_count" : 157,
    "covered_agency_count" : 2,
    "population_covered" : 137029,
    "agency_count_nibrs_submitting" : 1,
    "agency_count_leoka_submitting" : 1,
    "agency_count_pe_submitting" : 166,
    "agency_count_srs_submitting" : 166,
    "state_id" : 24,
    "state_abbr" : "MD",
    "csv_header" : "data_year,population,total_agency_count,published_agency_count,active_agency_count,covered_agency_count,population_covered,agency_count_nibrs_submitting,agency_count_leoka_submitting,agency_count_pe_submitting,agency_count_srs_submitting"
  }, {
    "data_year" : 2016,
    "population" : 6217491,
    "total_agency_count" : 154,
    "published_agency_count" : 154,
    "active_agency_count" : 154,
    "covered_agency_count" : 0,
    "population_covered" : 0,
    "agency_count_nibrs_submitting" : 1,
    "agency_count_leoka_submitting" : 0,
    "agency_count_pe_submitting" : 154,
    "agency_count_srs_submitting" : 154,
    "state_id" : 24,
    "state_abbr" : "MD",
    "csv_header" : "data_year,population,total_agency_count,published_agency_count,active_agency_count,covered_agency_count,population_covered,agency_count_nibrs_submitting,agency_count_leoka_submitting,agency_count_pe_submitting,agency_count_srs_submitting"
  }, {
    "data_year" : 2015,
    "population" : 7594836,
    "total_agency_count" : 154,
    "published_agency_count" : 154,
    "active_agency_count" : 154,
    "covered_agency_count" : 0,
    "population_covered" : 0,
    "agency_count_nibrs_submitting" : 0,
    "agency_count_leoka_submitting" : 0,
    "agency_count_pe_submitting" : 154,
    "agency_count_srs_submitting" : 154,
    "state_id" : 24,
    "state_abbr" : "MD",
    "csv_header" : "data_year,population,total_agency_count,published_agency_count,active_agency_count,covered_agency_count,population_covered,agency_count_nibrs_submitting,agency_count_leoka_submitting,agency_count_pe_submitting,agency_count_srs_submitting"
  }, {
    "data_year" : 2014,
    "population" : 6995931,
    "total_agency_count" : 154,
    "published_agency_count" : 154,
    "active_agency_count" : 154,
    "covered_agency_count" : 0,
    "population_covered" : 0,
    "agency_count_nibrs_submitting" : 0,
    "agency_count_leoka_submitting" : 0,
    "agency_count_pe_submitting" : 154,
    "agency_count_srs_submitting" : 154,
    "state_id" : 24,
    "state_abbr" : "MD",
    "csv_header" : "data_year,population,total_agency_count,published_agency_count,active_agency_count,covered_agency_count,population_covered,agency_count_nibrs_submitting,agency_count_leoka_submitting,agency_count_pe_submitting,agency_count_srs_submitting"
  }, {
    "data_year" : 2013,
    "population" : 7454043,
    "total_agency_count" : 154,
    "published_agency_count" : 154,
    "active_agency_count" : 154,
    "covered_agency_count" : 0,
    "population_covered" : 0,
    "agency_count_nibrs_submitting" : 0,
    "agency_count_leoka_submitting" : 0,
    "agency_count_pe_submitting" : 154,
    "agency_count_srs_submitting" : 154,
    "state_id" : 24,
    "state_abbr" : "MD",
    "csv_header" : "data_year,population,total_agency_count,published_agency_count,active_agency_count,covered_agency_count,population_covered,agency_count_nibrs_submitting,agency_count_leoka_submitting,agency_count_pe_submitting,agency_count_srs_submitting"
  }, {
    "data_year" : 2012,
    "population" : 6068859,
    "total_agency_count" : 156,
    "published_agency_count" : 156,
    "active_agency_count" : 156,
    "covered_agency_count" : 0,
    "population_covered" : 0,
    "agency_count_nibrs_submitting" : 0,
    "agency_count_leoka_submitting" : 0,
    "agency_count_pe_submitting" : 156,
    "agency_count_srs_submitting" : 156,
    "state_id" : 24,
    "state_abbr" : "MD",
    "csv_header" : "data_year,population,total_agency_count,published_agency_count,active_agency_count,covered_agency_count,population_covered,agency_count_nibrs_submitting,agency_count_leoka_submitting,agency_count_pe_submitting,agency_count_srs_submitting"
  }, {
    "data_year" : 2011,
    "population" : 6006169,
    "total_agency_count" : 157,
    "published_agency_count" : 157,
    "active_agency_count" : 157,
    "covered_agency_count" : 0,
    "population_covered" : 0,
    "agency_count_nibrs_submitting" : 0,
    "agency_count_leoka_submitting" : 0,
    "agency_count_pe_submitting" : 157,
    "agency_count_srs_submitting" : 157,
    "state_id" : 24,
    "state_abbr" : "MD",
    "csv_header" : "data_year,population,total_agency_count,published_agency_count,active_agency_count,covered_agency_count,population_covered,agency_count_nibrs_submitting,agency_count_leoka_submitting,agency_count_pe_submitting,agency_count_srs_submitting"
  }, {
    "data_year" : 2010,
    "population" : 5949764,
    "total_agency_count" : 157,
    "published_agency_count" : 157,
    "active_agency_count" : 157,
    "covered_agency_count" : 0,
    "population_covered" : 0,
    "agency_count_nibrs_submitting" : 0,
    "agency_count_leoka_submitting" : 0,
    "agency_count_pe_submitting" : 157,
    "agency_count_srs_submitting" : 157,
    "state_id" : 24,
    "state_abbr" : "MD",
    "csv_header" : "data_year,population,total_agency_count,published_agency_count,active_agency_count,covered_agency_count,population_covered,agency_count_nibrs_submitting,agency_count_leoka_submitting,agency_count_pe_submitting,agency_count_srs_submitting"
  }, {
    "data_year" : 2009,
    "population" : 5870987,
    "total_agency_count" : 157,
    "published_agency_count" : 157,
    "active_agency_count" : 157,
    "covered_agency_count" : 0,
    "population_covered" : 0,
    "agency_count_nibrs_submitting" : 0,
    "agency_count_leoka_submitting" : 0,
    "agency_count_pe_submitting" : 157,
    "agency_count_srs_submitting" : 157,
    "state_id" : 24,
    "state_abbr" : "MD",
    "csv_header" : "data_year,population,total_agency_count,published_agency_count,active_agency_count,covered_agency_count,population_covered,agency_count_nibrs_submitting,agency_count_leoka_submitting,agency_count_pe_submitting,agency_count_srs_submitting"
  }, {
    "data_year" : 2008,
    "population" : 5800551,
    "total_agency_count" : 158,
    "published_agency_count" : 158,
    "active_agency_count" : 158,
    "covered_agency_count" : 0,
    "population_covered" : 0,
    "agency_count_nibrs_submitting" : 0,
    "agency_count_leoka_submitting" : 0,
    "agency_count_pe_submitting" : 158,
    "agency_count_srs_submitting" : 158,
    "state_id" : 24,
    "state_abbr" : "MD",
    "csv_header" : "data_year,population,total_agency_count,published_agency_count,active_agency_count,covered_agency_count,population_covered,agency_count_nibrs_submitting,agency_count_leoka_submitting,agency_count_pe_submitting,agency_count_srs_submitting"
  }, {
    "data_year" : 2007,
    "population" : 5842608,
    "total_agency_count" : 156,
    "published_agency_count" : 156,
    "active_agency_count" : 156,
    "covered_agency_count" : 0,
    "population_covered" : 0,
    "agency_count_nibrs_submitting" : 0,
    "agency_count_leoka_submitting" : 0,
    "agency_count_pe_submitting" : 156,
    "agency_count_srs_submitting" : 156,
    "state_id" : 24,
    "state_abbr" : "MD",
    "csv_header" : "data_year,population,total_agency_count,published_agency_count,active_agency_count,covered_agency_count,population_covered,agency_count_nibrs_submitting,agency_count_leoka_submitting,agency_count_pe_submitting,agency_count_srs_submitting"
  }, {
    "data_year" : 2006,
    "population" : 5783440,
    "total_agency_count" : 153,
    "published_agency_count" : 153,
    "active_agency_count" : 153,
    "covered_agency_count" : 0,
    "population_covered" : 0,
    "agency_count_nibrs_submitting" : 0,
    "agency_count_leoka_submitting" : 0,
    "agency_count_pe_submitting" : 153,
    "agency_count_srs_submitting" : 153,
    "state_id" : 24,
    "state_abbr" : "MD",
    "csv_header" : "data_year,population,total_agency_count,published_agency_count,active_agency_count,covered_agency_count,population_covered,agency_count_nibrs_submitting,agency_count_leoka_submitting,agency_count_pe_submitting,agency_count_srs_submitting"
  }, {
    "data_year" : 2005,
    "population" : 5772739,
    "total_agency_count" : 151,
    "published_agency_count" : 151,
    "active_agency_count" : 151,
    "covered_agency_count" : 0,
    "population_covered" : 0,
    "agency_count_nibrs_submitting" : 0,
    "agency_count_leoka_submitting" : 0,
    "agency_count_pe_submitting" : 151,
    "agency_count_srs_submitting" : 151,
    "state_id" : 24,
    "state_abbr" : "MD",
    "csv_header" : "data_year,population,total_agency_count,published_agency_count,active_agency_count,covered_agency_count,population_covered,agency_count_nibrs_submitting,agency_count_leoka_submitting,agency_count_pe_submitting,agency_count_srs_submitting"
  }, {
    "data_year" : 2004,
    "population" : 5729838,
    "total_agency_count" : 150,
    "published_agency_count" : 150,
    "active_agency_count" : 150,
    "covered_agency_count" : 0,
    "population_covered" : 0,
    "agency_count_nibrs_submitting" : 0,
    "agency_count_leoka_submitting" : 0,
    "agency_count_pe_submitting" : 150,
    "agency_count_srs_submitting" : 150,
    "state_id" : 24,
    "state_abbr" : "MD",
    "csv_header" : "data_year,population,total_agency_count,published_agency_count,active_agency_count,covered_agency_count,population_covered,agency_count_nibrs_submitting,agency_count_leoka_submitting,agency_count_pe_submitting,agency_count_srs_submitting"
  }, {
    "data_year" : 2003,
    "population" : 5672192,
    "total_agency_count" : 149,
    "published_agency_count" : 149,
    "active_agency_count" : 149,
    "covered_agency_count" : 0,
    "population_covered" : 0,
    "agency_count_nibrs_submitting" : 0,
    "agency_count_leoka_submitting" : 0,
    "agency_count_pe_submitting" : 149,
    "agency_count_srs_submitting" : 149,
    "state_id" : 24,
    "state_abbr" : "MD",
    "csv_header" : "data_year,population,total_agency_count,published_agency_count,active_agency_count,covered_agency_count,population_covered,agency_count_nibrs_submitting,agency_count_leoka_submitting,agency_count_pe_submitting,agency_count_srs_submitting"
  }, {
    "data_year" : 2002,
    "population" : 5620542,
    "total_agency_count" : 148,
    "published_agency_count" : 148,
    "active_agency_count" : 148,
    "covered_agency_count" : 0,
    "population_covered" : 0,
    "agency_count_nibrs_submitting" : 0,
    "agency_count_leoka_submitting" : 0,
    "agency_count_pe_submitting" : 148,
    "agency_count_srs_submitting" : 148,
    "state_id" : 24,
    "state_abbr" : "MD",
    "csv_header" : "data_year,population,total_agency_count,published_agency_count,active_agency_count,covered_agency_count,population_covered,agency_count_nibrs_submitting,agency_count_leoka_submitting,agency_count_pe_submitting,agency_count_srs_submitting"
  }, {
    "data_year" : 2001,
    "population" : 5535507,
    "total_agency_count" : 148,
    "published_agency_count" : 148,
    "active_agency_count" : 148,
    "covered_agency_count" : 0,
    "population_covered" : 0,
    "agency_count_nibrs_submitting" : 0,
    "agency_count_leoka_submitting" : 0,
    "agency_count_pe_submitting" : 148,
    "agency_count_srs_submitting" : 148,
    "state_id" : 24,
    "state_abbr" : "MD",
    "csv_header" : "data_year,population,total_agency_count,published_agency_count,active_agency_count,covered_agency_count,population_covered,agency_count_nibrs_submitting,agency_count_leoka_submitting,agency_count_pe_submitting,agency_count_srs_submitting"
  }, {
    "data_year" : 2000,
    "population" : 5449611,
    "total_agency_count" : 148,
    "published_agency_count" : 148,
    "active_agency_count" : 148,
    "covered_agency_count" : 0,
    "population_covered" : 0,
    "agency_count_nibrs_submitting" : 0,
    "agency_count_leoka_submitting" : 0,
    "agency_count_pe_submitting" : 148,
    "agency_count_srs_submitting" : 148,
    "state_id" : 24,
    "state_abbr" : "MD",
    "csv_header" : "data_year,population,total_agency_count,published_agency_count,active_agency_count,covered_agency_count,population_covered,agency_count_nibrs_submitting,agency_count_leoka_submitting,agency_count_pe_submitting,agency_count_srs_submitting"
  } ],
  "pagination" : {
    "count" : 25,
    "page" : 0,
    "pages" : 2,
    "per_page" : 20
  }
}