{
  "results" : [ {
    "data_year" : 2019,
    "population" : 1390713,
    "total_agency_count" : 0,
    "published_agency_count" : 0,
    "active_agency_count" : 0,
    "covered_agency_count" : 0,
    "population_covered" : 0,
    "agency_count_nibrs_submitting" : 0,
    "agency_count_leoka_submitting" : 0,
    "agency_count_pe_submitting" : 0,
    "agency_count_srs_submitting" : 0,
    "state_id" : 25,
    "state_abbr" : "ME",
    "csv_header" : "data_year,population,total_agency_count,published_agency_count,active_agency_count,covered_agency_count,population_covered,agency_count_nibrs_submitting,agency_count_leoka_submitting,agency_count_pe_submitting,agency_count_srs_submitting"
  }, {
    "data_year" : 2018,
    "population" : 1847979,
    "total_agency_count" : 124,
    "published_agency_count" : 124,
    "active_agency_count" : 124,
    "covered_agency_count" : 0,
    "population_covered" : 0,
    "agency_count_nibrs_submitting" : 45,
    "agency_count_leoka_submitting" : 14,
    "agency_count_pe_submitting" : 124,
    "agency_count_srs_submitting" : 124,
    "state_id" : 25,
    "state_abbr" : "ME",
    "csv_header" : "data_year,population,total_agency_count,published_agency_count,active_agency_count,covered_agency_count,population_covered,agency_count_nibrs_submitting,agency_count_leoka_submitting,agency_count_pe_submitting,agency_count_srs_submitting"
  }, {
    "data_year" : 2017,
    "population" : 1610782,
    "total_agency_count" : 135,
    "published_agency_count" : 135,
    "active_agency_count" : 135,
    "covered_agency_count" : 0,
    "population_covered" : 0,
    "agency_count_nibrs_submitting" : 25,
    "agency_count_leoka_submitting" : 7,
    "agency_count_pe_submitting" : 135,
    "agency_count_srs_submitting" : 135,
    "state_id" : 25,
    "state_abbr" : "ME",
    "csv_header" : "data_year,population,total_agency_count,published_agency_count,active_agency_count,covered_agency_count,population_covered,agency_count_nibrs_submitting,agency_count_leoka_submitting,agency_count_pe_submitting,agency_count_srs_submitting"
  }, {
    "data_year" : 2016,
    "population" : 1407114,
    "total_agency_count" : 202,
    "published_agency_count" : 202,
    "active_agency_count" : 202,
    "covered_agency_count" : 0,
    "population_covered" : 0,
    "agency_count_nibrs_submitting" : 28,
    "agency_count_leoka_submitting" : 7,
    "agency_count_pe_submitting" : 202,
    "agency_count_srs_submitting" : 202,
    "state_id" : 25,
    "state_abbr" : "ME",
    "csv_header" : "data_year,population,total_agency_count,published_agency_count,active_agency_count,covered_agency_count,population_covered,agency_count_nibrs_submitting,agency_count_leoka_submitting,agency_count_pe_submitting,agency_count_srs_submitting"
  }, {
    "data_year" : 2015,
    "population" : 1376223,
    "total_agency_count" : 185,
    "published_agency_count" : 185,
    "active_agency_count" : 185,
    "covered_agency_count" : 0,
    "population_covered" : 0,
    "agency_count_nibrs_submitting" : 21,
    "agency_count_leoka_submitting" : 7,
    "agency_count_pe_submitting" : 185,
    "agency_count_srs_submitting" : 185,
    "state_id" : 25,
    "state_abbr" : "ME",
    "csv_header" : "data_year,population,total_agency_count,published_agency_count,active_agency_count,covered_agency_count,population_covered,agency_count_nibrs_submitting,agency_count_leoka_submitting,agency_count_pe_submitting,agency_count_srs_submitting"
  }, {
    "data_year" : 2014,
    "population" : 1376141,
    "total_agency_count" : 184,
    "published_agency_count" : 184,
    "active_agency_count" : 184,
    "covered_agency_count" : 0,
    "population_covered" : 0,
    "agency_count_nibrs_submitting" : 21,
    "agency_count_leoka_submitting" : 7,
    "agency_count_pe_submitting" : 184,
    "agency_count_srs_submitting" : 184,
    "state_id" : 25,
    "state_abbr" : "ME",
    "csv_header" : "data_year,population,total_agency_count,published_agency_count,active_agency_count,covered_agency_count,population_covered,agency_count_nibrs_submitting,agency_count_leoka_submitting,agency_count_pe_submitting,agency_count_srs_submitting"
  }, {
    "data_year" : 2013,
    "population" : 1376659,
    "total_agency_count" : 184,
    "published_agency_count" : 184,
    "active_agency_count" : 184,
    "covered_agency_count" : 0,
    "population_covered" : 0,
    "agency_count_nibrs_submitting" : 21,
    "agency_count_leoka_submitting" : 7,
    "agency_count_pe_submitting" : 184,
    "agency_count_srs_submitting" : 184,
    "state_id" : 25,
    "state_abbr" : "ME",
    "csv_header" : "data_year,population,total_agency_count,published_agency_count,active_agency_count,covered_agency_count,population_covered,agency_count_nibrs_submitting,agency_count_leoka_submitting,agency_count_pe_submitting,agency_count_srs_submitting"
  }, {
    "data_year" : 2012,
    "population" : 1379584,
    "total_agency_count" : 186,
    "published_agency_count" : 186,
    "active_agency_count" : 186,
    "covered_agency_count" : 0,
    "population_covered" : 0,
    "agency_count_nibrs_submitting" : 20,
    "agency_count_leoka_submitting" : 7,
    "agency_count_pe_submitting" : 186,
    "agency_count_srs_submitting" : 186,
    "state_id" : 25,
    "state_abbr" : "ME",
    "csv_header" : "data_year,population,total_agency_count,published_agency_count,active_agency_count,covered_agency_count,population_covered,agency_count_nibrs_submitting,agency_count_leoka_submitting,agency_count_pe_submitting,agency_count_srs_submitting"
  }, {
    "data_year" : 2011,
    "population" : 1389431,
    "total_agency_count" : 171,
    "published_agency_count" : 171,
    "active_agency_count" : 171,
    "covered_agency_count" : 0,
    "population_covered" : 0,
    "agency_count_nibrs_submitting" : 21,
    "agency_count_leoka_submitting" : 7,
    "agency_count_pe_submitting" : 171,
    "agency_count_srs_submitting" : 171,
    "state_id" : 25,
    "state_abbr" : "ME",
    "csv_header" : "data_year,population,total_agency_count,published_agency_count,active_agency_count,covered_agency_count,population_covered,agency_count_nibrs_submitting,agency_count_leoka_submitting,agency_count_pe_submitting,agency_count_srs_submitting"
  }, {
    "data_year" : 2010,
    "population" : 1373284,
    "total_agency_count" : 168,
    "published_agency_count" : 168,
    "active_agency_count" : 168,
    "covered_agency_count" : 0,
    "population_covered" : 0,
    "agency_count_nibrs_submitting" : 15,
    "agency_count_leoka_submitting" : 7,
    "agency_count_pe_submitting" : 168,
    "agency_count_srs_submitting" : 168,
    "state_id" : 25,
    "state_abbr" : "ME",
    "csv_header" : "data_year,population,total_agency_count,published_agency_count,active_agency_count,covered_agency_count,population_covered,agency_count_nibrs_submitting,agency_count_leoka_submitting,agency_count_pe_submitting,agency_count_srs_submitting"
  }, {
    "data_year" : 2009,
    "population" : 1385421,
    "total_agency_count" : 169,
    "published_agency_count" : 169,
    "active_agency_count" : 169,
    "covered_agency_count" : 0,
    "population_covered" : 0,
    "agency_count_nibrs_submitting" : 16,
    "agency_count_leoka_submitting" : 7,
    "agency_count_pe_submitting" : 169,
    "agency_count_srs_submitting" : 169,
    "state_id" : 25,
    "state_abbr" : "ME",
    "csv_header" : "data_year,population,total_agency_count,published_agency_count,active_agency_count,covered_agency_count,population_covered,agency_count_nibrs_submitting,agency_count_leoka_submitting,agency_count_pe_submitting,agency_count_srs_submitting"
  }, {
    "data_year" : 2008,
    "population" : 1356450,
    "total_agency_count" : 168,
    "published_agency_count" : 168,
    "active_agency_count" : 168,
    "covered_agency_count" : 0,
    "population_covered" : 0,
    "agency_count_nibrs_submitting" : 15,
    "agency_count_leoka_submitting" : 7,
    "agency_count_pe_submitting" : 168,
    "agency_count_srs_submitting" : 168,
    "state_id" : 25,
    "state_abbr" : "ME",
    "csv_header" : "data_year,population,total_agency_count,published_agency_count,active_agency_count,covered_agency_count,population_covered,agency_count_nibrs_submitting,agency_count_leoka_submitting,agency_count_pe_submitting,agency_count_srs_submitting"
  }, {
    "data_year" : 2007,
    "population" : 1408460,
    "total_agency_count" : 170,
    "published_agency_count" : 170,
    "active_agency_count" : 170,
    "covered_agency_count" : 0,
    "population_covered" : 0,
    "agency_count_nibrs_submitting" : 17,
    "agency_count_leoka_submitting" : 7,
    "agency_count_pe_submitting" : 170,
    "agency_count_srs_submitting" : 170,
    "state_id" : 25,
    "state_abbr" : "ME",
    "csv_header" : "data_year,population,total_agency_count,published_agency_count,active_agency_count,covered_agency_count,population_covered,agency_count_nibrs_submitting,agency_count_leoka_submitting,agency_count_pe_submitting,agency_count_srs_submitting"
  }, {
    "data_year" : 2006,
    "population" : 1454430,
    "total_agency_count" : 170,
    "published_agency_count" : 170,
    "active_agency_count" : 170,
    "covered_agency_count" : 0,
    "population_covered" : 0,
    "agency_count_nibrs_submitting" : 13,
    "agency_count_leoka_submitting" : 7,
    "agency_count_pe_submitting" : 170,
    "agency_count_srs_submitting" : 170,
    "state_id" : 25,
    "state_abbr" : "ME",
    "csv_header" : "data_year,population,total_agency_count,published_agency_count,active_agency_count,covered_agency_count,population_covered,agency_count_nibrs_submitting,agency_count_leoka_submitting,agency_count_pe_submitting,agency_count_srs_submitting"
  }, {
    "data_year" : 2005,
    "population" : 1367789,
    "total_agency_count" : 150,
    "published_agency_count" : 150,
    "active_agency_count" : 150,
    "covered_agency_count" : 0,
    "population_covered" : 0,
    "agency_count_nibrs_submitting" : 7,
    "agency_count_leoka_submitting" : 7,
    "agency_count_pe_submitting" : 150,
    "agency_count_srs_submitting" : 150,
    "state_id" : 25,
    "state_abbr" : "ME",
    "csv_header" : "data_year,population,total_agency_count,published_agency_count,active_agency_count,covered_agency_count,population_covered,agency_count_nibrs_submitting,agency_count_leoka_submitting,agency_count_pe_submitting,agency_count_srs_submitting"
  }, {
    "data_year" : 2004,
    "population" : 1393265,
    "total_agency_count" : 167,
    "published_agency_count" : 167,
    "active_agency_count" : 167,
    "covered_agency_count" : 0,
    "population_covered" : 0,
    "agency_count_nibrs_submitting" : 8,
    "agency_count_leoka_submitting" : 8,
    "agency_count_pe_submitting" : 167,
    "agency_count_srs_submitting" : 167,
    "state_id" : 25,
    "state_abbr" : "ME",
    "csv_header" : "data_year,population,total_agency_count,published_agency_count,active_agency_count,covered_agency_count,population_covered,agency_count_nibrs_submitting,agency_count_leoka_submitting,agency_count_pe_submitting,agency_count_srs_submitting"
  }, {
    "data_year" : 2003,
    "population" : 1365362,
    "total_agency_count" : 177,
    "published_agency_count" : 177,
    "active_agency_count" : 177,
    "covered_agency_count" : 0,
    "population_covered" : 0,
    "agency_count_nibrs_submitting" : 2,
    "agency_count_leoka_submitting" : 0,
    "agency_count_pe_submitting" : 177,
    "agency_count_srs_submitting" : 177,
    "state_id" : 25,
    "state_abbr" : "ME",
    "csv_header" : "data_year,population,total_agency_count,published_agency_count,active_agency_count,covered_agency_count,population_covered,agency_count_nibrs_submitting,agency_count_leoka_submitting,agency_count_pe_submitting,agency_count_srs_submitting"
  }, {
    "data_year" : 2002,
    "population" : 1329171,
    "total_agency_count" : 180,
    "published_agency_count" : 180,
    "active_agency_count" : 180,
    "covered_agency_count" : 0,
    "population_covered" : 0,
    "agency_count_nibrs_submitting" : 0,
    "agency_count_leoka_submitting" : 0,
    "agency_count_pe_submitting" : 180,
    "agency_count_srs_submitting" : 180,
    "state_id" : 25,
    "state_abbr" : "ME",
    "csv_header" : "data_year,population,total_agency_count,published_agency_count,active_agency_count,covered_agency_count,population_covered,agency_count_nibrs_submitting,agency_count_leoka_submitting,agency_count_pe_submitting,agency_count_srs_submitting"
  }, {
    "data_year" : 2001,
    "population" : 1326146,
    "total_agency_count" : 180,
    "published_agency_count" : 180,
    "active_agency_count" : 180,
    "covered_agency_count" : 0,
    "population_covered" : 0,
    "agency_count_nibrs_submitting" : 0,
    "agency_count_leoka_submitting" : 0,
    "agency_count_pe_submitting" : 180,
    "agency_count_srs_submitting" : 180,
    "state_id" : 25,
    "state_abbr" : "ME",
    "csv_header" : "data_year,population,total_agency_count,published_agency_count,active_agency_count,covered_agency_count,population_covered,agency_count_nibrs_submitting,agency_count_leoka_submitting,agency_count_pe_submitting,agency_count_srs_submitting"
  }, {
    "data_year" : 2000,
    "population" : 1314095,
    "total_agency_count" : 179,
    "published_agency_count" : 179,
    "active_agency_count" : 179,
    "covered_agency_count" : 0,
    "population_covered" : 0,
    "agency_count_nibrs_submitting" : 0,
    "agency_count_leoka_submitting" : 0,
    "agency_count_pe_submitting" : 179,
    "agency_count_srs_submitting" : 179,
    "state_id" : 25,
    "state_abbr" : "ME",
    "csv_header" : "data_year,population,total_agency_count,published_agency_count,active_agency_count,covered_agency_count,population_covered,agency_count_nibrs_submitting,agency_count_leoka_submitting,agency_count_pe_submitting,agency_count_srs_submitting"
  } ],
  "pagination" : {
    "count" : 25,
    "page" : 0,
    "pages" : 2,
    "per_page" : 20
  }
}