{
  "results" : [ {
    "data_year" : 2019,
    "population" : 10386941,
    "total_agency_count" : 0,
    "published_agency_count" : 0,
    "active_agency_count" : 0,
    "covered_agency_count" : 0,
    "population_covered" : 0,
    "agency_count_nibrs_submitting" : 0,
    "agency_count_leoka_submitting" : 0,
    "agency_count_pe_submitting" : 0,
    "agency_count_srs_submitting" : 0,
    "state_id" : 26,
    "state_abbr" : "MI",
    "csv_header" : "data_year,population,total_agency_count,published_agency_count,active_agency_count,covered_agency_count,population_covered,agency_count_nibrs_submitting,agency_count_leoka_submitting,agency_count_pe_submitting,agency_count_srs_submitting"
  }, {
    "data_year" : 2018,
    "population" : 20162045,
    "total_agency_count" : 1186,
    "published_agency_count" : 1186,
    "active_agency_count" : 1186,
    "covered_agency_count" : 0,
    "population_covered" : 0,
    "agency_count_nibrs_submitting" : 1186,
    "agency_count_leoka_submitting" : 1184,
    "agency_count_pe_submitting" : 1186,
    "agency_count_srs_submitting" : 1186,
    "state_id" : 26,
    "state_abbr" : "MI",
    "csv_header" : "data_year,population,total_agency_count,published_agency_count,active_agency_count,covered_agency_count,population_covered,agency_count_nibrs_submitting,agency_count_leoka_submitting,agency_count_pe_submitting,agency_count_srs_submitting"
  }, {
    "data_year" : 2017,
    "population" : 10400915,
    "total_agency_count" : 642,
    "published_agency_count" : 642,
    "active_agency_count" : 642,
    "covered_agency_count" : 0,
    "population_covered" : 0,
    "agency_count_nibrs_submitting" : 633,
    "agency_count_leoka_submitting" : 631,
    "agency_count_pe_submitting" : 642,
    "agency_count_srs_submitting" : 642,
    "state_id" : 26,
    "state_abbr" : "MI",
    "csv_header" : "data_year,population,total_agency_count,published_agency_count,active_agency_count,covered_agency_count,population_covered,agency_count_nibrs_submitting,agency_count_leoka_submitting,agency_count_pe_submitting,agency_count_srs_submitting"
  }, {
    "data_year" : 2016,
    "population" : 10451718,
    "total_agency_count" : 647,
    "published_agency_count" : 647,
    "active_agency_count" : 647,
    "covered_agency_count" : 0,
    "population_covered" : 0,
    "agency_count_nibrs_submitting" : 637,
    "agency_count_leoka_submitting" : 629,
    "agency_count_pe_submitting" : 647,
    "agency_count_srs_submitting" : 647,
    "state_id" : 26,
    "state_abbr" : "MI",
    "csv_header" : "data_year,population,total_agency_count,published_agency_count,active_agency_count,covered_agency_count,population_covered,agency_count_nibrs_submitting,agency_count_leoka_submitting,agency_count_pe_submitting,agency_count_srs_submitting"
  }, {
    "data_year" : 2015,
    "population" : 10557596,
    "total_agency_count" : 644,
    "published_agency_count" : 644,
    "active_agency_count" : 644,
    "covered_agency_count" : 0,
    "population_covered" : 0,
    "agency_count_nibrs_submitting" : 634,
    "agency_count_leoka_submitting" : 634,
    "agency_count_pe_submitting" : 644,
    "agency_count_srs_submitting" : 644,
    "state_id" : 26,
    "state_abbr" : "MI",
    "csv_header" : "data_year,population,total_agency_count,published_agency_count,active_agency_count,covered_agency_count,population_covered,agency_count_nibrs_submitting,agency_count_leoka_submitting,agency_count_pe_submitting,agency_count_srs_submitting"
  }, {
    "data_year" : 2014,
    "population" : 10699502,
    "total_agency_count" : 662,
    "published_agency_count" : 662,
    "active_agency_count" : 662,
    "covered_agency_count" : 0,
    "population_covered" : 0,
    "agency_count_nibrs_submitting" : 652,
    "agency_count_leoka_submitting" : 647,
    "agency_count_pe_submitting" : 662,
    "agency_count_srs_submitting" : 662,
    "state_id" : 26,
    "state_abbr" : "MI",
    "csv_header" : "data_year,population,total_agency_count,published_agency_count,active_agency_count,covered_agency_count,population_covered,agency_count_nibrs_submitting,agency_count_leoka_submitting,agency_count_pe_submitting,agency_count_srs_submitting"
  }, {
    "data_year" : 2013,
    "population" : 11394005,
    "total_agency_count" : 664,
    "published_agency_count" : 664,
    "active_agency_count" : 664,
    "covered_agency_count" : 0,
    "population_covered" : 0,
    "agency_count_nibrs_submitting" : 655,
    "agency_count_leoka_submitting" : 652,
    "agency_count_pe_submitting" : 664,
    "agency_count_srs_submitting" : 664,
    "state_id" : 26,
    "state_abbr" : "MI",
    "csv_header" : "data_year,population,total_agency_count,published_agency_count,active_agency_count,covered_agency_count,population_covered,agency_count_nibrs_submitting,agency_count_leoka_submitting,agency_count_pe_submitting,agency_count_srs_submitting"
  }, {
    "data_year" : 2012,
    "population" : 10853176,
    "total_agency_count" : 669,
    "published_agency_count" : 669,
    "active_agency_count" : 669,
    "covered_agency_count" : 0,
    "population_covered" : 0,
    "agency_count_nibrs_submitting" : 657,
    "agency_count_leoka_submitting" : 645,
    "agency_count_pe_submitting" : 669,
    "agency_count_srs_submitting" : 669,
    "state_id" : 26,
    "state_abbr" : "MI",
    "csv_header" : "data_year,population,total_agency_count,published_agency_count,active_agency_count,covered_agency_count,population_covered,agency_count_nibrs_submitting,agency_count_leoka_submitting,agency_count_pe_submitting,agency_count_srs_submitting"
  }, {
    "data_year" : 2011,
    "population" : 10828896,
    "total_agency_count" : 661,
    "published_agency_count" : 661,
    "active_agency_count" : 661,
    "covered_agency_count" : 0,
    "population_covered" : 0,
    "agency_count_nibrs_submitting" : 650,
    "agency_count_leoka_submitting" : 637,
    "agency_count_pe_submitting" : 661,
    "agency_count_srs_submitting" : 661,
    "state_id" : 26,
    "state_abbr" : "MI",
    "csv_header" : "data_year,population,total_agency_count,published_agency_count,active_agency_count,covered_agency_count,population_covered,agency_count_nibrs_submitting,agency_count_leoka_submitting,agency_count_pe_submitting,agency_count_srs_submitting"
  }, {
    "data_year" : 2010,
    "population" : 10792093,
    "total_agency_count" : 663,
    "published_agency_count" : 663,
    "active_agency_count" : 663,
    "covered_agency_count" : 0,
    "population_covered" : 0,
    "agency_count_nibrs_submitting" : 652,
    "agency_count_leoka_submitting" : 629,
    "agency_count_pe_submitting" : 663,
    "agency_count_srs_submitting" : 663,
    "state_id" : 26,
    "state_abbr" : "MI",
    "csv_header" : "data_year,population,total_agency_count,published_agency_count,active_agency_count,covered_agency_count,population_covered,agency_count_nibrs_submitting,agency_count_leoka_submitting,agency_count_pe_submitting,agency_count_srs_submitting"
  }, {
    "data_year" : 2009,
    "population" : 10628324,
    "total_agency_count" : 646,
    "published_agency_count" : 646,
    "active_agency_count" : 646,
    "covered_agency_count" : 0,
    "population_covered" : 0,
    "agency_count_nibrs_submitting" : 635,
    "agency_count_leoka_submitting" : 558,
    "agency_count_pe_submitting" : 646,
    "agency_count_srs_submitting" : 646,
    "state_id" : 26,
    "state_abbr" : "MI",
    "csv_header" : "data_year,population,total_agency_count,published_agency_count,active_agency_count,covered_agency_count,population_covered,agency_count_nibrs_submitting,agency_count_leoka_submitting,agency_count_pe_submitting,agency_count_srs_submitting"
  }, {
    "data_year" : 2008,
    "population" : 10863427,
    "total_agency_count" : 662,
    "published_agency_count" : 662,
    "active_agency_count" : 662,
    "covered_agency_count" : 0,
    "population_covered" : 0,
    "agency_count_nibrs_submitting" : 654,
    "agency_count_leoka_submitting" : 0,
    "agency_count_pe_submitting" : 662,
    "agency_count_srs_submitting" : 662,
    "state_id" : 26,
    "state_abbr" : "MI",
    "csv_header" : "data_year,population,total_agency_count,published_agency_count,active_agency_count,covered_agency_count,population_covered,agency_count_nibrs_submitting,agency_count_leoka_submitting,agency_count_pe_submitting,agency_count_srs_submitting"
  }, {
    "data_year" : 2007,
    "population" : 10958804,
    "total_agency_count" : 671,
    "published_agency_count" : 671,
    "active_agency_count" : 671,
    "covered_agency_count" : 0,
    "population_covered" : 0,
    "agency_count_nibrs_submitting" : 662,
    "agency_count_leoka_submitting" : 0,
    "agency_count_pe_submitting" : 671,
    "agency_count_srs_submitting" : 671,
    "state_id" : 26,
    "state_abbr" : "MI",
    "csv_header" : "data_year,population,total_agency_count,published_agency_count,active_agency_count,covered_agency_count,population_covered,agency_count_nibrs_submitting,agency_count_leoka_submitting,agency_count_pe_submitting,agency_count_srs_submitting"
  }, {
    "data_year" : 2006,
    "population" : 10711402,
    "total_agency_count" : 649,
    "published_agency_count" : 649,
    "active_agency_count" : 649,
    "covered_agency_count" : 0,
    "population_covered" : 0,
    "agency_count_nibrs_submitting" : 637,
    "agency_count_leoka_submitting" : 0,
    "agency_count_pe_submitting" : 649,
    "agency_count_srs_submitting" : 649,
    "state_id" : 26,
    "state_abbr" : "MI",
    "csv_header" : "data_year,population,total_agency_count,published_agency_count,active_agency_count,covered_agency_count,population_covered,agency_count_nibrs_submitting,agency_count_leoka_submitting,agency_count_pe_submitting,agency_count_srs_submitting"
  }, {
    "data_year" : 2005,
    "population" : 10953383,
    "total_agency_count" : 659,
    "published_agency_count" : 659,
    "active_agency_count" : 659,
    "covered_agency_count" : 0,
    "population_covered" : 0,
    "agency_count_nibrs_submitting" : 656,
    "agency_count_leoka_submitting" : 0,
    "agency_count_pe_submitting" : 659,
    "agency_count_srs_submitting" : 659,
    "state_id" : 26,
    "state_abbr" : "MI",
    "csv_header" : "data_year,population,total_agency_count,published_agency_count,active_agency_count,covered_agency_count,population_covered,agency_count_nibrs_submitting,agency_count_leoka_submitting,agency_count_pe_submitting,agency_count_srs_submitting"
  }, {
    "data_year" : 2004,
    "population" : 11208772,
    "total_agency_count" : 670,
    "published_agency_count" : 670,
    "active_agency_count" : 670,
    "covered_agency_count" : 0,
    "population_covered" : 0,
    "agency_count_nibrs_submitting" : 667,
    "agency_count_leoka_submitting" : 0,
    "agency_count_pe_submitting" : 670,
    "agency_count_srs_submitting" : 670,
    "state_id" : 26,
    "state_abbr" : "MI",
    "csv_header" : "data_year,population,total_agency_count,published_agency_count,active_agency_count,covered_agency_count,population_covered,agency_count_nibrs_submitting,agency_count_leoka_submitting,agency_count_pe_submitting,agency_count_srs_submitting"
  }, {
    "data_year" : 2003,
    "population" : 11207119,
    "total_agency_count" : 670,
    "published_agency_count" : 670,
    "active_agency_count" : 670,
    "covered_agency_count" : 0,
    "population_covered" : 0,
    "agency_count_nibrs_submitting" : 662,
    "agency_count_leoka_submitting" : 0,
    "agency_count_pe_submitting" : 670,
    "agency_count_srs_submitting" : 670,
    "state_id" : 26,
    "state_abbr" : "MI",
    "csv_header" : "data_year,population,total_agency_count,published_agency_count,active_agency_count,covered_agency_count,population_covered,agency_count_nibrs_submitting,agency_count_leoka_submitting,agency_count_pe_submitting,agency_count_srs_submitting"
  }, {
    "data_year" : 2002,
    "population" : 11730260,
    "total_agency_count" : 689,
    "published_agency_count" : 689,
    "active_agency_count" : 689,
    "covered_agency_count" : 0,
    "population_covered" : 0,
    "agency_count_nibrs_submitting" : 677,
    "agency_count_leoka_submitting" : 0,
    "agency_count_pe_submitting" : 689,
    "agency_count_srs_submitting" : 689,
    "state_id" : 26,
    "state_abbr" : "MI",
    "csv_header" : "data_year,population,total_agency_count,published_agency_count,active_agency_count,covered_agency_count,population_covered,agency_count_nibrs_submitting,agency_count_leoka_submitting,agency_count_pe_submitting,agency_count_srs_submitting"
  }, {
    "data_year" : 2001,
    "population" : 11249449,
    "total_agency_count" : 675,
    "published_agency_count" : 675,
    "active_agency_count" : 675,
    "covered_agency_count" : 0,
    "population_covered" : 0,
    "agency_count_nibrs_submitting" : 660,
    "agency_count_leoka_submitting" : 0,
    "agency_count_pe_submitting" : 675,
    "agency_count_srs_submitting" : 675,
    "state_id" : 26,
    "state_abbr" : "MI",
    "csv_header" : "data_year,population,total_agency_count,published_agency_count,active_agency_count,covered_agency_count,population_covered,agency_count_nibrs_submitting,agency_count_leoka_submitting,agency_count_pe_submitting,agency_count_srs_submitting"
  }, {
    "data_year" : 2000,
    "population" : 11021292,
    "total_agency_count" : 672,
    "published_agency_count" : 672,
    "active_agency_count" : 672,
    "covered_agency_count" : 0,
    "population_covered" : 0,
    "agency_count_nibrs_submitting" : 653,
    "agency_count_leoka_submitting" : 0,
    "agency_count_pe_submitting" : 672,
    "agency_count_srs_submitting" : 672,
    "state_id" : 26,
    "state_abbr" : "MI",
    "csv_header" : "data_year,population,total_agency_count,published_agency_count,active_agency_count,covered_agency_count,population_covered,agency_count_nibrs_submitting,agency_count_leoka_submitting,agency_count_pe_submitting,agency_count_srs_submitting"
  } ],
  "pagination" : {
    "count" : 25,
    "page" : 0,
    "pages" : 2,
    "per_page" : 20
  }
}