{
  "results" : [ {
    "data_year" : 2019,
    "population" : 5900702,
    "total_agency_count" : 0,
    "published_agency_count" : 0,
    "active_agency_count" : 0,
    "covered_agency_count" : 0,
    "population_covered" : 0,
    "agency_count_nibrs_submitting" : 0,
    "agency_count_leoka_submitting" : 0,
    "agency_count_pe_submitting" : 0,
    "agency_count_srs_submitting" : 0,
    "state_id" : 27,
    "state_abbr" : "MN",
    "csv_header" : "data_year,population,total_agency_count,published_agency_count,active_agency_count,covered_agency_count,population_covered,agency_count_nibrs_submitting,agency_count_leoka_submitting,agency_count_pe_submitting,agency_count_srs_submitting"
  }, {
    "data_year" : 2018,
    "population" : 6012845,
    "total_agency_count" : 398,
    "published_agency_count" : 398,
    "active_agency_count" : 398,
    "covered_agency_count" : 0,
    "population_covered" : 0,
    "agency_count_nibrs_submitting" : 39,
    "agency_count_leoka_submitting" : 33,
    "agency_count_pe_submitting" : 398,
    "agency_count_srs_submitting" : 398,
    "state_id" : 27,
    "state_abbr" : "MN",
    "csv_header" : "data_year,population,total_agency_count,published_agency_count,active_agency_count,covered_agency_count,population_covered,agency_count_nibrs_submitting,agency_count_leoka_submitting,agency_count_pe_submitting,agency_count_srs_submitting"
  }, {
    "data_year" : 2017,
    "population" : 5895290,
    "total_agency_count" : 418,
    "published_agency_count" : 418,
    "active_agency_count" : 418,
    "covered_agency_count" : 0,
    "population_covered" : 0,
    "agency_count_nibrs_submitting" : 38,
    "agency_count_leoka_submitting" : 16,
    "agency_count_pe_submitting" : 418,
    "agency_count_srs_submitting" : 418,
    "state_id" : 27,
    "state_abbr" : "MN",
    "csv_header" : "data_year,population,total_agency_count,published_agency_count,active_agency_count,covered_agency_count,population_covered,agency_count_nibrs_submitting,agency_count_leoka_submitting,agency_count_pe_submitting,agency_count_srs_submitting"
  }, {
    "data_year" : 2016,
    "population" : 5996299,
    "total_agency_count" : 392,
    "published_agency_count" : 385,
    "active_agency_count" : 392,
    "covered_agency_count" : 7,
    "population_covered" : 80974,
    "agency_count_nibrs_submitting" : 5,
    "agency_count_leoka_submitting" : 2,
    "agency_count_pe_submitting" : 392,
    "agency_count_srs_submitting" : 392,
    "state_id" : 27,
    "state_abbr" : "MN",
    "csv_header" : "data_year,population,total_agency_count,published_agency_count,active_agency_count,covered_agency_count,population_covered,agency_count_nibrs_submitting,agency_count_leoka_submitting,agency_count_pe_submitting,agency_count_srs_submitting"
  }, {
    "data_year" : 2015,
    "population" : 5723173,
    "total_agency_count" : 390,
    "published_agency_count" : 390,
    "active_agency_count" : 390,
    "covered_agency_count" : 0,
    "population_covered" : 0,
    "agency_count_nibrs_submitting" : 0,
    "agency_count_leoka_submitting" : 0,
    "agency_count_pe_submitting" : 390,
    "agency_count_srs_submitting" : 390,
    "state_id" : 27,
    "state_abbr" : "MN",
    "csv_header" : "data_year,population,total_agency_count,published_agency_count,active_agency_count,covered_agency_count,population_covered,agency_count_nibrs_submitting,agency_count_leoka_submitting,agency_count_pe_submitting,agency_count_srs_submitting"
  }, {
    "data_year" : 2014,
    "population" : 5688135,
    "total_agency_count" : 332,
    "published_agency_count" : 332,
    "active_agency_count" : 332,
    "covered_agency_count" : 0,
    "population_covered" : 0,
    "agency_count_nibrs_submitting" : 0,
    "agency_count_leoka_submitting" : 0,
    "agency_count_pe_submitting" : 332,
    "agency_count_srs_submitting" : 332,
    "state_id" : 27,
    "state_abbr" : "MN",
    "csv_header" : "data_year,population,total_agency_count,published_agency_count,active_agency_count,covered_agency_count,population_covered,agency_count_nibrs_submitting,agency_count_leoka_submitting,agency_count_pe_submitting,agency_count_srs_submitting"
  }, {
    "data_year" : 2013,
    "population" : 5661207,
    "total_agency_count" : 335,
    "published_agency_count" : 335,
    "active_agency_count" : 335,
    "covered_agency_count" : 0,
    "population_covered" : 0,
    "agency_count_nibrs_submitting" : 0,
    "agency_count_leoka_submitting" : 0,
    "agency_count_pe_submitting" : 335,
    "agency_count_srs_submitting" : 335,
    "state_id" : 27,
    "state_abbr" : "MN",
    "csv_header" : "data_year,population,total_agency_count,published_agency_count,active_agency_count,covered_agency_count,population_covered,agency_count_nibrs_submitting,agency_count_leoka_submitting,agency_count_pe_submitting,agency_count_srs_submitting"
  }, {
    "data_year" : 2012,
    "population" : 5592783,
    "total_agency_count" : 332,
    "published_agency_count" : 332,
    "active_agency_count" : 332,
    "covered_agency_count" : 0,
    "population_covered" : 0,
    "agency_count_nibrs_submitting" : 0,
    "agency_count_leoka_submitting" : 0,
    "agency_count_pe_submitting" : 332,
    "agency_count_srs_submitting" : 332,
    "state_id" : 27,
    "state_abbr" : "MN",
    "csv_header" : "data_year,population,total_agency_count,published_agency_count,active_agency_count,covered_agency_count,population_covered,agency_count_nibrs_submitting,agency_count_leoka_submitting,agency_count_pe_submitting,agency_count_srs_submitting"
  }, {
    "data_year" : 2011,
    "population" : 5631227,
    "total_agency_count" : 323,
    "published_agency_count" : 323,
    "active_agency_count" : 323,
    "covered_agency_count" : 0,
    "population_covered" : 0,
    "agency_count_nibrs_submitting" : 0,
    "agency_count_leoka_submitting" : 0,
    "agency_count_pe_submitting" : 323,
    "agency_count_srs_submitting" : 323,
    "state_id" : 27,
    "state_abbr" : "MN",
    "csv_header" : "data_year,population,total_agency_count,published_agency_count,active_agency_count,covered_agency_count,population_covered,agency_count_nibrs_submitting,agency_count_leoka_submitting,agency_count_pe_submitting,agency_count_srs_submitting"
  }, {
    "data_year" : 2010,
    "population" : 5955984,
    "total_agency_count" : 330,
    "published_agency_count" : 330,
    "active_agency_count" : 330,
    "covered_agency_count" : 0,
    "population_covered" : 0,
    "agency_count_nibrs_submitting" : 0,
    "agency_count_leoka_submitting" : 0,
    "agency_count_pe_submitting" : 330,
    "agency_count_srs_submitting" : 330,
    "state_id" : 27,
    "state_abbr" : "MN",
    "csv_header" : "data_year,population,total_agency_count,published_agency_count,active_agency_count,covered_agency_count,population_covered,agency_count_nibrs_submitting,agency_count_leoka_submitting,agency_count_pe_submitting,agency_count_srs_submitting"
  }, {
    "data_year" : 2009,
    "population" : 5634672,
    "total_agency_count" : 328,
    "published_agency_count" : 328,
    "active_agency_count" : 328,
    "covered_agency_count" : 0,
    "population_covered" : 0,
    "agency_count_nibrs_submitting" : 0,
    "agency_count_leoka_submitting" : 0,
    "agency_count_pe_submitting" : 328,
    "agency_count_srs_submitting" : 328,
    "state_id" : 27,
    "state_abbr" : "MN",
    "csv_header" : "data_year,population,total_agency_count,published_agency_count,active_agency_count,covered_agency_count,population_covered,agency_count_nibrs_submitting,agency_count_leoka_submitting,agency_count_pe_submitting,agency_count_srs_submitting"
  }, {
    "data_year" : 2008,
    "population" : 5591751,
    "total_agency_count" : 329,
    "published_agency_count" : 329,
    "active_agency_count" : 329,
    "covered_agency_count" : 0,
    "population_covered" : 0,
    "agency_count_nibrs_submitting" : 0,
    "agency_count_leoka_submitting" : 0,
    "agency_count_pe_submitting" : 329,
    "agency_count_srs_submitting" : 329,
    "state_id" : 27,
    "state_abbr" : "MN",
    "csv_header" : "data_year,population,total_agency_count,published_agency_count,active_agency_count,covered_agency_count,population_covered,agency_count_nibrs_submitting,agency_count_leoka_submitting,agency_count_pe_submitting,agency_count_srs_submitting"
  }, {
    "data_year" : 2007,
    "population" : 5556498,
    "total_agency_count" : 322,
    "published_agency_count" : 322,
    "active_agency_count" : 322,
    "covered_agency_count" : 0,
    "population_covered" : 0,
    "agency_count_nibrs_submitting" : 0,
    "agency_count_leoka_submitting" : 0,
    "agency_count_pe_submitting" : 322,
    "agency_count_srs_submitting" : 322,
    "state_id" : 27,
    "state_abbr" : "MN",
    "csv_header" : "data_year,population,total_agency_count,published_agency_count,active_agency_count,covered_agency_count,population_covered,agency_count_nibrs_submitting,agency_count_leoka_submitting,agency_count_pe_submitting,agency_count_srs_submitting"
  }, {
    "data_year" : 2006,
    "population" : 5494427,
    "total_agency_count" : 312,
    "published_agency_count" : 312,
    "active_agency_count" : 312,
    "covered_agency_count" : 0,
    "population_covered" : 0,
    "agency_count_nibrs_submitting" : 0,
    "agency_count_leoka_submitting" : 0,
    "agency_count_pe_submitting" : 312,
    "agency_count_srs_submitting" : 312,
    "state_id" : 27,
    "state_abbr" : "MN",
    "csv_header" : "data_year,population,total_agency_count,published_agency_count,active_agency_count,covered_agency_count,population_covered,agency_count_nibrs_submitting,agency_count_leoka_submitting,agency_count_pe_submitting,agency_count_srs_submitting"
  }, {
    "data_year" : 2005,
    "population" : 5529905,
    "total_agency_count" : 329,
    "published_agency_count" : 329,
    "active_agency_count" : 329,
    "covered_agency_count" : 0,
    "population_covered" : 0,
    "agency_count_nibrs_submitting" : 0,
    "agency_count_leoka_submitting" : 0,
    "agency_count_pe_submitting" : 329,
    "agency_count_srs_submitting" : 329,
    "state_id" : 27,
    "state_abbr" : "MN",
    "csv_header" : "data_year,population,total_agency_count,published_agency_count,active_agency_count,covered_agency_count,population_covered,agency_count_nibrs_submitting,agency_count_leoka_submitting,agency_count_pe_submitting,agency_count_srs_submitting"
  }, {
    "data_year" : 2004,
    "population" : 5307683,
    "total_agency_count" : 328,
    "published_agency_count" : 328,
    "active_agency_count" : 328,
    "covered_agency_count" : 0,
    "population_covered" : 0,
    "agency_count_nibrs_submitting" : 0,
    "agency_count_leoka_submitting" : 0,
    "agency_count_pe_submitting" : 328,
    "agency_count_srs_submitting" : 328,
    "state_id" : 27,
    "state_abbr" : "MN",
    "csv_header" : "data_year,population,total_agency_count,published_agency_count,active_agency_count,covered_agency_count,population_covered,agency_count_nibrs_submitting,agency_count_leoka_submitting,agency_count_pe_submitting,agency_count_srs_submitting"
  }, {
    "data_year" : 2003,
    "population" : 5645982,
    "total_agency_count" : 320,
    "published_agency_count" : 320,
    "active_agency_count" : 320,
    "covered_agency_count" : 0,
    "population_covered" : 0,
    "agency_count_nibrs_submitting" : 0,
    "agency_count_leoka_submitting" : 0,
    "agency_count_pe_submitting" : 320,
    "agency_count_srs_submitting" : 320,
    "state_id" : 27,
    "state_abbr" : "MN",
    "csv_header" : "data_year,population,total_agency_count,published_agency_count,active_agency_count,covered_agency_count,population_covered,agency_count_nibrs_submitting,agency_count_leoka_submitting,agency_count_pe_submitting,agency_count_srs_submitting"
  }, {
    "data_year" : 2002,
    "population" : 5174360,
    "total_agency_count" : 309,
    "published_agency_count" : 309,
    "active_agency_count" : 309,
    "covered_agency_count" : 0,
    "population_covered" : 0,
    "agency_count_nibrs_submitting" : 0,
    "agency_count_leoka_submitting" : 0,
    "agency_count_pe_submitting" : 309,
    "agency_count_srs_submitting" : 309,
    "state_id" : 27,
    "state_abbr" : "MN",
    "csv_header" : "data_year,population,total_agency_count,published_agency_count,active_agency_count,covered_agency_count,population_covered,agency_count_nibrs_submitting,agency_count_leoka_submitting,agency_count_pe_submitting,agency_count_srs_submitting"
  }, {
    "data_year" : 2001,
    "population" : 5597362,
    "total_agency_count" : 299,
    "published_agency_count" : 299,
    "active_agency_count" : 299,
    "covered_agency_count" : 0,
    "population_covered" : 0,
    "agency_count_nibrs_submitting" : 0,
    "agency_count_leoka_submitting" : 0,
    "agency_count_pe_submitting" : 299,
    "agency_count_srs_submitting" : 299,
    "state_id" : 27,
    "state_abbr" : "MN",
    "csv_header" : "data_year,population,total_agency_count,published_agency_count,active_agency_count,covered_agency_count,population_covered,agency_count_nibrs_submitting,agency_count_leoka_submitting,agency_count_pe_submitting,agency_count_srs_submitting"
  }, {
    "data_year" : 2000,
    "population" : 5326315,
    "total_agency_count" : 318,
    "published_agency_count" : 318,
    "active_agency_count" : 318,
    "covered_agency_count" : 0,
    "population_covered" : 0,
    "agency_count_nibrs_submitting" : 0,
    "agency_count_leoka_submitting" : 0,
    "agency_count_pe_submitting" : 318,
    "agency_count_srs_submitting" : 318,
    "state_id" : 27,
    "state_abbr" : "MN",
    "csv_header" : "data_year,population,total_agency_count,published_agency_count,active_agency_count,covered_agency_count,population_covered,agency_count_nibrs_submitting,agency_count_leoka_submitting,agency_count_pe_submitting,agency_count_srs_submitting"
  } ],
  "pagination" : {
    "count" : 25,
    "page" : 0,
    "pages" : 2,
    "per_page" : 20
  }
}