{
  "results" : [ {
    "data_year" : 2019,
    "population" : 6200271,
    "total_agency_count" : 0,
    "published_agency_count" : 0,
    "active_agency_count" : 0,
    "covered_agency_count" : 0,
    "population_covered" : 0,
    "agency_count_nibrs_submitting" : 0,
    "agency_count_leoka_submitting" : 0,
    "agency_count_pe_submitting" : 0,
    "agency_count_srs_submitting" : 0,
    "state_id" : 28,
    "state_abbr" : "MO",
    "csv_header" : "data_year,population,total_agency_count,published_agency_count,active_agency_count,covered_agency_count,population_covered,agency_count_nibrs_submitting,agency_count_leoka_submitting,agency_count_pe_submitting,agency_count_srs_submitting"
  }, {
    "data_year" : 2018,
    "population" : 7049334,
    "total_agency_count" : 53,
    "published_agency_count" : 53,
    "active_agency_count" : 53,
    "covered_agency_count" : 0,
    "population_covered" : 0,
    "agency_count_nibrs_submitting" : 53,
    "agency_count_leoka_submitting" : 53,
    "agency_count_pe_submitting" : 53,
    "agency_count_srs_submitting" : 53,
    "state_id" : 28,
    "state_abbr" : "MO",
    "csv_header" : "data_year,population,total_agency_count,published_agency_count,active_agency_count,covered_agency_count,population_covered,agency_count_nibrs_submitting,agency_count_leoka_submitting,agency_count_pe_submitting,agency_count_srs_submitting"
  }, {
    "data_year" : 2017,
    "population" : 6199642,
    "total_agency_count" : 614,
    "published_agency_count" : 614,
    "active_agency_count" : 614,
    "covered_agency_count" : 0,
    "population_covered" : 0,
    "agency_count_nibrs_submitting" : 25,
    "agency_count_leoka_submitting" : 35,
    "agency_count_pe_submitting" : 614,
    "agency_count_srs_submitting" : 614,
    "state_id" : 28,
    "state_abbr" : "MO",
    "csv_header" : "data_year,population,total_agency_count,published_agency_count,active_agency_count,covered_agency_count,population_covered,agency_count_nibrs_submitting,agency_count_leoka_submitting,agency_count_pe_submitting,agency_count_srs_submitting"
  }, {
    "data_year" : 2016,
    "population" : 6269010,
    "total_agency_count" : 630,
    "published_agency_count" : 630,
    "active_agency_count" : 630,
    "covered_agency_count" : 0,
    "population_covered" : 0,
    "agency_count_nibrs_submitting" : 22,
    "agency_count_leoka_submitting" : 31,
    "agency_count_pe_submitting" : 630,
    "agency_count_srs_submitting" : 630,
    "state_id" : 28,
    "state_abbr" : "MO",
    "csv_header" : "data_year,population,total_agency_count,published_agency_count,active_agency_count,covered_agency_count,population_covered,agency_count_nibrs_submitting,agency_count_leoka_submitting,agency_count_pe_submitting,agency_count_srs_submitting"
  }, {
    "data_year" : 2015,
    "population" : 6196833,
    "total_agency_count" : 639,
    "published_agency_count" : 639,
    "active_agency_count" : 639,
    "covered_agency_count" : 0,
    "population_covered" : 0,
    "agency_count_nibrs_submitting" : 14,
    "agency_count_leoka_submitting" : 25,
    "agency_count_pe_submitting" : 639,
    "agency_count_srs_submitting" : 639,
    "state_id" : 28,
    "state_abbr" : "MO",
    "csv_header" : "data_year,population,total_agency_count,published_agency_count,active_agency_count,covered_agency_count,population_covered,agency_count_nibrs_submitting,agency_count_leoka_submitting,agency_count_pe_submitting,agency_count_srs_submitting"
  }, {
    "data_year" : 2014,
    "population" : 6165592,
    "total_agency_count" : 635,
    "published_agency_count" : 635,
    "active_agency_count" : 635,
    "covered_agency_count" : 0,
    "population_covered" : 0,
    "agency_count_nibrs_submitting" : 14,
    "agency_count_leoka_submitting" : 25,
    "agency_count_pe_submitting" : 635,
    "agency_count_srs_submitting" : 635,
    "state_id" : 28,
    "state_abbr" : "MO",
    "csv_header" : "data_year,population,total_agency_count,published_agency_count,active_agency_count,covered_agency_count,population_covered,agency_count_nibrs_submitting,agency_count_leoka_submitting,agency_count_pe_submitting,agency_count_srs_submitting"
  }, {
    "data_year" : 2013,
    "population" : 6121792,
    "total_agency_count" : 629,
    "published_agency_count" : 629,
    "active_agency_count" : 629,
    "covered_agency_count" : 0,
    "population_covered" : 0,
    "agency_count_nibrs_submitting" : 13,
    "agency_count_leoka_submitting" : 23,
    "agency_count_pe_submitting" : 629,
    "agency_count_srs_submitting" : 629,
    "state_id" : 28,
    "state_abbr" : "MO",
    "csv_header" : "data_year,population,total_agency_count,published_agency_count,active_agency_count,covered_agency_count,population_covered,agency_count_nibrs_submitting,agency_count_leoka_submitting,agency_count_pe_submitting,agency_count_srs_submitting"
  }, {
    "data_year" : 2012,
    "population" : 6128494,
    "total_agency_count" : 637,
    "published_agency_count" : 637,
    "active_agency_count" : 637,
    "covered_agency_count" : 0,
    "population_covered" : 0,
    "agency_count_nibrs_submitting" : 12,
    "agency_count_leoka_submitting" : 23,
    "agency_count_pe_submitting" : 637,
    "agency_count_srs_submitting" : 637,
    "state_id" : 28,
    "state_abbr" : "MO",
    "csv_header" : "data_year,population,total_agency_count,published_agency_count,active_agency_count,covered_agency_count,population_covered,agency_count_nibrs_submitting,agency_count_leoka_submitting,agency_count_pe_submitting,agency_count_srs_submitting"
  }, {
    "data_year" : 2011,
    "population" : 6078408,
    "total_agency_count" : 639,
    "published_agency_count" : 639,
    "active_agency_count" : 639,
    "covered_agency_count" : 0,
    "population_covered" : 0,
    "agency_count_nibrs_submitting" : 12,
    "agency_count_leoka_submitting" : 23,
    "agency_count_pe_submitting" : 639,
    "agency_count_srs_submitting" : 639,
    "state_id" : 28,
    "state_abbr" : "MO",
    "csv_header" : "data_year,population,total_agency_count,published_agency_count,active_agency_count,covered_agency_count,population_covered,agency_count_nibrs_submitting,agency_count_leoka_submitting,agency_count_pe_submitting,agency_count_srs_submitting"
  }, {
    "data_year" : 2010,
    "population" : 6226995,
    "total_agency_count" : 639,
    "published_agency_count" : 639,
    "active_agency_count" : 639,
    "covered_agency_count" : 0,
    "population_covered" : 0,
    "agency_count_nibrs_submitting" : 13,
    "agency_count_leoka_submitting" : 29,
    "agency_count_pe_submitting" : 639,
    "agency_count_srs_submitting" : 639,
    "state_id" : 28,
    "state_abbr" : "MO",
    "csv_header" : "data_year,population,total_agency_count,published_agency_count,active_agency_count,covered_agency_count,population_covered,agency_count_nibrs_submitting,agency_count_leoka_submitting,agency_count_pe_submitting,agency_count_srs_submitting"
  }, {
    "data_year" : 2009,
    "population" : 6304161,
    "total_agency_count" : 639,
    "published_agency_count" : 639,
    "active_agency_count" : 639,
    "covered_agency_count" : 0,
    "population_covered" : 0,
    "agency_count_nibrs_submitting" : 9,
    "agency_count_leoka_submitting" : 20,
    "agency_count_pe_submitting" : 639,
    "agency_count_srs_submitting" : 639,
    "state_id" : 28,
    "state_abbr" : "MO",
    "csv_header" : "data_year,population,total_agency_count,published_agency_count,active_agency_count,covered_agency_count,population_covered,agency_count_nibrs_submitting,agency_count_leoka_submitting,agency_count_pe_submitting,agency_count_srs_submitting"
  }, {
    "data_year" : 2008,
    "population" : 6034833,
    "total_agency_count" : 643,
    "published_agency_count" : 643,
    "active_agency_count" : 643,
    "covered_agency_count" : 0,
    "population_covered" : 0,
    "agency_count_nibrs_submitting" : 6,
    "agency_count_leoka_submitting" : 25,
    "agency_count_pe_submitting" : 643,
    "agency_count_srs_submitting" : 643,
    "state_id" : 28,
    "state_abbr" : "MO",
    "csv_header" : "data_year,population,total_agency_count,published_agency_count,active_agency_count,covered_agency_count,population_covered,agency_count_nibrs_submitting,agency_count_leoka_submitting,agency_count_pe_submitting,agency_count_srs_submitting"
  }, {
    "data_year" : 2007,
    "population" : 5965134,
    "total_agency_count" : 638,
    "published_agency_count" : 638,
    "active_agency_count" : 638,
    "covered_agency_count" : 0,
    "population_covered" : 0,
    "agency_count_nibrs_submitting" : 2,
    "agency_count_leoka_submitting" : 19,
    "agency_count_pe_submitting" : 638,
    "agency_count_srs_submitting" : 638,
    "state_id" : 28,
    "state_abbr" : "MO",
    "csv_header" : "data_year,population,total_agency_count,published_agency_count,active_agency_count,covered_agency_count,population_covered,agency_count_nibrs_submitting,agency_count_leoka_submitting,agency_count_pe_submitting,agency_count_srs_submitting"
  }, {
    "data_year" : 2006,
    "population" : 5914955,
    "total_agency_count" : 624,
    "published_agency_count" : 624,
    "active_agency_count" : 624,
    "covered_agency_count" : 0,
    "population_covered" : 0,
    "agency_count_nibrs_submitting" : 4,
    "agency_count_leoka_submitting" : 6,
    "agency_count_pe_submitting" : 624,
    "agency_count_srs_submitting" : 624,
    "state_id" : 28,
    "state_abbr" : "MO",
    "csv_header" : "data_year,population,total_agency_count,published_agency_count,active_agency_count,covered_agency_count,population_covered,agency_count_nibrs_submitting,agency_count_leoka_submitting,agency_count_pe_submitting,agency_count_srs_submitting"
  }, {
    "data_year" : 2005,
    "population" : 5885830,
    "total_agency_count" : 592,
    "published_agency_count" : 592,
    "active_agency_count" : 592,
    "covered_agency_count" : 0,
    "population_covered" : 0,
    "agency_count_nibrs_submitting" : 0,
    "agency_count_leoka_submitting" : 0,
    "agency_count_pe_submitting" : 592,
    "agency_count_srs_submitting" : 592,
    "state_id" : 28,
    "state_abbr" : "MO",
    "csv_header" : "data_year,population,total_agency_count,published_agency_count,active_agency_count,covered_agency_count,population_covered,agency_count_nibrs_submitting,agency_count_leoka_submitting,agency_count_pe_submitting,agency_count_srs_submitting"
  }, {
    "data_year" : 2004,
    "population" : 5968078,
    "total_agency_count" : 602,
    "published_agency_count" : 602,
    "active_agency_count" : 602,
    "covered_agency_count" : 0,
    "population_covered" : 0,
    "agency_count_nibrs_submitting" : 0,
    "agency_count_leoka_submitting" : 0,
    "agency_count_pe_submitting" : 602,
    "agency_count_srs_submitting" : 602,
    "state_id" : 28,
    "state_abbr" : "MO",
    "csv_header" : "data_year,population,total_agency_count,published_agency_count,active_agency_count,covered_agency_count,population_covered,agency_count_nibrs_submitting,agency_count_leoka_submitting,agency_count_pe_submitting,agency_count_srs_submitting"
  }, {
    "data_year" : 2003,
    "population" : 5788691,
    "total_agency_count" : 592,
    "published_agency_count" : 592,
    "active_agency_count" : 592,
    "covered_agency_count" : 0,
    "population_covered" : 0,
    "agency_count_nibrs_submitting" : 0,
    "agency_count_leoka_submitting" : 0,
    "agency_count_pe_submitting" : 592,
    "agency_count_srs_submitting" : 592,
    "state_id" : 28,
    "state_abbr" : "MO",
    "csv_header" : "data_year,population,total_agency_count,published_agency_count,active_agency_count,covered_agency_count,population_covered,agency_count_nibrs_submitting,agency_count_leoka_submitting,agency_count_pe_submitting,agency_count_srs_submitting"
  }, {
    "data_year" : 2002,
    "population" : 5793460,
    "total_agency_count" : 569,
    "published_agency_count" : 569,
    "active_agency_count" : 569,
    "covered_agency_count" : 0,
    "population_covered" : 0,
    "agency_count_nibrs_submitting" : 0,
    "agency_count_leoka_submitting" : 0,
    "agency_count_pe_submitting" : 569,
    "agency_count_srs_submitting" : 569,
    "state_id" : 28,
    "state_abbr" : "MO",
    "csv_header" : "data_year,population,total_agency_count,published_agency_count,active_agency_count,covered_agency_count,population_covered,agency_count_nibrs_submitting,agency_count_leoka_submitting,agency_count_pe_submitting,agency_count_srs_submitting"
  }, {
    "data_year" : 2001,
    "population" : 6575592,
    "total_agency_count" : 306,
    "published_agency_count" : 306,
    "active_agency_count" : 306,
    "covered_agency_count" : 0,
    "population_covered" : 0,
    "agency_count_nibrs_submitting" : 0,
    "agency_count_leoka_submitting" : 0,
    "agency_count_pe_submitting" : 306,
    "agency_count_srs_submitting" : 306,
    "state_id" : 28,
    "state_abbr" : "MO",
    "csv_header" : "data_year,population,total_agency_count,published_agency_count,active_agency_count,covered_agency_count,population_covered,agency_count_nibrs_submitting,agency_count_leoka_submitting,agency_count_pe_submitting,agency_count_srs_submitting"
  }, {
    "data_year" : 2000,
    "population" : 6013481,
    "total_agency_count" : 244,
    "published_agency_count" : 244,
    "active_agency_count" : 244,
    "covered_agency_count" : 0,
    "population_covered" : 0,
    "agency_count_nibrs_submitting" : 0,
    "agency_count_leoka_submitting" : 0,
    "agency_count_pe_submitting" : 244,
    "agency_count_srs_submitting" : 244,
    "state_id" : 28,
    "state_abbr" : "MO",
    "csv_header" : "data_year,population,total_agency_count,published_agency_count,active_agency_count,covered_agency_count,population_covered,agency_count_nibrs_submitting,agency_count_leoka_submitting,agency_count_pe_submitting,agency_count_srs_submitting"
  } ],
  "pagination" : {
    "count" : 25,
    "page" : 0,
    "pages" : 2,
    "per_page" : 20
  }
}