{
  "results" : [ {
    "data_year" : 2019,
    "population" : 2985402,
    "total_agency_count" : 0,
    "published_agency_count" : 0,
    "active_agency_count" : 0,
    "covered_agency_count" : 0,
    "population_covered" : 0,
    "agency_count_nibrs_submitting" : 0,
    "agency_count_leoka_submitting" : 0,
    "agency_count_pe_submitting" : 0,
    "agency_count_srs_submitting" : 0,
    "state_id" : 29,
    "state_abbr" : "MS",
    "csv_header" : "data_year,population,total_agency_count,published_agency_count,active_agency_count,covered_agency_count,population_covered,agency_count_nibrs_submitting,agency_count_leoka_submitting,agency_count_pe_submitting,agency_count_srs_submitting"
  }, {
    "data_year" : 2018,
    "population" : 3168698,
    "total_agency_count" : 58,
    "published_agency_count" : 58,
    "active_agency_count" : 58,
    "covered_agency_count" : 0,
    "population_covered" : 0,
    "agency_count_nibrs_submitting" : 8,
    "agency_count_leoka_submitting" : 8,
    "agency_count_pe_submitting" : 58,
    "agency_count_srs_submitting" : 58,
    "state_id" : 29,
    "state_abbr" : "MS",
    "csv_header" : "data_year,population,total_agency_count,published_agency_count,active_agency_count,covered_agency_count,population_covered,agency_count_nibrs_submitting,agency_count_leoka_submitting,agency_count_pe_submitting,agency_count_srs_submitting"
  }, {
    "data_year" : 2017,
    "population" : 2985402,
    "total_agency_count" : 81,
    "published_agency_count" : 81,
    "active_agency_count" : 81,
    "covered_agency_count" : 0,
    "population_covered" : 0,
    "agency_count_nibrs_submitting" : 4,
    "agency_count_leoka_submitting" : 4,
    "agency_count_pe_submitting" : 81,
    "agency_count_srs_submitting" : 81,
    "state_id" : 29,
    "state_abbr" : "MS",
    "csv_header" : "data_year,population,total_agency_count,published_agency_count,active_agency_count,covered_agency_count,population_covered,agency_count_nibrs_submitting,agency_count_leoka_submitting,agency_count_pe_submitting,agency_count_srs_submitting"
  }, {
    "data_year" : 2016,
    "population" : 3237367,
    "total_agency_count" : 91,
    "published_agency_count" : 91,
    "active_agency_count" : 91,
    "covered_agency_count" : 0,
    "population_covered" : 0,
    "agency_count_nibrs_submitting" : 5,
    "agency_count_leoka_submitting" : 5,
    "agency_count_pe_submitting" : 91,
    "agency_count_srs_submitting" : 91,
    "state_id" : 29,
    "state_abbr" : "MS",
    "csv_header" : "data_year,population,total_agency_count,published_agency_count,active_agency_count,covered_agency_count,population_covered,agency_count_nibrs_submitting,agency_count_leoka_submitting,agency_count_pe_submitting,agency_count_srs_submitting"
  }, {
    "data_year" : 2015,
    "population" : 3390043,
    "total_agency_count" : 101,
    "published_agency_count" : 101,
    "active_agency_count" : 101,
    "covered_agency_count" : 0,
    "population_covered" : 0,
    "agency_count_nibrs_submitting" : 5,
    "agency_count_leoka_submitting" : 4,
    "agency_count_pe_submitting" : 101,
    "agency_count_srs_submitting" : 101,
    "state_id" : 29,
    "state_abbr" : "MS",
    "csv_header" : "data_year,population,total_agency_count,published_agency_count,active_agency_count,covered_agency_count,population_covered,agency_count_nibrs_submitting,agency_count_leoka_submitting,agency_count_pe_submitting,agency_count_srs_submitting"
  }, {
    "data_year" : 2014,
    "population" : 3367239,
    "total_agency_count" : 101,
    "published_agency_count" : 101,
    "active_agency_count" : 101,
    "covered_agency_count" : 0,
    "population_covered" : 0,
    "agency_count_nibrs_submitting" : 5,
    "agency_count_leoka_submitting" : 5,
    "agency_count_pe_submitting" : 101,
    "agency_count_srs_submitting" : 101,
    "state_id" : 29,
    "state_abbr" : "MS",
    "csv_header" : "data_year,population,total_agency_count,published_agency_count,active_agency_count,covered_agency_count,population_covered,agency_count_nibrs_submitting,agency_count_leoka_submitting,agency_count_pe_submitting,agency_count_srs_submitting"
  }, {
    "data_year" : 2013,
    "population" : 3628346,
    "total_agency_count" : 131,
    "published_agency_count" : 131,
    "active_agency_count" : 131,
    "covered_agency_count" : 0,
    "population_covered" : 0,
    "agency_count_nibrs_submitting" : 4,
    "agency_count_leoka_submitting" : 4,
    "agency_count_pe_submitting" : 131,
    "agency_count_srs_submitting" : 131,
    "state_id" : 29,
    "state_abbr" : "MS",
    "csv_header" : "data_year,population,total_agency_count,published_agency_count,active_agency_count,covered_agency_count,population_covered,agency_count_nibrs_submitting,agency_count_leoka_submitting,agency_count_pe_submitting,agency_count_srs_submitting"
  }, {
    "data_year" : 2012,
    "population" : 3507803,
    "total_agency_count" : 145,
    "published_agency_count" : 145,
    "active_agency_count" : 145,
    "covered_agency_count" : 0,
    "population_covered" : 0,
    "agency_count_nibrs_submitting" : 5,
    "agency_count_leoka_submitting" : 3,
    "agency_count_pe_submitting" : 145,
    "agency_count_srs_submitting" : 145,
    "state_id" : 29,
    "state_abbr" : "MS",
    "csv_header" : "data_year,population,total_agency_count,published_agency_count,active_agency_count,covered_agency_count,population_covered,agency_count_nibrs_submitting,agency_count_leoka_submitting,agency_count_pe_submitting,agency_count_srs_submitting"
  }, {
    "data_year" : 2011,
    "population" : 3389403,
    "total_agency_count" : 146,
    "published_agency_count" : 146,
    "active_agency_count" : 146,
    "covered_agency_count" : 0,
    "population_covered" : 0,
    "agency_count_nibrs_submitting" : 2,
    "agency_count_leoka_submitting" : 1,
    "agency_count_pe_submitting" : 146,
    "agency_count_srs_submitting" : 146,
    "state_id" : 29,
    "state_abbr" : "MS",
    "csv_header" : "data_year,population,total_agency_count,published_agency_count,active_agency_count,covered_agency_count,population_covered,agency_count_nibrs_submitting,agency_count_leoka_submitting,agency_count_pe_submitting,agency_count_srs_submitting"
  }, {
    "data_year" : 2010,
    "population" : 3180636,
    "total_agency_count" : 152,
    "published_agency_count" : 152,
    "active_agency_count" : 152,
    "covered_agency_count" : 0,
    "population_covered" : 0,
    "agency_count_nibrs_submitting" : 1,
    "agency_count_leoka_submitting" : 1,
    "agency_count_pe_submitting" : 152,
    "agency_count_srs_submitting" : 152,
    "state_id" : 29,
    "state_abbr" : "MS",
    "csv_header" : "data_year,population,total_agency_count,published_agency_count,active_agency_count,covered_agency_count,population_covered,agency_count_nibrs_submitting,agency_count_leoka_submitting,agency_count_pe_submitting,agency_count_srs_submitting"
  }, {
    "data_year" : 2009,
    "population" : 3123781,
    "total_agency_count" : 150,
    "published_agency_count" : 150,
    "active_agency_count" : 150,
    "covered_agency_count" : 0,
    "population_covered" : 0,
    "agency_count_nibrs_submitting" : 1,
    "agency_count_leoka_submitting" : 0,
    "agency_count_pe_submitting" : 150,
    "agency_count_srs_submitting" : 150,
    "state_id" : 29,
    "state_abbr" : "MS",
    "csv_header" : "data_year,population,total_agency_count,published_agency_count,active_agency_count,covered_agency_count,population_covered,agency_count_nibrs_submitting,agency_count_leoka_submitting,agency_count_pe_submitting,agency_count_srs_submitting"
  }, {
    "data_year" : 2008,
    "population" : 3006310,
    "total_agency_count" : 142,
    "published_agency_count" : 142,
    "active_agency_count" : 142,
    "covered_agency_count" : 0,
    "population_covered" : 0,
    "agency_count_nibrs_submitting" : 1,
    "agency_count_leoka_submitting" : 0,
    "agency_count_pe_submitting" : 142,
    "agency_count_srs_submitting" : 142,
    "state_id" : 29,
    "state_abbr" : "MS",
    "csv_header" : "data_year,population,total_agency_count,published_agency_count,active_agency_count,covered_agency_count,population_covered,agency_count_nibrs_submitting,agency_count_leoka_submitting,agency_count_pe_submitting,agency_count_srs_submitting"
  }, {
    "data_year" : 2007,
    "population" : 3024679,
    "total_agency_count" : 145,
    "published_agency_count" : 145,
    "active_agency_count" : 145,
    "covered_agency_count" : 0,
    "population_covered" : 0,
    "agency_count_nibrs_submitting" : 0,
    "agency_count_leoka_submitting" : 0,
    "agency_count_pe_submitting" : 145,
    "agency_count_srs_submitting" : 145,
    "state_id" : 29,
    "state_abbr" : "MS",
    "csv_header" : "data_year,population,total_agency_count,published_agency_count,active_agency_count,covered_agency_count,population_covered,agency_count_nibrs_submitting,agency_count_leoka_submitting,agency_count_pe_submitting,agency_count_srs_submitting"
  }, {
    "data_year" : 2006,
    "population" : 3010899,
    "total_agency_count" : 149,
    "published_agency_count" : 149,
    "active_agency_count" : 149,
    "covered_agency_count" : 0,
    "population_covered" : 0,
    "agency_count_nibrs_submitting" : 0,
    "agency_count_leoka_submitting" : 0,
    "agency_count_pe_submitting" : 149,
    "agency_count_srs_submitting" : 149,
    "state_id" : 29,
    "state_abbr" : "MS",
    "csv_header" : "data_year,population,total_agency_count,published_agency_count,active_agency_count,covered_agency_count,population_covered,agency_count_nibrs_submitting,agency_count_leoka_submitting,agency_count_pe_submitting,agency_count_srs_submitting"
  }, {
    "data_year" : 2005,
    "population" : 3153201,
    "total_agency_count" : 137,
    "published_agency_count" : 137,
    "active_agency_count" : 137,
    "covered_agency_count" : 0,
    "population_covered" : 0,
    "agency_count_nibrs_submitting" : 0,
    "agency_count_leoka_submitting" : 0,
    "agency_count_pe_submitting" : 137,
    "agency_count_srs_submitting" : 137,
    "state_id" : 29,
    "state_abbr" : "MS",
    "csv_header" : "data_year,population,total_agency_count,published_agency_count,active_agency_count,covered_agency_count,population_covered,agency_count_nibrs_submitting,agency_count_leoka_submitting,agency_count_pe_submitting,agency_count_srs_submitting"
  }, {
    "data_year" : 2004,
    "population" : 3116379,
    "total_agency_count" : 138,
    "published_agency_count" : 138,
    "active_agency_count" : 138,
    "covered_agency_count" : 0,
    "population_covered" : 0,
    "agency_count_nibrs_submitting" : 0,
    "agency_count_leoka_submitting" : 0,
    "agency_count_pe_submitting" : 138,
    "agency_count_srs_submitting" : 138,
    "state_id" : 29,
    "state_abbr" : "MS",
    "csv_header" : "data_year,population,total_agency_count,published_agency_count,active_agency_count,covered_agency_count,population_covered,agency_count_nibrs_submitting,agency_count_leoka_submitting,agency_count_pe_submitting,agency_count_srs_submitting"
  }, {
    "data_year" : 2003,
    "population" : 3171037,
    "total_agency_count" : 125,
    "published_agency_count" : 125,
    "active_agency_count" : 125,
    "covered_agency_count" : 0,
    "population_covered" : 0,
    "agency_count_nibrs_submitting" : 0,
    "agency_count_leoka_submitting" : 0,
    "agency_count_pe_submitting" : 125,
    "agency_count_srs_submitting" : 125,
    "state_id" : 29,
    "state_abbr" : "MS",
    "csv_header" : "data_year,population,total_agency_count,published_agency_count,active_agency_count,covered_agency_count,population_covered,agency_count_nibrs_submitting,agency_count_leoka_submitting,agency_count_pe_submitting,agency_count_srs_submitting"
  }, {
    "data_year" : 2002,
    "population" : 3125516,
    "total_agency_count" : 126,
    "published_agency_count" : 126,
    "active_agency_count" : 126,
    "covered_agency_count" : 0,
    "population_covered" : 0,
    "agency_count_nibrs_submitting" : 0,
    "agency_count_leoka_submitting" : 0,
    "agency_count_pe_submitting" : 126,
    "agency_count_srs_submitting" : 126,
    "state_id" : 29,
    "state_abbr" : "MS",
    "csv_header" : "data_year,population,total_agency_count,published_agency_count,active_agency_count,covered_agency_count,population_covered,agency_count_nibrs_submitting,agency_count_leoka_submitting,agency_count_pe_submitting,agency_count_srs_submitting"
  }, {
    "data_year" : 2001,
    "population" : 3074425,
    "total_agency_count" : 128,
    "published_agency_count" : 128,
    "active_agency_count" : 128,
    "covered_agency_count" : 0,
    "population_covered" : 0,
    "agency_count_nibrs_submitting" : 0,
    "agency_count_leoka_submitting" : 0,
    "agency_count_pe_submitting" : 128,
    "agency_count_srs_submitting" : 128,
    "state_id" : 29,
    "state_abbr" : "MS",
    "csv_header" : "data_year,population,total_agency_count,published_agency_count,active_agency_count,covered_agency_count,population_covered,agency_count_nibrs_submitting,agency_count_leoka_submitting,agency_count_pe_submitting,agency_count_srs_submitting"
  }, {
    "data_year" : 2000,
    "population" : 3079190,
    "total_agency_count" : 130,
    "published_agency_count" : 130,
    "active_agency_count" : 130,
    "covered_agency_count" : 0,
    "population_covered" : 0,
    "agency_count_nibrs_submitting" : 0,
    "agency_count_leoka_submitting" : 0,
    "agency_count_pe_submitting" : 130,
    "agency_count_srs_submitting" : 130,
    "state_id" : 29,
    "state_abbr" : "MS",
    "csv_header" : "data_year,population,total_agency_count,published_agency_count,active_agency_count,covered_agency_count,population_covered,agency_count_nibrs_submitting,agency_count_leoka_submitting,agency_count_pe_submitting,agency_count_srs_submitting"
  } ],
  "pagination" : {
    "count" : 25,
    "page" : 0,
    "pages" : 2,
    "per_page" : 20
  }
}