{
  "results" : [ {
    "data_year" : 2019,
    "population" : 1109109,
    "total_agency_count" : 0,
    "published_agency_count" : 0,
    "active_agency_count" : 0,
    "covered_agency_count" : 0,
    "population_covered" : 0,
    "agency_count_nibrs_submitting" : 0,
    "agency_count_leoka_submitting" : 0,
    "agency_count_pe_submitting" : 0,
    "agency_count_srs_submitting" : 0,
    "state_id" : 30,
    "state_abbr" : "MT",
    "csv_header" : "data_year,population,total_agency_count,published_agency_count,active_agency_count,covered_agency_count,population_covered,agency_count_nibrs_submitting,agency_count_leoka_submitting,agency_count_pe_submitting,agency_count_srs_submitting"
  }, {
    "data_year" : 2018,
    "population" : 2145901,
    "total_agency_count" : 190,
    "published_agency_count" : 190,
    "active_agency_count" : 190,
    "covered_agency_count" : 0,
    "population_covered" : 0,
    "agency_count_nibrs_submitting" : 188,
    "agency_count_leoka_submitting" : 189,
    "agency_count_pe_submitting" : 190,
    "agency_count_srs_submitting" : 190,
    "state_id" : 30,
    "state_abbr" : "MT",
    "csv_header" : "data_year,population,total_agency_count,published_agency_count,active_agency_count,covered_agency_count,population_covered,agency_count_nibrs_submitting,agency_count_leoka_submitting,agency_count_pe_submitting,agency_count_srs_submitting"
  }, {
    "data_year" : 2017,
    "population" : 1109109,
    "total_agency_count" : 111,
    "published_agency_count" : 111,
    "active_agency_count" : 111,
    "covered_agency_count" : 0,
    "population_covered" : 0,
    "agency_count_nibrs_submitting" : 104,
    "agency_count_leoka_submitting" : 104,
    "agency_count_pe_submitting" : 111,
    "agency_count_srs_submitting" : 111,
    "state_id" : 30,
    "state_abbr" : "MT",
    "csv_header" : "data_year,population,total_agency_count,published_agency_count,active_agency_count,covered_agency_count,population_covered,agency_count_nibrs_submitting,agency_count_leoka_submitting,agency_count_pe_submitting,agency_count_srs_submitting"
  }, {
    "data_year" : 2016,
    "population" : 1121813,
    "total_agency_count" : 112,
    "published_agency_count" : 112,
    "active_agency_count" : 112,
    "covered_agency_count" : 0,
    "population_covered" : 0,
    "agency_count_nibrs_submitting" : 106,
    "agency_count_leoka_submitting" : 106,
    "agency_count_pe_submitting" : 112,
    "agency_count_srs_submitting" : 112,
    "state_id" : 30,
    "state_abbr" : "MT",
    "csv_header" : "data_year,population,total_agency_count,published_agency_count,active_agency_count,covered_agency_count,population_covered,agency_count_nibrs_submitting,agency_count_leoka_submitting,agency_count_pe_submitting,agency_count_srs_submitting"
  }, {
    "data_year" : 2015,
    "population" : 1157689,
    "total_agency_count" : 114,
    "published_agency_count" : 114,
    "active_agency_count" : 114,
    "covered_agency_count" : 0,
    "population_covered" : 0,
    "agency_count_nibrs_submitting" : 108,
    "agency_count_leoka_submitting" : 106,
    "agency_count_pe_submitting" : 114,
    "agency_count_srs_submitting" : 114,
    "state_id" : 30,
    "state_abbr" : "MT",
    "csv_header" : "data_year,population,total_agency_count,published_agency_count,active_agency_count,covered_agency_count,population_covered,agency_count_nibrs_submitting,agency_count_leoka_submitting,agency_count_pe_submitting,agency_count_srs_submitting"
  }, {
    "data_year" : 2014,
    "population" : 1128742,
    "total_agency_count" : 111,
    "published_agency_count" : 111,
    "active_agency_count" : 111,
    "covered_agency_count" : 0,
    "population_covered" : 0,
    "agency_count_nibrs_submitting" : 104,
    "agency_count_leoka_submitting" : 104,
    "agency_count_pe_submitting" : 111,
    "agency_count_srs_submitting" : 111,
    "state_id" : 30,
    "state_abbr" : "MT",
    "csv_header" : "data_year,population,total_agency_count,published_agency_count,active_agency_count,covered_agency_count,population_covered,agency_count_nibrs_submitting,agency_count_leoka_submitting,agency_count_pe_submitting,agency_count_srs_submitting"
  }, {
    "data_year" : 2013,
    "population" : 1158467,
    "total_agency_count" : 110,
    "published_agency_count" : 110,
    "active_agency_count" : 110,
    "covered_agency_count" : 0,
    "population_covered" : 0,
    "agency_count_nibrs_submitting" : 103,
    "agency_count_leoka_submitting" : 103,
    "agency_count_pe_submitting" : 110,
    "agency_count_srs_submitting" : 110,
    "state_id" : 30,
    "state_abbr" : "MT",
    "csv_header" : "data_year,population,total_agency_count,published_agency_count,active_agency_count,covered_agency_count,population_covered,agency_count_nibrs_submitting,agency_count_leoka_submitting,agency_count_pe_submitting,agency_count_srs_submitting"
  }, {
    "data_year" : 2012,
    "population" : 1077415,
    "total_agency_count" : 107,
    "published_agency_count" : 107,
    "active_agency_count" : 107,
    "covered_agency_count" : 0,
    "population_covered" : 0,
    "agency_count_nibrs_submitting" : 100,
    "agency_count_leoka_submitting" : 100,
    "agency_count_pe_submitting" : 107,
    "agency_count_srs_submitting" : 107,
    "state_id" : 30,
    "state_abbr" : "MT",
    "csv_header" : "data_year,population,total_agency_count,published_agency_count,active_agency_count,covered_agency_count,population_covered,agency_count_nibrs_submitting,agency_count_leoka_submitting,agency_count_pe_submitting,agency_count_srs_submitting"
  }, {
    "data_year" : 2011,
    "population" : 1069766,
    "total_agency_count" : 108,
    "published_agency_count" : 108,
    "active_agency_count" : 108,
    "covered_agency_count" : 0,
    "population_covered" : 0,
    "agency_count_nibrs_submitting" : 101,
    "agency_count_leoka_submitting" : 101,
    "agency_count_pe_submitting" : 108,
    "agency_count_srs_submitting" : 108,
    "state_id" : 30,
    "state_abbr" : "MT",
    "csv_header" : "data_year,population,total_agency_count,published_agency_count,active_agency_count,covered_agency_count,population_covered,agency_count_nibrs_submitting,agency_count_leoka_submitting,agency_count_pe_submitting,agency_count_srs_submitting"
  }, {
    "data_year" : 2010,
    "population" : 1110195,
    "total_agency_count" : 113,
    "published_agency_count" : 113,
    "active_agency_count" : 113,
    "covered_agency_count" : 0,
    "population_covered" : 0,
    "agency_count_nibrs_submitting" : 106,
    "agency_count_leoka_submitting" : 106,
    "agency_count_pe_submitting" : 113,
    "agency_count_srs_submitting" : 113,
    "state_id" : 30,
    "state_abbr" : "MT",
    "csv_header" : "data_year,population,total_agency_count,published_agency_count,active_agency_count,covered_agency_count,population_covered,agency_count_nibrs_submitting,agency_count_leoka_submitting,agency_count_pe_submitting,agency_count_srs_submitting"
  }, {
    "data_year" : 2009,
    "population" : 1048053,
    "total_agency_count" : 109,
    "published_agency_count" : 109,
    "active_agency_count" : 109,
    "covered_agency_count" : 0,
    "population_covered" : 0,
    "agency_count_nibrs_submitting" : 102,
    "agency_count_leoka_submitting" : 101,
    "agency_count_pe_submitting" : 109,
    "agency_count_srs_submitting" : 109,
    "state_id" : 30,
    "state_abbr" : "MT",
    "csv_header" : "data_year,population,total_agency_count,published_agency_count,active_agency_count,covered_agency_count,population_covered,agency_count_nibrs_submitting,agency_count_leoka_submitting,agency_count_pe_submitting,agency_count_srs_submitting"
  }, {
    "data_year" : 2008,
    "population" : 1099578,
    "total_agency_count" : 118,
    "published_agency_count" : 118,
    "active_agency_count" : 118,
    "covered_agency_count" : 0,
    "population_covered" : 0,
    "agency_count_nibrs_submitting" : 111,
    "agency_count_leoka_submitting" : 107,
    "agency_count_pe_submitting" : 118,
    "agency_count_srs_submitting" : 118,
    "state_id" : 30,
    "state_abbr" : "MT",
    "csv_header" : "data_year,population,total_agency_count,published_agency_count,active_agency_count,covered_agency_count,population_covered,agency_count_nibrs_submitting,agency_count_leoka_submitting,agency_count_pe_submitting,agency_count_srs_submitting"
  }, {
    "data_year" : 2007,
    "population" : 1045814,
    "total_agency_count" : 108,
    "published_agency_count" : 108,
    "active_agency_count" : 108,
    "covered_agency_count" : 0,
    "population_covered" : 0,
    "agency_count_nibrs_submitting" : 101,
    "agency_count_leoka_submitting" : 97,
    "agency_count_pe_submitting" : 108,
    "agency_count_srs_submitting" : 108,
    "state_id" : 30,
    "state_abbr" : "MT",
    "csv_header" : "data_year,population,total_agency_count,published_agency_count,active_agency_count,covered_agency_count,population_covered,agency_count_nibrs_submitting,agency_count_leoka_submitting,agency_count_pe_submitting,agency_count_srs_submitting"
  }, {
    "data_year" : 2006,
    "population" : 1051485,
    "total_agency_count" : 117,
    "published_agency_count" : 117,
    "active_agency_count" : 117,
    "covered_agency_count" : 0,
    "population_covered" : 0,
    "agency_count_nibrs_submitting" : 111,
    "agency_count_leoka_submitting" : 101,
    "agency_count_pe_submitting" : 117,
    "agency_count_srs_submitting" : 117,
    "state_id" : 30,
    "state_abbr" : "MT",
    "csv_header" : "data_year,population,total_agency_count,published_agency_count,active_agency_count,covered_agency_count,population_covered,agency_count_nibrs_submitting,agency_count_leoka_submitting,agency_count_pe_submitting,agency_count_srs_submitting"
  }, {
    "data_year" : 2005,
    "population" : 1112245,
    "total_agency_count" : 109,
    "published_agency_count" : 109,
    "active_agency_count" : 109,
    "covered_agency_count" : 0,
    "population_covered" : 0,
    "agency_count_nibrs_submitting" : 109,
    "agency_count_leoka_submitting" : 106,
    "agency_count_pe_submitting" : 109,
    "agency_count_srs_submitting" : 109,
    "state_id" : 30,
    "state_abbr" : "MT",
    "csv_header" : "data_year,population,total_agency_count,published_agency_count,active_agency_count,covered_agency_count,population_covered,agency_count_nibrs_submitting,agency_count_leoka_submitting,agency_count_pe_submitting,agency_count_srs_submitting"
  }, {
    "data_year" : 2004,
    "population" : 1567999,
    "total_agency_count" : 123,
    "published_agency_count" : 123,
    "active_agency_count" : 123,
    "covered_agency_count" : 0,
    "population_covered" : 0,
    "agency_count_nibrs_submitting" : 74,
    "agency_count_leoka_submitting" : 0,
    "agency_count_pe_submitting" : 123,
    "agency_count_srs_submitting" : 123,
    "state_id" : 30,
    "state_abbr" : "MT",
    "csv_header" : "data_year,population,total_agency_count,published_agency_count,active_agency_count,covered_agency_count,population_covered,agency_count_nibrs_submitting,agency_count_leoka_submitting,agency_count_pe_submitting,agency_count_srs_submitting"
  }, {
    "data_year" : 2003,
    "population" : 1135326,
    "total_agency_count" : 77,
    "published_agency_count" : 77,
    "active_agency_count" : 77,
    "covered_agency_count" : 0,
    "population_covered" : 0,
    "agency_count_nibrs_submitting" : 2,
    "agency_count_leoka_submitting" : 0,
    "agency_count_pe_submitting" : 77,
    "agency_count_srs_submitting" : 77,
    "state_id" : 30,
    "state_abbr" : "MT",
    "csv_header" : "data_year,population,total_agency_count,published_agency_count,active_agency_count,covered_agency_count,population_covered,agency_count_nibrs_submitting,agency_count_leoka_submitting,agency_count_pe_submitting,agency_count_srs_submitting"
  }, {
    "data_year" : 2002,
    "population" : 1000135,
    "total_agency_count" : 75,
    "published_agency_count" : 75,
    "active_agency_count" : 75,
    "covered_agency_count" : 0,
    "population_covered" : 0,
    "agency_count_nibrs_submitting" : 1,
    "agency_count_leoka_submitting" : 0,
    "agency_count_pe_submitting" : 75,
    "agency_count_srs_submitting" : 75,
    "state_id" : 30,
    "state_abbr" : "MT",
    "csv_header" : "data_year,population,total_agency_count,published_agency_count,active_agency_count,covered_agency_count,population_covered,agency_count_nibrs_submitting,agency_count_leoka_submitting,agency_count_pe_submitting,agency_count_srs_submitting"
  }, {
    "data_year" : 2001,
    "population" : 986175,
    "total_agency_count" : 55,
    "published_agency_count" : 55,
    "active_agency_count" : 55,
    "covered_agency_count" : 0,
    "population_covered" : 0,
    "agency_count_nibrs_submitting" : 1,
    "agency_count_leoka_submitting" : 0,
    "agency_count_pe_submitting" : 55,
    "agency_count_srs_submitting" : 55,
    "state_id" : 30,
    "state_abbr" : "MT",
    "csv_header" : "data_year,population,total_agency_count,published_agency_count,active_agency_count,covered_agency_count,population_covered,agency_count_nibrs_submitting,agency_count_leoka_submitting,agency_count_pe_submitting,agency_count_srs_submitting"
  }, {
    "data_year" : 2000,
    "population" : 1006390,
    "total_agency_count" : 54,
    "published_agency_count" : 54,
    "active_agency_count" : 54,
    "covered_agency_count" : 0,
    "population_covered" : 0,
    "agency_count_nibrs_submitting" : 1,
    "agency_count_leoka_submitting" : 0,
    "agency_count_pe_submitting" : 54,
    "agency_count_srs_submitting" : 54,
    "state_id" : 30,
    "state_abbr" : "MT",
    "csv_header" : "data_year,population,total_agency_count,published_agency_count,active_agency_count,covered_agency_count,population_covered,agency_count_nibrs_submitting,agency_count_leoka_submitting,agency_count_pe_submitting,agency_count_srs_submitting"
  } ],
  "pagination" : {
    "count" : 25,
    "page" : 0,
    "pages" : 2,
    "per_page" : 20
  }
}