{
  "results" : [ {
    "data_year" : 2019,
    "population" : 781178,
    "total_agency_count" : 0,
    "published_agency_count" : 0,
    "active_agency_count" : 0,
    "covered_agency_count" : 0,
    "population_covered" : 0,
    "agency_count_nibrs_submitting" : 0,
    "agency_count_leoka_submitting" : 0,
    "agency_count_pe_submitting" : 0,
    "agency_count_srs_submitting" : 0,
    "state_id" : 33,
    "state_abbr" : "ND",
    "csv_header" : "data_year,population,total_agency_count,published_agency_count,active_agency_count,covered_agency_count,population_covered,agency_count_nibrs_submitting,agency_count_leoka_submitting,agency_count_pe_submitting,agency_count_srs_submitting"
  }, {
    "data_year" : 2018,
    "population" : 1524139,
    "total_agency_count" : 196,
    "published_agency_count" : 196,
    "active_agency_count" : 196,
    "covered_agency_count" : 0,
    "population_covered" : 0,
    "agency_count_nibrs_submitting" : 196,
    "agency_count_leoka_submitting" : 196,
    "agency_count_pe_submitting" : 196,
    "agency_count_srs_submitting" : 196,
    "state_id" : 33,
    "state_abbr" : "ND",
    "csv_header" : "data_year,population,total_agency_count,published_agency_count,active_agency_count,covered_agency_count,population_covered,agency_count_nibrs_submitting,agency_count_leoka_submitting,agency_count_pe_submitting,agency_count_srs_submitting"
  }, {
    "data_year" : 2017,
    "population" : 781178,
    "total_agency_count" : 111,
    "published_agency_count" : 111,
    "active_agency_count" : 111,
    "covered_agency_count" : 0,
    "population_covered" : 0,
    "agency_count_nibrs_submitting" : 107,
    "agency_count_leoka_submitting" : 106,
    "agency_count_pe_submitting" : 111,
    "agency_count_srs_submitting" : 111,
    "state_id" : 33,
    "state_abbr" : "ND",
    "csv_header" : "data_year,population,total_agency_count,published_agency_count,active_agency_count,covered_agency_count,population_covered,agency_count_nibrs_submitting,agency_count_leoka_submitting,agency_count_pe_submitting,agency_count_srs_submitting"
  }, {
    "data_year" : 2016,
    "population" : 798045,
    "total_agency_count" : 116,
    "published_agency_count" : 116,
    "active_agency_count" : 116,
    "covered_agency_count" : 0,
    "population_covered" : 0,
    "agency_count_nibrs_submitting" : 112,
    "agency_count_leoka_submitting" : 112,
    "agency_count_pe_submitting" : 116,
    "agency_count_srs_submitting" : 116,
    "state_id" : 33,
    "state_abbr" : "ND",
    "csv_header" : "data_year,population,total_agency_count,published_agency_count,active_agency_count,covered_agency_count,population_covered,agency_count_nibrs_submitting,agency_count_leoka_submitting,agency_count_pe_submitting,agency_count_srs_submitting"
  }, {
    "data_year" : 2015,
    "population" : 795284,
    "total_agency_count" : 115,
    "published_agency_count" : 115,
    "active_agency_count" : 115,
    "covered_agency_count" : 0,
    "population_covered" : 0,
    "agency_count_nibrs_submitting" : 111,
    "agency_count_leoka_submitting" : 111,
    "agency_count_pe_submitting" : 115,
    "agency_count_srs_submitting" : 115,
    "state_id" : 33,
    "state_abbr" : "ND",
    "csv_header" : "data_year,population,total_agency_count,published_agency_count,active_agency_count,covered_agency_count,population_covered,agency_count_nibrs_submitting,agency_count_leoka_submitting,agency_count_pe_submitting,agency_count_srs_submitting"
  }, {
    "data_year" : 2014,
    "population" : 838040,
    "total_agency_count" : 121,
    "published_agency_count" : 121,
    "active_agency_count" : 121,
    "covered_agency_count" : 0,
    "population_covered" : 0,
    "agency_count_nibrs_submitting" : 116,
    "agency_count_leoka_submitting" : 116,
    "agency_count_pe_submitting" : 121,
    "agency_count_srs_submitting" : 121,
    "state_id" : 33,
    "state_abbr" : "ND",
    "csv_header" : "data_year,population,total_agency_count,published_agency_count,active_agency_count,covered_agency_count,population_covered,agency_count_nibrs_submitting,agency_count_leoka_submitting,agency_count_pe_submitting,agency_count_srs_submitting"
  }, {
    "data_year" : 2013,
    "population" : 772646,
    "total_agency_count" : 118,
    "published_agency_count" : 118,
    "active_agency_count" : 118,
    "covered_agency_count" : 0,
    "population_covered" : 0,
    "agency_count_nibrs_submitting" : 114,
    "agency_count_leoka_submitting" : 114,
    "agency_count_pe_submitting" : 118,
    "agency_count_srs_submitting" : 118,
    "state_id" : 33,
    "state_abbr" : "ND",
    "csv_header" : "data_year,population,total_agency_count,published_agency_count,active_agency_count,covered_agency_count,population_covered,agency_count_nibrs_submitting,agency_count_leoka_submitting,agency_count_pe_submitting,agency_count_srs_submitting"
  }, {
    "data_year" : 2012,
    "population" : 735360,
    "total_agency_count" : 103,
    "published_agency_count" : 103,
    "active_agency_count" : 103,
    "covered_agency_count" : 0,
    "population_covered" : 0,
    "agency_count_nibrs_submitting" : 99,
    "agency_count_leoka_submitting" : 98,
    "agency_count_pe_submitting" : 103,
    "agency_count_srs_submitting" : 103,
    "state_id" : 33,
    "state_abbr" : "ND",
    "csv_header" : "data_year,population,total_agency_count,published_agency_count,active_agency_count,covered_agency_count,population_covered,agency_count_nibrs_submitting,agency_count_leoka_submitting,agency_count_pe_submitting,agency_count_srs_submitting"
  }, {
    "data_year" : 2011,
    "population" : 766792,
    "total_agency_count" : 117,
    "published_agency_count" : 117,
    "active_agency_count" : 117,
    "covered_agency_count" : 0,
    "population_covered" : 0,
    "agency_count_nibrs_submitting" : 113,
    "agency_count_leoka_submitting" : 109,
    "agency_count_pe_submitting" : 117,
    "agency_count_srs_submitting" : 117,
    "state_id" : 33,
    "state_abbr" : "ND",
    "csv_header" : "data_year,population,total_agency_count,published_agency_count,active_agency_count,covered_agency_count,population_covered,agency_count_nibrs_submitting,agency_count_leoka_submitting,agency_count_pe_submitting,agency_count_srs_submitting"
  }, {
    "data_year" : 2010,
    "population" : 752573,
    "total_agency_count" : 114,
    "published_agency_count" : 114,
    "active_agency_count" : 114,
    "covered_agency_count" : 0,
    "population_covered" : 0,
    "agency_count_nibrs_submitting" : 110,
    "agency_count_leoka_submitting" : 108,
    "agency_count_pe_submitting" : 114,
    "agency_count_srs_submitting" : 114,
    "state_id" : 33,
    "state_abbr" : "ND",
    "csv_header" : "data_year,population,total_agency_count,published_agency_count,active_agency_count,covered_agency_count,population_covered,agency_count_nibrs_submitting,agency_count_leoka_submitting,agency_count_pe_submitting,agency_count_srs_submitting"
  }, {
    "data_year" : 2009,
    "population" : 711674,
    "total_agency_count" : 103,
    "published_agency_count" : 103,
    "active_agency_count" : 103,
    "covered_agency_count" : 0,
    "population_covered" : 0,
    "agency_count_nibrs_submitting" : 97,
    "agency_count_leoka_submitting" : 86,
    "agency_count_pe_submitting" : 103,
    "agency_count_srs_submitting" : 103,
    "state_id" : 33,
    "state_abbr" : "ND",
    "csv_header" : "data_year,population,total_agency_count,published_agency_count,active_agency_count,covered_agency_count,population_covered,agency_count_nibrs_submitting,agency_count_leoka_submitting,agency_count_pe_submitting,agency_count_srs_submitting"
  }, {
    "data_year" : 2008,
    "population" : 750663,
    "total_agency_count" : 106,
    "published_agency_count" : 106,
    "active_agency_count" : 106,
    "covered_agency_count" : 0,
    "population_covered" : 0,
    "agency_count_nibrs_submitting" : 99,
    "agency_count_leoka_submitting" : 88,
    "agency_count_pe_submitting" : 106,
    "agency_count_srs_submitting" : 106,
    "state_id" : 33,
    "state_abbr" : "ND",
    "csv_header" : "data_year,population,total_agency_count,published_agency_count,active_agency_count,covered_agency_count,population_covered,agency_count_nibrs_submitting,agency_count_leoka_submitting,agency_count_pe_submitting,agency_count_srs_submitting"
  }, {
    "data_year" : 2007,
    "population" : 734139,
    "total_agency_count" : 103,
    "published_agency_count" : 103,
    "active_agency_count" : 103,
    "covered_agency_count" : 0,
    "population_covered" : 0,
    "agency_count_nibrs_submitting" : 97,
    "agency_count_leoka_submitting" : 93,
    "agency_count_pe_submitting" : 103,
    "agency_count_srs_submitting" : 103,
    "state_id" : 33,
    "state_abbr" : "ND",
    "csv_header" : "data_year,population,total_agency_count,published_agency_count,active_agency_count,covered_agency_count,population_covered,agency_count_nibrs_submitting,agency_count_leoka_submitting,agency_count_pe_submitting,agency_count_srs_submitting"
  }, {
    "data_year" : 2006,
    "population" : 670680,
    "total_agency_count" : 85,
    "published_agency_count" : 85,
    "active_agency_count" : 85,
    "covered_agency_count" : 0,
    "population_covered" : 0,
    "agency_count_nibrs_submitting" : 79,
    "agency_count_leoka_submitting" : 76,
    "agency_count_pe_submitting" : 85,
    "agency_count_srs_submitting" : 85,
    "state_id" : 33,
    "state_abbr" : "ND",
    "csv_header" : "data_year,population,total_agency_count,published_agency_count,active_agency_count,covered_agency_count,population_covered,agency_count_nibrs_submitting,agency_count_leoka_submitting,agency_count_pe_submitting,agency_count_srs_submitting"
  }, {
    "data_year" : 2005,
    "population" : 773593,
    "total_agency_count" : 88,
    "published_agency_count" : 88,
    "active_agency_count" : 88,
    "covered_agency_count" : 0,
    "population_covered" : 0,
    "agency_count_nibrs_submitting" : 86,
    "agency_count_leoka_submitting" : 76,
    "agency_count_pe_submitting" : 88,
    "agency_count_srs_submitting" : 88,
    "state_id" : 33,
    "state_abbr" : "ND",
    "csv_header" : "data_year,population,total_agency_count,published_agency_count,active_agency_count,covered_agency_count,population_covered,agency_count_nibrs_submitting,agency_count_leoka_submitting,agency_count_pe_submitting,agency_count_srs_submitting"
  }, {
    "data_year" : 2004,
    "population" : 829822,
    "total_agency_count" : 93,
    "published_agency_count" : 93,
    "active_agency_count" : 93,
    "covered_agency_count" : 0,
    "population_covered" : 0,
    "agency_count_nibrs_submitting" : 91,
    "agency_count_leoka_submitting" : 39,
    "agency_count_pe_submitting" : 93,
    "agency_count_srs_submitting" : 93,
    "state_id" : 33,
    "state_abbr" : "ND",
    "csv_header" : "data_year,population,total_agency_count,published_agency_count,active_agency_count,covered_agency_count,population_covered,agency_count_nibrs_submitting,agency_count_leoka_submitting,agency_count_pe_submitting,agency_count_srs_submitting"
  }, {
    "data_year" : 2003,
    "population" : 739702,
    "total_agency_count" : 77,
    "published_agency_count" : 77,
    "active_agency_count" : 77,
    "covered_agency_count" : 0,
    "population_covered" : 0,
    "agency_count_nibrs_submitting" : 75,
    "agency_count_leoka_submitting" : 0,
    "agency_count_pe_submitting" : 77,
    "agency_count_srs_submitting" : 77,
    "state_id" : 33,
    "state_abbr" : "ND",
    "csv_header" : "data_year,population,total_agency_count,published_agency_count,active_agency_count,covered_agency_count,population_covered,agency_count_nibrs_submitting,agency_count_leoka_submitting,agency_count_pe_submitting,agency_count_srs_submitting"
  }, {
    "data_year" : 2002,
    "population" : 683229,
    "total_agency_count" : 79,
    "published_agency_count" : 79,
    "active_agency_count" : 79,
    "covered_agency_count" : 0,
    "population_covered" : 0,
    "agency_count_nibrs_submitting" : 77,
    "agency_count_leoka_submitting" : 0,
    "agency_count_pe_submitting" : 79,
    "agency_count_srs_submitting" : 79,
    "state_id" : 33,
    "state_abbr" : "ND",
    "csv_header" : "data_year,population,total_agency_count,published_agency_count,active_agency_count,covered_agency_count,population_covered,agency_count_nibrs_submitting,agency_count_leoka_submitting,agency_count_pe_submitting,agency_count_srs_submitting"
  }, {
    "data_year" : 2001,
    "population" : 693356,
    "total_agency_count" : 86,
    "published_agency_count" : 86,
    "active_agency_count" : 86,
    "covered_agency_count" : 0,
    "population_covered" : 0,
    "agency_count_nibrs_submitting" : 84,
    "agency_count_leoka_submitting" : 0,
    "agency_count_pe_submitting" : 86,
    "agency_count_srs_submitting" : 86,
    "state_id" : 33,
    "state_abbr" : "ND",
    "csv_header" : "data_year,population,total_agency_count,published_agency_count,active_agency_count,covered_agency_count,population_covered,agency_count_nibrs_submitting,agency_count_leoka_submitting,agency_count_pe_submitting,agency_count_srs_submitting"
  }, {
    "data_year" : 2000,
    "population" : 738772,
    "total_agency_count" : 88,
    "published_agency_count" : 88,
    "active_agency_count" : 88,
    "covered_agency_count" : 0,
    "population_covered" : 0,
    "agency_count_nibrs_submitting" : 86,
    "agency_count_leoka_submitting" : 0,
    "agency_count_pe_submitting" : 88,
    "agency_count_srs_submitting" : 88,
    "state_id" : 33,
    "state_abbr" : "ND",
    "csv_header" : "data_year,population,total_agency_count,published_agency_count,active_agency_count,covered_agency_count,population_covered,agency_count_nibrs_submitting,agency_count_leoka_submitting,agency_count_pe_submitting,agency_count_srs_submitting"
  } ],
  "pagination" : {
    "count" : 25,
    "page" : 0,
    "pages" : 2,
    "per_page" : 20
  }
}