{
  "results" : [ {
    "data_year" : 2019,
    "population" : 1990016,
    "total_agency_count" : 0,
    "published_agency_count" : 0,
    "active_agency_count" : 0,
    "covered_agency_count" : 0,
    "population_covered" : 0,
    "agency_count_nibrs_submitting" : 0,
    "agency_count_leoka_submitting" : 0,
    "agency_count_pe_submitting" : 0,
    "agency_count_srs_submitting" : 0,
    "state_id" : 31,
    "state_abbr" : "NE",
    "csv_header" : "data_year,population,total_agency_count,published_agency_count,active_agency_count,covered_agency_count,population_covered,agency_count_nibrs_submitting,agency_count_leoka_submitting,agency_count_pe_submitting,agency_count_srs_submitting"
  }, {
    "data_year" : 2018,
    "population" : 2709460,
    "total_agency_count" : 182,
    "published_agency_count" : 182,
    "active_agency_count" : 182,
    "covered_agency_count" : 0,
    "population_covered" : 0,
    "agency_count_nibrs_submitting" : 151,
    "agency_count_leoka_submitting" : 0,
    "agency_count_pe_submitting" : 182,
    "agency_count_srs_submitting" : 182,
    "state_id" : 31,
    "state_abbr" : "NE",
    "csv_header" : "data_year,population,total_agency_count,published_agency_count,active_agency_count,covered_agency_count,population_covered,agency_count_nibrs_submitting,agency_count_leoka_submitting,agency_count_pe_submitting,agency_count_srs_submitting"
  }, {
    "data_year" : 2017,
    "population" : 1990016,
    "total_agency_count" : 236,
    "published_agency_count" : 236,
    "active_agency_count" : 236,
    "covered_agency_count" : 0,
    "population_covered" : 0,
    "agency_count_nibrs_submitting" : 89,
    "agency_count_leoka_submitting" : 1,
    "agency_count_pe_submitting" : 236,
    "agency_count_srs_submitting" : 236,
    "state_id" : 31,
    "state_abbr" : "NE",
    "csv_header" : "data_year,population,total_agency_count,published_agency_count,active_agency_count,covered_agency_count,population_covered,agency_count_nibrs_submitting,agency_count_leoka_submitting,agency_count_pe_submitting,agency_count_srs_submitting"
  }, {
    "data_year" : 2016,
    "population" : 2115817,
    "total_agency_count" : 244,
    "published_agency_count" : 244,
    "active_agency_count" : 244,
    "covered_agency_count" : 0,
    "population_covered" : 0,
    "agency_count_nibrs_submitting" : 93,
    "agency_count_leoka_submitting" : 0,
    "agency_count_pe_submitting" : 244,
    "agency_count_srs_submitting" : 244,
    "state_id" : 31,
    "state_abbr" : "NE",
    "csv_header" : "data_year,population,total_agency_count,published_agency_count,active_agency_count,covered_agency_count,population_covered,agency_count_nibrs_submitting,agency_count_leoka_submitting,agency_count_pe_submitting,agency_count_srs_submitting"
  }, {
    "data_year" : 2015,
    "population" : 2116117,
    "total_agency_count" : 249,
    "published_agency_count" : 249,
    "active_agency_count" : 249,
    "covered_agency_count" : 0,
    "population_covered" : 0,
    "agency_count_nibrs_submitting" : 98,
    "agency_count_leoka_submitting" : 0,
    "agency_count_pe_submitting" : 249,
    "agency_count_srs_submitting" : 249,
    "state_id" : 31,
    "state_abbr" : "NE",
    "csv_header" : "data_year,population,total_agency_count,published_agency_count,active_agency_count,covered_agency_count,population_covered,agency_count_nibrs_submitting,agency_count_leoka_submitting,agency_count_pe_submitting,agency_count_srs_submitting"
  }, {
    "data_year" : 2014,
    "population" : 2182247,
    "total_agency_count" : 239,
    "published_agency_count" : 239,
    "active_agency_count" : 239,
    "covered_agency_count" : 0,
    "population_covered" : 0,
    "agency_count_nibrs_submitting" : 88,
    "agency_count_leoka_submitting" : 0,
    "agency_count_pe_submitting" : 239,
    "agency_count_srs_submitting" : 239,
    "state_id" : 31,
    "state_abbr" : "NE",
    "csv_header" : "data_year,population,total_agency_count,published_agency_count,active_agency_count,covered_agency_count,population_covered,agency_count_nibrs_submitting,agency_count_leoka_submitting,agency_count_pe_submitting,agency_count_srs_submitting"
  }, {
    "data_year" : 2013,
    "population" : 2068191,
    "total_agency_count" : 228,
    "published_agency_count" : 228,
    "active_agency_count" : 228,
    "covered_agency_count" : 0,
    "population_covered" : 0,
    "agency_count_nibrs_submitting" : 76,
    "agency_count_leoka_submitting" : 0,
    "agency_count_pe_submitting" : 228,
    "agency_count_srs_submitting" : 228,
    "state_id" : 31,
    "state_abbr" : "NE",
    "csv_header" : "data_year,population,total_agency_count,published_agency_count,active_agency_count,covered_agency_count,population_covered,agency_count_nibrs_submitting,agency_count_leoka_submitting,agency_count_pe_submitting,agency_count_srs_submitting"
  }, {
    "data_year" : 2012,
    "population" : 1996039,
    "total_agency_count" : 229,
    "published_agency_count" : 229,
    "active_agency_count" : 229,
    "covered_agency_count" : 0,
    "population_covered" : 0,
    "agency_count_nibrs_submitting" : 68,
    "agency_count_leoka_submitting" : 0,
    "agency_count_pe_submitting" : 229,
    "agency_count_srs_submitting" : 229,
    "state_id" : 31,
    "state_abbr" : "NE",
    "csv_header" : "data_year,population,total_agency_count,published_agency_count,active_agency_count,covered_agency_count,population_covered,agency_count_nibrs_submitting,agency_count_leoka_submitting,agency_count_pe_submitting,agency_count_srs_submitting"
  }, {
    "data_year" : 2011,
    "population" : 1980598,
    "total_agency_count" : 237,
    "published_agency_count" : 237,
    "active_agency_count" : 237,
    "covered_agency_count" : 0,
    "population_covered" : 0,
    "agency_count_nibrs_submitting" : 68,
    "agency_count_leoka_submitting" : 0,
    "agency_count_pe_submitting" : 237,
    "agency_count_srs_submitting" : 237,
    "state_id" : 31,
    "state_abbr" : "NE",
    "csv_header" : "data_year,population,total_agency_count,published_agency_count,active_agency_count,covered_agency_count,population_covered,agency_count_nibrs_submitting,agency_count_leoka_submitting,agency_count_pe_submitting,agency_count_srs_submitting"
  }, {
    "data_year" : 2010,
    "population" : 2009682,
    "total_agency_count" : 239,
    "published_agency_count" : 239,
    "active_agency_count" : 239,
    "covered_agency_count" : 0,
    "population_covered" : 0,
    "agency_count_nibrs_submitting" : 71,
    "agency_count_leoka_submitting" : 0,
    "agency_count_pe_submitting" : 239,
    "agency_count_srs_submitting" : 239,
    "state_id" : 31,
    "state_abbr" : "NE",
    "csv_header" : "data_year,population,total_agency_count,published_agency_count,active_agency_count,covered_agency_count,population_covered,agency_count_nibrs_submitting,agency_count_leoka_submitting,agency_count_pe_submitting,agency_count_srs_submitting"
  }, {
    "data_year" : 2009,
    "population" : 2128739,
    "total_agency_count" : 245,
    "published_agency_count" : 245,
    "active_agency_count" : 245,
    "covered_agency_count" : 0,
    "population_covered" : 0,
    "agency_count_nibrs_submitting" : 72,
    "agency_count_leoka_submitting" : 0,
    "agency_count_pe_submitting" : 245,
    "agency_count_srs_submitting" : 245,
    "state_id" : 31,
    "state_abbr" : "NE",
    "csv_header" : "data_year,population,total_agency_count,published_agency_count,active_agency_count,covered_agency_count,population_covered,agency_count_nibrs_submitting,agency_count_leoka_submitting,agency_count_pe_submitting,agency_count_srs_submitting"
  }, {
    "data_year" : 2008,
    "population" : 1947451,
    "total_agency_count" : 241,
    "published_agency_count" : 241,
    "active_agency_count" : 241,
    "covered_agency_count" : 0,
    "population_covered" : 0,
    "agency_count_nibrs_submitting" : 67,
    "agency_count_leoka_submitting" : 0,
    "agency_count_pe_submitting" : 241,
    "agency_count_srs_submitting" : 241,
    "state_id" : 31,
    "state_abbr" : "NE",
    "csv_header" : "data_year,population,total_agency_count,published_agency_count,active_agency_count,covered_agency_count,population_covered,agency_count_nibrs_submitting,agency_count_leoka_submitting,agency_count_pe_submitting,agency_count_srs_submitting"
  }, {
    "data_year" : 2007,
    "population" : 1934192,
    "total_agency_count" : 244,
    "published_agency_count" : 244,
    "active_agency_count" : 244,
    "covered_agency_count" : 0,
    "population_covered" : 0,
    "agency_count_nibrs_submitting" : 62,
    "agency_count_leoka_submitting" : 0,
    "agency_count_pe_submitting" : 244,
    "agency_count_srs_submitting" : 244,
    "state_id" : 31,
    "state_abbr" : "NE",
    "csv_header" : "data_year,population,total_agency_count,published_agency_count,active_agency_count,covered_agency_count,population_covered,agency_count_nibrs_submitting,agency_count_leoka_submitting,agency_count_pe_submitting,agency_count_srs_submitting"
  }, {
    "data_year" : 2006,
    "population" : 2027469,
    "total_agency_count" : 247,
    "published_agency_count" : 247,
    "active_agency_count" : 247,
    "covered_agency_count" : 0,
    "population_covered" : 0,
    "agency_count_nibrs_submitting" : 68,
    "agency_count_leoka_submitting" : 0,
    "agency_count_pe_submitting" : 247,
    "agency_count_srs_submitting" : 247,
    "state_id" : 31,
    "state_abbr" : "NE",
    "csv_header" : "data_year,population,total_agency_count,published_agency_count,active_agency_count,covered_agency_count,population_covered,agency_count_nibrs_submitting,agency_count_leoka_submitting,agency_count_pe_submitting,agency_count_srs_submitting"
  }, {
    "data_year" : 2005,
    "population" : 2019811,
    "total_agency_count" : 244,
    "published_agency_count" : 244,
    "active_agency_count" : 244,
    "covered_agency_count" : 0,
    "population_covered" : 0,
    "agency_count_nibrs_submitting" : 62,
    "agency_count_leoka_submitting" : 0,
    "agency_count_pe_submitting" : 244,
    "agency_count_srs_submitting" : 244,
    "state_id" : 31,
    "state_abbr" : "NE",
    "csv_header" : "data_year,population,total_agency_count,published_agency_count,active_agency_count,covered_agency_count,population_covered,agency_count_nibrs_submitting,agency_count_leoka_submitting,agency_count_pe_submitting,agency_count_srs_submitting"
  }, {
    "data_year" : 2004,
    "population" : 2005191,
    "total_agency_count" : 253,
    "published_agency_count" : 253,
    "active_agency_count" : 253,
    "covered_agency_count" : 0,
    "population_covered" : 0,
    "agency_count_nibrs_submitting" : 63,
    "agency_count_leoka_submitting" : 0,
    "agency_count_pe_submitting" : 253,
    "agency_count_srs_submitting" : 253,
    "state_id" : 31,
    "state_abbr" : "NE",
    "csv_header" : "data_year,population,total_agency_count,published_agency_count,active_agency_count,covered_agency_count,population_covered,agency_count_nibrs_submitting,agency_count_leoka_submitting,agency_count_pe_submitting,agency_count_srs_submitting"
  }, {
    "data_year" : 2003,
    "population" : 1997230,
    "total_agency_count" : 257,
    "published_agency_count" : 257,
    "active_agency_count" : 257,
    "covered_agency_count" : 0,
    "population_covered" : 0,
    "agency_count_nibrs_submitting" : 60,
    "agency_count_leoka_submitting" : 0,
    "agency_count_pe_submitting" : 257,
    "agency_count_srs_submitting" : 257,
    "state_id" : 31,
    "state_abbr" : "NE",
    "csv_header" : "data_year,population,total_agency_count,published_agency_count,active_agency_count,covered_agency_count,population_covered,agency_count_nibrs_submitting,agency_count_leoka_submitting,agency_count_pe_submitting,agency_count_srs_submitting"
  }, {
    "data_year" : 2002,
    "population" : 1926750,
    "total_agency_count" : 251,
    "published_agency_count" : 251,
    "active_agency_count" : 251,
    "covered_agency_count" : 0,
    "population_covered" : 0,
    "agency_count_nibrs_submitting" : 48,
    "agency_count_leoka_submitting" : 0,
    "agency_count_pe_submitting" : 251,
    "agency_count_srs_submitting" : 251,
    "state_id" : 31,
    "state_abbr" : "NE",
    "csv_header" : "data_year,population,total_agency_count,published_agency_count,active_agency_count,covered_agency_count,population_covered,agency_count_nibrs_submitting,agency_count_leoka_submitting,agency_count_pe_submitting,agency_count_srs_submitting"
  }, {
    "data_year" : 2001,
    "population" : 2061927,
    "total_agency_count" : 255,
    "published_agency_count" : 255,
    "active_agency_count" : 255,
    "covered_agency_count" : 0,
    "population_covered" : 0,
    "agency_count_nibrs_submitting" : 27,
    "agency_count_leoka_submitting" : 0,
    "agency_count_pe_submitting" : 255,
    "agency_count_srs_submitting" : 255,
    "state_id" : 31,
    "state_abbr" : "NE",
    "csv_header" : "data_year,population,total_agency_count,published_agency_count,active_agency_count,covered_agency_count,population_covered,agency_count_nibrs_submitting,agency_count_leoka_submitting,agency_count_pe_submitting,agency_count_srs_submitting"
  }, {
    "data_year" : 2000,
    "population" : 1971994,
    "total_agency_count" : 252,
    "published_agency_count" : 252,
    "active_agency_count" : 252,
    "covered_agency_count" : 0,
    "population_covered" : 0,
    "agency_count_nibrs_submitting" : 11,
    "agency_count_leoka_submitting" : 0,
    "agency_count_pe_submitting" : 252,
    "agency_count_srs_submitting" : 252,
    "state_id" : 31,
    "state_abbr" : "NE",
    "csv_header" : "data_year,population,total_agency_count,published_agency_count,active_agency_count,covered_agency_count,population_covered,agency_count_nibrs_submitting,agency_count_leoka_submitting,agency_count_pe_submitting,agency_count_srs_submitting"
  } ],
  "pagination" : {
    "count" : 25,
    "page" : 0,
    "pages" : 2,
    "per_page" : 20
  }
}