{
  "results" : [ {
    "data_year" : 2019,
    "population" : 1375763,
    "total_agency_count" : 0,
    "published_agency_count" : 0,
    "active_agency_count" : 0,
    "covered_agency_count" : 0,
    "population_covered" : 0,
    "agency_count_nibrs_submitting" : 0,
    "agency_count_leoka_submitting" : 0,
    "agency_count_pe_submitting" : 0,
    "agency_count_srs_submitting" : 0,
    "state_id" : 34,
    "state_abbr" : "NH",
    "csv_header" : "data_year,population,total_agency_count,published_agency_count,active_agency_count,covered_agency_count,population_covered,agency_count_nibrs_submitting,agency_count_leoka_submitting,agency_count_pe_submitting,agency_count_srs_submitting"
  }, {
    "data_year" : 2018,
    "population" : 2339294,
    "total_agency_count" : 224,
    "published_agency_count" : 224,
    "active_agency_count" : 224,
    "covered_agency_count" : 0,
    "population_covered" : 0,
    "agency_count_nibrs_submitting" : 224,
    "agency_count_leoka_submitting" : 224,
    "agency_count_pe_submitting" : 224,
    "agency_count_srs_submitting" : 224,
    "state_id" : 34,
    "state_abbr" : "NH",
    "csv_header" : "data_year,population,total_agency_count,published_agency_count,active_agency_count,covered_agency_count,population_covered,agency_count_nibrs_submitting,agency_count_leoka_submitting,agency_count_pe_submitting,agency_count_srs_submitting"
  }, {
    "data_year" : 2017,
    "population" : 1375763,
    "total_agency_count" : 177,
    "published_agency_count" : 177,
    "active_agency_count" : 177,
    "covered_agency_count" : 0,
    "population_covered" : 0,
    "agency_count_nibrs_submitting" : 177,
    "agency_count_leoka_submitting" : 177,
    "agency_count_pe_submitting" : 177,
    "agency_count_srs_submitting" : 177,
    "state_id" : 34,
    "state_abbr" : "NH",
    "csv_header" : "data_year,population,total_agency_count,published_agency_count,active_agency_count,covered_agency_count,population_covered,agency_count_nibrs_submitting,agency_count_leoka_submitting,agency_count_pe_submitting,agency_count_srs_submitting"
  }, {
    "data_year" : 2016,
    "population" : 1378688,
    "total_agency_count" : 178,
    "published_agency_count" : 178,
    "active_agency_count" : 178,
    "covered_agency_count" : 0,
    "population_covered" : 0,
    "agency_count_nibrs_submitting" : 177,
    "agency_count_leoka_submitting" : 174,
    "agency_count_pe_submitting" : 178,
    "agency_count_srs_submitting" : 178,
    "state_id" : 34,
    "state_abbr" : "NH",
    "csv_header" : "data_year,population,total_agency_count,published_agency_count,active_agency_count,covered_agency_count,population_covered,agency_count_nibrs_submitting,agency_count_leoka_submitting,agency_count_pe_submitting,agency_count_srs_submitting"
  }, {
    "data_year" : 2015,
    "population" : 1380624,
    "total_agency_count" : 171,
    "published_agency_count" : 171,
    "active_agency_count" : 171,
    "covered_agency_count" : 0,
    "population_covered" : 0,
    "agency_count_nibrs_submitting" : 171,
    "agency_count_leoka_submitting" : 168,
    "agency_count_pe_submitting" : 171,
    "agency_count_srs_submitting" : 171,
    "state_id" : 34,
    "state_abbr" : "NH",
    "csv_header" : "data_year,population,total_agency_count,published_agency_count,active_agency_count,covered_agency_count,population_covered,agency_count_nibrs_submitting,agency_count_leoka_submitting,agency_count_pe_submitting,agency_count_srs_submitting"
  }, {
    "data_year" : 2014,
    "population" : 1398176,
    "total_agency_count" : 167,
    "published_agency_count" : 167,
    "active_agency_count" : 167,
    "covered_agency_count" : 0,
    "population_covered" : 0,
    "agency_count_nibrs_submitting" : 167,
    "agency_count_leoka_submitting" : 155,
    "agency_count_pe_submitting" : 167,
    "agency_count_srs_submitting" : 167,
    "state_id" : 34,
    "state_abbr" : "NH",
    "csv_header" : "data_year,population,total_agency_count,published_agency_count,active_agency_count,covered_agency_count,population_covered,agency_count_nibrs_submitting,agency_count_leoka_submitting,agency_count_pe_submitting,agency_count_srs_submitting"
  }, {
    "data_year" : 2013,
    "population" : 1455824,
    "total_agency_count" : 158,
    "published_agency_count" : 158,
    "active_agency_count" : 158,
    "covered_agency_count" : 0,
    "population_covered" : 0,
    "agency_count_nibrs_submitting" : 158,
    "agency_count_leoka_submitting" : 155,
    "agency_count_pe_submitting" : 158,
    "agency_count_srs_submitting" : 158,
    "state_id" : 34,
    "state_abbr" : "NH",
    "csv_header" : "data_year,population,total_agency_count,published_agency_count,active_agency_count,covered_agency_count,population_covered,agency_count_nibrs_submitting,agency_count_leoka_submitting,agency_count_pe_submitting,agency_count_srs_submitting"
  }, {
    "data_year" : 2012,
    "population" : 1418895,
    "total_agency_count" : 154,
    "published_agency_count" : 154,
    "active_agency_count" : 154,
    "covered_agency_count" : 0,
    "population_covered" : 0,
    "agency_count_nibrs_submitting" : 154,
    "agency_count_leoka_submitting" : 153,
    "agency_count_pe_submitting" : 154,
    "agency_count_srs_submitting" : 154,
    "state_id" : 34,
    "state_abbr" : "NH",
    "csv_header" : "data_year,population,total_agency_count,published_agency_count,active_agency_count,covered_agency_count,population_covered,agency_count_nibrs_submitting,agency_count_leoka_submitting,agency_count_pe_submitting,agency_count_srs_submitting"
  }, {
    "data_year" : 2011,
    "population" : 1442347,
    "total_agency_count" : 161,
    "published_agency_count" : 161,
    "active_agency_count" : 161,
    "covered_agency_count" : 0,
    "population_covered" : 0,
    "agency_count_nibrs_submitting" : 161,
    "agency_count_leoka_submitting" : 158,
    "agency_count_pe_submitting" : 161,
    "agency_count_srs_submitting" : 161,
    "state_id" : 34,
    "state_abbr" : "NH",
    "csv_header" : "data_year,population,total_agency_count,published_agency_count,active_agency_count,covered_agency_count,population_covered,agency_count_nibrs_submitting,agency_count_leoka_submitting,agency_count_pe_submitting,agency_count_srs_submitting"
  }, {
    "data_year" : 2010,
    "population" : 1380396,
    "total_agency_count" : 151,
    "published_agency_count" : 151,
    "active_agency_count" : 151,
    "covered_agency_count" : 0,
    "population_covered" : 0,
    "agency_count_nibrs_submitting" : 151,
    "agency_count_leoka_submitting" : 137,
    "agency_count_pe_submitting" : 151,
    "agency_count_srs_submitting" : 151,
    "state_id" : 34,
    "state_abbr" : "NH",
    "csv_header" : "data_year,population,total_agency_count,published_agency_count,active_agency_count,covered_agency_count,population_covered,agency_count_nibrs_submitting,agency_count_leoka_submitting,agency_count_pe_submitting,agency_count_srs_submitting"
  }, {
    "data_year" : 2009,
    "population" : 1393437,
    "total_agency_count" : 151,
    "published_agency_count" : 151,
    "active_agency_count" : 151,
    "covered_agency_count" : 0,
    "population_covered" : 0,
    "agency_count_nibrs_submitting" : 150,
    "agency_count_leoka_submitting" : 0,
    "agency_count_pe_submitting" : 151,
    "agency_count_srs_submitting" : 151,
    "state_id" : 34,
    "state_abbr" : "NH",
    "csv_header" : "data_year,population,total_agency_count,published_agency_count,active_agency_count,covered_agency_count,population_covered,agency_count_nibrs_submitting,agency_count_leoka_submitting,agency_count_pe_submitting,agency_count_srs_submitting"
  }, {
    "data_year" : 2008,
    "population" : 1408079,
    "total_agency_count" : 149,
    "published_agency_count" : 149,
    "active_agency_count" : 149,
    "covered_agency_count" : 0,
    "population_covered" : 0,
    "agency_count_nibrs_submitting" : 148,
    "agency_count_leoka_submitting" : 0,
    "agency_count_pe_submitting" : 149,
    "agency_count_srs_submitting" : 149,
    "state_id" : 34,
    "state_abbr" : "NH",
    "csv_header" : "data_year,population,total_agency_count,published_agency_count,active_agency_count,covered_agency_count,population_covered,agency_count_nibrs_submitting,agency_count_leoka_submitting,agency_count_pe_submitting,agency_count_srs_submitting"
  }, {
    "data_year" : 2007,
    "population" : 1528130,
    "total_agency_count" : 147,
    "published_agency_count" : 147,
    "active_agency_count" : 147,
    "covered_agency_count" : 0,
    "population_covered" : 0,
    "agency_count_nibrs_submitting" : 144,
    "agency_count_leoka_submitting" : 0,
    "agency_count_pe_submitting" : 147,
    "agency_count_srs_submitting" : 147,
    "state_id" : 34,
    "state_abbr" : "NH",
    "csv_header" : "data_year,population,total_agency_count,published_agency_count,active_agency_count,covered_agency_count,population_covered,agency_count_nibrs_submitting,agency_count_leoka_submitting,agency_count_pe_submitting,agency_count_srs_submitting"
  }, {
    "data_year" : 2006,
    "population" : 1446567,
    "total_agency_count" : 151,
    "published_agency_count" : 151,
    "active_agency_count" : 151,
    "covered_agency_count" : 0,
    "population_covered" : 0,
    "agency_count_nibrs_submitting" : 149,
    "agency_count_leoka_submitting" : 0,
    "agency_count_pe_submitting" : 151,
    "agency_count_srs_submitting" : 151,
    "state_id" : 34,
    "state_abbr" : "NH",
    "csv_header" : "data_year,population,total_agency_count,published_agency_count,active_agency_count,covered_agency_count,population_covered,agency_count_nibrs_submitting,agency_count_leoka_submitting,agency_count_pe_submitting,agency_count_srs_submitting"
  }, {
    "data_year" : 2005,
    "population" : 1535778,
    "total_agency_count" : 156,
    "published_agency_count" : 156,
    "active_agency_count" : 156,
    "covered_agency_count" : 0,
    "population_covered" : 0,
    "agency_count_nibrs_submitting" : 155,
    "agency_count_leoka_submitting" : 0,
    "agency_count_pe_submitting" : 156,
    "agency_count_srs_submitting" : 156,
    "state_id" : 34,
    "state_abbr" : "NH",
    "csv_header" : "data_year,population,total_agency_count,published_agency_count,active_agency_count,covered_agency_count,population_covered,agency_count_nibrs_submitting,agency_count_leoka_submitting,agency_count_pe_submitting,agency_count_srs_submitting"
  }, {
    "data_year" : 2004,
    "population" : 1489259,
    "total_agency_count" : 152,
    "published_agency_count" : 152,
    "active_agency_count" : 152,
    "covered_agency_count" : 0,
    "population_covered" : 0,
    "agency_count_nibrs_submitting" : 151,
    "agency_count_leoka_submitting" : 0,
    "agency_count_pe_submitting" : 152,
    "agency_count_srs_submitting" : 152,
    "state_id" : 34,
    "state_abbr" : "NH",
    "csv_header" : "data_year,population,total_agency_count,published_agency_count,active_agency_count,covered_agency_count,population_covered,agency_count_nibrs_submitting,agency_count_leoka_submitting,agency_count_pe_submitting,agency_count_srs_submitting"
  }, {
    "data_year" : 2003,
    "population" : 1578517,
    "total_agency_count" : 141,
    "published_agency_count" : 141,
    "active_agency_count" : 141,
    "covered_agency_count" : 0,
    "population_covered" : 0,
    "agency_count_nibrs_submitting" : 140,
    "agency_count_leoka_submitting" : 0,
    "agency_count_pe_submitting" : 141,
    "agency_count_srs_submitting" : 141,
    "state_id" : 34,
    "state_abbr" : "NH",
    "csv_header" : "data_year,population,total_agency_count,published_agency_count,active_agency_count,covered_agency_count,population_covered,agency_count_nibrs_submitting,agency_count_leoka_submitting,agency_count_pe_submitting,agency_count_srs_submitting"
  }, {
    "data_year" : 2002,
    "population" : 1716077,
    "total_agency_count" : 167,
    "published_agency_count" : 167,
    "active_agency_count" : 167,
    "covered_agency_count" : 0,
    "population_covered" : 0,
    "agency_count_nibrs_submitting" : 35,
    "agency_count_leoka_submitting" : 0,
    "agency_count_pe_submitting" : 167,
    "agency_count_srs_submitting" : 167,
    "state_id" : 34,
    "state_abbr" : "NH",
    "csv_header" : "data_year,population,total_agency_count,published_agency_count,active_agency_count,covered_agency_count,population_covered,agency_count_nibrs_submitting,agency_count_leoka_submitting,agency_count_pe_submitting,agency_count_srs_submitting"
  }, {
    "data_year" : 2001,
    "population" : 1570775,
    "total_agency_count" : 132,
    "published_agency_count" : 132,
    "active_agency_count" : 132,
    "covered_agency_count" : 0,
    "population_covered" : 0,
    "agency_count_nibrs_submitting" : 0,
    "agency_count_leoka_submitting" : 0,
    "agency_count_pe_submitting" : 132,
    "agency_count_srs_submitting" : 132,
    "state_id" : 34,
    "state_abbr" : "NH",
    "csv_header" : "data_year,population,total_agency_count,published_agency_count,active_agency_count,covered_agency_count,population_covered,agency_count_nibrs_submitting,agency_count_leoka_submitting,agency_count_pe_submitting,agency_count_srs_submitting"
  }, {
    "data_year" : 2000,
    "population" : 1493616,
    "total_agency_count" : 118,
    "published_agency_count" : 118,
    "active_agency_count" : 118,
    "covered_agency_count" : 0,
    "population_covered" : 0,
    "agency_count_nibrs_submitting" : 0,
    "agency_count_leoka_submitting" : 0,
    "agency_count_pe_submitting" : 118,
    "agency_count_srs_submitting" : 118,
    "state_id" : 34,
    "state_abbr" : "NH",
    "csv_header" : "data_year,population,total_agency_count,published_agency_count,active_agency_count,covered_agency_count,population_covered,agency_count_nibrs_submitting,agency_count_leoka_submitting,agency_count_pe_submitting,agency_count_srs_submitting"
  } ],
  "pagination" : {
    "count" : 25,
    "page" : 0,
    "pages" : 2,
    "per_page" : 20
  }
}