{
  "results" : [ {
    "data_year" : 2019,
    "population" : 21791112,
    "total_agency_count" : 0,
    "published_agency_count" : 0,
    "active_agency_count" : 0,
    "covered_agency_count" : 0,
    "population_covered" : 0,
    "agency_count_nibrs_submitting" : 0,
    "agency_count_leoka_submitting" : 0,
    "agency_count_pe_submitting" : 0,
    "agency_count_srs_submitting" : 0,
    "state_id" : 38,
    "state_abbr" : "NY",
    "csv_header" : "data_year,population,total_agency_count,published_agency_count,active_agency_count,covered_agency_count,population_covered,agency_count_nibrs_submitting,agency_count_leoka_submitting,agency_count_pe_submitting,agency_count_srs_submitting"
  }, {
    "data_year" : 2018,
    "population" : 21791112,
    "total_agency_count" : 0,
    "published_agency_count" : 0,
    "active_agency_count" : 0,
    "covered_agency_count" : 0,
    "population_covered" : 0,
    "agency_count_nibrs_submitting" : 0,
    "agency_count_leoka_submitting" : 0,
    "agency_count_pe_submitting" : 0,
    "agency_count_srs_submitting" : 0,
    "state_id" : 38,
    "state_abbr" : "NY",
    "csv_header" : "data_year,population,total_agency_count,published_agency_count,active_agency_count,covered_agency_count,population_covered,agency_count_nibrs_submitting,agency_count_leoka_submitting,agency_count_pe_submitting,agency_count_srs_submitting"
  }, {
    "data_year" : 2017,
    "population" : 21794544,
    "total_agency_count" : 569,
    "published_agency_count" : 569,
    "active_agency_count" : 569,
    "covered_agency_count" : 0,
    "population_covered" : 0,
    "agency_count_nibrs_submitting" : 0,
    "agency_count_leoka_submitting" : 0,
    "agency_count_pe_submitting" : 569,
    "agency_count_srs_submitting" : 569,
    "state_id" : 38,
    "state_abbr" : "NY",
    "csv_header" : "data_year,population,total_agency_count,published_agency_count,active_agency_count,covered_agency_count,population_covered,agency_count_nibrs_submitting,agency_count_leoka_submitting,agency_count_pe_submitting,agency_count_srs_submitting"
  }, {
    "data_year" : 2016,
    "population" : 21809118,
    "total_agency_count" : 575,
    "published_agency_count" : 575,
    "active_agency_count" : 575,
    "covered_agency_count" : 0,
    "population_covered" : 0,
    "agency_count_nibrs_submitting" : 0,
    "agency_count_leoka_submitting" : 0,
    "agency_count_pe_submitting" : 575,
    "agency_count_srs_submitting" : 575,
    "state_id" : 38,
    "state_abbr" : "NY",
    "csv_header" : "data_year,population,total_agency_count,published_agency_count,active_agency_count,covered_agency_count,population_covered,agency_count_nibrs_submitting,agency_count_leoka_submitting,agency_count_pe_submitting,agency_count_srs_submitting"
  }, {
    "data_year" : 2015,
    "population" : 21811666,
    "total_agency_count" : 576,
    "published_agency_count" : 576,
    "active_agency_count" : 576,
    "covered_agency_count" : 0,
    "population_covered" : 0,
    "agency_count_nibrs_submitting" : 0,
    "agency_count_leoka_submitting" : 0,
    "agency_count_pe_submitting" : 576,
    "agency_count_srs_submitting" : 576,
    "state_id" : 38,
    "state_abbr" : "NY",
    "csv_header" : "data_year,population,total_agency_count,published_agency_count,active_agency_count,covered_agency_count,population_covered,agency_count_nibrs_submitting,agency_count_leoka_submitting,agency_count_pe_submitting,agency_count_srs_submitting"
  }, {
    "data_year" : 2014,
    "population" : 21799396,
    "total_agency_count" : 576,
    "published_agency_count" : 576,
    "active_agency_count" : 576,
    "covered_agency_count" : 0,
    "population_covered" : 0,
    "agency_count_nibrs_submitting" : 0,
    "agency_count_leoka_submitting" : 0,
    "agency_count_pe_submitting" : 576,
    "agency_count_srs_submitting" : 576,
    "state_id" : 38,
    "state_abbr" : "NY",
    "csv_header" : "data_year,population,total_agency_count,published_agency_count,active_agency_count,covered_agency_count,population_covered,agency_count_nibrs_submitting,agency_count_leoka_submitting,agency_count_pe_submitting,agency_count_srs_submitting"
  }, {
    "data_year" : 2013,
    "population" : 21978933,
    "total_agency_count" : 572,
    "published_agency_count" : 572,
    "active_agency_count" : 572,
    "covered_agency_count" : 0,
    "population_covered" : 0,
    "agency_count_nibrs_submitting" : 0,
    "agency_count_leoka_submitting" : 0,
    "agency_count_pe_submitting" : 572,
    "agency_count_srs_submitting" : 572,
    "state_id" : 38,
    "state_abbr" : "NY",
    "csv_header" : "data_year,population,total_agency_count,published_agency_count,active_agency_count,covered_agency_count,population_covered,agency_count_nibrs_submitting,agency_count_leoka_submitting,agency_count_pe_submitting,agency_count_srs_submitting"
  }, {
    "data_year" : 2012,
    "population" : 21928653,
    "total_agency_count" : 580,
    "published_agency_count" : 580,
    "active_agency_count" : 580,
    "covered_agency_count" : 0,
    "population_covered" : 0,
    "agency_count_nibrs_submitting" : 0,
    "agency_count_leoka_submitting" : 0,
    "agency_count_pe_submitting" : 580,
    "agency_count_srs_submitting" : 580,
    "state_id" : 38,
    "state_abbr" : "NY",
    "csv_header" : "data_year,population,total_agency_count,published_agency_count,active_agency_count,covered_agency_count,population_covered,agency_count_nibrs_submitting,agency_count_leoka_submitting,agency_count_pe_submitting,agency_count_srs_submitting"
  }, {
    "data_year" : 2011,
    "population" : 21558169,
    "total_agency_count" : 580,
    "published_agency_count" : 580,
    "active_agency_count" : 580,
    "covered_agency_count" : 0,
    "population_covered" : 0,
    "agency_count_nibrs_submitting" : 0,
    "agency_count_leoka_submitting" : 0,
    "agency_count_pe_submitting" : 580,
    "agency_count_srs_submitting" : 580,
    "state_id" : 38,
    "state_abbr" : "NY",
    "csv_header" : "data_year,population,total_agency_count,published_agency_count,active_agency_count,covered_agency_count,population_covered,agency_count_nibrs_submitting,agency_count_leoka_submitting,agency_count_pe_submitting,agency_count_srs_submitting"
  }, {
    "data_year" : 2010,
    "population" : 21545500,
    "total_agency_count" : 577,
    "published_agency_count" : 577,
    "active_agency_count" : 577,
    "covered_agency_count" : 0,
    "population_covered" : 0,
    "agency_count_nibrs_submitting" : 0,
    "agency_count_leoka_submitting" : 0,
    "agency_count_pe_submitting" : 577,
    "agency_count_srs_submitting" : 577,
    "state_id" : 38,
    "state_abbr" : "NY",
    "csv_header" : "data_year,population,total_agency_count,published_agency_count,active_agency_count,covered_agency_count,population_covered,agency_count_nibrs_submitting,agency_count_leoka_submitting,agency_count_pe_submitting,agency_count_srs_submitting"
  }, {
    "data_year" : 2009,
    "population" : 21561198,
    "total_agency_count" : 616,
    "published_agency_count" : 616,
    "active_agency_count" : 616,
    "covered_agency_count" : 0,
    "population_covered" : 0,
    "agency_count_nibrs_submitting" : 0,
    "agency_count_leoka_submitting" : 0,
    "agency_count_pe_submitting" : 616,
    "agency_count_srs_submitting" : 616,
    "state_id" : 38,
    "state_abbr" : "NY",
    "csv_header" : "data_year,population,total_agency_count,published_agency_count,active_agency_count,covered_agency_count,population_covered,agency_count_nibrs_submitting,agency_count_leoka_submitting,agency_count_pe_submitting,agency_count_srs_submitting"
  }, {
    "data_year" : 2008,
    "population" : 21665173,
    "total_agency_count" : 676,
    "published_agency_count" : 676,
    "active_agency_count" : 676,
    "covered_agency_count" : 0,
    "population_covered" : 0,
    "agency_count_nibrs_submitting" : 0,
    "agency_count_leoka_submitting" : 0,
    "agency_count_pe_submitting" : 676,
    "agency_count_srs_submitting" : 676,
    "state_id" : 38,
    "state_abbr" : "NY",
    "csv_header" : "data_year,population,total_agency_count,published_agency_count,active_agency_count,covered_agency_count,population_covered,agency_count_nibrs_submitting,agency_count_leoka_submitting,agency_count_pe_submitting,agency_count_srs_submitting"
  }, {
    "data_year" : 2007,
    "population" : 21175344,
    "total_agency_count" : 693,
    "published_agency_count" : 693,
    "active_agency_count" : 693,
    "covered_agency_count" : 0,
    "population_covered" : 0,
    "agency_count_nibrs_submitting" : 0,
    "agency_count_leoka_submitting" : 0,
    "agency_count_pe_submitting" : 693,
    "agency_count_srs_submitting" : 693,
    "state_id" : 38,
    "state_abbr" : "NY",
    "csv_header" : "data_year,population,total_agency_count,published_agency_count,active_agency_count,covered_agency_count,population_covered,agency_count_nibrs_submitting,agency_count_leoka_submitting,agency_count_pe_submitting,agency_count_srs_submitting"
  }, {
    "data_year" : 2006,
    "population" : 21206462,
    "total_agency_count" : 709,
    "published_agency_count" : 709,
    "active_agency_count" : 709,
    "covered_agency_count" : 0,
    "population_covered" : 0,
    "agency_count_nibrs_submitting" : 0,
    "agency_count_leoka_submitting" : 0,
    "agency_count_pe_submitting" : 709,
    "agency_count_srs_submitting" : 709,
    "state_id" : 38,
    "state_abbr" : "NY",
    "csv_header" : "data_year,population,total_agency_count,published_agency_count,active_agency_count,covered_agency_count,population_covered,agency_count_nibrs_submitting,agency_count_leoka_submitting,agency_count_pe_submitting,agency_count_srs_submitting"
  }, {
    "data_year" : 2005,
    "population" : 21281180,
    "total_agency_count" : 696,
    "published_agency_count" : 696,
    "active_agency_count" : 696,
    "covered_agency_count" : 0,
    "population_covered" : 0,
    "agency_count_nibrs_submitting" : 0,
    "agency_count_leoka_submitting" : 0,
    "agency_count_pe_submitting" : 696,
    "agency_count_srs_submitting" : 696,
    "state_id" : 38,
    "state_abbr" : "NY",
    "csv_header" : "data_year,population,total_agency_count,published_agency_count,active_agency_count,covered_agency_count,population_covered,agency_count_nibrs_submitting,agency_count_leoka_submitting,agency_count_pe_submitting,agency_count_srs_submitting"
  }, {
    "data_year" : 2004,
    "population" : 21401951,
    "total_agency_count" : 692,
    "published_agency_count" : 691,
    "active_agency_count" : 691,
    "covered_agency_count" : 0,
    "population_covered" : 0,
    "agency_count_nibrs_submitting" : 0,
    "agency_count_leoka_submitting" : 0,
    "agency_count_pe_submitting" : 692,
    "agency_count_srs_submitting" : 692,
    "state_id" : 38,
    "state_abbr" : "NY",
    "csv_header" : "data_year,population,total_agency_count,published_agency_count,active_agency_count,covered_agency_count,population_covered,agency_count_nibrs_submitting,agency_count_leoka_submitting,agency_count_pe_submitting,agency_count_srs_submitting"
  }, {
    "data_year" : 2003,
    "population" : 22079734,
    "total_agency_count" : 677,
    "published_agency_count" : 677,
    "active_agency_count" : 677,
    "covered_agency_count" : 0,
    "population_covered" : 0,
    "agency_count_nibrs_submitting" : 0,
    "agency_count_leoka_submitting" : 0,
    "agency_count_pe_submitting" : 677,
    "agency_count_srs_submitting" : 677,
    "state_id" : 38,
    "state_abbr" : "NY",
    "csv_header" : "data_year,population,total_agency_count,published_agency_count,active_agency_count,covered_agency_count,population_covered,agency_count_nibrs_submitting,agency_count_leoka_submitting,agency_count_pe_submitting,agency_count_srs_submitting"
  }, {
    "data_year" : 2002,
    "population" : 21365121,
    "total_agency_count" : 679,
    "published_agency_count" : 679,
    "active_agency_count" : 679,
    "covered_agency_count" : 0,
    "population_covered" : 0,
    "agency_count_nibrs_submitting" : 0,
    "agency_count_leoka_submitting" : 0,
    "agency_count_pe_submitting" : 679,
    "agency_count_srs_submitting" : 679,
    "state_id" : 38,
    "state_abbr" : "NY",
    "csv_header" : "data_year,population,total_agency_count,published_agency_count,active_agency_count,covered_agency_count,population_covered,agency_count_nibrs_submitting,agency_count_leoka_submitting,agency_count_pe_submitting,agency_count_srs_submitting"
  }, {
    "data_year" : 2001,
    "population" : 22308128,
    "total_agency_count" : 670,
    "published_agency_count" : 670,
    "active_agency_count" : 670,
    "covered_agency_count" : 0,
    "population_covered" : 0,
    "agency_count_nibrs_submitting" : 0,
    "agency_count_leoka_submitting" : 0,
    "agency_count_pe_submitting" : 670,
    "agency_count_srs_submitting" : 670,
    "state_id" : 38,
    "state_abbr" : "NY",
    "csv_header" : "data_year,population,total_agency_count,published_agency_count,active_agency_count,covered_agency_count,population_covered,agency_count_nibrs_submitting,agency_count_leoka_submitting,agency_count_pe_submitting,agency_count_srs_submitting"
  }, {
    "data_year" : 2000,
    "population" : 21951890,
    "total_agency_count" : 635,
    "published_agency_count" : 635,
    "active_agency_count" : 635,
    "covered_agency_count" : 0,
    "population_covered" : 0,
    "agency_count_nibrs_submitting" : 0,
    "agency_count_leoka_submitting" : 0,
    "agency_count_pe_submitting" : 635,
    "agency_count_srs_submitting" : 635,
    "state_id" : 38,
    "state_abbr" : "NY",
    "csv_header" : "data_year,population,total_agency_count,published_agency_count,active_agency_count,covered_agency_count,population_covered,agency_count_nibrs_submitting,agency_count_leoka_submitting,agency_count_pe_submitting,agency_count_srs_submitting"
  } ],
  "pagination" : {
    "count" : 25,
    "page" : 0,
    "pages" : 2,
    "per_page" : 20
  }
}