{
  "results" : [ {
    "data_year" : 2019,
    "population" : 11763545,
    "total_agency_count" : 0,
    "published_agency_count" : 0,
    "active_agency_count" : 0,
    "covered_agency_count" : 0,
    "population_covered" : 0,
    "agency_count_nibrs_submitting" : 0,
    "agency_count_leoka_submitting" : 0,
    "agency_count_pe_submitting" : 0,
    "agency_count_srs_submitting" : 0,
    "state_id" : 39,
    "state_abbr" : "OH",
    "csv_header" : "data_year,population,total_agency_count,published_agency_count,active_agency_count,covered_agency_count,population_covered,agency_count_nibrs_submitting,agency_count_leoka_submitting,agency_count_pe_submitting,agency_count_srs_submitting"
  }, {
    "data_year" : 2018,
    "population" : 19984910,
    "total_agency_count" : 950,
    "published_agency_count" : 950,
    "active_agency_count" : 950,
    "covered_agency_count" : 0,
    "population_covered" : 0,
    "agency_count_nibrs_submitting" : 878,
    "agency_count_leoka_submitting" : 472,
    "agency_count_pe_submitting" : 950,
    "agency_count_srs_submitting" : 950,
    "state_id" : 39,
    "state_abbr" : "OH",
    "csv_header" : "data_year,population,total_agency_count,published_agency_count,active_agency_count,covered_agency_count,population_covered,agency_count_nibrs_submitting,agency_count_leoka_submitting,agency_count_pe_submitting,agency_count_srs_submitting"
  }, {
    "data_year" : 2017,
    "population" : 11763545,
    "total_agency_count" : 541,
    "published_agency_count" : 541,
    "active_agency_count" : 541,
    "covered_agency_count" : 0,
    "population_covered" : 0,
    "agency_count_nibrs_submitting" : 541,
    "agency_count_leoka_submitting" : 257,
    "agency_count_pe_submitting" : 541,
    "agency_count_srs_submitting" : 541,
    "state_id" : 39,
    "state_abbr" : "OH",
    "csv_header" : "data_year,population,total_agency_count,published_agency_count,active_agency_count,covered_agency_count,population_covered,agency_count_nibrs_submitting,agency_count_leoka_submitting,agency_count_pe_submitting,agency_count_srs_submitting"
  }, {
    "data_year" : 2016,
    "population" : 12849018,
    "total_agency_count" : 765,
    "published_agency_count" : 765,
    "active_agency_count" : 765,
    "covered_agency_count" : 0,
    "population_covered" : 0,
    "agency_count_nibrs_submitting" : 668,
    "agency_count_leoka_submitting" : 196,
    "agency_count_pe_submitting" : 765,
    "agency_count_srs_submitting" : 765,
    "state_id" : 39,
    "state_abbr" : "OH",
    "csv_header" : "data_year,population,total_agency_count,published_agency_count,active_agency_count,covered_agency_count,population_covered,agency_count_nibrs_submitting,agency_count_leoka_submitting,agency_count_pe_submitting,agency_count_srs_submitting"
  }, {
    "data_year" : 2015,
    "population" : 14137838,
    "total_agency_count" : 816,
    "published_agency_count" : 816,
    "active_agency_count" : 816,
    "covered_agency_count" : 0,
    "population_covered" : 0,
    "agency_count_nibrs_submitting" : 714,
    "agency_count_leoka_submitting" : 0,
    "agency_count_pe_submitting" : 816,
    "agency_count_srs_submitting" : 816,
    "state_id" : 39,
    "state_abbr" : "OH",
    "csv_header" : "data_year,population,total_agency_count,published_agency_count,active_agency_count,covered_agency_count,population_covered,agency_count_nibrs_submitting,agency_count_leoka_submitting,agency_count_pe_submitting,agency_count_srs_submitting"
  }, {
    "data_year" : 2014,
    "population" : 13864130,
    "total_agency_count" : 825,
    "published_agency_count" : 825,
    "active_agency_count" : 825,
    "covered_agency_count" : 0,
    "population_covered" : 0,
    "agency_count_nibrs_submitting" : 720,
    "agency_count_leoka_submitting" : 0,
    "agency_count_pe_submitting" : 825,
    "agency_count_srs_submitting" : 825,
    "state_id" : 39,
    "state_abbr" : "OH",
    "csv_header" : "data_year,population,total_agency_count,published_agency_count,active_agency_count,covered_agency_count,population_covered,agency_count_nibrs_submitting,agency_count_leoka_submitting,agency_count_pe_submitting,agency_count_srs_submitting"
  }, {
    "data_year" : 2013,
    "population" : 14174704,
    "total_agency_count" : 872,
    "published_agency_count" : 872,
    "active_agency_count" : 872,
    "covered_agency_count" : 0,
    "population_covered" : 0,
    "agency_count_nibrs_submitting" : 751,
    "agency_count_leoka_submitting" : 0,
    "agency_count_pe_submitting" : 872,
    "agency_count_srs_submitting" : 872,
    "state_id" : 39,
    "state_abbr" : "OH",
    "csv_header" : "data_year,population,total_agency_count,published_agency_count,active_agency_count,covered_agency_count,population_covered,agency_count_nibrs_submitting,agency_count_leoka_submitting,agency_count_pe_submitting,agency_count_srs_submitting"
  }, {
    "data_year" : 2012,
    "population" : 14537927,
    "total_agency_count" : 837,
    "published_agency_count" : 837,
    "active_agency_count" : 837,
    "covered_agency_count" : 0,
    "population_covered" : 0,
    "agency_count_nibrs_submitting" : 704,
    "agency_count_leoka_submitting" : 0,
    "agency_count_pe_submitting" : 837,
    "agency_count_srs_submitting" : 837,
    "state_id" : 39,
    "state_abbr" : "OH",
    "csv_header" : "data_year,population,total_agency_count,published_agency_count,active_agency_count,covered_agency_count,population_covered,agency_count_nibrs_submitting,agency_count_leoka_submitting,agency_count_pe_submitting,agency_count_srs_submitting"
  }, {
    "data_year" : 2011,
    "population" : 13874490,
    "total_agency_count" : 825,
    "published_agency_count" : 825,
    "active_agency_count" : 825,
    "covered_agency_count" : 0,
    "population_covered" : 0,
    "agency_count_nibrs_submitting" : 688,
    "agency_count_leoka_submitting" : 0,
    "agency_count_pe_submitting" : 825,
    "agency_count_srs_submitting" : 825,
    "state_id" : 39,
    "state_abbr" : "OH",
    "csv_header" : "data_year,population,total_agency_count,published_agency_count,active_agency_count,covered_agency_count,population_covered,agency_count_nibrs_submitting,agency_count_leoka_submitting,agency_count_pe_submitting,agency_count_srs_submitting"
  }, {
    "data_year" : 2010,
    "population" : 14022130,
    "total_agency_count" : 830,
    "published_agency_count" : 830,
    "active_agency_count" : 830,
    "covered_agency_count" : 0,
    "population_covered" : 0,
    "agency_count_nibrs_submitting" : 688,
    "agency_count_leoka_submitting" : 0,
    "agency_count_pe_submitting" : 830,
    "agency_count_srs_submitting" : 830,
    "state_id" : 39,
    "state_abbr" : "OH",
    "csv_header" : "data_year,population,total_agency_count,published_agency_count,active_agency_count,covered_agency_count,population_covered,agency_count_nibrs_submitting,agency_count_leoka_submitting,agency_count_pe_submitting,agency_count_srs_submitting"
  }, {
    "data_year" : 2009,
    "population" : 13393551,
    "total_agency_count" : 818,
    "published_agency_count" : 818,
    "active_agency_count" : 818,
    "covered_agency_count" : 0,
    "population_covered" : 0,
    "agency_count_nibrs_submitting" : 665,
    "agency_count_leoka_submitting" : 0,
    "agency_count_pe_submitting" : 818,
    "agency_count_srs_submitting" : 818,
    "state_id" : 39,
    "state_abbr" : "OH",
    "csv_header" : "data_year,population,total_agency_count,published_agency_count,active_agency_count,covered_agency_count,population_covered,agency_count_nibrs_submitting,agency_count_leoka_submitting,agency_count_pe_submitting,agency_count_srs_submitting"
  }, {
    "data_year" : 2008,
    "population" : 14289756,
    "total_agency_count" : 781,
    "published_agency_count" : 781,
    "active_agency_count" : 781,
    "covered_agency_count" : 0,
    "population_covered" : 0,
    "agency_count_nibrs_submitting" : 626,
    "agency_count_leoka_submitting" : 0,
    "agency_count_pe_submitting" : 781,
    "agency_count_srs_submitting" : 781,
    "state_id" : 39,
    "state_abbr" : "OH",
    "csv_header" : "data_year,population,total_agency_count,published_agency_count,active_agency_count,covered_agency_count,population_covered,agency_count_nibrs_submitting,agency_count_leoka_submitting,agency_count_pe_submitting,agency_count_srs_submitting"
  }, {
    "data_year" : 2007,
    "population" : 13639490,
    "total_agency_count" : 784,
    "published_agency_count" : 784,
    "active_agency_count" : 784,
    "covered_agency_count" : 0,
    "population_covered" : 0,
    "agency_count_nibrs_submitting" : 620,
    "agency_count_leoka_submitting" : 0,
    "agency_count_pe_submitting" : 784,
    "agency_count_srs_submitting" : 784,
    "state_id" : 39,
    "state_abbr" : "OH",
    "csv_header" : "data_year,population,total_agency_count,published_agency_count,active_agency_count,covered_agency_count,population_covered,agency_count_nibrs_submitting,agency_count_leoka_submitting,agency_count_pe_submitting,agency_count_srs_submitting"
  }, {
    "data_year" : 2006,
    "population" : 14972268,
    "total_agency_count" : 754,
    "published_agency_count" : 754,
    "active_agency_count" : 754,
    "covered_agency_count" : 0,
    "population_covered" : 0,
    "agency_count_nibrs_submitting" : 576,
    "agency_count_leoka_submitting" : 0,
    "agency_count_pe_submitting" : 754,
    "agency_count_srs_submitting" : 754,
    "state_id" : 39,
    "state_abbr" : "OH",
    "csv_header" : "data_year,population,total_agency_count,published_agency_count,active_agency_count,covered_agency_count,population_covered,agency_count_nibrs_submitting,agency_count_leoka_submitting,agency_count_pe_submitting,agency_count_srs_submitting"
  }, {
    "data_year" : 2005,
    "population" : 14713656,
    "total_agency_count" : 635,
    "published_agency_count" : 635,
    "active_agency_count" : 635,
    "covered_agency_count" : 0,
    "population_covered" : 0,
    "agency_count_nibrs_submitting" : 440,
    "agency_count_leoka_submitting" : 0,
    "agency_count_pe_submitting" : 635,
    "agency_count_srs_submitting" : 635,
    "state_id" : 39,
    "state_abbr" : "OH",
    "csv_header" : "data_year,population,total_agency_count,published_agency_count,active_agency_count,covered_agency_count,population_covered,agency_count_nibrs_submitting,agency_count_leoka_submitting,agency_count_pe_submitting,agency_count_srs_submitting"
  }, {
    "data_year" : 2004,
    "population" : 14249695,
    "total_agency_count" : 552,
    "published_agency_count" : 552,
    "active_agency_count" : 552,
    "covered_agency_count" : 0,
    "population_covered" : 0,
    "agency_count_nibrs_submitting" : 332,
    "agency_count_leoka_submitting" : 0,
    "agency_count_pe_submitting" : 552,
    "agency_count_srs_submitting" : 552,
    "state_id" : 39,
    "state_abbr" : "OH",
    "csv_header" : "data_year,population,total_agency_count,published_agency_count,active_agency_count,covered_agency_count,population_covered,agency_count_nibrs_submitting,agency_count_leoka_submitting,agency_count_pe_submitting,agency_count_srs_submitting"
  }, {
    "data_year" : 2003,
    "population" : 13810862,
    "total_agency_count" : 526,
    "published_agency_count" : 526,
    "active_agency_count" : 526,
    "covered_agency_count" : 0,
    "population_covered" : 0,
    "agency_count_nibrs_submitting" : 277,
    "agency_count_leoka_submitting" : 0,
    "agency_count_pe_submitting" : 526,
    "agency_count_srs_submitting" : 526,
    "state_id" : 39,
    "state_abbr" : "OH",
    "csv_header" : "data_year,population,total_agency_count,published_agency_count,active_agency_count,covered_agency_count,population_covered,agency_count_nibrs_submitting,agency_count_leoka_submitting,agency_count_pe_submitting,agency_count_srs_submitting"
  }, {
    "data_year" : 2002,
    "population" : 13436919,
    "total_agency_count" : 535,
    "published_agency_count" : 535,
    "active_agency_count" : 535,
    "covered_agency_count" : 0,
    "population_covered" : 0,
    "agency_count_nibrs_submitting" : 266,
    "agency_count_leoka_submitting" : 0,
    "agency_count_pe_submitting" : 535,
    "agency_count_srs_submitting" : 535,
    "state_id" : 39,
    "state_abbr" : "OH",
    "csv_header" : "data_year,population,total_agency_count,published_agency_count,active_agency_count,covered_agency_count,population_covered,agency_count_nibrs_submitting,agency_count_leoka_submitting,agency_count_pe_submitting,agency_count_srs_submitting"
  }, {
    "data_year" : 2001,
    "population" : 13978771,
    "total_agency_count" : 491,
    "published_agency_count" : 491,
    "active_agency_count" : 491,
    "covered_agency_count" : 0,
    "population_covered" : 0,
    "agency_count_nibrs_submitting" : 216,
    "agency_count_leoka_submitting" : 0,
    "agency_count_pe_submitting" : 491,
    "agency_count_srs_submitting" : 491,
    "state_id" : 39,
    "state_abbr" : "OH",
    "csv_header" : "data_year,population,total_agency_count,published_agency_count,active_agency_count,covered_agency_count,population_covered,agency_count_nibrs_submitting,agency_count_leoka_submitting,agency_count_pe_submitting,agency_count_srs_submitting"
  }, {
    "data_year" : 2000,
    "population" : 13316301,
    "total_agency_count" : 428,
    "published_agency_count" : 428,
    "active_agency_count" : 428,
    "covered_agency_count" : 0,
    "population_covered" : 0,
    "agency_count_nibrs_submitting" : 139,
    "agency_count_leoka_submitting" : 0,
    "agency_count_pe_submitting" : 428,
    "agency_count_srs_submitting" : 428,
    "state_id" : 39,
    "state_abbr" : "OH",
    "csv_header" : "data_year,population,total_agency_count,published_agency_count,active_agency_count,covered_agency_count,population_covered,agency_count_nibrs_submitting,agency_count_leoka_submitting,agency_count_pe_submitting,agency_count_srs_submitting"
  } ],
  "pagination" : {
    "count" : 25,
    "page" : 0,
    "pages" : 2,
    "per_page" : 20
  }
}