{
  "results" : [ {
    "data_year" : 2019,
    "population" : 3955379,
    "total_agency_count" : 0,
    "published_agency_count" : 0,
    "active_agency_count" : 0,
    "covered_agency_count" : 0,
    "population_covered" : 0,
    "agency_count_nibrs_submitting" : 0,
    "agency_count_leoka_submitting" : 0,
    "agency_count_pe_submitting" : 0,
    "agency_count_srs_submitting" : 0,
    "state_id" : 40,
    "state_abbr" : "OK",
    "csv_header" : "data_year,population,total_agency_count,published_agency_count,active_agency_count,covered_agency_count,population_covered,agency_count_nibrs_submitting,agency_count_leoka_submitting,agency_count_pe_submitting,agency_count_srs_submitting"
  }, {
    "data_year" : 2018,
    "population" : 5788408,
    "total_agency_count" : 685,
    "published_agency_count" : 685,
    "active_agency_count" : 685,
    "covered_agency_count" : 0,
    "population_covered" : 0,
    "agency_count_nibrs_submitting" : 684,
    "agency_count_leoka_submitting" : 678,
    "agency_count_pe_submitting" : 685,
    "agency_count_srs_submitting" : 685,
    "state_id" : 40,
    "state_abbr" : "OK",
    "csv_header" : "data_year,population,total_agency_count,published_agency_count,active_agency_count,covered_agency_count,population_covered,agency_count_nibrs_submitting,agency_count_leoka_submitting,agency_count_pe_submitting,agency_count_srs_submitting"
  }, {
    "data_year" : 2017,
    "population" : 3955379,
    "total_agency_count" : 418,
    "published_agency_count" : 418,
    "active_agency_count" : 418,
    "covered_agency_count" : 0,
    "population_covered" : 0,
    "agency_count_nibrs_submitting" : 357,
    "agency_count_leoka_submitting" : 356,
    "agency_count_pe_submitting" : 418,
    "agency_count_srs_submitting" : 418,
    "state_id" : 40,
    "state_abbr" : "OK",
    "csv_header" : "data_year,population,total_agency_count,published_agency_count,active_agency_count,covered_agency_count,population_covered,agency_count_nibrs_submitting,agency_count_leoka_submitting,agency_count_pe_submitting,agency_count_srs_submitting"
  }, {
    "data_year" : 2016,
    "population" : 4182166,
    "total_agency_count" : 380,
    "published_agency_count" : 380,
    "active_agency_count" : 380,
    "covered_agency_count" : 0,
    "population_covered" : 0,
    "agency_count_nibrs_submitting" : 307,
    "agency_count_leoka_submitting" : 312,
    "agency_count_pe_submitting" : 380,
    "agency_count_srs_submitting" : 380,
    "state_id" : 40,
    "state_abbr" : "OK",
    "csv_header" : "data_year,population,total_agency_count,published_agency_count,active_agency_count,covered_agency_count,population_covered,agency_count_nibrs_submitting,agency_count_leoka_submitting,agency_count_pe_submitting,agency_count_srs_submitting"
  }, {
    "data_year" : 2015,
    "population" : 4348874,
    "total_agency_count" : 392,
    "published_agency_count" : 392,
    "active_agency_count" : 392,
    "covered_agency_count" : 0,
    "population_covered" : 0,
    "agency_count_nibrs_submitting" : 317,
    "agency_count_leoka_submitting" : 320,
    "agency_count_pe_submitting" : 392,
    "agency_count_srs_submitting" : 392,
    "state_id" : 40,
    "state_abbr" : "OK",
    "csv_header" : "data_year,population,total_agency_count,published_agency_count,active_agency_count,covered_agency_count,population_covered,agency_count_nibrs_submitting,agency_count_leoka_submitting,agency_count_pe_submitting,agency_count_srs_submitting"
  }, {
    "data_year" : 2014,
    "population" : 4023386,
    "total_agency_count" : 366,
    "published_agency_count" : 366,
    "active_agency_count" : 366,
    "covered_agency_count" : 0,
    "population_covered" : 0,
    "agency_count_nibrs_submitting" : 283,
    "agency_count_leoka_submitting" : 289,
    "agency_count_pe_submitting" : 366,
    "agency_count_srs_submitting" : 366,
    "state_id" : 40,
    "state_abbr" : "OK",
    "csv_header" : "data_year,population,total_agency_count,published_agency_count,active_agency_count,covered_agency_count,population_covered,agency_count_nibrs_submitting,agency_count_leoka_submitting,agency_count_pe_submitting,agency_count_srs_submitting"
  }, {
    "data_year" : 2013,
    "population" : 4169959,
    "total_agency_count" : 360,
    "published_agency_count" : 360,
    "active_agency_count" : 360,
    "covered_agency_count" : 0,
    "population_covered" : 0,
    "agency_count_nibrs_submitting" : 273,
    "agency_count_leoka_submitting" : 278,
    "agency_count_pe_submitting" : 360,
    "agency_count_srs_submitting" : 360,
    "state_id" : 40,
    "state_abbr" : "OK",
    "csv_header" : "data_year,population,total_agency_count,published_agency_count,active_agency_count,covered_agency_count,population_covered,agency_count_nibrs_submitting,agency_count_leoka_submitting,agency_count_pe_submitting,agency_count_srs_submitting"
  }, {
    "data_year" : 2012,
    "population" : 4392062,
    "total_agency_count" : 375,
    "published_agency_count" : 375,
    "active_agency_count" : 375,
    "covered_agency_count" : 0,
    "population_covered" : 0,
    "agency_count_nibrs_submitting" : 269,
    "agency_count_leoka_submitting" : 257,
    "agency_count_pe_submitting" : 375,
    "agency_count_srs_submitting" : 375,
    "state_id" : 40,
    "state_abbr" : "OK",
    "csv_header" : "data_year,population,total_agency_count,published_agency_count,active_agency_count,covered_agency_count,population_covered,agency_count_nibrs_submitting,agency_count_leoka_submitting,agency_count_pe_submitting,agency_count_srs_submitting"
  }, {
    "data_year" : 2011,
    "population" : 4558985,
    "total_agency_count" : 403,
    "published_agency_count" : 403,
    "active_agency_count" : 403,
    "covered_agency_count" : 0,
    "population_covered" : 0,
    "agency_count_nibrs_submitting" : 261,
    "agency_count_leoka_submitting" : 251,
    "agency_count_pe_submitting" : 403,
    "agency_count_srs_submitting" : 403,
    "state_id" : 40,
    "state_abbr" : "OK",
    "csv_header" : "data_year,population,total_agency_count,published_agency_count,active_agency_count,covered_agency_count,population_covered,agency_count_nibrs_submitting,agency_count_leoka_submitting,agency_count_pe_submitting,agency_count_srs_submitting"
  }, {
    "data_year" : 2010,
    "population" : 3981292,
    "total_agency_count" : 389,
    "published_agency_count" : 389,
    "active_agency_count" : 389,
    "covered_agency_count" : 0,
    "population_covered" : 0,
    "agency_count_nibrs_submitting" : 205,
    "agency_count_leoka_submitting" : 202,
    "agency_count_pe_submitting" : 389,
    "agency_count_srs_submitting" : 389,
    "state_id" : 40,
    "state_abbr" : "OK",
    "csv_header" : "data_year,population,total_agency_count,published_agency_count,active_agency_count,covered_agency_count,population_covered,agency_count_nibrs_submitting,agency_count_leoka_submitting,agency_count_pe_submitting,agency_count_srs_submitting"
  }, {
    "data_year" : 2009,
    "population" : 3873323,
    "total_agency_count" : 360,
    "published_agency_count" : 360,
    "active_agency_count" : 360,
    "covered_agency_count" : 0,
    "population_covered" : 0,
    "agency_count_nibrs_submitting" : 167,
    "agency_count_leoka_submitting" : 166,
    "agency_count_pe_submitting" : 360,
    "agency_count_srs_submitting" : 360,
    "state_id" : 40,
    "state_abbr" : "OK",
    "csv_header" : "data_year,population,total_agency_count,published_agency_count,active_agency_count,covered_agency_count,population_covered,agency_count_nibrs_submitting,agency_count_leoka_submitting,agency_count_pe_submitting,agency_count_srs_submitting"
  }, {
    "data_year" : 2008,
    "population" : 3894849,
    "total_agency_count" : 342,
    "published_agency_count" : 342,
    "active_agency_count" : 342,
    "covered_agency_count" : 0,
    "population_covered" : 0,
    "agency_count_nibrs_submitting" : 152,
    "agency_count_leoka_submitting" : 0,
    "agency_count_pe_submitting" : 342,
    "agency_count_srs_submitting" : 342,
    "state_id" : 40,
    "state_abbr" : "OK",
    "csv_header" : "data_year,population,total_agency_count,published_agency_count,active_agency_count,covered_agency_count,population_covered,agency_count_nibrs_submitting,agency_count_leoka_submitting,agency_count_pe_submitting,agency_count_srs_submitting"
  }, {
    "data_year" : 2007,
    "population" : 3683300,
    "total_agency_count" : 317,
    "published_agency_count" : 317,
    "active_agency_count" : 317,
    "covered_agency_count" : 0,
    "population_covered" : 0,
    "agency_count_nibrs_submitting" : 0,
    "agency_count_leoka_submitting" : 0,
    "agency_count_pe_submitting" : 317,
    "agency_count_srs_submitting" : 317,
    "state_id" : 40,
    "state_abbr" : "OK",
    "csv_header" : "data_year,population,total_agency_count,published_agency_count,active_agency_count,covered_agency_count,population_covered,agency_count_nibrs_submitting,agency_count_leoka_submitting,agency_count_pe_submitting,agency_count_srs_submitting"
  }, {
    "data_year" : 2006,
    "population" : 3695169,
    "total_agency_count" : 317,
    "published_agency_count" : 317,
    "active_agency_count" : 317,
    "covered_agency_count" : 0,
    "population_covered" : 0,
    "agency_count_nibrs_submitting" : 0,
    "agency_count_leoka_submitting" : 0,
    "agency_count_pe_submitting" : 317,
    "agency_count_srs_submitting" : 317,
    "state_id" : 40,
    "state_abbr" : "OK",
    "csv_header" : "data_year,population,total_agency_count,published_agency_count,active_agency_count,covered_agency_count,population_covered,agency_count_nibrs_submitting,agency_count_leoka_submitting,agency_count_pe_submitting,agency_count_srs_submitting"
  }, {
    "data_year" : 2005,
    "population" : 3661916,
    "total_agency_count" : 297,
    "published_agency_count" : 297,
    "active_agency_count" : 297,
    "covered_agency_count" : 0,
    "population_covered" : 0,
    "agency_count_nibrs_submitting" : 0,
    "agency_count_leoka_submitting" : 0,
    "agency_count_pe_submitting" : 297,
    "agency_count_srs_submitting" : 297,
    "state_id" : 40,
    "state_abbr" : "OK",
    "csv_header" : "data_year,population,total_agency_count,published_agency_count,active_agency_count,covered_agency_count,population_covered,agency_count_nibrs_submitting,agency_count_leoka_submitting,agency_count_pe_submitting,agency_count_srs_submitting"
  }, {
    "data_year" : 2004,
    "population" : 3607352,
    "total_agency_count" : 297,
    "published_agency_count" : 297,
    "active_agency_count" : 297,
    "covered_agency_count" : 0,
    "population_covered" : 0,
    "agency_count_nibrs_submitting" : 0,
    "agency_count_leoka_submitting" : 0,
    "agency_count_pe_submitting" : 297,
    "agency_count_srs_submitting" : 297,
    "state_id" : 40,
    "state_abbr" : "OK",
    "csv_header" : "data_year,population,total_agency_count,published_agency_count,active_agency_count,covered_agency_count,population_covered,agency_count_nibrs_submitting,agency_count_leoka_submitting,agency_count_pe_submitting,agency_count_srs_submitting"
  }, {
    "data_year" : 2003,
    "population" : 3566501,
    "total_agency_count" : 298,
    "published_agency_count" : 298,
    "active_agency_count" : 298,
    "covered_agency_count" : 0,
    "population_covered" : 0,
    "agency_count_nibrs_submitting" : 0,
    "agency_count_leoka_submitting" : 0,
    "agency_count_pe_submitting" : 298,
    "agency_count_srs_submitting" : 298,
    "state_id" : 40,
    "state_abbr" : "OK",
    "csv_header" : "data_year,population,total_agency_count,published_agency_count,active_agency_count,covered_agency_count,population_covered,agency_count_nibrs_submitting,agency_count_leoka_submitting,agency_count_pe_submitting,agency_count_srs_submitting"
  }, {
    "data_year" : 2002,
    "population" : 3544795,
    "total_agency_count" : 301,
    "published_agency_count" : 301,
    "active_agency_count" : 301,
    "covered_agency_count" : 0,
    "population_covered" : 0,
    "agency_count_nibrs_submitting" : 0,
    "agency_count_leoka_submitting" : 0,
    "agency_count_pe_submitting" : 301,
    "agency_count_srs_submitting" : 301,
    "state_id" : 40,
    "state_abbr" : "OK",
    "csv_header" : "data_year,population,total_agency_count,published_agency_count,active_agency_count,covered_agency_count,population_covered,agency_count_nibrs_submitting,agency_count_leoka_submitting,agency_count_pe_submitting,agency_count_srs_submitting"
  }, {
    "data_year" : 2001,
    "population" : 3521241,
    "total_agency_count" : 299,
    "published_agency_count" : 299,
    "active_agency_count" : 299,
    "covered_agency_count" : 0,
    "population_covered" : 0,
    "agency_count_nibrs_submitting" : 0,
    "agency_count_leoka_submitting" : 0,
    "agency_count_pe_submitting" : 299,
    "agency_count_srs_submitting" : 299,
    "state_id" : 40,
    "state_abbr" : "OK",
    "csv_header" : "data_year,population,total_agency_count,published_agency_count,active_agency_count,covered_agency_count,population_covered,agency_count_nibrs_submitting,agency_count_leoka_submitting,agency_count_pe_submitting,agency_count_srs_submitting"
  }, {
    "data_year" : 2000,
    "population" : 3498712,
    "total_agency_count" : 302,
    "published_agency_count" : 302,
    "active_agency_count" : 302,
    "covered_agency_count" : 0,
    "population_covered" : 0,
    "agency_count_nibrs_submitting" : 0,
    "agency_count_leoka_submitting" : 0,
    "agency_count_pe_submitting" : 302,
    "agency_count_srs_submitting" : 302,
    "state_id" : 40,
    "state_abbr" : "OK",
    "csv_header" : "data_year,population,total_agency_count,published_agency_count,active_agency_count,covered_agency_count,population_covered,agency_count_nibrs_submitting,agency_count_leoka_submitting,agency_count_pe_submitting,agency_count_srs_submitting"
  } ],
  "pagination" : {
    "count" : 25,
    "page" : 0,
    "pages" : 2,
    "per_page" : 20
  }
}