{
  "results" : [ {
    "data_year" : 2019,
    "population" : 4249078,
    "total_agency_count" : 0,
    "published_agency_count" : 0,
    "active_agency_count" : 0,
    "covered_agency_count" : 0,
    "population_covered" : 0,
    "agency_count_nibrs_submitting" : 0,
    "agency_count_leoka_submitting" : 0,
    "agency_count_pe_submitting" : 0,
    "agency_count_srs_submitting" : 0,
    "state_id" : 41,
    "state_abbr" : "OR",
    "csv_header" : "data_year,population,total_agency_count,published_agency_count,active_agency_count,covered_agency_count,population_covered,agency_count_nibrs_submitting,agency_count_leoka_submitting,agency_count_pe_submitting,agency_count_srs_submitting"
  }, {
    "data_year" : 2018,
    "population" : 6616530,
    "total_agency_count" : 300,
    "published_agency_count" : 300,
    "active_agency_count" : 300,
    "covered_agency_count" : 0,
    "population_covered" : 0,
    "agency_count_nibrs_submitting" : 296,
    "agency_count_leoka_submitting" : 294,
    "agency_count_pe_submitting" : 300,
    "agency_count_srs_submitting" : 300,
    "state_id" : 41,
    "state_abbr" : "OR",
    "csv_header" : "data_year,population,total_agency_count,published_agency_count,active_agency_count,covered_agency_count,population_covered,agency_count_nibrs_submitting,agency_count_leoka_submitting,agency_count_pe_submitting,agency_count_srs_submitting"
  }, {
    "data_year" : 2017,
    "population" : 4249078,
    "total_agency_count" : 205,
    "published_agency_count" : 205,
    "active_agency_count" : 205,
    "covered_agency_count" : 0,
    "population_covered" : 0,
    "agency_count_nibrs_submitting" : 195,
    "agency_count_leoka_submitting" : 181,
    "agency_count_pe_submitting" : 205,
    "agency_count_srs_submitting" : 205,
    "state_id" : 41,
    "state_abbr" : "OR",
    "csv_header" : "data_year,population,total_agency_count,published_agency_count,active_agency_count,covered_agency_count,population_covered,agency_count_nibrs_submitting,agency_count_leoka_submitting,agency_count_pe_submitting,agency_count_srs_submitting"
  }, {
    "data_year" : 2016,
    "population" : 4515765,
    "total_agency_count" : 233,
    "published_agency_count" : 233,
    "active_agency_count" : 233,
    "covered_agency_count" : 0,
    "population_covered" : 0,
    "agency_count_nibrs_submitting" : 194,
    "agency_count_leoka_submitting" : 139,
    "agency_count_pe_submitting" : 233,
    "agency_count_srs_submitting" : 233,
    "state_id" : 41,
    "state_abbr" : "OR",
    "csv_header" : "data_year,population,total_agency_count,published_agency_count,active_agency_count,covered_agency_count,population_covered,agency_count_nibrs_submitting,agency_count_leoka_submitting,agency_count_pe_submitting,agency_count_srs_submitting"
  }, {
    "data_year" : 2015,
    "population" : 8748195,
    "total_agency_count" : 250,
    "published_agency_count" : 250,
    "active_agency_count" : 250,
    "covered_agency_count" : 0,
    "population_covered" : 0,
    "agency_count_nibrs_submitting" : 191,
    "agency_count_leoka_submitting" : 130,
    "agency_count_pe_submitting" : 250,
    "agency_count_srs_submitting" : 250,
    "state_id" : 41,
    "state_abbr" : "OR",
    "csv_header" : "data_year,population,total_agency_count,published_agency_count,active_agency_count,covered_agency_count,population_covered,agency_count_nibrs_submitting,agency_count_leoka_submitting,agency_count_pe_submitting,agency_count_srs_submitting"
  }, {
    "data_year" : 2014,
    "population" : 4190645,
    "total_agency_count" : 260,
    "published_agency_count" : 260,
    "active_agency_count" : 260,
    "covered_agency_count" : 0,
    "population_covered" : 0,
    "agency_count_nibrs_submitting" : 176,
    "agency_count_leoka_submitting" : 98,
    "agency_count_pe_submitting" : 260,
    "agency_count_srs_submitting" : 260,
    "state_id" : 41,
    "state_abbr" : "OR",
    "csv_header" : "data_year,population,total_agency_count,published_agency_count,active_agency_count,covered_agency_count,population_covered,agency_count_nibrs_submitting,agency_count_leoka_submitting,agency_count_pe_submitting,agency_count_srs_submitting"
  }, {
    "data_year" : 2013,
    "population" : 4760620,
    "total_agency_count" : 231,
    "published_agency_count" : 231,
    "active_agency_count" : 231,
    "covered_agency_count" : 0,
    "population_covered" : 0,
    "agency_count_nibrs_submitting" : 82,
    "agency_count_leoka_submitting" : 74,
    "agency_count_pe_submitting" : 231,
    "agency_count_srs_submitting" : 231,
    "state_id" : 41,
    "state_abbr" : "OR",
    "csv_header" : "data_year,population,total_agency_count,published_agency_count,active_agency_count,covered_agency_count,population_covered,agency_count_nibrs_submitting,agency_count_leoka_submitting,agency_count_pe_submitting,agency_count_srs_submitting"
  }, {
    "data_year" : 2012,
    "population" : 4051669,
    "total_agency_count" : 171,
    "published_agency_count" : 171,
    "active_agency_count" : 171,
    "covered_agency_count" : 0,
    "population_covered" : 0,
    "agency_count_nibrs_submitting" : 74,
    "agency_count_leoka_submitting" : 71,
    "agency_count_pe_submitting" : 171,
    "agency_count_srs_submitting" : 171,
    "state_id" : 41,
    "state_abbr" : "OR",
    "csv_header" : "data_year,population,total_agency_count,published_agency_count,active_agency_count,covered_agency_count,population_covered,agency_count_nibrs_submitting,agency_count_leoka_submitting,agency_count_pe_submitting,agency_count_srs_submitting"
  }, {
    "data_year" : 2011,
    "population" : 4075981,
    "total_agency_count" : 174,
    "published_agency_count" : 174,
    "active_agency_count" : 174,
    "covered_agency_count" : 0,
    "population_covered" : 0,
    "agency_count_nibrs_submitting" : 68,
    "agency_count_leoka_submitting" : 66,
    "agency_count_pe_submitting" : 174,
    "agency_count_srs_submitting" : 174,
    "state_id" : 41,
    "state_abbr" : "OR",
    "csv_header" : "data_year,population,total_agency_count,published_agency_count,active_agency_count,covered_agency_count,population_covered,agency_count_nibrs_submitting,agency_count_leoka_submitting,agency_count_pe_submitting,agency_count_srs_submitting"
  }, {
    "data_year" : 2010,
    "population" : 4009668,
    "total_agency_count" : 166,
    "published_agency_count" : 166,
    "active_agency_count" : 166,
    "covered_agency_count" : 0,
    "population_covered" : 0,
    "agency_count_nibrs_submitting" : 66,
    "agency_count_leoka_submitting" : 65,
    "agency_count_pe_submitting" : 166,
    "agency_count_srs_submitting" : 166,
    "state_id" : 41,
    "state_abbr" : "OR",
    "csv_header" : "data_year,population,total_agency_count,published_agency_count,active_agency_count,covered_agency_count,population_covered,agency_count_nibrs_submitting,agency_count_leoka_submitting,agency_count_pe_submitting,agency_count_srs_submitting"
  }, {
    "data_year" : 2009,
    "population" : 3929223,
    "total_agency_count" : 170,
    "published_agency_count" : 170,
    "active_agency_count" : 170,
    "covered_agency_count" : 0,
    "population_covered" : 0,
    "agency_count_nibrs_submitting" : 61,
    "agency_count_leoka_submitting" : 61,
    "agency_count_pe_submitting" : 170,
    "agency_count_srs_submitting" : 170,
    "state_id" : 41,
    "state_abbr" : "OR",
    "csv_header" : "data_year,population,total_agency_count,published_agency_count,active_agency_count,covered_agency_count,population_covered,agency_count_nibrs_submitting,agency_count_leoka_submitting,agency_count_pe_submitting,agency_count_srs_submitting"
  }, {
    "data_year" : 2008,
    "population" : 4012947,
    "total_agency_count" : 166,
    "published_agency_count" : 166,
    "active_agency_count" : 166,
    "covered_agency_count" : 0,
    "population_covered" : 0,
    "agency_count_nibrs_submitting" : 57,
    "agency_count_leoka_submitting" : 0,
    "agency_count_pe_submitting" : 166,
    "agency_count_srs_submitting" : 166,
    "state_id" : 41,
    "state_abbr" : "OR",
    "csv_header" : "data_year,population,total_agency_count,published_agency_count,active_agency_count,covered_agency_count,population_covered,agency_count_nibrs_submitting,agency_count_leoka_submitting,agency_count_pe_submitting,agency_count_srs_submitting"
  }, {
    "data_year" : 2007,
    "population" : 3853651,
    "total_agency_count" : 201,
    "published_agency_count" : 201,
    "active_agency_count" : 201,
    "covered_agency_count" : 0,
    "population_covered" : 0,
    "agency_count_nibrs_submitting" : 56,
    "agency_count_leoka_submitting" : 0,
    "agency_count_pe_submitting" : 201,
    "agency_count_srs_submitting" : 201,
    "state_id" : 41,
    "state_abbr" : "OR",
    "csv_header" : "data_year,population,total_agency_count,published_agency_count,active_agency_count,covered_agency_count,population_covered,agency_count_nibrs_submitting,agency_count_leoka_submitting,agency_count_pe_submitting,agency_count_srs_submitting"
  }, {
    "data_year" : 2006,
    "population" : 3757824,
    "total_agency_count" : 167,
    "published_agency_count" : 167,
    "active_agency_count" : 167,
    "covered_agency_count" : 0,
    "population_covered" : 0,
    "agency_count_nibrs_submitting" : 56,
    "agency_count_leoka_submitting" : 0,
    "agency_count_pe_submitting" : 167,
    "agency_count_srs_submitting" : 167,
    "state_id" : 41,
    "state_abbr" : "OR",
    "csv_header" : "data_year,population,total_agency_count,published_agency_count,active_agency_count,covered_agency_count,population_covered,agency_count_nibrs_submitting,agency_count_leoka_submitting,agency_count_pe_submitting,agency_count_srs_submitting"
  }, {
    "data_year" : 2005,
    "population" : 3947974,
    "total_agency_count" : 208,
    "published_agency_count" : 208,
    "active_agency_count" : 208,
    "covered_agency_count" : 0,
    "population_covered" : 0,
    "agency_count_nibrs_submitting" : 54,
    "agency_count_leoka_submitting" : 0,
    "agency_count_pe_submitting" : 208,
    "agency_count_srs_submitting" : 208,
    "state_id" : 41,
    "state_abbr" : "OR",
    "csv_header" : "data_year,population,total_agency_count,published_agency_count,active_agency_count,covered_agency_count,population_covered,agency_count_nibrs_submitting,agency_count_leoka_submitting,agency_count_pe_submitting,agency_count_srs_submitting"
  }, {
    "data_year" : 2004,
    "population" : 3862177,
    "total_agency_count" : 204,
    "published_agency_count" : 204,
    "active_agency_count" : 204,
    "covered_agency_count" : 0,
    "population_covered" : 0,
    "agency_count_nibrs_submitting" : 46,
    "agency_count_leoka_submitting" : 0,
    "agency_count_pe_submitting" : 204,
    "agency_count_srs_submitting" : 204,
    "state_id" : 41,
    "state_abbr" : "OR",
    "csv_header" : "data_year,population,total_agency_count,published_agency_count,active_agency_count,covered_agency_count,population_covered,agency_count_nibrs_submitting,agency_count_leoka_submitting,agency_count_pe_submitting,agency_count_srs_submitting"
  }, {
    "data_year" : 2003,
    "population" : 4145309,
    "total_agency_count" : 185,
    "published_agency_count" : 185,
    "active_agency_count" : 185,
    "covered_agency_count" : 0,
    "population_covered" : 0,
    "agency_count_nibrs_submitting" : 61,
    "agency_count_leoka_submitting" : 0,
    "agency_count_pe_submitting" : 185,
    "agency_count_srs_submitting" : 185,
    "state_id" : 41,
    "state_abbr" : "OR",
    "csv_header" : "data_year,population,total_agency_count,published_agency_count,active_agency_count,covered_agency_count,population_covered,agency_count_nibrs_submitting,agency_count_leoka_submitting,agency_count_pe_submitting,agency_count_srs_submitting"
  }, {
    "data_year" : 2002,
    "population" : 4035837,
    "total_agency_count" : 173,
    "published_agency_count" : 173,
    "active_agency_count" : 173,
    "covered_agency_count" : 0,
    "population_covered" : 0,
    "agency_count_nibrs_submitting" : 11,
    "agency_count_leoka_submitting" : 0,
    "agency_count_pe_submitting" : 173,
    "agency_count_srs_submitting" : 173,
    "state_id" : 41,
    "state_abbr" : "OR",
    "csv_header" : "data_year,population,total_agency_count,published_agency_count,active_agency_count,covered_agency_count,population_covered,agency_count_nibrs_submitting,agency_count_leoka_submitting,agency_count_pe_submitting,agency_count_srs_submitting"
  }, {
    "data_year" : 2001,
    "population" : 3915270,
    "total_agency_count" : 209,
    "published_agency_count" : 209,
    "active_agency_count" : 209,
    "covered_agency_count" : 0,
    "population_covered" : 0,
    "agency_count_nibrs_submitting" : 4,
    "agency_count_leoka_submitting" : 0,
    "agency_count_pe_submitting" : 209,
    "agency_count_srs_submitting" : 209,
    "state_id" : 41,
    "state_abbr" : "OR",
    "csv_header" : "data_year,population,total_agency_count,published_agency_count,active_agency_count,covered_agency_count,population_covered,agency_count_nibrs_submitting,agency_count_leoka_submitting,agency_count_pe_submitting,agency_count_srs_submitting"
  }, {
    "data_year" : 2000,
    "population" : 3707332,
    "total_agency_count" : 207,
    "published_agency_count" : 207,
    "active_agency_count" : 207,
    "covered_agency_count" : 0,
    "population_covered" : 0,
    "agency_count_nibrs_submitting" : 4,
    "agency_count_leoka_submitting" : 0,
    "agency_count_pe_submitting" : 207,
    "agency_count_srs_submitting" : 207,
    "state_id" : 41,
    "state_abbr" : "OR",
    "csv_header" : "data_year,population,total_agency_count,published_agency_count,active_agency_count,covered_agency_count,population_covered,agency_count_nibrs_submitting,agency_count_leoka_submitting,agency_count_pe_submitting,agency_count_srs_submitting"
  } ],
  "pagination" : {
    "count" : 25,
    "page" : 0,
    "pages" : 2,
    "per_page" : 20
  }
}