{
  "results" : [ {
    "data_year" : 2019,
    "population" : 13544685,
    "total_agency_count" : 0,
    "published_agency_count" : 0,
    "active_agency_count" : 0,
    "covered_agency_count" : 0,
    "population_covered" : 0,
    "agency_count_nibrs_submitting" : 0,
    "agency_count_leoka_submitting" : 0,
    "agency_count_pe_submitting" : 0,
    "agency_count_srs_submitting" : 0,
    "state_id" : 42,
    "state_abbr" : "PA",
    "csv_header" : "data_year,population,total_agency_count,published_agency_count,active_agency_count,covered_agency_count,population_covered,agency_count_nibrs_submitting,agency_count_leoka_submitting,agency_count_pe_submitting,agency_count_srs_submitting"
  }, {
    "data_year" : 2018,
    "population" : 13737404,
    "total_agency_count" : 1233,
    "published_agency_count" : 1233,
    "active_agency_count" : 1233,
    "covered_agency_count" : 0,
    "population_covered" : 0,
    "agency_count_nibrs_submitting" : 46,
    "agency_count_leoka_submitting" : 52,
    "agency_count_pe_submitting" : 1233,
    "agency_count_srs_submitting" : 1233,
    "state_id" : 42,
    "state_abbr" : "PA",
    "csv_header" : "data_year,population,total_agency_count,published_agency_count,active_agency_count,covered_agency_count,population_covered,agency_count_nibrs_submitting,agency_count_leoka_submitting,agency_count_pe_submitting,agency_count_srs_submitting"
  }, {
    "data_year" : 2017,
    "population" : 13544685,
    "total_agency_count" : 1489,
    "published_agency_count" : 1489,
    "active_agency_count" : 1489,
    "covered_agency_count" : 0,
    "population_covered" : 0,
    "agency_count_nibrs_submitting" : 29,
    "agency_count_leoka_submitting" : 38,
    "agency_count_pe_submitting" : 1489,
    "agency_count_srs_submitting" : 1489,
    "state_id" : 42,
    "state_abbr" : "PA",
    "csv_header" : "data_year,population,total_agency_count,published_agency_count,active_agency_count,covered_agency_count,population_covered,agency_count_nibrs_submitting,agency_count_leoka_submitting,agency_count_pe_submitting,agency_count_srs_submitting"
  }, {
    "data_year" : 2016,
    "population" : 13568823,
    "total_agency_count" : 1506,
    "published_agency_count" : 1506,
    "active_agency_count" : 1506,
    "covered_agency_count" : 0,
    "population_covered" : 0,
    "agency_count_nibrs_submitting" : 32,
    "agency_count_leoka_submitting" : 41,
    "agency_count_pe_submitting" : 1506,
    "agency_count_srs_submitting" : 1506,
    "state_id" : 42,
    "state_abbr" : "PA",
    "csv_header" : "data_year,population,total_agency_count,published_agency_count,active_agency_count,covered_agency_count,population_covered,agency_count_nibrs_submitting,agency_count_leoka_submitting,agency_count_pe_submitting,agency_count_srs_submitting"
  }, {
    "data_year" : 2015,
    "population" : 13591826,
    "total_agency_count" : 1514,
    "published_agency_count" : 1514,
    "active_agency_count" : 1514,
    "covered_agency_count" : 0,
    "population_covered" : 0,
    "agency_count_nibrs_submitting" : 34,
    "agency_count_leoka_submitting" : 42,
    "agency_count_pe_submitting" : 1514,
    "agency_count_srs_submitting" : 1514,
    "state_id" : 42,
    "state_abbr" : "PA",
    "csv_header" : "data_year,population,total_agency_count,published_agency_count,active_agency_count,covered_agency_count,population_covered,agency_count_nibrs_submitting,agency_count_leoka_submitting,agency_count_pe_submitting,agency_count_srs_submitting"
  }, {
    "data_year" : 2014,
    "population" : 13533820,
    "total_agency_count" : 1508,
    "published_agency_count" : 1508,
    "active_agency_count" : 1508,
    "covered_agency_count" : 0,
    "population_covered" : 0,
    "agency_count_nibrs_submitting" : 27,
    "agency_count_leoka_submitting" : 32,
    "agency_count_pe_submitting" : 1508,
    "agency_count_srs_submitting" : 1508,
    "state_id" : 42,
    "state_abbr" : "PA",
    "csv_header" : "data_year,population,total_agency_count,published_agency_count,active_agency_count,covered_agency_count,population_covered,agency_count_nibrs_submitting,agency_count_leoka_submitting,agency_count_pe_submitting,agency_count_srs_submitting"
  }, {
    "data_year" : 2013,
    "population" : 13646721,
    "total_agency_count" : 1499,
    "published_agency_count" : 1499,
    "active_agency_count" : 1499,
    "covered_agency_count" : 0,
    "population_covered" : 0,
    "agency_count_nibrs_submitting" : 33,
    "agency_count_leoka_submitting" : 44,
    "agency_count_pe_submitting" : 1499,
    "agency_count_srs_submitting" : 1499,
    "state_id" : 42,
    "state_abbr" : "PA",
    "csv_header" : "data_year,population,total_agency_count,published_agency_count,active_agency_count,covered_agency_count,population_covered,agency_count_nibrs_submitting,agency_count_leoka_submitting,agency_count_pe_submitting,agency_count_srs_submitting"
  }, {
    "data_year" : 2012,
    "population" : 13531293,
    "total_agency_count" : 1432,
    "published_agency_count" : 1432,
    "active_agency_count" : 1432,
    "covered_agency_count" : 0,
    "population_covered" : 0,
    "agency_count_nibrs_submitting" : 4,
    "agency_count_leoka_submitting" : 15,
    "agency_count_pe_submitting" : 1432,
    "agency_count_srs_submitting" : 1432,
    "state_id" : 42,
    "state_abbr" : "PA",
    "csv_header" : "data_year,population,total_agency_count,published_agency_count,active_agency_count,covered_agency_count,population_covered,agency_count_nibrs_submitting,agency_count_leoka_submitting,agency_count_pe_submitting,agency_count_srs_submitting"
  }, {
    "data_year" : 2011,
    "population" : 13368601,
    "total_agency_count" : 1430,
    "published_agency_count" : 1429,
    "active_agency_count" : 1429,
    "covered_agency_count" : 0,
    "population_covered" : 0,
    "agency_count_nibrs_submitting" : 0,
    "agency_count_leoka_submitting" : 14,
    "agency_count_pe_submitting" : 1430,
    "agency_count_srs_submitting" : 1430,
    "state_id" : 42,
    "state_abbr" : "PA",
    "csv_header" : "data_year,population,total_agency_count,published_agency_count,active_agency_count,covered_agency_count,population_covered,agency_count_nibrs_submitting,agency_count_leoka_submitting,agency_count_pe_submitting,agency_count_srs_submitting"
  }, {
    "data_year" : 2010,
    "population" : 13447912,
    "total_agency_count" : 1400,
    "published_agency_count" : 1400,
    "active_agency_count" : 1400,
    "covered_agency_count" : 0,
    "population_covered" : 0,
    "agency_count_nibrs_submitting" : 0,
    "agency_count_leoka_submitting" : 14,
    "agency_count_pe_submitting" : 1400,
    "agency_count_srs_submitting" : 1400,
    "state_id" : 42,
    "state_abbr" : "PA",
    "csv_header" : "data_year,population,total_agency_count,published_agency_count,active_agency_count,covered_agency_count,population_covered,agency_count_nibrs_submitting,agency_count_leoka_submitting,agency_count_pe_submitting,agency_count_srs_submitting"
  }, {
    "data_year" : 2009,
    "population" : 13559554,
    "total_agency_count" : 1347,
    "published_agency_count" : 1347,
    "active_agency_count" : 1347,
    "covered_agency_count" : 0,
    "population_covered" : 0,
    "agency_count_nibrs_submitting" : 0,
    "agency_count_leoka_submitting" : 14,
    "agency_count_pe_submitting" : 1347,
    "agency_count_srs_submitting" : 1347,
    "state_id" : 42,
    "state_abbr" : "PA",
    "csv_header" : "data_year,population,total_agency_count,published_agency_count,active_agency_count,covered_agency_count,population_covered,agency_count_nibrs_submitting,agency_count_leoka_submitting,agency_count_pe_submitting,agency_count_srs_submitting"
  }, {
    "data_year" : 2008,
    "population" : 13294374,
    "total_agency_count" : 1260,
    "published_agency_count" : 1260,
    "active_agency_count" : 1260,
    "covered_agency_count" : 0,
    "population_covered" : 0,
    "agency_count_nibrs_submitting" : 0,
    "agency_count_leoka_submitting" : 14,
    "agency_count_pe_submitting" : 1260,
    "agency_count_srs_submitting" : 1260,
    "state_id" : 42,
    "state_abbr" : "PA",
    "csv_header" : "data_year,population,total_agency_count,published_agency_count,active_agency_count,covered_agency_count,population_covered,agency_count_nibrs_submitting,agency_count_leoka_submitting,agency_count_pe_submitting,agency_count_srs_submitting"
  }, {
    "data_year" : 2007,
    "population" : 13504531,
    "total_agency_count" : 1253,
    "published_agency_count" : 1253,
    "active_agency_count" : 1253,
    "covered_agency_count" : 0,
    "population_covered" : 0,
    "agency_count_nibrs_submitting" : 0,
    "agency_count_leoka_submitting" : 14,
    "agency_count_pe_submitting" : 1253,
    "agency_count_srs_submitting" : 1253,
    "state_id" : 42,
    "state_abbr" : "PA",
    "csv_header" : "data_year,population,total_agency_count,published_agency_count,active_agency_count,covered_agency_count,population_covered,agency_count_nibrs_submitting,agency_count_leoka_submitting,agency_count_pe_submitting,agency_count_srs_submitting"
  }, {
    "data_year" : 2006,
    "population" : 13651092,
    "total_agency_count" : 1073,
    "published_agency_count" : 1072,
    "active_agency_count" : 1072,
    "covered_agency_count" : 0,
    "population_covered" : 0,
    "agency_count_nibrs_submitting" : 0,
    "agency_count_leoka_submitting" : 14,
    "agency_count_pe_submitting" : 1073,
    "agency_count_srs_submitting" : 1073,
    "state_id" : 42,
    "state_abbr" : "PA",
    "csv_header" : "data_year,population,total_agency_count,published_agency_count,active_agency_count,covered_agency_count,population_covered,agency_count_nibrs_submitting,agency_count_leoka_submitting,agency_count_pe_submitting,agency_count_srs_submitting"
  }, {
    "data_year" : 2005,
    "population" : 13646947,
    "total_agency_count" : 981,
    "published_agency_count" : 981,
    "active_agency_count" : 981,
    "covered_agency_count" : 0,
    "population_covered" : 0,
    "agency_count_nibrs_submitting" : 0,
    "agency_count_leoka_submitting" : 0,
    "agency_count_pe_submitting" : 981,
    "agency_count_srs_submitting" : 981,
    "state_id" : 42,
    "state_abbr" : "PA",
    "csv_header" : "data_year,population,total_agency_count,published_agency_count,active_agency_count,covered_agency_count,population_covered,agency_count_nibrs_submitting,agency_count_leoka_submitting,agency_count_pe_submitting,agency_count_srs_submitting"
  }, {
    "data_year" : 2004,
    "population" : 13499967,
    "total_agency_count" : 923,
    "published_agency_count" : 923,
    "active_agency_count" : 923,
    "covered_agency_count" : 0,
    "population_covered" : 0,
    "agency_count_nibrs_submitting" : 0,
    "agency_count_leoka_submitting" : 0,
    "agency_count_pe_submitting" : 923,
    "agency_count_srs_submitting" : 923,
    "state_id" : 42,
    "state_abbr" : "PA",
    "csv_header" : "data_year,population,total_agency_count,published_agency_count,active_agency_count,covered_agency_count,population_covered,agency_count_nibrs_submitting,agency_count_leoka_submitting,agency_count_pe_submitting,agency_count_srs_submitting"
  }, {
    "data_year" : 2003,
    "population" : 13597864,
    "total_agency_count" : 890,
    "published_agency_count" : 890,
    "active_agency_count" : 890,
    "covered_agency_count" : 0,
    "population_covered" : 0,
    "agency_count_nibrs_submitting" : 0,
    "agency_count_leoka_submitting" : 0,
    "agency_count_pe_submitting" : 890,
    "agency_count_srs_submitting" : 890,
    "state_id" : 42,
    "state_abbr" : "PA",
    "csv_header" : "data_year,population,total_agency_count,published_agency_count,active_agency_count,covered_agency_count,population_covered,agency_count_nibrs_submitting,agency_count_leoka_submitting,agency_count_pe_submitting,agency_count_srs_submitting"
  }, {
    "data_year" : 2002,
    "population" : 13315544,
    "total_agency_count" : 923,
    "published_agency_count" : 923,
    "active_agency_count" : 923,
    "covered_agency_count" : 0,
    "population_covered" : 0,
    "agency_count_nibrs_submitting" : 0,
    "agency_count_leoka_submitting" : 0,
    "agency_count_pe_submitting" : 923,
    "agency_count_srs_submitting" : 923,
    "state_id" : 42,
    "state_abbr" : "PA",
    "csv_header" : "data_year,population,total_agency_count,published_agency_count,active_agency_count,covered_agency_count,population_covered,agency_count_nibrs_submitting,agency_count_leoka_submitting,agency_count_pe_submitting,agency_count_srs_submitting"
  }, {
    "data_year" : 2001,
    "population" : 13710584,
    "total_agency_count" : 852,
    "published_agency_count" : 852,
    "active_agency_count" : 852,
    "covered_agency_count" : 0,
    "population_covered" : 0,
    "agency_count_nibrs_submitting" : 0,
    "agency_count_leoka_submitting" : 0,
    "agency_count_pe_submitting" : 852,
    "agency_count_srs_submitting" : 852,
    "state_id" : 42,
    "state_abbr" : "PA",
    "csv_header" : "data_year,population,total_agency_count,published_agency_count,active_agency_count,covered_agency_count,population_covered,agency_count_nibrs_submitting,agency_count_leoka_submitting,agency_count_pe_submitting,agency_count_srs_submitting"
  }, {
    "data_year" : 2000,
    "population" : 14316569,
    "total_agency_count" : 1009,
    "published_agency_count" : 1009,
    "active_agency_count" : 1009,
    "covered_agency_count" : 0,
    "population_covered" : 0,
    "agency_count_nibrs_submitting" : 0,
    "agency_count_leoka_submitting" : 0,
    "agency_count_pe_submitting" : 1009,
    "agency_count_srs_submitting" : 1009,
    "state_id" : 42,
    "state_abbr" : "PA",
    "csv_header" : "data_year,population,total_agency_count,published_agency_count,active_agency_count,covered_agency_count,population_covered,agency_count_nibrs_submitting,agency_count_leoka_submitting,agency_count_pe_submitting,agency_count_srs_submitting"
  } ],
  "pagination" : {
    "count" : 25,
    "page" : 0,
    "pages" : 2,
    "per_page" : 20
  }
}