{
  "results" : [ {
    "data_year" : 2019,
    "population" : 1066209,
    "total_agency_count" : 0,
    "published_agency_count" : 0,
    "active_agency_count" : 0,
    "covered_agency_count" : 0,
    "population_covered" : 0,
    "agency_count_nibrs_submitting" : 0,
    "agency_count_leoka_submitting" : 0,
    "agency_count_pe_submitting" : 0,
    "agency_count_srs_submitting" : 0,
    "state_id" : 44,
    "state_abbr" : "RI",
    "csv_header" : "data_year,population,total_agency_count,published_agency_count,active_agency_count,covered_agency_count,population_covered,agency_count_nibrs_submitting,agency_count_leoka_submitting,agency_count_pe_submitting,agency_count_srs_submitting"
  }, {
    "data_year" : 2018,
    "population" : 2116700,
    "total_agency_count" : 88,
    "published_agency_count" : 88,
    "active_agency_count" : 88,
    "covered_agency_count" : 0,
    "population_covered" : 0,
    "agency_count_nibrs_submitting" : 88,
    "agency_count_leoka_submitting" : 88,
    "agency_count_pe_submitting" : 88,
    "agency_count_srs_submitting" : 88,
    "state_id" : 44,
    "state_abbr" : "RI",
    "csv_header" : "data_year,population,total_agency_count,published_agency_count,active_agency_count,covered_agency_count,population_covered,agency_count_nibrs_submitting,agency_count_leoka_submitting,agency_count_pe_submitting,agency_count_srs_submitting"
  }, {
    "data_year" : 2017,
    "population" : 1066209,
    "total_agency_count" : 49,
    "published_agency_count" : 49,
    "active_agency_count" : 49,
    "covered_agency_count" : 0,
    "population_covered" : 0,
    "agency_count_nibrs_submitting" : 47,
    "agency_count_leoka_submitting" : 47,
    "agency_count_pe_submitting" : 49,
    "agency_count_srs_submitting" : 49,
    "state_id" : 44,
    "state_abbr" : "RI",
    "csv_header" : "data_year,population,total_agency_count,published_agency_count,active_agency_count,covered_agency_count,population_covered,agency_count_nibrs_submitting,agency_count_leoka_submitting,agency_count_pe_submitting,agency_count_srs_submitting"
  }, {
    "data_year" : 2016,
    "population" : 1063042,
    "total_agency_count" : 49,
    "published_agency_count" : 49,
    "active_agency_count" : 49,
    "covered_agency_count" : 0,
    "population_covered" : 0,
    "agency_count_nibrs_submitting" : 47,
    "agency_count_leoka_submitting" : 47,
    "agency_count_pe_submitting" : 49,
    "agency_count_srs_submitting" : 49,
    "state_id" : 44,
    "state_abbr" : "RI",
    "csv_header" : "data_year,population,total_agency_count,published_agency_count,active_agency_count,covered_agency_count,population_covered,agency_count_nibrs_submitting,agency_count_leoka_submitting,agency_count_pe_submitting,agency_count_srs_submitting"
  }, {
    "data_year" : 2015,
    "population" : 1062954,
    "total_agency_count" : 49,
    "published_agency_count" : 49,
    "active_agency_count" : 49,
    "covered_agency_count" : 0,
    "population_covered" : 0,
    "agency_count_nibrs_submitting" : 47,
    "agency_count_leoka_submitting" : 47,
    "agency_count_pe_submitting" : 49,
    "agency_count_srs_submitting" : 49,
    "state_id" : 44,
    "state_abbr" : "RI",
    "csv_header" : "data_year,population,total_agency_count,published_agency_count,active_agency_count,covered_agency_count,population_covered,agency_count_nibrs_submitting,agency_count_leoka_submitting,agency_count_pe_submitting,agency_count_srs_submitting"
  }, {
    "data_year" : 2014,
    "population" : 1061770,
    "total_agency_count" : 49,
    "published_agency_count" : 49,
    "active_agency_count" : 49,
    "covered_agency_count" : 0,
    "population_covered" : 0,
    "agency_count_nibrs_submitting" : 47,
    "agency_count_leoka_submitting" : 47,
    "agency_count_pe_submitting" : 49,
    "agency_count_srs_submitting" : 49,
    "state_id" : 44,
    "state_abbr" : "RI",
    "csv_header" : "data_year,population,total_agency_count,published_agency_count,active_agency_count,covered_agency_count,population_covered,agency_count_nibrs_submitting,agency_count_leoka_submitting,agency_count_pe_submitting,agency_count_srs_submitting"
  }, {
    "data_year" : 2013,
    "population" : 1058087,
    "total_agency_count" : 49,
    "published_agency_count" : 49,
    "active_agency_count" : 49,
    "covered_agency_count" : 0,
    "population_covered" : 0,
    "agency_count_nibrs_submitting" : 47,
    "agency_count_leoka_submitting" : 47,
    "agency_count_pe_submitting" : 49,
    "agency_count_srs_submitting" : 49,
    "state_id" : 44,
    "state_abbr" : "RI",
    "csv_header" : "data_year,population,total_agency_count,published_agency_count,active_agency_count,covered_agency_count,population_covered,agency_count_nibrs_submitting,agency_count_leoka_submitting,agency_count_pe_submitting,agency_count_srs_submitting"
  }, {
    "data_year" : 2012,
    "population" : 1075009,
    "total_agency_count" : 50,
    "published_agency_count" : 50,
    "active_agency_count" : 50,
    "covered_agency_count" : 0,
    "population_covered" : 0,
    "agency_count_nibrs_submitting" : 48,
    "agency_count_leoka_submitting" : 48,
    "agency_count_pe_submitting" : 50,
    "agency_count_srs_submitting" : 50,
    "state_id" : 44,
    "state_abbr" : "RI",
    "csv_header" : "data_year,population,total_agency_count,published_agency_count,active_agency_count,covered_agency_count,population_covered,agency_count_nibrs_submitting,agency_count_leoka_submitting,agency_count_pe_submitting,agency_count_srs_submitting"
  }, {
    "data_year" : 2011,
    "population" : 1057719,
    "total_agency_count" : 49,
    "published_agency_count" : 49,
    "active_agency_count" : 49,
    "covered_agency_count" : 0,
    "population_covered" : 0,
    "agency_count_nibrs_submitting" : 47,
    "agency_count_leoka_submitting" : 47,
    "agency_count_pe_submitting" : 49,
    "agency_count_srs_submitting" : 49,
    "state_id" : 44,
    "state_abbr" : "RI",
    "csv_header" : "data_year,population,total_agency_count,published_agency_count,active_agency_count,covered_agency_count,population_covered,agency_count_nibrs_submitting,agency_count_leoka_submitting,agency_count_pe_submitting,agency_count_srs_submitting"
  }, {
    "data_year" : 2010,
    "population" : 1058992,
    "total_agency_count" : 49,
    "published_agency_count" : 49,
    "active_agency_count" : 49,
    "covered_agency_count" : 0,
    "population_covered" : 0,
    "agency_count_nibrs_submitting" : 47,
    "agency_count_leoka_submitting" : 47,
    "agency_count_pe_submitting" : 49,
    "agency_count_srs_submitting" : 49,
    "state_id" : 44,
    "state_abbr" : "RI",
    "csv_header" : "data_year,population,total_agency_count,published_agency_count,active_agency_count,covered_agency_count,population_covered,agency_count_nibrs_submitting,agency_count_leoka_submitting,agency_count_pe_submitting,agency_count_srs_submitting"
  }, {
    "data_year" : 2009,
    "population" : 1059442,
    "total_agency_count" : 49,
    "published_agency_count" : 49,
    "active_agency_count" : 49,
    "covered_agency_count" : 0,
    "population_covered" : 0,
    "agency_count_nibrs_submitting" : 47,
    "agency_count_leoka_submitting" : 47,
    "agency_count_pe_submitting" : 49,
    "agency_count_srs_submitting" : 49,
    "state_id" : 44,
    "state_abbr" : "RI",
    "csv_header" : "data_year,population,total_agency_count,published_agency_count,active_agency_count,covered_agency_count,population_covered,agency_count_nibrs_submitting,agency_count_leoka_submitting,agency_count_pe_submitting,agency_count_srs_submitting"
  }, {
    "data_year" : 2008,
    "population" : 1056952,
    "total_agency_count" : 49,
    "published_agency_count" : 49,
    "active_agency_count" : 49,
    "covered_agency_count" : 0,
    "population_covered" : 0,
    "agency_count_nibrs_submitting" : 47,
    "agency_count_leoka_submitting" : 47,
    "agency_count_pe_submitting" : 49,
    "agency_count_srs_submitting" : 49,
    "state_id" : 44,
    "state_abbr" : "RI",
    "csv_header" : "data_year,population,total_agency_count,published_agency_count,active_agency_count,covered_agency_count,population_covered,agency_count_nibrs_submitting,agency_count_leoka_submitting,agency_count_pe_submitting,agency_count_srs_submitting"
  }, {
    "data_year" : 2007,
    "population" : 1086975,
    "total_agency_count" : 49,
    "published_agency_count" : 49,
    "active_agency_count" : 49,
    "covered_agency_count" : 0,
    "population_covered" : 0,
    "agency_count_nibrs_submitting" : 47,
    "agency_count_leoka_submitting" : 47,
    "agency_count_pe_submitting" : 49,
    "agency_count_srs_submitting" : 49,
    "state_id" : 44,
    "state_abbr" : "RI",
    "csv_header" : "data_year,population,total_agency_count,published_agency_count,active_agency_count,covered_agency_count,population_covered,agency_count_nibrs_submitting,agency_count_leoka_submitting,agency_count_pe_submitting,agency_count_srs_submitting"
  }, {
    "data_year" : 2006,
    "population" : 1073858,
    "total_agency_count" : 48,
    "published_agency_count" : 48,
    "active_agency_count" : 48,
    "covered_agency_count" : 0,
    "population_covered" : 0,
    "agency_count_nibrs_submitting" : 46,
    "agency_count_leoka_submitting" : 45,
    "agency_count_pe_submitting" : 48,
    "agency_count_srs_submitting" : 48,
    "state_id" : 44,
    "state_abbr" : "RI",
    "csv_header" : "data_year,population,total_agency_count,published_agency_count,active_agency_count,covered_agency_count,population_covered,agency_count_nibrs_submitting,agency_count_leoka_submitting,agency_count_pe_submitting,agency_count_srs_submitting"
  }, {
    "data_year" : 2005,
    "population" : 1082452,
    "total_agency_count" : 49,
    "published_agency_count" : 49,
    "active_agency_count" : 49,
    "covered_agency_count" : 0,
    "population_covered" : 0,
    "agency_count_nibrs_submitting" : 45,
    "agency_count_leoka_submitting" : 45,
    "agency_count_pe_submitting" : 49,
    "agency_count_srs_submitting" : 49,
    "state_id" : 44,
    "state_abbr" : "RI",
    "csv_header" : "data_year,population,total_agency_count,published_agency_count,active_agency_count,covered_agency_count,population_covered,agency_count_nibrs_submitting,agency_count_leoka_submitting,agency_count_pe_submitting,agency_count_srs_submitting"
  }, {
    "data_year" : 2004,
    "population" : 1730885,
    "total_agency_count" : 79,
    "published_agency_count" : 79,
    "active_agency_count" : 79,
    "covered_agency_count" : 0,
    "population_covered" : 0,
    "agency_count_nibrs_submitting" : 66,
    "agency_count_leoka_submitting" : 0,
    "agency_count_pe_submitting" : 79,
    "agency_count_srs_submitting" : 79,
    "state_id" : 44,
    "state_abbr" : "RI",
    "csv_header" : "data_year,population,total_agency_count,published_agency_count,active_agency_count,covered_agency_count,population_covered,agency_count_nibrs_submitting,agency_count_leoka_submitting,agency_count_pe_submitting,agency_count_srs_submitting"
  }, {
    "data_year" : 2003,
    "population" : 1082476,
    "total_agency_count" : 48,
    "published_agency_count" : 48,
    "active_agency_count" : 48,
    "covered_agency_count" : 0,
    "population_covered" : 0,
    "agency_count_nibrs_submitting" : 3,
    "agency_count_leoka_submitting" : 0,
    "agency_count_pe_submitting" : 48,
    "agency_count_srs_submitting" : 48,
    "state_id" : 44,
    "state_abbr" : "RI",
    "csv_header" : "data_year,population,total_agency_count,published_agency_count,active_agency_count,covered_agency_count,population_covered,agency_count_nibrs_submitting,agency_count_leoka_submitting,agency_count_pe_submitting,agency_count_srs_submitting"
  }, {
    "data_year" : 2002,
    "population" : 1075893,
    "total_agency_count" : 48,
    "published_agency_count" : 48,
    "active_agency_count" : 48,
    "covered_agency_count" : 0,
    "population_covered" : 0,
    "agency_count_nibrs_submitting" : 1,
    "agency_count_leoka_submitting" : 0,
    "agency_count_pe_submitting" : 48,
    "agency_count_srs_submitting" : 48,
    "state_id" : 44,
    "state_abbr" : "RI",
    "csv_header" : "data_year,population,total_agency_count,published_agency_count,active_agency_count,covered_agency_count,population_covered,agency_count_nibrs_submitting,agency_count_leoka_submitting,agency_count_pe_submitting,agency_count_srs_submitting"
  }, {
    "data_year" : 2001,
    "population" : 1065026,
    "total_agency_count" : 48,
    "published_agency_count" : 48,
    "active_agency_count" : 48,
    "covered_agency_count" : 0,
    "population_covered" : 0,
    "agency_count_nibrs_submitting" : 0,
    "agency_count_leoka_submitting" : 0,
    "agency_count_pe_submitting" : 48,
    "agency_count_srs_submitting" : 48,
    "state_id" : 44,
    "state_abbr" : "RI",
    "csv_header" : "data_year,population,total_agency_count,published_agency_count,active_agency_count,covered_agency_count,population_covered,agency_count_nibrs_submitting,agency_count_leoka_submitting,agency_count_pe_submitting,agency_count_srs_submitting"
  }, {
    "data_year" : 2000,
    "population" : 1054364,
    "total_agency_count" : 48,
    "published_agency_count" : 48,
    "active_agency_count" : 48,
    "covered_agency_count" : 0,
    "population_covered" : 0,
    "agency_count_nibrs_submitting" : 0,
    "agency_count_leoka_submitting" : 0,
    "agency_count_pe_submitting" : 48,
    "agency_count_srs_submitting" : 48,
    "state_id" : 44,
    "state_abbr" : "RI",
    "csv_header" : "data_year,population,total_agency_count,published_agency_count,active_agency_count,covered_agency_count,population_covered,agency_count_nibrs_submitting,agency_count_leoka_submitting,agency_count_pe_submitting,agency_count_srs_submitting"
  } ],
  "pagination" : {
    "count" : 25,
    "page" : 0,
    "pages" : 2,
    "per_page" : 20
  }
}