{
  "results" : [ {
    "data_year" : 2019,
    "population" : 5047242,
    "total_agency_count" : 0,
    "published_agency_count" : 0,
    "active_agency_count" : 0,
    "covered_agency_count" : 0,
    "population_covered" : 0,
    "agency_count_nibrs_submitting" : 0,
    "agency_count_leoka_submitting" : 0,
    "agency_count_pe_submitting" : 0,
    "agency_count_srs_submitting" : 0,
    "state_id" : 45,
    "state_abbr" : "SC",
    "csv_header" : "data_year,population,total_agency_count,published_agency_count,active_agency_count,covered_agency_count,population_covered,agency_count_nibrs_submitting,agency_count_leoka_submitting,agency_count_pe_submitting,agency_count_srs_submitting"
  }, {
    "data_year" : 2018,
    "population" : 9817071,
    "total_agency_count" : 818,
    "published_agency_count" : 816,
    "active_agency_count" : 818,
    "covered_agency_count" : 2,
    "population_covered" : 0,
    "agency_count_nibrs_submitting" : 818,
    "agency_count_leoka_submitting" : 792,
    "agency_count_pe_submitting" : 818,
    "agency_count_srs_submitting" : 818,
    "state_id" : 45,
    "state_abbr" : "SC",
    "csv_header" : "data_year,population,total_agency_count,published_agency_count,active_agency_count,covered_agency_count,population_covered,agency_count_nibrs_submitting,agency_count_leoka_submitting,agency_count_pe_submitting,agency_count_srs_submitting"
  }, {
    "data_year" : 2017,
    "population" : 5067266,
    "total_agency_count" : 446,
    "published_agency_count" : 446,
    "active_agency_count" : 446,
    "covered_agency_count" : 0,
    "population_covered" : 0,
    "agency_count_nibrs_submitting" : 446,
    "agency_count_leoka_submitting" : 433,
    "agency_count_pe_submitting" : 446,
    "agency_count_srs_submitting" : 446,
    "state_id" : 45,
    "state_abbr" : "SC",
    "csv_header" : "data_year,population,total_agency_count,published_agency_count,active_agency_count,covered_agency_count,population_covered,agency_count_nibrs_submitting,agency_count_leoka_submitting,agency_count_pe_submitting,agency_count_srs_submitting"
  }, {
    "data_year" : 2016,
    "population" : 5004023,
    "total_agency_count" : 452,
    "published_agency_count" : 452,
    "active_agency_count" : 452,
    "covered_agency_count" : 0,
    "population_covered" : 0,
    "agency_count_nibrs_submitting" : 452,
    "agency_count_leoka_submitting" : 439,
    "agency_count_pe_submitting" : 452,
    "agency_count_srs_submitting" : 452,
    "state_id" : 45,
    "state_abbr" : "SC",
    "csv_header" : "data_year,population,total_agency_count,published_agency_count,active_agency_count,covered_agency_count,population_covered,agency_count_nibrs_submitting,agency_count_leoka_submitting,agency_count_pe_submitting,agency_count_srs_submitting"
  }, {
    "data_year" : 2015,
    "population" : 5151240,
    "total_agency_count" : 453,
    "published_agency_count" : 453,
    "active_agency_count" : 453,
    "covered_agency_count" : 0,
    "population_covered" : 0,
    "agency_count_nibrs_submitting" : 453,
    "agency_count_leoka_submitting" : 437,
    "agency_count_pe_submitting" : 453,
    "agency_count_srs_submitting" : 453,
    "state_id" : 45,
    "state_abbr" : "SC",
    "csv_header" : "data_year,population,total_agency_count,published_agency_count,active_agency_count,covered_agency_count,population_covered,agency_count_nibrs_submitting,agency_count_leoka_submitting,agency_count_pe_submitting,agency_count_srs_submitting"
  }, {
    "data_year" : 2014,
    "population" : 5144856,
    "total_agency_count" : 568,
    "published_agency_count" : 568,
    "active_agency_count" : 568,
    "covered_agency_count" : 0,
    "population_covered" : 0,
    "agency_count_nibrs_submitting" : 568,
    "agency_count_leoka_submitting" : 538,
    "agency_count_pe_submitting" : 568,
    "agency_count_srs_submitting" : 568,
    "state_id" : 45,
    "state_abbr" : "SC",
    "csv_header" : "data_year,population,total_agency_count,published_agency_count,active_agency_count,covered_agency_count,population_covered,agency_count_nibrs_submitting,agency_count_leoka_submitting,agency_count_pe_submitting,agency_count_srs_submitting"
  }, {
    "data_year" : 2013,
    "population" : 4955909,
    "total_agency_count" : 561,
    "published_agency_count" : 561,
    "active_agency_count" : 561,
    "covered_agency_count" : 0,
    "population_covered" : 0,
    "agency_count_nibrs_submitting" : 559,
    "agency_count_leoka_submitting" : 525,
    "agency_count_pe_submitting" : 561,
    "agency_count_srs_submitting" : 561,
    "state_id" : 45,
    "state_abbr" : "SC",
    "csv_header" : "data_year,population,total_agency_count,published_agency_count,active_agency_count,covered_agency_count,population_covered,agency_count_nibrs_submitting,agency_count_leoka_submitting,agency_count_pe_submitting,agency_count_srs_submitting"
  }, {
    "data_year" : 2012,
    "population" : 4780421,
    "total_agency_count" : 437,
    "published_agency_count" : 437,
    "active_agency_count" : 437,
    "covered_agency_count" : 0,
    "population_covered" : 0,
    "agency_count_nibrs_submitting" : 435,
    "agency_count_leoka_submitting" : 419,
    "agency_count_pe_submitting" : 437,
    "agency_count_srs_submitting" : 437,
    "state_id" : 45,
    "state_abbr" : "SC",
    "csv_header" : "data_year,population,total_agency_count,published_agency_count,active_agency_count,covered_agency_count,population_covered,agency_count_nibrs_submitting,agency_count_leoka_submitting,agency_count_pe_submitting,agency_count_srs_submitting"
  }, {
    "data_year" : 2011,
    "population" : 4730938,
    "total_agency_count" : 433,
    "published_agency_count" : 433,
    "active_agency_count" : 433,
    "covered_agency_count" : 0,
    "population_covered" : 0,
    "agency_count_nibrs_submitting" : 433,
    "agency_count_leoka_submitting" : 427,
    "agency_count_pe_submitting" : 433,
    "agency_count_srs_submitting" : 433,
    "state_id" : 45,
    "state_abbr" : "SC",
    "csv_header" : "data_year,population,total_agency_count,published_agency_count,active_agency_count,covered_agency_count,population_covered,agency_count_nibrs_submitting,agency_count_leoka_submitting,agency_count_pe_submitting,agency_count_srs_submitting"
  }, {
    "data_year" : 2010,
    "population" : 4671586,
    "total_agency_count" : 457,
    "published_agency_count" : 457,
    "active_agency_count" : 457,
    "covered_agency_count" : 0,
    "population_covered" : 0,
    "agency_count_nibrs_submitting" : 456,
    "agency_count_leoka_submitting" : 431,
    "agency_count_pe_submitting" : 457,
    "agency_count_srs_submitting" : 457,
    "state_id" : 45,
    "state_abbr" : "SC",
    "csv_header" : "data_year,population,total_agency_count,published_agency_count,active_agency_count,covered_agency_count,population_covered,agency_count_nibrs_submitting,agency_count_leoka_submitting,agency_count_pe_submitting,agency_count_srs_submitting"
  }, {
    "data_year" : 2009,
    "population" : 4642382,
    "total_agency_count" : 521,
    "published_agency_count" : 521,
    "active_agency_count" : 521,
    "covered_agency_count" : 0,
    "population_covered" : 0,
    "agency_count_nibrs_submitting" : 520,
    "agency_count_leoka_submitting" : 461,
    "agency_count_pe_submitting" : 521,
    "agency_count_srs_submitting" : 521,
    "state_id" : 45,
    "state_abbr" : "SC",
    "csv_header" : "data_year,population,total_agency_count,published_agency_count,active_agency_count,covered_agency_count,population_covered,agency_count_nibrs_submitting,agency_count_leoka_submitting,agency_count_pe_submitting,agency_count_srs_submitting"
  }, {
    "data_year" : 2008,
    "population" : 4525957,
    "total_agency_count" : 513,
    "published_agency_count" : 513,
    "active_agency_count" : 513,
    "covered_agency_count" : 0,
    "population_covered" : 0,
    "agency_count_nibrs_submitting" : 511,
    "agency_count_leoka_submitting" : 425,
    "agency_count_pe_submitting" : 513,
    "agency_count_srs_submitting" : 513,
    "state_id" : 45,
    "state_abbr" : "SC",
    "csv_header" : "data_year,population,total_agency_count,published_agency_count,active_agency_count,covered_agency_count,population_covered,agency_count_nibrs_submitting,agency_count_leoka_submitting,agency_count_pe_submitting,agency_count_srs_submitting"
  }, {
    "data_year" : 2007,
    "population" : 4432638,
    "total_agency_count" : 483,
    "published_agency_count" : 483,
    "active_agency_count" : 483,
    "covered_agency_count" : 0,
    "population_covered" : 0,
    "agency_count_nibrs_submitting" : 482,
    "agency_count_leoka_submitting" : 377,
    "agency_count_pe_submitting" : 483,
    "agency_count_srs_submitting" : 483,
    "state_id" : 45,
    "state_abbr" : "SC",
    "csv_header" : "data_year,population,total_agency_count,published_agency_count,active_agency_count,covered_agency_count,population_covered,agency_count_nibrs_submitting,agency_count_leoka_submitting,agency_count_pe_submitting,agency_count_srs_submitting"
  }, {
    "data_year" : 2006,
    "population" : 4411430,
    "total_agency_count" : 537,
    "published_agency_count" : 537,
    "active_agency_count" : 537,
    "covered_agency_count" : 0,
    "population_covered" : 0,
    "agency_count_nibrs_submitting" : 533,
    "agency_count_leoka_submitting" : 0,
    "agency_count_pe_submitting" : 537,
    "agency_count_srs_submitting" : 537,
    "state_id" : 45,
    "state_abbr" : "SC",
    "csv_header" : "data_year,population,total_agency_count,published_agency_count,active_agency_count,covered_agency_count,population_covered,agency_count_nibrs_submitting,agency_count_leoka_submitting,agency_count_pe_submitting,agency_count_srs_submitting"
  }, {
    "data_year" : 2005,
    "population" : 4300414,
    "total_agency_count" : 613,
    "published_agency_count" : 613,
    "active_agency_count" : 613,
    "covered_agency_count" : 0,
    "population_covered" : 0,
    "agency_count_nibrs_submitting" : 609,
    "agency_count_leoka_submitting" : 0,
    "agency_count_pe_submitting" : 613,
    "agency_count_srs_submitting" : 613,
    "state_id" : 45,
    "state_abbr" : "SC",
    "csv_header" : "data_year,population,total_agency_count,published_agency_count,active_agency_count,covered_agency_count,population_covered,agency_count_nibrs_submitting,agency_count_leoka_submitting,agency_count_pe_submitting,agency_count_srs_submitting"
  }, {
    "data_year" : 2004,
    "population" : 4222566,
    "total_agency_count" : 504,
    "published_agency_count" : 504,
    "active_agency_count" : 504,
    "covered_agency_count" : 0,
    "population_covered" : 0,
    "agency_count_nibrs_submitting" : 501,
    "agency_count_leoka_submitting" : 0,
    "agency_count_pe_submitting" : 504,
    "agency_count_srs_submitting" : 504,
    "state_id" : 45,
    "state_abbr" : "SC",
    "csv_header" : "data_year,population,total_agency_count,published_agency_count,active_agency_count,covered_agency_count,population_covered,agency_count_nibrs_submitting,agency_count_leoka_submitting,agency_count_pe_submitting,agency_count_srs_submitting"
  }, {
    "data_year" : 2003,
    "population" : 4172489,
    "total_agency_count" : 509,
    "published_agency_count" : 509,
    "active_agency_count" : 509,
    "covered_agency_count" : 0,
    "population_covered" : 0,
    "agency_count_nibrs_submitting" : 506,
    "agency_count_leoka_submitting" : 0,
    "agency_count_pe_submitting" : 509,
    "agency_count_srs_submitting" : 509,
    "state_id" : 45,
    "state_abbr" : "SC",
    "csv_header" : "data_year,population,total_agency_count,published_agency_count,active_agency_count,covered_agency_count,population_covered,agency_count_nibrs_submitting,agency_count_leoka_submitting,agency_count_pe_submitting,agency_count_srs_submitting"
  }, {
    "data_year" : 2002,
    "population" : 4206042,
    "total_agency_count" : 543,
    "published_agency_count" : 543,
    "active_agency_count" : 543,
    "covered_agency_count" : 0,
    "population_covered" : 0,
    "agency_count_nibrs_submitting" : 540,
    "agency_count_leoka_submitting" : 0,
    "agency_count_pe_submitting" : 543,
    "agency_count_srs_submitting" : 543,
    "state_id" : 45,
    "state_abbr" : "SC",
    "csv_header" : "data_year,population,total_agency_count,published_agency_count,active_agency_count,covered_agency_count,population_covered,agency_count_nibrs_submitting,agency_count_leoka_submitting,agency_count_pe_submitting,agency_count_srs_submitting"
  }, {
    "data_year" : 2001,
    "population" : 4356270,
    "total_agency_count" : 420,
    "published_agency_count" : 420,
    "active_agency_count" : 420,
    "covered_agency_count" : 0,
    "population_covered" : 0,
    "agency_count_nibrs_submitting" : 418,
    "agency_count_leoka_submitting" : 0,
    "agency_count_pe_submitting" : 420,
    "agency_count_srs_submitting" : 420,
    "state_id" : 45,
    "state_abbr" : "SC",
    "csv_header" : "data_year,population,total_agency_count,published_agency_count,active_agency_count,covered_agency_count,population_covered,agency_count_nibrs_submitting,agency_count_leoka_submitting,agency_count_pe_submitting,agency_count_srs_submitting"
  }, {
    "data_year" : 2000,
    "population" : 4157030,
    "total_agency_count" : 538,
    "published_agency_count" : 538,
    "active_agency_count" : 538,
    "covered_agency_count" : 0,
    "population_covered" : 0,
    "agency_count_nibrs_submitting" : 534,
    "agency_count_leoka_submitting" : 0,
    "agency_count_pe_submitting" : 538,
    "agency_count_srs_submitting" : 538,
    "state_id" : 45,
    "state_abbr" : "SC",
    "csv_header" : "data_year,population,total_agency_count,published_agency_count,active_agency_count,covered_agency_count,population_covered,agency_count_nibrs_submitting,agency_count_leoka_submitting,agency_count_pe_submitting,agency_count_srs_submitting"
  } ],
  "pagination" : {
    "count" : 25,
    "page" : 0,
    "pages" : 2,
    "per_page" : 20
  }
}