{
  "results" : [ {
    "data_year" : 2019,
    "population" : 909430,
    "total_agency_count" : 0,
    "published_agency_count" : 0,
    "active_agency_count" : 0,
    "covered_agency_count" : 0,
    "population_covered" : 0,
    "agency_count_nibrs_submitting" : 0,
    "agency_count_leoka_submitting" : 0,
    "agency_count_pe_submitting" : 0,
    "agency_count_srs_submitting" : 0,
    "state_id" : 46,
    "state_abbr" : "SD",
    "csv_header" : "data_year,population,total_agency_count,published_agency_count,active_agency_count,covered_agency_count,population_covered,agency_count_nibrs_submitting,agency_count_leoka_submitting,agency_count_pe_submitting,agency_count_srs_submitting"
  }, {
    "data_year" : 2018,
    "population" : 1612078,
    "total_agency_count" : 122,
    "published_agency_count" : 122,
    "active_agency_count" : 122,
    "covered_agency_count" : 0,
    "population_covered" : 0,
    "agency_count_nibrs_submitting" : 122,
    "agency_count_leoka_submitting" : 122,
    "agency_count_pe_submitting" : 122,
    "agency_count_srs_submitting" : 122,
    "state_id" : 46,
    "state_abbr" : "SD",
    "csv_header" : "data_year,population,total_agency_count,published_agency_count,active_agency_count,covered_agency_count,population_covered,agency_count_nibrs_submitting,agency_count_leoka_submitting,agency_count_pe_submitting,agency_count_srs_submitting"
  }, {
    "data_year" : 2017,
    "population" : 909430,
    "total_agency_count" : 121,
    "published_agency_count" : 119,
    "active_agency_count" : 121,
    "covered_agency_count" : 2,
    "population_covered" : 1301,
    "agency_count_nibrs_submitting" : 113,
    "agency_count_leoka_submitting" : 103,
    "agency_count_pe_submitting" : 121,
    "agency_count_srs_submitting" : 121,
    "state_id" : 46,
    "state_abbr" : "SD",
    "csv_header" : "data_year,population,total_agency_count,published_agency_count,active_agency_count,covered_agency_count,population_covered,agency_count_nibrs_submitting,agency_count_leoka_submitting,agency_count_pe_submitting,agency_count_srs_submitting"
  }, {
    "data_year" : 2016,
    "population" : 938772,
    "total_agency_count" : 128,
    "published_agency_count" : 128,
    "active_agency_count" : 128,
    "covered_agency_count" : 0,
    "population_covered" : 0,
    "agency_count_nibrs_submitting" : 120,
    "agency_count_leoka_submitting" : 114,
    "agency_count_pe_submitting" : 128,
    "agency_count_srs_submitting" : 128,
    "state_id" : 46,
    "state_abbr" : "SD",
    "csv_header" : "data_year,population,total_agency_count,published_agency_count,active_agency_count,covered_agency_count,population_covered,agency_count_nibrs_submitting,agency_count_leoka_submitting,agency_count_pe_submitting,agency_count_srs_submitting"
  }, {
    "data_year" : 2015,
    "population" : 923323,
    "total_agency_count" : 128,
    "published_agency_count" : 128,
    "active_agency_count" : 128,
    "covered_agency_count" : 0,
    "population_covered" : 0,
    "agency_count_nibrs_submitting" : 120,
    "agency_count_leoka_submitting" : 114,
    "agency_count_pe_submitting" : 128,
    "agency_count_srs_submitting" : 128,
    "state_id" : 46,
    "state_abbr" : "SD",
    "csv_header" : "data_year,population,total_agency_count,published_agency_count,active_agency_count,covered_agency_count,population_covered,agency_count_nibrs_submitting,agency_count_leoka_submitting,agency_count_pe_submitting,agency_count_srs_submitting"
  }, {
    "data_year" : 2014,
    "population" : 892996,
    "total_agency_count" : 125,
    "published_agency_count" : 125,
    "active_agency_count" : 125,
    "covered_agency_count" : 0,
    "population_covered" : 0,
    "agency_count_nibrs_submitting" : 117,
    "agency_count_leoka_submitting" : 111,
    "agency_count_pe_submitting" : 125,
    "agency_count_srs_submitting" : 125,
    "state_id" : 46,
    "state_abbr" : "SD",
    "csv_header" : "data_year,population,total_agency_count,published_agency_count,active_agency_count,covered_agency_count,population_covered,agency_count_nibrs_submitting,agency_count_leoka_submitting,agency_count_pe_submitting,agency_count_srs_submitting"
  }, {
    "data_year" : 2013,
    "population" : 905027,
    "total_agency_count" : 129,
    "published_agency_count" : 129,
    "active_agency_count" : 129,
    "covered_agency_count" : 0,
    "population_covered" : 0,
    "agency_count_nibrs_submitting" : 121,
    "agency_count_leoka_submitting" : 113,
    "agency_count_pe_submitting" : 129,
    "agency_count_srs_submitting" : 129,
    "state_id" : 46,
    "state_abbr" : "SD",
    "csv_header" : "data_year,population,total_agency_count,published_agency_count,active_agency_count,covered_agency_count,population_covered,agency_count_nibrs_submitting,agency_count_leoka_submitting,agency_count_pe_submitting,agency_count_srs_submitting"
  }, {
    "data_year" : 2012,
    "population" : 873357,
    "total_agency_count" : 128,
    "published_agency_count" : 128,
    "active_agency_count" : 128,
    "covered_agency_count" : 0,
    "population_covered" : 0,
    "agency_count_nibrs_submitting" : 119,
    "agency_count_leoka_submitting" : 110,
    "agency_count_pe_submitting" : 128,
    "agency_count_srs_submitting" : 128,
    "state_id" : 46,
    "state_abbr" : "SD",
    "csv_header" : "data_year,population,total_agency_count,published_agency_count,active_agency_count,covered_agency_count,population_covered,agency_count_nibrs_submitting,agency_count_leoka_submitting,agency_count_pe_submitting,agency_count_srs_submitting"
  }, {
    "data_year" : 2011,
    "population" : 862783,
    "total_agency_count" : 125,
    "published_agency_count" : 125,
    "active_agency_count" : 125,
    "covered_agency_count" : 0,
    "population_covered" : 0,
    "agency_count_nibrs_submitting" : 116,
    "agency_count_leoka_submitting" : 107,
    "agency_count_pe_submitting" : 125,
    "agency_count_srs_submitting" : 125,
    "state_id" : 46,
    "state_abbr" : "SD",
    "csv_header" : "data_year,population,total_agency_count,published_agency_count,active_agency_count,covered_agency_count,population_covered,agency_count_nibrs_submitting,agency_count_leoka_submitting,agency_count_pe_submitting,agency_count_srs_submitting"
  }, {
    "data_year" : 2010,
    "population" : 918599,
    "total_agency_count" : 142,
    "published_agency_count" : 142,
    "active_agency_count" : 142,
    "covered_agency_count" : 0,
    "population_covered" : 0,
    "agency_count_nibrs_submitting" : 133,
    "agency_count_leoka_submitting" : 122,
    "agency_count_pe_submitting" : 142,
    "agency_count_srs_submitting" : 142,
    "state_id" : 46,
    "state_abbr" : "SD",
    "csv_header" : "data_year,population,total_agency_count,published_agency_count,active_agency_count,covered_agency_count,population_covered,agency_count_nibrs_submitting,agency_count_leoka_submitting,agency_count_pe_submitting,agency_count_srs_submitting"
  }, {
    "data_year" : 2009,
    "population" : 868101,
    "total_agency_count" : 132,
    "published_agency_count" : 132,
    "active_agency_count" : 132,
    "covered_agency_count" : 0,
    "population_covered" : 0,
    "agency_count_nibrs_submitting" : 123,
    "agency_count_leoka_submitting" : 110,
    "agency_count_pe_submitting" : 132,
    "agency_count_srs_submitting" : 132,
    "state_id" : 46,
    "state_abbr" : "SD",
    "csv_header" : "data_year,population,total_agency_count,published_agency_count,active_agency_count,covered_agency_count,population_covered,agency_count_nibrs_submitting,agency_count_leoka_submitting,agency_count_pe_submitting,agency_count_srs_submitting"
  }, {
    "data_year" : 2008,
    "population" : 947085,
    "total_agency_count" : 146,
    "published_agency_count" : 146,
    "active_agency_count" : 146,
    "covered_agency_count" : 0,
    "population_covered" : 0,
    "agency_count_nibrs_submitting" : 134,
    "agency_count_leoka_submitting" : 117,
    "agency_count_pe_submitting" : 146,
    "agency_count_srs_submitting" : 146,
    "state_id" : 46,
    "state_abbr" : "SD",
    "csv_header" : "data_year,population,total_agency_count,published_agency_count,active_agency_count,covered_agency_count,population_covered,agency_count_nibrs_submitting,agency_count_leoka_submitting,agency_count_pe_submitting,agency_count_srs_submitting"
  }, {
    "data_year" : 2007,
    "population" : 968744,
    "total_agency_count" : 145,
    "published_agency_count" : 145,
    "active_agency_count" : 145,
    "covered_agency_count" : 0,
    "population_covered" : 0,
    "agency_count_nibrs_submitting" : 133,
    "agency_count_leoka_submitting" : 108,
    "agency_count_pe_submitting" : 145,
    "agency_count_srs_submitting" : 145,
    "state_id" : 46,
    "state_abbr" : "SD",
    "csv_header" : "data_year,population,total_agency_count,published_agency_count,active_agency_count,covered_agency_count,population_covered,agency_count_nibrs_submitting,agency_count_leoka_submitting,agency_count_pe_submitting,agency_count_srs_submitting"
  }, {
    "data_year" : 2006,
    "population" : 1081334,
    "total_agency_count" : 145,
    "published_agency_count" : 145,
    "active_agency_count" : 145,
    "covered_agency_count" : 0,
    "population_covered" : 0,
    "agency_count_nibrs_submitting" : 127,
    "agency_count_leoka_submitting" : 84,
    "agency_count_pe_submitting" : 145,
    "agency_count_srs_submitting" : 145,
    "state_id" : 46,
    "state_abbr" : "SD",
    "csv_header" : "data_year,population,total_agency_count,published_agency_count,active_agency_count,covered_agency_count,population_covered,agency_count_nibrs_submitting,agency_count_leoka_submitting,agency_count_pe_submitting,agency_count_srs_submitting"
  }, {
    "data_year" : 2005,
    "population" : 1337112,
    "total_agency_count" : 164,
    "published_agency_count" : 164,
    "active_agency_count" : 164,
    "covered_agency_count" : 0,
    "population_covered" : 0,
    "agency_count_nibrs_submitting" : 151,
    "agency_count_leoka_submitting" : 0,
    "agency_count_pe_submitting" : 164,
    "agency_count_srs_submitting" : 164,
    "state_id" : 46,
    "state_abbr" : "SD",
    "csv_header" : "data_year,population,total_agency_count,published_agency_count,active_agency_count,covered_agency_count,population_covered,agency_count_nibrs_submitting,agency_count_leoka_submitting,agency_count_pe_submitting,agency_count_srs_submitting"
  }, {
    "data_year" : 2004,
    "population" : 1279886,
    "total_agency_count" : 188,
    "published_agency_count" : 188,
    "active_agency_count" : 188,
    "covered_agency_count" : 0,
    "population_covered" : 0,
    "agency_count_nibrs_submitting" : 171,
    "agency_count_leoka_submitting" : 0,
    "agency_count_pe_submitting" : 188,
    "agency_count_srs_submitting" : 188,
    "state_id" : 46,
    "state_abbr" : "SD",
    "csv_header" : "data_year,population,total_agency_count,published_agency_count,active_agency_count,covered_agency_count,population_covered,agency_count_nibrs_submitting,agency_count_leoka_submitting,agency_count_pe_submitting,agency_count_srs_submitting"
  }, {
    "data_year" : 2003,
    "population" : 818874,
    "total_agency_count" : 136,
    "published_agency_count" : 136,
    "active_agency_count" : 136,
    "covered_agency_count" : 0,
    "population_covered" : 0,
    "agency_count_nibrs_submitting" : 124,
    "agency_count_leoka_submitting" : 0,
    "agency_count_pe_submitting" : 136,
    "agency_count_srs_submitting" : 136,
    "state_id" : 46,
    "state_abbr" : "SD",
    "csv_header" : "data_year,population,total_agency_count,published_agency_count,active_agency_count,covered_agency_count,population_covered,agency_count_nibrs_submitting,agency_count_leoka_submitting,agency_count_pe_submitting,agency_count_srs_submitting"
  }, {
    "data_year" : 2002,
    "population" : 981716,
    "total_agency_count" : 114,
    "published_agency_count" : 114,
    "active_agency_count" : 114,
    "covered_agency_count" : 0,
    "population_covered" : 0,
    "agency_count_nibrs_submitting" : 100,
    "agency_count_leoka_submitting" : 0,
    "agency_count_pe_submitting" : 114,
    "agency_count_srs_submitting" : 114,
    "state_id" : 46,
    "state_abbr" : "SD",
    "csv_header" : "data_year,population,total_agency_count,published_agency_count,active_agency_count,covered_agency_count,population_covered,agency_count_nibrs_submitting,agency_count_leoka_submitting,agency_count_pe_submitting,agency_count_srs_submitting"
  }, {
    "data_year" : 2001,
    "population" : 1103452,
    "total_agency_count" : 124,
    "published_agency_count" : 124,
    "active_agency_count" : 124,
    "covered_agency_count" : 0,
    "population_covered" : 0,
    "agency_count_nibrs_submitting" : 107,
    "agency_count_leoka_submitting" : 0,
    "agency_count_pe_submitting" : 124,
    "agency_count_srs_submitting" : 124,
    "state_id" : 46,
    "state_abbr" : "SD",
    "csv_header" : "data_year,population,total_agency_count,published_agency_count,active_agency_count,covered_agency_count,population_covered,agency_count_nibrs_submitting,agency_count_leoka_submitting,agency_count_pe_submitting,agency_count_srs_submitting"
  }, {
    "data_year" : 2000,
    "population" : 903042,
    "total_agency_count" : 118,
    "published_agency_count" : 118,
    "active_agency_count" : 118,
    "covered_agency_count" : 0,
    "population_covered" : 0,
    "agency_count_nibrs_submitting" : 98,
    "agency_count_leoka_submitting" : 0,
    "agency_count_pe_submitting" : 118,
    "agency_count_srs_submitting" : 118,
    "state_id" : 46,
    "state_abbr" : "SD",
    "csv_header" : "data_year,population,total_agency_count,published_agency_count,active_agency_count,covered_agency_count,population_covered,agency_count_nibrs_submitting,agency_count_leoka_submitting,agency_count_pe_submitting,agency_count_srs_submitting"
  } ],
  "pagination" : {
    "count" : 25,
    "page" : 0,
    "pages" : 2,
    "per_page" : 20
  }
}