{
  "results" : [ {
    "data_year" : 2019,
    "population" : 6734436,
    "total_agency_count" : 0,
    "published_agency_count" : 0,
    "active_agency_count" : 0,
    "covered_agency_count" : 0,
    "population_covered" : 0,
    "agency_count_nibrs_submitting" : 0,
    "agency_count_leoka_submitting" : 0,
    "agency_count_pe_submitting" : 0,
    "agency_count_srs_submitting" : 0,
    "state_id" : 47,
    "state_abbr" : "TN",
    "csv_header" : "data_year,population,total_agency_count,published_agency_count,active_agency_count,covered_agency_count,population_covered,agency_count_nibrs_submitting,agency_count_leoka_submitting,agency_count_pe_submitting,agency_count_srs_submitting"
  }, {
    "data_year" : 2018,
    "population" : 13454685,
    "total_agency_count" : 937,
    "published_agency_count" : 925,
    "active_agency_count" : 937,
    "covered_agency_count" : 12,
    "population_covered" : 4702,
    "agency_count_nibrs_submitting" : 937,
    "agency_count_leoka_submitting" : 933,
    "agency_count_pe_submitting" : 937,
    "agency_count_srs_submitting" : 937,
    "state_id" : 47,
    "state_abbr" : "TN",
    "csv_header" : "data_year,population,total_agency_count,published_agency_count,active_agency_count,covered_agency_count,population_covered,agency_count_nibrs_submitting,agency_count_leoka_submitting,agency_count_pe_submitting,agency_count_srs_submitting"
  }, {
    "data_year" : 2017,
    "population" : 6734436,
    "total_agency_count" : 473,
    "published_agency_count" : 468,
    "active_agency_count" : 472,
    "covered_agency_count" : 4,
    "population_covered" : 1813,
    "agency_count_nibrs_submitting" : 472,
    "agency_count_leoka_submitting" : 471,
    "agency_count_pe_submitting" : 473,
    "agency_count_srs_submitting" : 473,
    "state_id" : 47,
    "state_abbr" : "TN",
    "csv_header" : "data_year,population,total_agency_count,published_agency_count,active_agency_count,covered_agency_count,population_covered,agency_count_nibrs_submitting,agency_count_leoka_submitting,agency_count_pe_submitting,agency_count_srs_submitting"
  }, {
    "data_year" : 2016,
    "population" : 6675824,
    "total_agency_count" : 472,
    "published_agency_count" : 472,
    "active_agency_count" : 472,
    "covered_agency_count" : 0,
    "population_covered" : 0,
    "agency_count_nibrs_submitting" : 472,
    "agency_count_leoka_submitting" : 468,
    "agency_count_pe_submitting" : 472,
    "agency_count_srs_submitting" : 472,
    "state_id" : 47,
    "state_abbr" : "TN",
    "csv_header" : "data_year,population,total_agency_count,published_agency_count,active_agency_count,covered_agency_count,population_covered,agency_count_nibrs_submitting,agency_count_leoka_submitting,agency_count_pe_submitting,agency_count_srs_submitting"
  }, {
    "data_year" : 2015,
    "population" : 6663647,
    "total_agency_count" : 486,
    "published_agency_count" : 486,
    "active_agency_count" : 486,
    "covered_agency_count" : 0,
    "population_covered" : 0,
    "agency_count_nibrs_submitting" : 486,
    "agency_count_leoka_submitting" : 484,
    "agency_count_pe_submitting" : 486,
    "agency_count_srs_submitting" : 486,
    "state_id" : 47,
    "state_abbr" : "TN",
    "csv_header" : "data_year,population,total_agency_count,published_agency_count,active_agency_count,covered_agency_count,population_covered,agency_count_nibrs_submitting,agency_count_leoka_submitting,agency_count_pe_submitting,agency_count_srs_submitting"
  }, {
    "data_year" : 2014,
    "population" : 6565813,
    "total_agency_count" : 468,
    "published_agency_count" : 468,
    "active_agency_count" : 468,
    "covered_agency_count" : 0,
    "population_covered" : 0,
    "agency_count_nibrs_submitting" : 468,
    "agency_count_leoka_submitting" : 466,
    "agency_count_pe_submitting" : 468,
    "agency_count_srs_submitting" : 468,
    "state_id" : 47,
    "state_abbr" : "TN",
    "csv_header" : "data_year,population,total_agency_count,published_agency_count,active_agency_count,covered_agency_count,population_covered,agency_count_nibrs_submitting,agency_count_leoka_submitting,agency_count_pe_submitting,agency_count_srs_submitting"
  }, {
    "data_year" : 2013,
    "population" : 6647278,
    "total_agency_count" : 469,
    "published_agency_count" : 469,
    "active_agency_count" : 469,
    "covered_agency_count" : 0,
    "population_covered" : 0,
    "agency_count_nibrs_submitting" : 469,
    "agency_count_leoka_submitting" : 467,
    "agency_count_pe_submitting" : 469,
    "agency_count_srs_submitting" : 469,
    "state_id" : 47,
    "state_abbr" : "TN",
    "csv_header" : "data_year,population,total_agency_count,published_agency_count,active_agency_count,covered_agency_count,population_covered,agency_count_nibrs_submitting,agency_count_leoka_submitting,agency_count_pe_submitting,agency_count_srs_submitting"
  }, {
    "data_year" : 2012,
    "population" : 6489696,
    "total_agency_count" : 464,
    "published_agency_count" : 464,
    "active_agency_count" : 464,
    "covered_agency_count" : 0,
    "population_covered" : 0,
    "agency_count_nibrs_submitting" : 464,
    "agency_count_leoka_submitting" : 462,
    "agency_count_pe_submitting" : 464,
    "agency_count_srs_submitting" : 464,
    "state_id" : 47,
    "state_abbr" : "TN",
    "csv_header" : "data_year,population,total_agency_count,published_agency_count,active_agency_count,covered_agency_count,population_covered,agency_count_nibrs_submitting,agency_count_leoka_submitting,agency_count_pe_submitting,agency_count_srs_submitting"
  }, {
    "data_year" : 2011,
    "population" : 6438708,
    "total_agency_count" : 472,
    "published_agency_count" : 472,
    "active_agency_count" : 472,
    "covered_agency_count" : 0,
    "population_covered" : 0,
    "agency_count_nibrs_submitting" : 472,
    "agency_count_leoka_submitting" : 469,
    "agency_count_pe_submitting" : 472,
    "agency_count_srs_submitting" : 472,
    "state_id" : 47,
    "state_abbr" : "TN",
    "csv_header" : "data_year,population,total_agency_count,published_agency_count,active_agency_count,covered_agency_count,population_covered,agency_count_nibrs_submitting,agency_count_leoka_submitting,agency_count_pe_submitting,agency_count_srs_submitting"
  }, {
    "data_year" : 2010,
    "population" : 6359488,
    "total_agency_count" : 469,
    "published_agency_count" : 469,
    "active_agency_count" : 469,
    "covered_agency_count" : 0,
    "population_covered" : 0,
    "agency_count_nibrs_submitting" : 469,
    "agency_count_leoka_submitting" : 464,
    "agency_count_pe_submitting" : 469,
    "agency_count_srs_submitting" : 469,
    "state_id" : 47,
    "state_abbr" : "TN",
    "csv_header" : "data_year,population,total_agency_count,published_agency_count,active_agency_count,covered_agency_count,population_covered,agency_count_nibrs_submitting,agency_count_leoka_submitting,agency_count_pe_submitting,agency_count_srs_submitting"
  }, {
    "data_year" : 2009,
    "population" : 6312836,
    "total_agency_count" : 463,
    "published_agency_count" : 463,
    "active_agency_count" : 463,
    "covered_agency_count" : 0,
    "population_covered" : 0,
    "agency_count_nibrs_submitting" : 463,
    "agency_count_leoka_submitting" : 461,
    "agency_count_pe_submitting" : 463,
    "agency_count_srs_submitting" : 463,
    "state_id" : 47,
    "state_abbr" : "TN",
    "csv_header" : "data_year,population,total_agency_count,published_agency_count,active_agency_count,covered_agency_count,population_covered,agency_count_nibrs_submitting,agency_count_leoka_submitting,agency_count_pe_submitting,agency_count_srs_submitting"
  }, {
    "data_year" : 2008,
    "population" : 6243278,
    "total_agency_count" : 467,
    "published_agency_count" : 467,
    "active_agency_count" : 467,
    "covered_agency_count" : 0,
    "population_covered" : 0,
    "agency_count_nibrs_submitting" : 467,
    "agency_count_leoka_submitting" : 457,
    "agency_count_pe_submitting" : 467,
    "agency_count_srs_submitting" : 467,
    "state_id" : 47,
    "state_abbr" : "TN",
    "csv_header" : "data_year,population,total_agency_count,published_agency_count,active_agency_count,covered_agency_count,population_covered,agency_count_nibrs_submitting,agency_count_leoka_submitting,agency_count_pe_submitting,agency_count_srs_submitting"
  }, {
    "data_year" : 2007,
    "population" : 6218821,
    "total_agency_count" : 466,
    "published_agency_count" : 466,
    "active_agency_count" : 466,
    "covered_agency_count" : 0,
    "population_covered" : 0,
    "agency_count_nibrs_submitting" : 466,
    "agency_count_leoka_submitting" : 457,
    "agency_count_pe_submitting" : 466,
    "agency_count_srs_submitting" : 466,
    "state_id" : 47,
    "state_abbr" : "TN",
    "csv_header" : "data_year,population,total_agency_count,published_agency_count,active_agency_count,covered_agency_count,population_covered,agency_count_nibrs_submitting,agency_count_leoka_submitting,agency_count_pe_submitting,agency_count_srs_submitting"
  }, {
    "data_year" : 2006,
    "population" : 6098211,
    "total_agency_count" : 463,
    "published_agency_count" : 463,
    "active_agency_count" : 463,
    "covered_agency_count" : 0,
    "population_covered" : 0,
    "agency_count_nibrs_submitting" : 463,
    "agency_count_leoka_submitting" : 453,
    "agency_count_pe_submitting" : 463,
    "agency_count_srs_submitting" : 463,
    "state_id" : 47,
    "state_abbr" : "TN",
    "csv_header" : "data_year,population,total_agency_count,published_agency_count,active_agency_count,covered_agency_count,population_covered,agency_count_nibrs_submitting,agency_count_leoka_submitting,agency_count_pe_submitting,agency_count_srs_submitting"
  }, {
    "data_year" : 2005,
    "population" : 6003334,
    "total_agency_count" : 468,
    "published_agency_count" : 468,
    "active_agency_count" : 468,
    "covered_agency_count" : 0,
    "population_covered" : 0,
    "agency_count_nibrs_submitting" : 468,
    "agency_count_leoka_submitting" : 450,
    "agency_count_pe_submitting" : 468,
    "agency_count_srs_submitting" : 468,
    "state_id" : 47,
    "state_abbr" : "TN",
    "csv_header" : "data_year,population,total_agency_count,published_agency_count,active_agency_count,covered_agency_count,population_covered,agency_count_nibrs_submitting,agency_count_leoka_submitting,agency_count_pe_submitting,agency_count_srs_submitting"
  }, {
    "data_year" : 2004,
    "population" : 5965778,
    "total_agency_count" : 456,
    "published_agency_count" : 456,
    "active_agency_count" : 456,
    "covered_agency_count" : 0,
    "population_covered" : 0,
    "agency_count_nibrs_submitting" : 456,
    "agency_count_leoka_submitting" : 430,
    "agency_count_pe_submitting" : 456,
    "agency_count_srs_submitting" : 456,
    "state_id" : 47,
    "state_abbr" : "TN",
    "csv_header" : "data_year,population,total_agency_count,published_agency_count,active_agency_count,covered_agency_count,population_covered,agency_count_nibrs_submitting,agency_count_leoka_submitting,agency_count_pe_submitting,agency_count_srs_submitting"
  }, {
    "data_year" : 2003,
    "population" : 5870029,
    "total_agency_count" : 459,
    "published_agency_count" : 459,
    "active_agency_count" : 459,
    "covered_agency_count" : 0,
    "population_covered" : 0,
    "agency_count_nibrs_submitting" : 459,
    "agency_count_leoka_submitting" : 0,
    "agency_count_pe_submitting" : 459,
    "agency_count_srs_submitting" : 459,
    "state_id" : 47,
    "state_abbr" : "TN",
    "csv_header" : "data_year,population,total_agency_count,published_agency_count,active_agency_count,covered_agency_count,population_covered,agency_count_nibrs_submitting,agency_count_leoka_submitting,agency_count_pe_submitting,agency_count_srs_submitting"
  }, {
    "data_year" : 2002,
    "population" : 5908860,
    "total_agency_count" : 525,
    "published_agency_count" : 525,
    "active_agency_count" : 525,
    "covered_agency_count" : 0,
    "population_covered" : 0,
    "agency_count_nibrs_submitting" : 525,
    "agency_count_leoka_submitting" : 0,
    "agency_count_pe_submitting" : 525,
    "agency_count_srs_submitting" : 525,
    "state_id" : 47,
    "state_abbr" : "TN",
    "csv_header" : "data_year,population,total_agency_count,published_agency_count,active_agency_count,covered_agency_count,population_covered,agency_count_nibrs_submitting,agency_count_leoka_submitting,agency_count_pe_submitting,agency_count_srs_submitting"
  }, {
    "data_year" : 2001,
    "population" : 5829420,
    "total_agency_count" : 481,
    "published_agency_count" : 481,
    "active_agency_count" : 481,
    "covered_agency_count" : 0,
    "population_covered" : 0,
    "agency_count_nibrs_submitting" : 481,
    "agency_count_leoka_submitting" : 0,
    "agency_count_pe_submitting" : 481,
    "agency_count_srs_submitting" : 481,
    "state_id" : 47,
    "state_abbr" : "TN",
    "csv_header" : "data_year,population,total_agency_count,published_agency_count,active_agency_count,covered_agency_count,population_covered,agency_count_nibrs_submitting,agency_count_leoka_submitting,agency_count_pe_submitting,agency_count_srs_submitting"
  }, {
    "data_year" : 2000,
    "population" : 7116382,
    "total_agency_count" : 506,
    "published_agency_count" : 506,
    "active_agency_count" : 506,
    "covered_agency_count" : 0,
    "population_covered" : 0,
    "agency_count_nibrs_submitting" : 505,
    "agency_count_leoka_submitting" : 0,
    "agency_count_pe_submitting" : 506,
    "agency_count_srs_submitting" : 506,
    "state_id" : 47,
    "state_abbr" : "TN",
    "csv_header" : "data_year,population,total_agency_count,published_agency_count,active_agency_count,covered_agency_count,population_covered,agency_count_nibrs_submitting,agency_count_leoka_submitting,agency_count_pe_submitting,agency_count_srs_submitting"
  } ],
  "pagination" : {
    "count" : 25,
    "page" : 0,
    "pages" : 2,
    "per_page" : 20
  }
}