{
  "results" : [ {
    "data_year" : 2019,
    "population" : 28390038,
    "total_agency_count" : 0,
    "published_agency_count" : 0,
    "active_agency_count" : 0,
    "covered_agency_count" : 0,
    "population_covered" : 0,
    "agency_count_nibrs_submitting" : 0,
    "agency_count_leoka_submitting" : 0,
    "agency_count_pe_submitting" : 0,
    "agency_count_srs_submitting" : 0,
    "state_id" : 48,
    "state_abbr" : "TX",
    "csv_header" : "data_year,population,total_agency_count,published_agency_count,active_agency_count,covered_agency_count,population_covered,agency_count_nibrs_submitting,agency_count_leoka_submitting,agency_count_pe_submitting,agency_count_srs_submitting"
  }, {
    "data_year" : 2018,
    "population" : 31906653,
    "total_agency_count" : 172,
    "published_agency_count" : 172,
    "active_agency_count" : 172,
    "covered_agency_count" : 0,
    "population_covered" : 0,
    "agency_count_nibrs_submitting" : 172,
    "agency_count_leoka_submitting" : 168,
    "agency_count_pe_submitting" : 172,
    "agency_count_srs_submitting" : 172,
    "state_id" : 48,
    "state_abbr" : "TX",
    "csv_header" : "data_year,population,total_agency_count,published_agency_count,active_agency_count,covered_agency_count,population_covered,agency_count_nibrs_submitting,agency_count_leoka_submitting,agency_count_pe_submitting,agency_count_srs_submitting"
  }, {
    "data_year" : 2017,
    "population" : 28467008,
    "total_agency_count" : 1022,
    "published_agency_count" : 1022,
    "active_agency_count" : 1022,
    "covered_agency_count" : 0,
    "population_covered" : 0,
    "agency_count_nibrs_submitting" : 162,
    "agency_count_leoka_submitting" : 146,
    "agency_count_pe_submitting" : 1022,
    "agency_count_srs_submitting" : 1022,
    "state_id" : 48,
    "state_abbr" : "TX",
    "csv_header" : "data_year,population,total_agency_count,published_agency_count,active_agency_count,covered_agency_count,population_covered,agency_count_nibrs_submitting,agency_count_leoka_submitting,agency_count_pe_submitting,agency_count_srs_submitting"
  }, {
    "data_year" : 2016,
    "population" : 28595659,
    "total_agency_count" : 1058,
    "published_agency_count" : 1058,
    "active_agency_count" : 1058,
    "covered_agency_count" : 0,
    "population_covered" : 0,
    "agency_count_nibrs_submitting" : 142,
    "agency_count_leoka_submitting" : 85,
    "agency_count_pe_submitting" : 1058,
    "agency_count_srs_submitting" : 1058,
    "state_id" : 48,
    "state_abbr" : "TX",
    "csv_header" : "data_year,population,total_agency_count,published_agency_count,active_agency_count,covered_agency_count,population_covered,agency_count_nibrs_submitting,agency_count_leoka_submitting,agency_count_pe_submitting,agency_count_srs_submitting"
  }, {
    "data_year" : 2015,
    "population" : 27719376,
    "total_agency_count" : 1031,
    "published_agency_count" : 1031,
    "active_agency_count" : 1031,
    "covered_agency_count" : 0,
    "population_covered" : 0,
    "agency_count_nibrs_submitting" : 92,
    "agency_count_leoka_submitting" : 83,
    "agency_count_pe_submitting" : 1031,
    "agency_count_srs_submitting" : 1031,
    "state_id" : 48,
    "state_abbr" : "TX",
    "csv_header" : "data_year,population,total_agency_count,published_agency_count,active_agency_count,covered_agency_count,population_covered,agency_count_nibrs_submitting,agency_count_leoka_submitting,agency_count_pe_submitting,agency_count_srs_submitting"
  }, {
    "data_year" : 2014,
    "population" : 27138232,
    "total_agency_count" : 1007,
    "published_agency_count" : 1007,
    "active_agency_count" : 1007,
    "covered_agency_count" : 0,
    "population_covered" : 0,
    "agency_count_nibrs_submitting" : 68,
    "agency_count_leoka_submitting" : 1,
    "agency_count_pe_submitting" : 1007,
    "agency_count_srs_submitting" : 1007,
    "state_id" : 48,
    "state_abbr" : "TX",
    "csv_header" : "data_year,population,total_agency_count,published_agency_count,active_agency_count,covered_agency_count,population_covered,agency_count_nibrs_submitting,agency_count_leoka_submitting,agency_count_pe_submitting,agency_count_srs_submitting"
  }, {
    "data_year" : 2013,
    "population" : 26899055,
    "total_agency_count" : 1020,
    "published_agency_count" : 1020,
    "active_agency_count" : 1020,
    "covered_agency_count" : 0,
    "population_covered" : 0,
    "agency_count_nibrs_submitting" : 65,
    "agency_count_leoka_submitting" : 0,
    "agency_count_pe_submitting" : 1020,
    "agency_count_srs_submitting" : 1020,
    "state_id" : 48,
    "state_abbr" : "TX",
    "csv_header" : "data_year,population,total_agency_count,published_agency_count,active_agency_count,covered_agency_count,population_covered,agency_count_nibrs_submitting,agency_count_leoka_submitting,agency_count_pe_submitting,agency_count_srs_submitting"
  }, {
    "data_year" : 2012,
    "population" : 26442919,
    "total_agency_count" : 1043,
    "published_agency_count" : 1043,
    "active_agency_count" : 1043,
    "covered_agency_count" : 0,
    "population_covered" : 0,
    "agency_count_nibrs_submitting" : 68,
    "agency_count_leoka_submitting" : 0,
    "agency_count_pe_submitting" : 1043,
    "agency_count_srs_submitting" : 1043,
    "state_id" : 48,
    "state_abbr" : "TX",
    "csv_header" : "data_year,population,total_agency_count,published_agency_count,active_agency_count,covered_agency_count,population_covered,agency_count_nibrs_submitting,agency_count_leoka_submitting,agency_count_pe_submitting,agency_count_srs_submitting"
  }, {
    "data_year" : 2011,
    "population" : 25986310,
    "total_agency_count" : 1041,
    "published_agency_count" : 1041,
    "active_agency_count" : 1041,
    "covered_agency_count" : 0,
    "population_covered" : 0,
    "agency_count_nibrs_submitting" : 62,
    "agency_count_leoka_submitting" : 0,
    "agency_count_pe_submitting" : 1041,
    "agency_count_srs_submitting" : 1041,
    "state_id" : 48,
    "state_abbr" : "TX",
    "csv_header" : "data_year,population,total_agency_count,published_agency_count,active_agency_count,covered_agency_count,population_covered,agency_count_nibrs_submitting,agency_count_leoka_submitting,agency_count_pe_submitting,agency_count_srs_submitting"
  }, {
    "data_year" : 2010,
    "population" : 25457599,
    "total_agency_count" : 1040,
    "published_agency_count" : 1040,
    "active_agency_count" : 1040,
    "covered_agency_count" : 0,
    "population_covered" : 0,
    "agency_count_nibrs_submitting" : 52,
    "agency_count_leoka_submitting" : 0,
    "agency_count_pe_submitting" : 1040,
    "agency_count_srs_submitting" : 1040,
    "state_id" : 48,
    "state_abbr" : "TX",
    "csv_header" : "data_year,population,total_agency_count,published_agency_count,active_agency_count,covered_agency_count,population_covered,agency_count_nibrs_submitting,agency_count_leoka_submitting,agency_count_pe_submitting,agency_count_srs_submitting"
  }, {
    "data_year" : 2009,
    "population" : 25114488,
    "total_agency_count" : 1033,
    "published_agency_count" : 1033,
    "active_agency_count" : 1033,
    "covered_agency_count" : 0,
    "population_covered" : 0,
    "agency_count_nibrs_submitting" : 52,
    "agency_count_leoka_submitting" : 0,
    "agency_count_pe_submitting" : 1033,
    "agency_count_srs_submitting" : 1033,
    "state_id" : 48,
    "state_abbr" : "TX",
    "csv_header" : "data_year,population,total_agency_count,published_agency_count,active_agency_count,covered_agency_count,population_covered,agency_count_nibrs_submitting,agency_count_leoka_submitting,agency_count_pe_submitting,agency_count_srs_submitting"
  }, {
    "data_year" : 2008,
    "population" : 24426780,
    "total_agency_count" : 1005,
    "published_agency_count" : 1005,
    "active_agency_count" : 1005,
    "covered_agency_count" : 0,
    "population_covered" : 0,
    "agency_count_nibrs_submitting" : 45,
    "agency_count_leoka_submitting" : 0,
    "agency_count_pe_submitting" : 1005,
    "agency_count_srs_submitting" : 1005,
    "state_id" : 48,
    "state_abbr" : "TX",
    "csv_header" : "data_year,population,total_agency_count,published_agency_count,active_agency_count,covered_agency_count,population_covered,agency_count_nibrs_submitting,agency_count_leoka_submitting,agency_count_pe_submitting,agency_count_srs_submitting"
  }, {
    "data_year" : 2007,
    "population" : 24858321,
    "total_agency_count" : 1010,
    "published_agency_count" : 1010,
    "active_agency_count" : 1010,
    "covered_agency_count" : 0,
    "population_covered" : 0,
    "agency_count_nibrs_submitting" : 43,
    "agency_count_leoka_submitting" : 0,
    "agency_count_pe_submitting" : 1010,
    "agency_count_srs_submitting" : 1010,
    "state_id" : 48,
    "state_abbr" : "TX",
    "csv_header" : "data_year,population,total_agency_count,published_agency_count,active_agency_count,covered_agency_count,population_covered,agency_count_nibrs_submitting,agency_count_leoka_submitting,agency_count_pe_submitting,agency_count_srs_submitting"
  }, {
    "data_year" : 2006,
    "population" : 23781113,
    "total_agency_count" : 1010,
    "published_agency_count" : 1010,
    "active_agency_count" : 1010,
    "covered_agency_count" : 0,
    "population_covered" : 0,
    "agency_count_nibrs_submitting" : 43,
    "agency_count_leoka_submitting" : 0,
    "agency_count_pe_submitting" : 1010,
    "agency_count_srs_submitting" : 1010,
    "state_id" : 48,
    "state_abbr" : "TX",
    "csv_header" : "data_year,population,total_agency_count,published_agency_count,active_agency_count,covered_agency_count,population_covered,agency_count_nibrs_submitting,agency_count_leoka_submitting,agency_count_pe_submitting,agency_count_srs_submitting"
  }, {
    "data_year" : 2005,
    "population" : 23606976,
    "total_agency_count" : 1005,
    "published_agency_count" : 1005,
    "active_agency_count" : 1005,
    "covered_agency_count" : 0,
    "population_covered" : 0,
    "agency_count_nibrs_submitting" : 36,
    "agency_count_leoka_submitting" : 0,
    "agency_count_pe_submitting" : 1005,
    "agency_count_srs_submitting" : 1005,
    "state_id" : 48,
    "state_abbr" : "TX",
    "csv_header" : "data_year,population,total_agency_count,published_agency_count,active_agency_count,covered_agency_count,population_covered,agency_count_nibrs_submitting,agency_count_leoka_submitting,agency_count_pe_submitting,agency_count_srs_submitting"
  }, {
    "data_year" : 2004,
    "population" : 23571069,
    "total_agency_count" : 995,
    "published_agency_count" : 995,
    "active_agency_count" : 995,
    "covered_agency_count" : 0,
    "population_covered" : 0,
    "agency_count_nibrs_submitting" : 30,
    "agency_count_leoka_submitting" : 0,
    "agency_count_pe_submitting" : 995,
    "agency_count_srs_submitting" : 995,
    "state_id" : 48,
    "state_abbr" : "TX",
    "csv_header" : "data_year,population,total_agency_count,published_agency_count,active_agency_count,covered_agency_count,population_covered,agency_count_nibrs_submitting,agency_count_leoka_submitting,agency_count_pe_submitting,agency_count_srs_submitting"
  }, {
    "data_year" : 2003,
    "population" : 23383488,
    "total_agency_count" : 995,
    "published_agency_count" : 995,
    "active_agency_count" : 995,
    "covered_agency_count" : 0,
    "population_covered" : 0,
    "agency_count_nibrs_submitting" : 32,
    "agency_count_leoka_submitting" : 0,
    "agency_count_pe_submitting" : 995,
    "agency_count_srs_submitting" : 995,
    "state_id" : 48,
    "state_abbr" : "TX",
    "csv_header" : "data_year,population,total_agency_count,published_agency_count,active_agency_count,covered_agency_count,population_covered,agency_count_nibrs_submitting,agency_count_leoka_submitting,agency_count_pe_submitting,agency_count_srs_submitting"
  }, {
    "data_year" : 2002,
    "population" : 22339066,
    "total_agency_count" : 980,
    "published_agency_count" : 980,
    "active_agency_count" : 980,
    "covered_agency_count" : 0,
    "population_covered" : 0,
    "agency_count_nibrs_submitting" : 28,
    "agency_count_leoka_submitting" : 0,
    "agency_count_pe_submitting" : 980,
    "agency_count_srs_submitting" : 980,
    "state_id" : 48,
    "state_abbr" : "TX",
    "csv_header" : "data_year,population,total_agency_count,published_agency_count,active_agency_count,covered_agency_count,population_covered,agency_count_nibrs_submitting,agency_count_leoka_submitting,agency_count_pe_submitting,agency_count_srs_submitting"
  }, {
    "data_year" : 2001,
    "population" : 22173878,
    "total_agency_count" : 963,
    "published_agency_count" : 963,
    "active_agency_count" : 963,
    "covered_agency_count" : 0,
    "population_covered" : 0,
    "agency_count_nibrs_submitting" : 23,
    "agency_count_leoka_submitting" : 0,
    "agency_count_pe_submitting" : 963,
    "agency_count_srs_submitting" : 963,
    "state_id" : 48,
    "state_abbr" : "TX",
    "csv_header" : "data_year,population,total_agency_count,published_agency_count,active_agency_count,covered_agency_count,population_covered,agency_count_nibrs_submitting,agency_count_leoka_submitting,agency_count_pe_submitting,agency_count_srs_submitting"
  }, {
    "data_year" : 2000,
    "population" : 21539242,
    "total_agency_count" : 956,
    "published_agency_count" : 956,
    "active_agency_count" : 956,
    "covered_agency_count" : 0,
    "population_covered" : 0,
    "agency_count_nibrs_submitting" : 24,
    "agency_count_leoka_submitting" : 0,
    "agency_count_pe_submitting" : 956,
    "agency_count_srs_submitting" : 956,
    "state_id" : 48,
    "state_abbr" : "TX",
    "csv_header" : "data_year,population,total_agency_count,published_agency_count,active_agency_count,covered_agency_count,population_covered,agency_count_nibrs_submitting,agency_count_leoka_submitting,agency_count_pe_submitting,agency_count_srs_submitting"
  } ],
  "pagination" : {
    "count" : 25,
    "page" : 0,
    "pages" : 2,
    "per_page" : 20
  }
}