{
  "results" : [ {
    "data_year" : 2019,
    "population" : 3317709,
    "total_agency_count" : 0,
    "published_agency_count" : 0,
    "active_agency_count" : 0,
    "covered_agency_count" : 0,
    "population_covered" : 0,
    "agency_count_nibrs_submitting" : 0,
    "agency_count_leoka_submitting" : 0,
    "agency_count_pe_submitting" : 0,
    "agency_count_srs_submitting" : 0,
    "state_id" : 49,
    "state_abbr" : "UT",
    "csv_header" : "data_year,population,total_agency_count,published_agency_count,active_agency_count,covered_agency_count,population_covered,agency_count_nibrs_submitting,agency_count_leoka_submitting,agency_count_pe_submitting,agency_count_srs_submitting"
  }, {
    "data_year" : 2018,
    "population" : 5522067,
    "total_agency_count" : 169,
    "published_agency_count" : 169,
    "active_agency_count" : 169,
    "covered_agency_count" : 0,
    "population_covered" : 0,
    "agency_count_nibrs_submitting" : 128,
    "agency_count_leoka_submitting" : 0,
    "agency_count_pe_submitting" : 169,
    "agency_count_srs_submitting" : 169,
    "state_id" : 49,
    "state_abbr" : "UT",
    "csv_header" : "data_year,population,total_agency_count,published_agency_count,active_agency_count,covered_agency_count,population_covered,agency_count_nibrs_submitting,agency_count_leoka_submitting,agency_count_pe_submitting,agency_count_srs_submitting"
  }, {
    "data_year" : 2017,
    "population" : 3317709,
    "total_agency_count" : 128,
    "published_agency_count" : 128,
    "active_agency_count" : 128,
    "covered_agency_count" : 0,
    "population_covered" : 0,
    "agency_count_nibrs_submitting" : 73,
    "agency_count_leoka_submitting" : 0,
    "agency_count_pe_submitting" : 128,
    "agency_count_srs_submitting" : 128,
    "state_id" : 49,
    "state_abbr" : "UT",
    "csv_header" : "data_year,population,total_agency_count,published_agency_count,active_agency_count,covered_agency_count,population_covered,agency_count_nibrs_submitting,agency_count_leoka_submitting,agency_count_pe_submitting,agency_count_srs_submitting"
  }, {
    "data_year" : 2016,
    "population" : 3469500,
    "total_agency_count" : 141,
    "published_agency_count" : 141,
    "active_agency_count" : 141,
    "covered_agency_count" : 0,
    "population_covered" : 0,
    "agency_count_nibrs_submitting" : 77,
    "agency_count_leoka_submitting" : 0,
    "agency_count_pe_submitting" : 141,
    "agency_count_srs_submitting" : 141,
    "state_id" : 49,
    "state_abbr" : "UT",
    "csv_header" : "data_year,population,total_agency_count,published_agency_count,active_agency_count,covered_agency_count,population_covered,agency_count_nibrs_submitting,agency_count_leoka_submitting,agency_count_pe_submitting,agency_count_srs_submitting"
  }, {
    "data_year" : 2015,
    "population" : 3252811,
    "total_agency_count" : 140,
    "published_agency_count" : 140,
    "active_agency_count" : 140,
    "covered_agency_count" : 0,
    "population_covered" : 0,
    "agency_count_nibrs_submitting" : 70,
    "agency_count_leoka_submitting" : 0,
    "agency_count_pe_submitting" : 140,
    "agency_count_srs_submitting" : 140,
    "state_id" : 49,
    "state_abbr" : "UT",
    "csv_header" : "data_year,population,total_agency_count,published_agency_count,active_agency_count,covered_agency_count,population_covered,agency_count_nibrs_submitting,agency_count_leoka_submitting,agency_count_pe_submitting,agency_count_srs_submitting"
  }, {
    "data_year" : 2014,
    "population" : 3225621,
    "total_agency_count" : 138,
    "published_agency_count" : 138,
    "active_agency_count" : 138,
    "covered_agency_count" : 0,
    "population_covered" : 0,
    "agency_count_nibrs_submitting" : 72,
    "agency_count_leoka_submitting" : 0,
    "agency_count_pe_submitting" : 138,
    "agency_count_srs_submitting" : 138,
    "state_id" : 49,
    "state_abbr" : "UT",
    "csv_header" : "data_year,population,total_agency_count,published_agency_count,active_agency_count,covered_agency_count,population_covered,agency_count_nibrs_submitting,agency_count_leoka_submitting,agency_count_pe_submitting,agency_count_srs_submitting"
  }, {
    "data_year" : 2013,
    "population" : 3141027,
    "total_agency_count" : 135,
    "published_agency_count" : 135,
    "active_agency_count" : 135,
    "covered_agency_count" : 0,
    "population_covered" : 0,
    "agency_count_nibrs_submitting" : 70,
    "agency_count_leoka_submitting" : 0,
    "agency_count_pe_submitting" : 135,
    "agency_count_srs_submitting" : 135,
    "state_id" : 49,
    "state_abbr" : "UT",
    "csv_header" : "data_year,population,total_agency_count,published_agency_count,active_agency_count,covered_agency_count,population_covered,agency_count_nibrs_submitting,agency_count_leoka_submitting,agency_count_pe_submitting,agency_count_srs_submitting"
  }, {
    "data_year" : 2012,
    "population" : 3122613,
    "total_agency_count" : 133,
    "published_agency_count" : 133,
    "active_agency_count" : 133,
    "covered_agency_count" : 0,
    "population_covered" : 0,
    "agency_count_nibrs_submitting" : 69,
    "agency_count_leoka_submitting" : 0,
    "agency_count_pe_submitting" : 133,
    "agency_count_srs_submitting" : 133,
    "state_id" : 49,
    "state_abbr" : "UT",
    "csv_header" : "data_year,population,total_agency_count,published_agency_count,active_agency_count,covered_agency_count,population_covered,agency_count_nibrs_submitting,agency_count_leoka_submitting,agency_count_pe_submitting,agency_count_srs_submitting"
  }, {
    "data_year" : 2011,
    "population" : 3009698,
    "total_agency_count" : 134,
    "published_agency_count" : 134,
    "active_agency_count" : 134,
    "covered_agency_count" : 0,
    "population_covered" : 0,
    "agency_count_nibrs_submitting" : 70,
    "agency_count_leoka_submitting" : 0,
    "agency_count_pe_submitting" : 134,
    "agency_count_srs_submitting" : 134,
    "state_id" : 49,
    "state_abbr" : "UT",
    "csv_header" : "data_year,population,total_agency_count,published_agency_count,active_agency_count,covered_agency_count,population_covered,agency_count_nibrs_submitting,agency_count_leoka_submitting,agency_count_pe_submitting,agency_count_srs_submitting"
  }, {
    "data_year" : 2010,
    "population" : 2927799,
    "total_agency_count" : 135,
    "published_agency_count" : 135,
    "active_agency_count" : 135,
    "covered_agency_count" : 0,
    "population_covered" : 0,
    "agency_count_nibrs_submitting" : 67,
    "agency_count_leoka_submitting" : 0,
    "agency_count_pe_submitting" : 135,
    "agency_count_srs_submitting" : 135,
    "state_id" : 49,
    "state_abbr" : "UT",
    "csv_header" : "data_year,population,total_agency_count,published_agency_count,active_agency_count,covered_agency_count,population_covered,agency_count_nibrs_submitting,agency_count_leoka_submitting,agency_count_pe_submitting,agency_count_srs_submitting"
  }, {
    "data_year" : 2009,
    "population" : 2896540,
    "total_agency_count" : 128,
    "published_agency_count" : 128,
    "active_agency_count" : 128,
    "covered_agency_count" : 0,
    "population_covered" : 0,
    "agency_count_nibrs_submitting" : 61,
    "agency_count_leoka_submitting" : 0,
    "agency_count_pe_submitting" : 128,
    "agency_count_srs_submitting" : 128,
    "state_id" : 49,
    "state_abbr" : "UT",
    "csv_header" : "data_year,population,total_agency_count,published_agency_count,active_agency_count,covered_agency_count,population_covered,agency_count_nibrs_submitting,agency_count_leoka_submitting,agency_count_pe_submitting,agency_count_srs_submitting"
  }, {
    "data_year" : 2008,
    "population" : 2874244,
    "total_agency_count" : 126,
    "published_agency_count" : 126,
    "active_agency_count" : 126,
    "covered_agency_count" : 0,
    "population_covered" : 0,
    "agency_count_nibrs_submitting" : 60,
    "agency_count_leoka_submitting" : 0,
    "agency_count_pe_submitting" : 126,
    "agency_count_srs_submitting" : 126,
    "state_id" : 49,
    "state_abbr" : "UT",
    "csv_header" : "data_year,population,total_agency_count,published_agency_count,active_agency_count,covered_agency_count,population_covered,agency_count_nibrs_submitting,agency_count_leoka_submitting,agency_count_pe_submitting,agency_count_srs_submitting"
  }, {
    "data_year" : 2007,
    "population" : 2810524,
    "total_agency_count" : 124,
    "published_agency_count" : 124,
    "active_agency_count" : 124,
    "covered_agency_count" : 0,
    "population_covered" : 0,
    "agency_count_nibrs_submitting" : 59,
    "agency_count_leoka_submitting" : 0,
    "agency_count_pe_submitting" : 124,
    "agency_count_srs_submitting" : 124,
    "state_id" : 49,
    "state_abbr" : "UT",
    "csv_header" : "data_year,population,total_agency_count,published_agency_count,active_agency_count,covered_agency_count,population_covered,agency_count_nibrs_submitting,agency_count_leoka_submitting,agency_count_pe_submitting,agency_count_srs_submitting"
  }, {
    "data_year" : 2006,
    "population" : 2728965,
    "total_agency_count" : 124,
    "published_agency_count" : 124,
    "active_agency_count" : 124,
    "covered_agency_count" : 0,
    "population_covered" : 0,
    "agency_count_nibrs_submitting" : 55,
    "agency_count_leoka_submitting" : 0,
    "agency_count_pe_submitting" : 124,
    "agency_count_srs_submitting" : 124,
    "state_id" : 49,
    "state_abbr" : "UT",
    "csv_header" : "data_year,population,total_agency_count,published_agency_count,active_agency_count,covered_agency_count,population_covered,agency_count_nibrs_submitting,agency_count_leoka_submitting,agency_count_pe_submitting,agency_count_srs_submitting"
  }, {
    "data_year" : 2005,
    "population" : 2801285,
    "total_agency_count" : 119,
    "published_agency_count" : 119,
    "active_agency_count" : 119,
    "covered_agency_count" : 0,
    "population_covered" : 0,
    "agency_count_nibrs_submitting" : 50,
    "agency_count_leoka_submitting" : 0,
    "agency_count_pe_submitting" : 119,
    "agency_count_srs_submitting" : 119,
    "state_id" : 49,
    "state_abbr" : "UT",
    "csv_header" : "data_year,population,total_agency_count,published_agency_count,active_agency_count,covered_agency_count,population_covered,agency_count_nibrs_submitting,agency_count_leoka_submitting,agency_count_pe_submitting,agency_count_srs_submitting"
  }, {
    "data_year" : 2004,
    "population" : 2622494,
    "total_agency_count" : 119,
    "published_agency_count" : 119,
    "active_agency_count" : 119,
    "covered_agency_count" : 0,
    "population_covered" : 0,
    "agency_count_nibrs_submitting" : 48,
    "agency_count_leoka_submitting" : 0,
    "agency_count_pe_submitting" : 119,
    "agency_count_srs_submitting" : 119,
    "state_id" : 49,
    "state_abbr" : "UT",
    "csv_header" : "data_year,population,total_agency_count,published_agency_count,active_agency_count,covered_agency_count,population_covered,agency_count_nibrs_submitting,agency_count_leoka_submitting,agency_count_pe_submitting,agency_count_srs_submitting"
  }, {
    "data_year" : 2003,
    "population" : 2711596,
    "total_agency_count" : 124,
    "published_agency_count" : 124,
    "active_agency_count" : 124,
    "covered_agency_count" : 0,
    "population_covered" : 0,
    "agency_count_nibrs_submitting" : 47,
    "agency_count_leoka_submitting" : 0,
    "agency_count_pe_submitting" : 124,
    "agency_count_srs_submitting" : 124,
    "state_id" : 49,
    "state_abbr" : "UT",
    "csv_header" : "data_year,population,total_agency_count,published_agency_count,active_agency_count,covered_agency_count,population_covered,agency_count_nibrs_submitting,agency_count_leoka_submitting,agency_count_pe_submitting,agency_count_srs_submitting"
  }, {
    "data_year" : 2002,
    "population" : 2564124,
    "total_agency_count" : 117,
    "published_agency_count" : 117,
    "active_agency_count" : 117,
    "covered_agency_count" : 0,
    "population_covered" : 0,
    "agency_count_nibrs_submitting" : 45,
    "agency_count_leoka_submitting" : 0,
    "agency_count_pe_submitting" : 117,
    "agency_count_srs_submitting" : 117,
    "state_id" : 49,
    "state_abbr" : "UT",
    "csv_header" : "data_year,population,total_agency_count,published_agency_count,active_agency_count,covered_agency_count,population_covered,agency_count_nibrs_submitting,agency_count_leoka_submitting,agency_count_pe_submitting,agency_count_srs_submitting"
  }, {
    "data_year" : 2001,
    "population" : 2862613,
    "total_agency_count" : 123,
    "published_agency_count" : 123,
    "active_agency_count" : 123,
    "covered_agency_count" : 0,
    "population_covered" : 0,
    "agency_count_nibrs_submitting" : 46,
    "agency_count_leoka_submitting" : 0,
    "agency_count_pe_submitting" : 123,
    "agency_count_srs_submitting" : 123,
    "state_id" : 49,
    "state_abbr" : "UT",
    "csv_header" : "data_year,population,total_agency_count,published_agency_count,active_agency_count,covered_agency_count,population_covered,agency_count_nibrs_submitting,agency_count_leoka_submitting,agency_count_pe_submitting,agency_count_srs_submitting"
  }, {
    "data_year" : 2000,
    "population" : 3472908,
    "total_agency_count" : 120,
    "published_agency_count" : 120,
    "active_agency_count" : 120,
    "covered_agency_count" : 0,
    "population_covered" : 0,
    "agency_count_nibrs_submitting" : 41,
    "agency_count_leoka_submitting" : 0,
    "agency_count_pe_submitting" : 120,
    "agency_count_srs_submitting" : 120,
    "state_id" : 49,
    "state_abbr" : "UT",
    "csv_header" : "data_year,population,total_agency_count,published_agency_count,active_agency_count,covered_agency_count,population_covered,agency_count_nibrs_submitting,agency_count_leoka_submitting,agency_count_pe_submitting,agency_count_srs_submitting"
  } ],
  "pagination" : {
    "count" : 25,
    "page" : 0,
    "pages" : 2,
    "per_page" : 20
  }
}