{
  "results" : [ {
    "data_year" : 2019,
    "population" : 8478323,
    "total_agency_count" : 0,
    "published_agency_count" : 0,
    "active_agency_count" : 0,
    "covered_agency_count" : 0,
    "population_covered" : 0,
    "agency_count_nibrs_submitting" : 0,
    "agency_count_leoka_submitting" : 0,
    "agency_count_pe_submitting" : 0,
    "agency_count_srs_submitting" : 0,
    "state_id" : 51,
    "state_abbr" : "VA",
    "csv_header" : "data_year,population,total_agency_count,published_agency_count,active_agency_count,covered_agency_count,population_covered,agency_count_nibrs_submitting,agency_count_leoka_submitting,agency_count_pe_submitting,agency_count_srs_submitting"
  }, {
    "data_year" : 2018,
    "population" : 16871159,
    "total_agency_count" : 782,
    "published_agency_count" : 782,
    "active_agency_count" : 782,
    "covered_agency_count" : 0,
    "population_covered" : 0,
    "agency_count_nibrs_submitting" : 782,
    "agency_count_leoka_submitting" : 782,
    "agency_count_pe_submitting" : 782,
    "agency_count_srs_submitting" : 782,
    "state_id" : 51,
    "state_abbr" : "VA",
    "csv_header" : "data_year,population,total_agency_count,published_agency_count,active_agency_count,covered_agency_count,population_covered,agency_count_nibrs_submitting,agency_count_leoka_submitting,agency_count_pe_submitting,agency_count_srs_submitting"
  }, {
    "data_year" : 2017,
    "population" : 8478323,
    "total_agency_count" : 413,
    "published_agency_count" : 413,
    "active_agency_count" : 413,
    "covered_agency_count" : 0,
    "population_covered" : 0,
    "agency_count_nibrs_submitting" : 413,
    "agency_count_leoka_submitting" : 413,
    "agency_count_pe_submitting" : 413,
    "agency_count_srs_submitting" : 413,
    "state_id" : 51,
    "state_abbr" : "VA",
    "csv_header" : "data_year,population,total_agency_count,published_agency_count,active_agency_count,covered_agency_count,population_covered,agency_count_nibrs_submitting,agency_count_leoka_submitting,agency_count_pe_submitting,agency_count_srs_submitting"
  }, {
    "data_year" : 2016,
    "population" : 8436263,
    "total_agency_count" : 431,
    "published_agency_count" : 431,
    "active_agency_count" : 431,
    "covered_agency_count" : 0,
    "population_covered" : 0,
    "agency_count_nibrs_submitting" : 431,
    "agency_count_leoka_submitting" : 428,
    "agency_count_pe_submitting" : 431,
    "agency_count_srs_submitting" : 431,
    "state_id" : 51,
    "state_abbr" : "VA",
    "csv_header" : "data_year,population,total_agency_count,published_agency_count,active_agency_count,covered_agency_count,population_covered,agency_count_nibrs_submitting,agency_count_leoka_submitting,agency_count_pe_submitting,agency_count_srs_submitting"
  }, {
    "data_year" : 2015,
    "population" : 8396653,
    "total_agency_count" : 423,
    "published_agency_count" : 423,
    "active_agency_count" : 423,
    "covered_agency_count" : 0,
    "population_covered" : 0,
    "agency_count_nibrs_submitting" : 423,
    "agency_count_leoka_submitting" : 420,
    "agency_count_pe_submitting" : 423,
    "agency_count_srs_submitting" : 423,
    "state_id" : 51,
    "state_abbr" : "VA",
    "csv_header" : "data_year,population,total_agency_count,published_agency_count,active_agency_count,covered_agency_count,population_covered,agency_count_nibrs_submitting,agency_count_leoka_submitting,agency_count_pe_submitting,agency_count_srs_submitting"
  }, {
    "data_year" : 2014,
    "population" : 8353672,
    "total_agency_count" : 468,
    "published_agency_count" : 468,
    "active_agency_count" : 468,
    "covered_agency_count" : 0,
    "population_covered" : 0,
    "agency_count_nibrs_submitting" : 468,
    "agency_count_leoka_submitting" : 465,
    "agency_count_pe_submitting" : 468,
    "agency_count_srs_submitting" : 468,
    "state_id" : 51,
    "state_abbr" : "VA",
    "csv_header" : "data_year,population,total_agency_count,published_agency_count,active_agency_count,covered_agency_count,population_covered,agency_count_nibrs_submitting,agency_count_leoka_submitting,agency_count_pe_submitting,agency_count_srs_submitting"
  }, {
    "data_year" : 2013,
    "population" : 8269450,
    "total_agency_count" : 473,
    "published_agency_count" : 473,
    "active_agency_count" : 473,
    "covered_agency_count" : 0,
    "population_covered" : 0,
    "agency_count_nibrs_submitting" : 473,
    "agency_count_leoka_submitting" : 472,
    "agency_count_pe_submitting" : 473,
    "agency_count_srs_submitting" : 473,
    "state_id" : 51,
    "state_abbr" : "VA",
    "csv_header" : "data_year,population,total_agency_count,published_agency_count,active_agency_count,covered_agency_count,population_covered,agency_count_nibrs_submitting,agency_count_leoka_submitting,agency_count_pe_submitting,agency_count_srs_submitting"
  }, {
    "data_year" : 2012,
    "population" : 8207785,
    "total_agency_count" : 433,
    "published_agency_count" : 433,
    "active_agency_count" : 433,
    "covered_agency_count" : 0,
    "population_covered" : 0,
    "agency_count_nibrs_submitting" : 433,
    "agency_count_leoka_submitting" : 428,
    "agency_count_pe_submitting" : 433,
    "agency_count_srs_submitting" : 433,
    "state_id" : 51,
    "state_abbr" : "VA",
    "csv_header" : "data_year,population,total_agency_count,published_agency_count,active_agency_count,covered_agency_count,population_covered,agency_count_nibrs_submitting,agency_count_leoka_submitting,agency_count_pe_submitting,agency_count_srs_submitting"
  }, {
    "data_year" : 2011,
    "population" : 8182503,
    "total_agency_count" : 485,
    "published_agency_count" : 485,
    "active_agency_count" : 485,
    "covered_agency_count" : 0,
    "population_covered" : 0,
    "agency_count_nibrs_submitting" : 485,
    "agency_count_leoka_submitting" : 477,
    "agency_count_pe_submitting" : 485,
    "agency_count_srs_submitting" : 485,
    "state_id" : 51,
    "state_abbr" : "VA",
    "csv_header" : "data_year,population,total_agency_count,published_agency_count,active_agency_count,covered_agency_count,population_covered,agency_count_nibrs_submitting,agency_count_leoka_submitting,agency_count_pe_submitting,agency_count_srs_submitting"
  }, {
    "data_year" : 2010,
    "population" : 8044894,
    "total_agency_count" : 462,
    "published_agency_count" : 462,
    "active_agency_count" : 462,
    "covered_agency_count" : 0,
    "population_covered" : 0,
    "agency_count_nibrs_submitting" : 462,
    "agency_count_leoka_submitting" : 363,
    "agency_count_pe_submitting" : 462,
    "agency_count_srs_submitting" : 462,
    "state_id" : 51,
    "state_abbr" : "VA",
    "csv_header" : "data_year,population,total_agency_count,published_agency_count,active_agency_count,covered_agency_count,population_covered,agency_count_nibrs_submitting,agency_count_leoka_submitting,agency_count_pe_submitting,agency_count_srs_submitting"
  }, {
    "data_year" : 2009,
    "population" : 7899443,
    "total_agency_count" : 429,
    "published_agency_count" : 429,
    "active_agency_count" : 429,
    "covered_agency_count" : 0,
    "population_covered" : 0,
    "agency_count_nibrs_submitting" : 429,
    "agency_count_leoka_submitting" : 0,
    "agency_count_pe_submitting" : 429,
    "agency_count_srs_submitting" : 429,
    "state_id" : 51,
    "state_abbr" : "VA",
    "csv_header" : "data_year,population,total_agency_count,published_agency_count,active_agency_count,covered_agency_count,population_covered,agency_count_nibrs_submitting,agency_count_leoka_submitting,agency_count_pe_submitting,agency_count_srs_submitting"
  }, {
    "data_year" : 2008,
    "population" : 7824878,
    "total_agency_count" : 429,
    "published_agency_count" : 429,
    "active_agency_count" : 429,
    "covered_agency_count" : 0,
    "population_covered" : 0,
    "agency_count_nibrs_submitting" : 429,
    "agency_count_leoka_submitting" : 0,
    "agency_count_pe_submitting" : 429,
    "agency_count_srs_submitting" : 429,
    "state_id" : 51,
    "state_abbr" : "VA",
    "csv_header" : "data_year,population,total_agency_count,published_agency_count,active_agency_count,covered_agency_count,population_covered,agency_count_nibrs_submitting,agency_count_leoka_submitting,agency_count_pe_submitting,agency_count_srs_submitting"
  }, {
    "data_year" : 2007,
    "population" : 7836504,
    "total_agency_count" : 462,
    "published_agency_count" : 462,
    "active_agency_count" : 462,
    "covered_agency_count" : 0,
    "population_covered" : 0,
    "agency_count_nibrs_submitting" : 462,
    "agency_count_leoka_submitting" : 0,
    "agency_count_pe_submitting" : 462,
    "agency_count_srs_submitting" : 462,
    "state_id" : 51,
    "state_abbr" : "VA",
    "csv_header" : "data_year,population,total_agency_count,published_agency_count,active_agency_count,covered_agency_count,population_covered,agency_count_nibrs_submitting,agency_count_leoka_submitting,agency_count_pe_submitting,agency_count_srs_submitting"
  }, {
    "data_year" : 2006,
    "population" : 7729866,
    "total_agency_count" : 472,
    "published_agency_count" : 472,
    "active_agency_count" : 472,
    "covered_agency_count" : 0,
    "population_covered" : 0,
    "agency_count_nibrs_submitting" : 472,
    "agency_count_leoka_submitting" : 0,
    "agency_count_pe_submitting" : 472,
    "agency_count_srs_submitting" : 472,
    "state_id" : 51,
    "state_abbr" : "VA",
    "csv_header" : "data_year,population,total_agency_count,published_agency_count,active_agency_count,covered_agency_count,population_covered,agency_count_nibrs_submitting,agency_count_leoka_submitting,agency_count_pe_submitting,agency_count_srs_submitting"
  }, {
    "data_year" : 2005,
    "population" : 7616034,
    "total_agency_count" : 413,
    "published_agency_count" : 413,
    "active_agency_count" : 413,
    "covered_agency_count" : 0,
    "population_covered" : 0,
    "agency_count_nibrs_submitting" : 413,
    "agency_count_leoka_submitting" : 0,
    "agency_count_pe_submitting" : 413,
    "agency_count_srs_submitting" : 413,
    "state_id" : 51,
    "state_abbr" : "VA",
    "csv_header" : "data_year,population,total_agency_count,published_agency_count,active_agency_count,covered_agency_count,population_covered,agency_count_nibrs_submitting,agency_count_leoka_submitting,agency_count_pe_submitting,agency_count_srs_submitting"
  }, {
    "data_year" : 2004,
    "population" : 7758563,
    "total_agency_count" : 414,
    "published_agency_count" : 414,
    "active_agency_count" : 414,
    "covered_agency_count" : 0,
    "population_covered" : 0,
    "agency_count_nibrs_submitting" : 414,
    "agency_count_leoka_submitting" : 0,
    "agency_count_pe_submitting" : 414,
    "agency_count_srs_submitting" : 414,
    "state_id" : 51,
    "state_abbr" : "VA",
    "csv_header" : "data_year,population,total_agency_count,published_agency_count,active_agency_count,covered_agency_count,population_covered,agency_count_nibrs_submitting,agency_count_leoka_submitting,agency_count_pe_submitting,agency_count_srs_submitting"
  }, {
    "data_year" : 2003,
    "population" : 7706304,
    "total_agency_count" : 471,
    "published_agency_count" : 471,
    "active_agency_count" : 471,
    "covered_agency_count" : 0,
    "population_covered" : 0,
    "agency_count_nibrs_submitting" : 471,
    "agency_count_leoka_submitting" : 0,
    "agency_count_pe_submitting" : 471,
    "agency_count_srs_submitting" : 471,
    "state_id" : 51,
    "state_abbr" : "VA",
    "csv_header" : "data_year,population,total_agency_count,published_agency_count,active_agency_count,covered_agency_count,population_covered,agency_count_nibrs_submitting,agency_count_leoka_submitting,agency_count_pe_submitting,agency_count_srs_submitting"
  }, {
    "data_year" : 2002,
    "population" : 7659643,
    "total_agency_count" : 479,
    "published_agency_count" : 479,
    "active_agency_count" : 479,
    "covered_agency_count" : 0,
    "population_covered" : 0,
    "agency_count_nibrs_submitting" : 479,
    "agency_count_leoka_submitting" : 0,
    "agency_count_pe_submitting" : 479,
    "agency_count_srs_submitting" : 479,
    "state_id" : 51,
    "state_abbr" : "VA",
    "csv_header" : "data_year,population,total_agency_count,published_agency_count,active_agency_count,covered_agency_count,population_covered,agency_count_nibrs_submitting,agency_count_leoka_submitting,agency_count_pe_submitting,agency_count_srs_submitting"
  }, {
    "data_year" : 2001,
    "population" : 8070674,
    "total_agency_count" : 468,
    "published_agency_count" : 468,
    "active_agency_count" : 468,
    "covered_agency_count" : 0,
    "population_covered" : 0,
    "agency_count_nibrs_submitting" : 468,
    "agency_count_leoka_submitting" : 0,
    "agency_count_pe_submitting" : 468,
    "agency_count_srs_submitting" : 468,
    "state_id" : 51,
    "state_abbr" : "VA",
    "csv_header" : "data_year,population,total_agency_count,published_agency_count,active_agency_count,covered_agency_count,population_covered,agency_count_nibrs_submitting,agency_count_leoka_submitting,agency_count_pe_submitting,agency_count_srs_submitting"
  }, {
    "data_year" : 2000,
    "population" : 8626134,
    "total_agency_count" : 453,
    "published_agency_count" : 453,
    "active_agency_count" : 453,
    "covered_agency_count" : 0,
    "population_covered" : 0,
    "agency_count_nibrs_submitting" : 453,
    "agency_count_leoka_submitting" : 0,
    "agency_count_pe_submitting" : 453,
    "agency_count_srs_submitting" : 453,
    "state_id" : 51,
    "state_abbr" : "VA",
    "csv_header" : "data_year,population,total_agency_count,published_agency_count,active_agency_count,covered_agency_count,population_covered,agency_count_nibrs_submitting,agency_count_leoka_submitting,agency_count_pe_submitting,agency_count_srs_submitting"
  } ],
  "pagination" : {
    "count" : 25,
    "page" : 0,
    "pages" : 2,
    "per_page" : 20
  }
}