{
  "results" : [ {
    "data_year" : 2019,
    "population" : 641664,
    "total_agency_count" : 0,
    "published_agency_count" : 0,
    "active_agency_count" : 0,
    "covered_agency_count" : 0,
    "population_covered" : 0,
    "agency_count_nibrs_submitting" : 0,
    "agency_count_leoka_submitting" : 0,
    "agency_count_pe_submitting" : 0,
    "agency_count_srs_submitting" : 0,
    "state_id" : 52,
    "state_abbr" : "VT",
    "csv_header" : "data_year,population,total_agency_count,published_agency_count,active_agency_count,covered_agency_count,population_covered,agency_count_nibrs_submitting,agency_count_leoka_submitting,agency_count_pe_submitting,agency_count_srs_submitting"
  }, {
    "data_year" : 2018,
    "population" : 1270468,
    "total_agency_count" : 176,
    "published_agency_count" : 174,
    "active_agency_count" : 176,
    "covered_agency_count" : 2,
    "population_covered" : 10294,
    "agency_count_nibrs_submitting" : 176,
    "agency_count_leoka_submitting" : 176,
    "agency_count_pe_submitting" : 176,
    "agency_count_srs_submitting" : 176,
    "state_id" : 52,
    "state_abbr" : "VT",
    "csv_header" : "data_year,population,total_agency_count,published_agency_count,active_agency_count,covered_agency_count,population_covered,agency_count_nibrs_submitting,agency_count_leoka_submitting,agency_count_pe_submitting,agency_count_srs_submitting"
  }, {
    "data_year" : 2017,
    "population" : 636517,
    "total_agency_count" : 90,
    "published_agency_count" : 90,
    "active_agency_count" : 90,
    "covered_agency_count" : 0,
    "population_covered" : 0,
    "agency_count_nibrs_submitting" : 90,
    "agency_count_leoka_submitting" : 90,
    "agency_count_pe_submitting" : 90,
    "agency_count_srs_submitting" : 90,
    "state_id" : 52,
    "state_abbr" : "VT",
    "csv_header" : "data_year,population,total_agency_count,published_agency_count,active_agency_count,covered_agency_count,population_covered,agency_count_nibrs_submitting,agency_count_leoka_submitting,agency_count_pe_submitting,agency_count_srs_submitting"
  }, {
    "data_year" : 2016,
    "population" : 931177,
    "total_agency_count" : 122,
    "published_agency_count" : 122,
    "active_agency_count" : 122,
    "covered_agency_count" : 0,
    "population_covered" : 0,
    "agency_count_nibrs_submitting" : 120,
    "agency_count_leoka_submitting" : 122,
    "agency_count_pe_submitting" : 122,
    "agency_count_srs_submitting" : 122,
    "state_id" : 52,
    "state_abbr" : "VT",
    "csv_header" : "data_year,population,total_agency_count,published_agency_count,active_agency_count,covered_agency_count,population_covered,agency_count_nibrs_submitting,agency_count_leoka_submitting,agency_count_pe_submitting,agency_count_srs_submitting"
  }, {
    "data_year" : 2015,
    "population" : 652392,
    "total_agency_count" : 90,
    "published_agency_count" : 90,
    "active_agency_count" : 90,
    "covered_agency_count" : 0,
    "population_covered" : 0,
    "agency_count_nibrs_submitting" : 90,
    "agency_count_leoka_submitting" : 90,
    "agency_count_pe_submitting" : 90,
    "agency_count_srs_submitting" : 90,
    "state_id" : 52,
    "state_abbr" : "VT",
    "csv_header" : "data_year,population,total_agency_count,published_agency_count,active_agency_count,covered_agency_count,population_covered,agency_count_nibrs_submitting,agency_count_leoka_submitting,agency_count_pe_submitting,agency_count_srs_submitting"
  }, {
    "data_year" : 2014,
    "population" : 770359,
    "total_agency_count" : 115,
    "published_agency_count" : 115,
    "active_agency_count" : 115,
    "covered_agency_count" : 0,
    "population_covered" : 0,
    "agency_count_nibrs_submitting" : 115,
    "agency_count_leoka_submitting" : 115,
    "agency_count_pe_submitting" : 115,
    "agency_count_srs_submitting" : 115,
    "state_id" : 52,
    "state_abbr" : "VT",
    "csv_header" : "data_year,population,total_agency_count,published_agency_count,active_agency_count,covered_agency_count,population_covered,agency_count_nibrs_submitting,agency_count_leoka_submitting,agency_count_pe_submitting,agency_count_srs_submitting"
  }, {
    "data_year" : 2013,
    "population" : 754905,
    "total_agency_count" : 108,
    "published_agency_count" : 108,
    "active_agency_count" : 108,
    "covered_agency_count" : 0,
    "population_covered" : 0,
    "agency_count_nibrs_submitting" : 108,
    "agency_count_leoka_submitting" : 106,
    "agency_count_pe_submitting" : 108,
    "agency_count_srs_submitting" : 108,
    "state_id" : 52,
    "state_abbr" : "VT",
    "csv_header" : "data_year,population,total_agency_count,published_agency_count,active_agency_count,covered_agency_count,population_covered,agency_count_nibrs_submitting,agency_count_leoka_submitting,agency_count_pe_submitting,agency_count_srs_submitting"
  }, {
    "data_year" : 2012,
    "population" : 667621,
    "total_agency_count" : 92,
    "published_agency_count" : 92,
    "active_agency_count" : 92,
    "covered_agency_count" : 0,
    "population_covered" : 0,
    "agency_count_nibrs_submitting" : 92,
    "agency_count_leoka_submitting" : 89,
    "agency_count_pe_submitting" : 92,
    "agency_count_srs_submitting" : 92,
    "state_id" : 52,
    "state_abbr" : "VT",
    "csv_header" : "data_year,population,total_agency_count,published_agency_count,active_agency_count,covered_agency_count,population_covered,agency_count_nibrs_submitting,agency_count_leoka_submitting,agency_count_pe_submitting,agency_count_srs_submitting"
  }, {
    "data_year" : 2011,
    "population" : 715401,
    "total_agency_count" : 102,
    "published_agency_count" : 102,
    "active_agency_count" : 102,
    "covered_agency_count" : 0,
    "population_covered" : 0,
    "agency_count_nibrs_submitting" : 102,
    "agency_count_leoka_submitting" : 97,
    "agency_count_pe_submitting" : 102,
    "agency_count_srs_submitting" : 102,
    "state_id" : 52,
    "state_abbr" : "VT",
    "csv_header" : "data_year,population,total_agency_count,published_agency_count,active_agency_count,covered_agency_count,population_covered,agency_count_nibrs_submitting,agency_count_leoka_submitting,agency_count_pe_submitting,agency_count_srs_submitting"
  }, {
    "data_year" : 2010,
    "population" : 678889,
    "total_agency_count" : 99,
    "published_agency_count" : 99,
    "active_agency_count" : 99,
    "covered_agency_count" : 0,
    "population_covered" : 0,
    "agency_count_nibrs_submitting" : 99,
    "agency_count_leoka_submitting" : 95,
    "agency_count_pe_submitting" : 99,
    "agency_count_srs_submitting" : 99,
    "state_id" : 52,
    "state_abbr" : "VT",
    "csv_header" : "data_year,population,total_agency_count,published_agency_count,active_agency_count,covered_agency_count,population_covered,agency_count_nibrs_submitting,agency_count_leoka_submitting,agency_count_pe_submitting,agency_count_srs_submitting"
  }, {
    "data_year" : 2009,
    "population" : 667724,
    "total_agency_count" : 98,
    "published_agency_count" : 98,
    "active_agency_count" : 98,
    "covered_agency_count" : 0,
    "population_covered" : 0,
    "agency_count_nibrs_submitting" : 98,
    "agency_count_leoka_submitting" : 93,
    "agency_count_pe_submitting" : 98,
    "agency_count_srs_submitting" : 98,
    "state_id" : 52,
    "state_abbr" : "VT",
    "csv_header" : "data_year,population,total_agency_count,published_agency_count,active_agency_count,covered_agency_count,population_covered,agency_count_nibrs_submitting,agency_count_leoka_submitting,agency_count_pe_submitting,agency_count_srs_submitting"
  }, {
    "data_year" : 2008,
    "population" : 669691,
    "total_agency_count" : 95,
    "published_agency_count" : 95,
    "active_agency_count" : 95,
    "covered_agency_count" : 0,
    "population_covered" : 0,
    "agency_count_nibrs_submitting" : 95,
    "agency_count_leoka_submitting" : 83,
    "agency_count_pe_submitting" : 95,
    "agency_count_srs_submitting" : 95,
    "state_id" : 52,
    "state_abbr" : "VT",
    "csv_header" : "data_year,population,total_agency_count,published_agency_count,active_agency_count,covered_agency_count,population_covered,agency_count_nibrs_submitting,agency_count_leoka_submitting,agency_count_pe_submitting,agency_count_srs_submitting"
  }, {
    "data_year" : 2007,
    "population" : 648707,
    "total_agency_count" : 86,
    "published_agency_count" : 86,
    "active_agency_count" : 86,
    "covered_agency_count" : 0,
    "population_covered" : 0,
    "agency_count_nibrs_submitting" : 86,
    "agency_count_leoka_submitting" : 80,
    "agency_count_pe_submitting" : 86,
    "agency_count_srs_submitting" : 86,
    "state_id" : 52,
    "state_abbr" : "VT",
    "csv_header" : "data_year,population,total_agency_count,published_agency_count,active_agency_count,covered_agency_count,population_covered,agency_count_nibrs_submitting,agency_count_leoka_submitting,agency_count_pe_submitting,agency_count_srs_submitting"
  }, {
    "data_year" : 2006,
    "population" : 659874,
    "total_agency_count" : 86,
    "published_agency_count" : 86,
    "active_agency_count" : 86,
    "covered_agency_count" : 0,
    "population_covered" : 0,
    "agency_count_nibrs_submitting" : 84,
    "agency_count_leoka_submitting" : 76,
    "agency_count_pe_submitting" : 86,
    "agency_count_srs_submitting" : 86,
    "state_id" : 52,
    "state_abbr" : "VT",
    "csv_header" : "data_year,population,total_agency_count,published_agency_count,active_agency_count,covered_agency_count,population_covered,agency_count_nibrs_submitting,agency_count_leoka_submitting,agency_count_pe_submitting,agency_count_srs_submitting"
  }, {
    "data_year" : 2005,
    "population" : 667606,
    "total_agency_count" : 93,
    "published_agency_count" : 93,
    "active_agency_count" : 93,
    "covered_agency_count" : 0,
    "population_covered" : 0,
    "agency_count_nibrs_submitting" : 93,
    "agency_count_leoka_submitting" : 75,
    "agency_count_pe_submitting" : 93,
    "agency_count_srs_submitting" : 93,
    "state_id" : 52,
    "state_abbr" : "VT",
    "csv_header" : "data_year,population,total_agency_count,published_agency_count,active_agency_count,covered_agency_count,population_covered,agency_count_nibrs_submitting,agency_count_leoka_submitting,agency_count_pe_submitting,agency_count_srs_submitting"
  }, {
    "data_year" : 2004,
    "population" : 632382,
    "total_agency_count" : 75,
    "published_agency_count" : 75,
    "active_agency_count" : 75,
    "covered_agency_count" : 0,
    "population_covered" : 0,
    "agency_count_nibrs_submitting" : 75,
    "agency_count_leoka_submitting" : 0,
    "agency_count_pe_submitting" : 75,
    "agency_count_srs_submitting" : 75,
    "state_id" : 52,
    "state_abbr" : "VT",
    "csv_header" : "data_year,population,total_agency_count,published_agency_count,active_agency_count,covered_agency_count,population_covered,agency_count_nibrs_submitting,agency_count_leoka_submitting,agency_count_pe_submitting,agency_count_srs_submitting"
  }, {
    "data_year" : 2003,
    "population" : 644922,
    "total_agency_count" : 71,
    "published_agency_count" : 71,
    "active_agency_count" : 71,
    "covered_agency_count" : 0,
    "population_covered" : 0,
    "agency_count_nibrs_submitting" : 61,
    "agency_count_leoka_submitting" : 0,
    "agency_count_pe_submitting" : 71,
    "agency_count_srs_submitting" : 71,
    "state_id" : 52,
    "state_abbr" : "VT",
    "csv_header" : "data_year,population,total_agency_count,published_agency_count,active_agency_count,covered_agency_count,population_covered,agency_count_nibrs_submitting,agency_count_leoka_submitting,agency_count_pe_submitting,agency_count_srs_submitting"
  }, {
    "data_year" : 2002,
    "population" : 679735,
    "total_agency_count" : 74,
    "published_agency_count" : 74,
    "active_agency_count" : 74,
    "covered_agency_count" : 0,
    "population_covered" : 0,
    "agency_count_nibrs_submitting" : 62,
    "agency_count_leoka_submitting" : 0,
    "agency_count_pe_submitting" : 74,
    "agency_count_srs_submitting" : 74,
    "state_id" : 52,
    "state_abbr" : "VT",
    "csv_header" : "data_year,population,total_agency_count,published_agency_count,active_agency_count,covered_agency_count,population_covered,agency_count_nibrs_submitting,agency_count_leoka_submitting,agency_count_pe_submitting,agency_count_srs_submitting"
  }, {
    "data_year" : 2001,
    "population" : 637118,
    "total_agency_count" : 72,
    "published_agency_count" : 72,
    "active_agency_count" : 72,
    "covered_agency_count" : 0,
    "population_covered" : 0,
    "agency_count_nibrs_submitting" : 60,
    "agency_count_leoka_submitting" : 0,
    "agency_count_pe_submitting" : 72,
    "agency_count_srs_submitting" : 72,
    "state_id" : 52,
    "state_abbr" : "VT",
    "csv_header" : "data_year,population,total_agency_count,published_agency_count,active_agency_count,covered_agency_count,population_covered,agency_count_nibrs_submitting,agency_count_leoka_submitting,agency_count_pe_submitting,agency_count_srs_submitting"
  }, {
    "data_year" : 2000,
    "population" : 691342,
    "total_agency_count" : 71,
    "published_agency_count" : 71,
    "active_agency_count" : 71,
    "covered_agency_count" : 0,
    "population_covered" : 0,
    "agency_count_nibrs_submitting" : 48,
    "agency_count_leoka_submitting" : 0,
    "agency_count_pe_submitting" : 71,
    "agency_count_srs_submitting" : 71,
    "state_id" : 52,
    "state_abbr" : "VT",
    "csv_header" : "data_year,population,total_agency_count,published_agency_count,active_agency_count,covered_agency_count,population_covered,agency_count_nibrs_submitting,agency_count_leoka_submitting,agency_count_pe_submitting,agency_count_srs_submitting"
  } ],
  "pagination" : {
    "count" : 25,
    "page" : 0,
    "pages" : 2,
    "per_page" : 20
  }
}