{
  "results" : [ {
    "data_year" : 2019,
    "population" : 7449301,
    "total_agency_count" : 0,
    "published_agency_count" : 0,
    "active_agency_count" : 0,
    "covered_agency_count" : 0,
    "population_covered" : 0,
    "agency_count_nibrs_submitting" : 0,
    "agency_count_leoka_submitting" : 0,
    "agency_count_pe_submitting" : 0,
    "agency_count_srs_submitting" : 0,
    "state_id" : 53,
    "state_abbr" : "WA",
    "csv_header" : "data_year,population,total_agency_count,published_agency_count,active_agency_count,covered_agency_count,population_covered,agency_count_nibrs_submitting,agency_count_leoka_submitting,agency_count_pe_submitting,agency_count_srs_submitting"
  }, {
    "data_year" : 2018,
    "population" : 14148732,
    "total_agency_count" : 420,
    "published_agency_count" : 420,
    "active_agency_count" : 420,
    "covered_agency_count" : 0,
    "population_covered" : 0,
    "agency_count_nibrs_submitting" : 409,
    "agency_count_leoka_submitting" : 408,
    "agency_count_pe_submitting" : 420,
    "agency_count_srs_submitting" : 420,
    "state_id" : 53,
    "state_abbr" : "WA",
    "csv_header" : "data_year,population,total_agency_count,published_agency_count,active_agency_count,covered_agency_count,population_covered,agency_count_nibrs_submitting,agency_count_leoka_submitting,agency_count_pe_submitting,agency_count_srs_submitting"
  }, {
    "data_year" : 2017,
    "population" : 7452537,
    "total_agency_count" : 264,
    "published_agency_count" : 264,
    "active_agency_count" : 264,
    "covered_agency_count" : 0,
    "population_covered" : 0,
    "agency_count_nibrs_submitting" : 231,
    "agency_count_leoka_submitting" : 233,
    "agency_count_pe_submitting" : 264,
    "agency_count_srs_submitting" : 264,
    "state_id" : 53,
    "state_abbr" : "WA",
    "csv_header" : "data_year,population,total_agency_count,published_agency_count,active_agency_count,covered_agency_count,population_covered,agency_count_nibrs_submitting,agency_count_leoka_submitting,agency_count_pe_submitting,agency_count_srs_submitting"
  }, {
    "data_year" : 2016,
    "population" : 7830630,
    "total_agency_count" : 271,
    "published_agency_count" : 271,
    "active_agency_count" : 271,
    "covered_agency_count" : 0,
    "population_covered" : 0,
    "agency_count_nibrs_submitting" : 241,
    "agency_count_leoka_submitting" : 239,
    "agency_count_pe_submitting" : 271,
    "agency_count_srs_submitting" : 271,
    "state_id" : 53,
    "state_abbr" : "WA",
    "csv_header" : "data_year,population,total_agency_count,published_agency_count,active_agency_count,covered_agency_count,population_covered,agency_count_nibrs_submitting,agency_count_leoka_submitting,agency_count_pe_submitting,agency_count_srs_submitting"
  }, {
    "data_year" : 2015,
    "population" : 7865318,
    "total_agency_count" : 272,
    "published_agency_count" : 272,
    "active_agency_count" : 272,
    "covered_agency_count" : 0,
    "population_covered" : 0,
    "agency_count_nibrs_submitting" : 235,
    "agency_count_leoka_submitting" : 223,
    "agency_count_pe_submitting" : 272,
    "agency_count_srs_submitting" : 272,
    "state_id" : 53,
    "state_abbr" : "WA",
    "csv_header" : "data_year,population,total_agency_count,published_agency_count,active_agency_count,covered_agency_count,population_covered,agency_count_nibrs_submitting,agency_count_leoka_submitting,agency_count_pe_submitting,agency_count_srs_submitting"
  }, {
    "data_year" : 2014,
    "population" : 7796184,
    "total_agency_count" : 272,
    "published_agency_count" : 272,
    "active_agency_count" : 272,
    "covered_agency_count" : 0,
    "population_covered" : 0,
    "agency_count_nibrs_submitting" : 223,
    "agency_count_leoka_submitting" : 224,
    "agency_count_pe_submitting" : 272,
    "agency_count_srs_submitting" : 272,
    "state_id" : 53,
    "state_abbr" : "WA",
    "csv_header" : "data_year,population,total_agency_count,published_agency_count,active_agency_count,covered_agency_count,population_covered,agency_count_nibrs_submitting,agency_count_leoka_submitting,agency_count_pe_submitting,agency_count_srs_submitting"
  }, {
    "data_year" : 2013,
    "population" : 7723160,
    "total_agency_count" : 277,
    "published_agency_count" : 277,
    "active_agency_count" : 277,
    "covered_agency_count" : 0,
    "population_covered" : 0,
    "agency_count_nibrs_submitting" : 228,
    "agency_count_leoka_submitting" : 227,
    "agency_count_pe_submitting" : 277,
    "agency_count_srs_submitting" : 277,
    "state_id" : 53,
    "state_abbr" : "WA",
    "csv_header" : "data_year,population,total_agency_count,published_agency_count,active_agency_count,covered_agency_count,population_covered,agency_count_nibrs_submitting,agency_count_leoka_submitting,agency_count_pe_submitting,agency_count_srs_submitting"
  }, {
    "data_year" : 2012,
    "population" : 8090669,
    "total_agency_count" : 309,
    "published_agency_count" : 309,
    "active_agency_count" : 309,
    "covered_agency_count" : 0,
    "population_covered" : 0,
    "agency_count_nibrs_submitting" : 246,
    "agency_count_leoka_submitting" : 249,
    "agency_count_pe_submitting" : 309,
    "agency_count_srs_submitting" : 309,
    "state_id" : 53,
    "state_abbr" : "WA",
    "csv_header" : "data_year,population,total_agency_count,published_agency_count,active_agency_count,covered_agency_count,population_covered,agency_count_nibrs_submitting,agency_count_leoka_submitting,agency_count_pe_submitting,agency_count_srs_submitting"
  }, {
    "data_year" : 2011,
    "population" : 9111785,
    "total_agency_count" : 331,
    "published_agency_count" : 331,
    "active_agency_count" : 331,
    "covered_agency_count" : 0,
    "population_covered" : 0,
    "agency_count_nibrs_submitting" : 227,
    "agency_count_leoka_submitting" : 222,
    "agency_count_pe_submitting" : 331,
    "agency_count_srs_submitting" : 331,
    "state_id" : 53,
    "state_abbr" : "WA",
    "csv_header" : "data_year,population,total_agency_count,published_agency_count,active_agency_count,covered_agency_count,population_covered,agency_count_nibrs_submitting,agency_count_leoka_submitting,agency_count_pe_submitting,agency_count_srs_submitting"
  }, {
    "data_year" : 2010,
    "population" : 8001250,
    "total_agency_count" : 302,
    "published_agency_count" : 302,
    "active_agency_count" : 302,
    "covered_agency_count" : 0,
    "population_covered" : 0,
    "agency_count_nibrs_submitting" : 127,
    "agency_count_leoka_submitting" : 127,
    "agency_count_pe_submitting" : 302,
    "agency_count_srs_submitting" : 302,
    "state_id" : 53,
    "state_abbr" : "WA",
    "csv_header" : "data_year,population,total_agency_count,published_agency_count,active_agency_count,covered_agency_count,population_covered,agency_count_nibrs_submitting,agency_count_leoka_submitting,agency_count_pe_submitting,agency_count_srs_submitting"
  }, {
    "data_year" : 2009,
    "population" : 8037762,
    "total_agency_count" : 304,
    "published_agency_count" : 304,
    "active_agency_count" : 304,
    "covered_agency_count" : 0,
    "population_covered" : 0,
    "agency_count_nibrs_submitting" : 97,
    "agency_count_leoka_submitting" : 94,
    "agency_count_pe_submitting" : 304,
    "agency_count_srs_submitting" : 304,
    "state_id" : 53,
    "state_abbr" : "WA",
    "csv_header" : "data_year,population,total_agency_count,published_agency_count,active_agency_count,covered_agency_count,population_covered,agency_count_nibrs_submitting,agency_count_leoka_submitting,agency_count_pe_submitting,agency_count_srs_submitting"
  }, {
    "data_year" : 2008,
    "population" : 7422595,
    "total_agency_count" : 275,
    "published_agency_count" : 275,
    "active_agency_count" : 275,
    "covered_agency_count" : 0,
    "population_covered" : 0,
    "agency_count_nibrs_submitting" : 37,
    "agency_count_leoka_submitting" : 34,
    "agency_count_pe_submitting" : 275,
    "agency_count_srs_submitting" : 275,
    "state_id" : 53,
    "state_abbr" : "WA",
    "csv_header" : "data_year,population,total_agency_count,published_agency_count,active_agency_count,covered_agency_count,population_covered,agency_count_nibrs_submitting,agency_count_leoka_submitting,agency_count_pe_submitting,agency_count_srs_submitting"
  }, {
    "data_year" : 2007,
    "population" : 6583891,
    "total_agency_count" : 273,
    "published_agency_count" : 273,
    "active_agency_count" : 273,
    "covered_agency_count" : 0,
    "population_covered" : 0,
    "agency_count_nibrs_submitting" : 20,
    "agency_count_leoka_submitting" : 16,
    "agency_count_pe_submitting" : 273,
    "agency_count_srs_submitting" : 273,
    "state_id" : 53,
    "state_abbr" : "WA",
    "csv_header" : "data_year,population,total_agency_count,published_agency_count,active_agency_count,covered_agency_count,population_covered,agency_count_nibrs_submitting,agency_count_leoka_submitting,agency_count_pe_submitting,agency_count_srs_submitting"
  }, {
    "data_year" : 2006,
    "population" : 6688879,
    "total_agency_count" : 274,
    "published_agency_count" : 274,
    "active_agency_count" : 274,
    "covered_agency_count" : 0,
    "population_covered" : 0,
    "agency_count_nibrs_submitting" : 5,
    "agency_count_leoka_submitting" : 3,
    "agency_count_pe_submitting" : 274,
    "agency_count_srs_submitting" : 274,
    "state_id" : 53,
    "state_abbr" : "WA",
    "csv_header" : "data_year,population,total_agency_count,published_agency_count,active_agency_count,covered_agency_count,population_covered,agency_count_nibrs_submitting,agency_count_leoka_submitting,agency_count_pe_submitting,agency_count_srs_submitting"
  }, {
    "data_year" : 2005,
    "population" : 6855717,
    "total_agency_count" : 257,
    "published_agency_count" : 257,
    "active_agency_count" : 257,
    "covered_agency_count" : 0,
    "population_covered" : 0,
    "agency_count_nibrs_submitting" : 2,
    "agency_count_leoka_submitting" : 0,
    "agency_count_pe_submitting" : 257,
    "agency_count_srs_submitting" : 257,
    "state_id" : 53,
    "state_abbr" : "WA",
    "csv_header" : "data_year,population,total_agency_count,published_agency_count,active_agency_count,covered_agency_count,population_covered,agency_count_nibrs_submitting,agency_count_leoka_submitting,agency_count_pe_submitting,agency_count_srs_submitting"
  }, {
    "data_year" : 2004,
    "population" : 6879980,
    "total_agency_count" : 250,
    "published_agency_count" : 250,
    "active_agency_count" : 250,
    "covered_agency_count" : 0,
    "population_covered" : 0,
    "agency_count_nibrs_submitting" : 0,
    "agency_count_leoka_submitting" : 0,
    "agency_count_pe_submitting" : 250,
    "agency_count_srs_submitting" : 250,
    "state_id" : 53,
    "state_abbr" : "WA",
    "csv_header" : "data_year,population,total_agency_count,published_agency_count,active_agency_count,covered_agency_count,population_covered,agency_count_nibrs_submitting,agency_count_leoka_submitting,agency_count_pe_submitting,agency_count_srs_submitting"
  }, {
    "data_year" : 2003,
    "population" : 6927057,
    "total_agency_count" : 253,
    "published_agency_count" : 253,
    "active_agency_count" : 253,
    "covered_agency_count" : 0,
    "population_covered" : 0,
    "agency_count_nibrs_submitting" : 0,
    "agency_count_leoka_submitting" : 0,
    "agency_count_pe_submitting" : 253,
    "agency_count_srs_submitting" : 253,
    "state_id" : 53,
    "state_abbr" : "WA",
    "csv_header" : "data_year,population,total_agency_count,published_agency_count,active_agency_count,covered_agency_count,population_covered,agency_count_nibrs_submitting,agency_count_leoka_submitting,agency_count_pe_submitting,agency_count_srs_submitting"
  }, {
    "data_year" : 2002,
    "population" : 6804281,
    "total_agency_count" : 246,
    "published_agency_count" : 246,
    "active_agency_count" : 246,
    "covered_agency_count" : 0,
    "population_covered" : 0,
    "agency_count_nibrs_submitting" : 0,
    "agency_count_leoka_submitting" : 0,
    "agency_count_pe_submitting" : 246,
    "agency_count_srs_submitting" : 246,
    "state_id" : 53,
    "state_abbr" : "WA",
    "csv_header" : "data_year,population,total_agency_count,published_agency_count,active_agency_count,covered_agency_count,population_covered,agency_count_nibrs_submitting,agency_count_leoka_submitting,agency_count_pe_submitting,agency_count_srs_submitting"
  }, {
    "data_year" : 2001,
    "population" : 6600501,
    "total_agency_count" : 246,
    "published_agency_count" : 246,
    "active_agency_count" : 246,
    "covered_agency_count" : 0,
    "population_covered" : 0,
    "agency_count_nibrs_submitting" : 0,
    "agency_count_leoka_submitting" : 0,
    "agency_count_pe_submitting" : 246,
    "agency_count_srs_submitting" : 246,
    "state_id" : 53,
    "state_abbr" : "WA",
    "csv_header" : "data_year,population,total_agency_count,published_agency_count,active_agency_count,covered_agency_count,population_covered,agency_count_nibrs_submitting,agency_count_leoka_submitting,agency_count_pe_submitting,agency_count_srs_submitting"
  }, {
    "data_year" : 2000,
    "population" : 6964764,
    "total_agency_count" : 246,
    "published_agency_count" : 246,
    "active_agency_count" : 246,
    "covered_agency_count" : 0,
    "population_covered" : 0,
    "agency_count_nibrs_submitting" : 0,
    "agency_count_leoka_submitting" : 0,
    "agency_count_pe_submitting" : 246,
    "agency_count_srs_submitting" : 246,
    "state_id" : 53,
    "state_abbr" : "WA",
    "csv_header" : "data_year,population,total_agency_count,published_agency_count,active_agency_count,covered_agency_count,population_covered,agency_count_nibrs_submitting,agency_count_leoka_submitting,agency_count_pe_submitting,agency_count_srs_submitting"
  } ],
  "pagination" : {
    "count" : 25,
    "page" : 0,
    "pages" : 2,
    "per_page" : 20
  }
}