{
  "results" : [ {
    "data_year" : 2019,
    "population" : 5904455,
    "total_agency_count" : 0,
    "published_agency_count" : 0,
    "active_agency_count" : 0,
    "covered_agency_count" : 0,
    "population_covered" : 0,
    "agency_count_nibrs_submitting" : 0,
    "agency_count_leoka_submitting" : 0,
    "agency_count_pe_submitting" : 0,
    "agency_count_srs_submitting" : 0,
    "state_id" : 54,
    "state_abbr" : "WI",
    "csv_header" : "data_year,population,total_agency_count,published_agency_count,active_agency_count,covered_agency_count,population_covered,agency_count_nibrs_submitting,agency_count_leoka_submitting,agency_count_pe_submitting,agency_count_srs_submitting"
  }, {
    "data_year" : 2018,
    "population" : 8426568,
    "total_agency_count" : 257,
    "published_agency_count" : 257,
    "active_agency_count" : 257,
    "covered_agency_count" : 0,
    "population_covered" : 0,
    "agency_count_nibrs_submitting" : 255,
    "agency_count_leoka_submitting" : 257,
    "agency_count_pe_submitting" : 257,
    "agency_count_srs_submitting" : 257,
    "state_id" : 54,
    "state_abbr" : "WI",
    "csv_header" : "data_year,population,total_agency_count,published_agency_count,active_agency_count,covered_agency_count,population_covered,agency_count_nibrs_submitting,agency_count_leoka_submitting,agency_count_pe_submitting,agency_count_srs_submitting"
  }, {
    "data_year" : 2017,
    "population" : 5904455,
    "total_agency_count" : 438,
    "published_agency_count" : 438,
    "active_agency_count" : 438,
    "covered_agency_count" : 0,
    "population_covered" : 0,
    "agency_count_nibrs_submitting" : 147,
    "agency_count_leoka_submitting" : 145,
    "agency_count_pe_submitting" : 438,
    "agency_count_srs_submitting" : 438,
    "state_id" : 54,
    "state_abbr" : "WI",
    "csv_header" : "data_year,population,total_agency_count,published_agency_count,active_agency_count,covered_agency_count,population_covered,agency_count_nibrs_submitting,agency_count_leoka_submitting,agency_count_pe_submitting,agency_count_srs_submitting"
  }, {
    "data_year" : 2016,
    "population" : 5898519,
    "total_agency_count" : 421,
    "published_agency_count" : 420,
    "active_agency_count" : 420,
    "covered_agency_count" : 0,
    "population_covered" : 0,
    "agency_count_nibrs_submitting" : 138,
    "agency_count_leoka_submitting" : 116,
    "agency_count_pe_submitting" : 421,
    "agency_count_srs_submitting" : 421,
    "state_id" : 54,
    "state_abbr" : "WI",
    "csv_header" : "data_year,population,total_agency_count,published_agency_count,active_agency_count,covered_agency_count,population_covered,agency_count_nibrs_submitting,agency_count_leoka_submitting,agency_count_pe_submitting,agency_count_srs_submitting"
  }, {
    "data_year" : 2015,
    "population" : 5923676,
    "total_agency_count" : 396,
    "published_agency_count" : 396,
    "active_agency_count" : 396,
    "covered_agency_count" : 0,
    "population_covered" : 0,
    "agency_count_nibrs_submitting" : 112,
    "agency_count_leoka_submitting" : 104,
    "agency_count_pe_submitting" : 396,
    "agency_count_srs_submitting" : 396,
    "state_id" : 54,
    "state_abbr" : "WI",
    "csv_header" : "data_year,population,total_agency_count,published_agency_count,active_agency_count,covered_agency_count,population_covered,agency_count_nibrs_submitting,agency_count_leoka_submitting,agency_count_pe_submitting,agency_count_srs_submitting"
  }, {
    "data_year" : 2014,
    "population" : 5974186,
    "total_agency_count" : 393,
    "published_agency_count" : 393,
    "active_agency_count" : 393,
    "covered_agency_count" : 0,
    "population_covered" : 0,
    "agency_count_nibrs_submitting" : 101,
    "agency_count_leoka_submitting" : 98,
    "agency_count_pe_submitting" : 393,
    "agency_count_srs_submitting" : 393,
    "state_id" : 54,
    "state_abbr" : "WI",
    "csv_header" : "data_year,population,total_agency_count,published_agency_count,active_agency_count,covered_agency_count,population_covered,agency_count_nibrs_submitting,agency_count_leoka_submitting,agency_count_pe_submitting,agency_count_srs_submitting"
  }, {
    "data_year" : 2013,
    "population" : 5948936,
    "total_agency_count" : 400,
    "published_agency_count" : 400,
    "active_agency_count" : 400,
    "covered_agency_count" : 0,
    "population_covered" : 0,
    "agency_count_nibrs_submitting" : 98,
    "agency_count_leoka_submitting" : 94,
    "agency_count_pe_submitting" : 400,
    "agency_count_srs_submitting" : 400,
    "state_id" : 54,
    "state_abbr" : "WI",
    "csv_header" : "data_year,population,total_agency_count,published_agency_count,active_agency_count,covered_agency_count,population_covered,agency_count_nibrs_submitting,agency_count_leoka_submitting,agency_count_pe_submitting,agency_count_srs_submitting"
  }, {
    "data_year" : 2012,
    "population" : 6021759,
    "total_agency_count" : 392,
    "published_agency_count" : 392,
    "active_agency_count" : 392,
    "covered_agency_count" : 0,
    "population_covered" : 0,
    "agency_count_nibrs_submitting" : 83,
    "agency_count_leoka_submitting" : 85,
    "agency_count_pe_submitting" : 392,
    "agency_count_srs_submitting" : 392,
    "state_id" : 54,
    "state_abbr" : "WI",
    "csv_header" : "data_year,population,total_agency_count,published_agency_count,active_agency_count,covered_agency_count,population_covered,agency_count_nibrs_submitting,agency_count_leoka_submitting,agency_count_pe_submitting,agency_count_srs_submitting"
  }, {
    "data_year" : 2011,
    "population" : 6082100,
    "total_agency_count" : 399,
    "published_agency_count" : 399,
    "active_agency_count" : 399,
    "covered_agency_count" : 0,
    "population_covered" : 0,
    "agency_count_nibrs_submitting" : 89,
    "agency_count_leoka_submitting" : 93,
    "agency_count_pe_submitting" : 399,
    "agency_count_srs_submitting" : 399,
    "state_id" : 54,
    "state_abbr" : "WI",
    "csv_header" : "data_year,population,total_agency_count,published_agency_count,active_agency_count,covered_agency_count,population_covered,agency_count_nibrs_submitting,agency_count_leoka_submitting,agency_count_pe_submitting,agency_count_srs_submitting"
  }, {
    "data_year" : 2010,
    "population" : 6168682,
    "total_agency_count" : 393,
    "published_agency_count" : 393,
    "active_agency_count" : 393,
    "covered_agency_count" : 0,
    "population_covered" : 0,
    "agency_count_nibrs_submitting" : 81,
    "agency_count_leoka_submitting" : 84,
    "agency_count_pe_submitting" : 393,
    "agency_count_srs_submitting" : 393,
    "state_id" : 54,
    "state_abbr" : "WI",
    "csv_header" : "data_year,population,total_agency_count,published_agency_count,active_agency_count,covered_agency_count,population_covered,agency_count_nibrs_submitting,agency_count_leoka_submitting,agency_count_pe_submitting,agency_count_srs_submitting"
  }, {
    "data_year" : 2009,
    "population" : 5831611,
    "total_agency_count" : 393,
    "published_agency_count" : 393,
    "active_agency_count" : 393,
    "covered_agency_count" : 0,
    "population_covered" : 0,
    "agency_count_nibrs_submitting" : 71,
    "agency_count_leoka_submitting" : 64,
    "agency_count_pe_submitting" : 393,
    "agency_count_srs_submitting" : 393,
    "state_id" : 54,
    "state_abbr" : "WI",
    "csv_header" : "data_year,population,total_agency_count,published_agency_count,active_agency_count,covered_agency_count,population_covered,agency_count_nibrs_submitting,agency_count_leoka_submitting,agency_count_pe_submitting,agency_count_srs_submitting"
  }, {
    "data_year" : 2008,
    "population" : 5899106,
    "total_agency_count" : 388,
    "published_agency_count" : 388,
    "active_agency_count" : 388,
    "covered_agency_count" : 0,
    "population_covered" : 0,
    "agency_count_nibrs_submitting" : 40,
    "agency_count_leoka_submitting" : 37,
    "agency_count_pe_submitting" : 388,
    "agency_count_srs_submitting" : 388,
    "state_id" : 54,
    "state_abbr" : "WI",
    "csv_header" : "data_year,population,total_agency_count,published_agency_count,active_agency_count,covered_agency_count,population_covered,agency_count_nibrs_submitting,agency_count_leoka_submitting,agency_count_pe_submitting,agency_count_srs_submitting"
  }, {
    "data_year" : 2007,
    "population" : 5978650,
    "total_agency_count" : 385,
    "published_agency_count" : 385,
    "active_agency_count" : 385,
    "covered_agency_count" : 0,
    "population_covered" : 0,
    "agency_count_nibrs_submitting" : 32,
    "agency_count_leoka_submitting" : 27,
    "agency_count_pe_submitting" : 385,
    "agency_count_srs_submitting" : 385,
    "state_id" : 54,
    "state_abbr" : "WI",
    "csv_header" : "data_year,population,total_agency_count,published_agency_count,active_agency_count,covered_agency_count,population_covered,agency_count_nibrs_submitting,agency_count_leoka_submitting,agency_count_pe_submitting,agency_count_srs_submitting"
  }, {
    "data_year" : 2006,
    "population" : 6107968,
    "total_agency_count" : 390,
    "published_agency_count" : 390,
    "active_agency_count" : 390,
    "covered_agency_count" : 0,
    "population_covered" : 0,
    "agency_count_nibrs_submitting" : 34,
    "agency_count_leoka_submitting" : 7,
    "agency_count_pe_submitting" : 390,
    "agency_count_srs_submitting" : 390,
    "state_id" : 54,
    "state_abbr" : "WI",
    "csv_header" : "data_year,population,total_agency_count,published_agency_count,active_agency_count,covered_agency_count,population_covered,agency_count_nibrs_submitting,agency_count_leoka_submitting,agency_count_pe_submitting,agency_count_srs_submitting"
  }, {
    "data_year" : 2005,
    "population" : 5876056,
    "total_agency_count" : 364,
    "published_agency_count" : 364,
    "active_agency_count" : 364,
    "covered_agency_count" : 0,
    "population_covered" : 0,
    "agency_count_nibrs_submitting" : 8,
    "agency_count_leoka_submitting" : 6,
    "agency_count_pe_submitting" : 364,
    "agency_count_srs_submitting" : 364,
    "state_id" : 54,
    "state_abbr" : "WI",
    "csv_header" : "data_year,population,total_agency_count,published_agency_count,active_agency_count,covered_agency_count,population_covered,agency_count_nibrs_submitting,agency_count_leoka_submitting,agency_count_pe_submitting,agency_count_srs_submitting"
  }, {
    "data_year" : 2004,
    "population" : 6022713,
    "total_agency_count" : 371,
    "published_agency_count" : 371,
    "active_agency_count" : 371,
    "covered_agency_count" : 0,
    "population_covered" : 0,
    "agency_count_nibrs_submitting" : 3,
    "agency_count_leoka_submitting" : 0,
    "agency_count_pe_submitting" : 371,
    "agency_count_srs_submitting" : 371,
    "state_id" : 54,
    "state_abbr" : "WI",
    "csv_header" : "data_year,population,total_agency_count,published_agency_count,active_agency_count,covered_agency_count,population_covered,agency_count_nibrs_submitting,agency_count_leoka_submitting,agency_count_pe_submitting,agency_count_srs_submitting"
  }, {
    "data_year" : 2003,
    "population" : 6526235,
    "total_agency_count" : 371,
    "published_agency_count" : 371,
    "active_agency_count" : 371,
    "covered_agency_count" : 0,
    "population_covered" : 0,
    "agency_count_nibrs_submitting" : 0,
    "agency_count_leoka_submitting" : 0,
    "agency_count_pe_submitting" : 371,
    "agency_count_srs_submitting" : 371,
    "state_id" : 54,
    "state_abbr" : "WI",
    "csv_header" : "data_year,population,total_agency_count,published_agency_count,active_agency_count,covered_agency_count,population_covered,agency_count_nibrs_submitting,agency_count_leoka_submitting,agency_count_pe_submitting,agency_count_srs_submitting"
  }, {
    "data_year" : 2002,
    "population" : 5899168,
    "total_agency_count" : 365,
    "published_agency_count" : 365,
    "active_agency_count" : 365,
    "covered_agency_count" : 0,
    "population_covered" : 0,
    "agency_count_nibrs_submitting" : 0,
    "agency_count_leoka_submitting" : 0,
    "agency_count_pe_submitting" : 365,
    "agency_count_srs_submitting" : 365,
    "state_id" : 54,
    "state_abbr" : "WI",
    "csv_header" : "data_year,population,total_agency_count,published_agency_count,active_agency_count,covered_agency_count,population_covered,agency_count_nibrs_submitting,agency_count_leoka_submitting,agency_count_pe_submitting,agency_count_srs_submitting"
  }, {
    "data_year" : 2001,
    "population" : 5629110,
    "total_agency_count" : 358,
    "published_agency_count" : 358,
    "active_agency_count" : 358,
    "covered_agency_count" : 0,
    "population_covered" : 0,
    "agency_count_nibrs_submitting" : 0,
    "agency_count_leoka_submitting" : 0,
    "agency_count_pe_submitting" : 358,
    "agency_count_srs_submitting" : 358,
    "state_id" : 54,
    "state_abbr" : "WI",
    "csv_header" : "data_year,population,total_agency_count,published_agency_count,active_agency_count,covered_agency_count,population_covered,agency_count_nibrs_submitting,agency_count_leoka_submitting,agency_count_pe_submitting,agency_count_srs_submitting"
  }, {
    "data_year" : 2000,
    "population" : 6268836,
    "total_agency_count" : 349,
    "published_agency_count" : 349,
    "active_agency_count" : 349,
    "covered_agency_count" : 0,
    "population_covered" : 0,
    "agency_count_nibrs_submitting" : 0,
    "agency_count_leoka_submitting" : 0,
    "agency_count_pe_submitting" : 349,
    "agency_count_srs_submitting" : 349,
    "state_id" : 54,
    "state_abbr" : "WI",
    "csv_header" : "data_year,population,total_agency_count,published_agency_count,active_agency_count,covered_agency_count,population_covered,agency_count_nibrs_submitting,agency_count_leoka_submitting,agency_count_pe_submitting,agency_count_srs_submitting"
  } ],
  "pagination" : {
    "count" : 25,
    "page" : 0,
    "pages" : 2,
    "per_page" : 20
  }
}