{
  "results" : [ {
    "data_year" : 2019,
    "population" : 1828820,
    "total_agency_count" : 0,
    "published_agency_count" : 0,
    "active_agency_count" : 0,
    "covered_agency_count" : 0,
    "population_covered" : 0,
    "agency_count_nibrs_submitting" : 0,
    "agency_count_leoka_submitting" : 0,
    "agency_count_pe_submitting" : 0,
    "agency_count_srs_submitting" : 0,
    "state_id" : 55,
    "state_abbr" : "WV",
    "csv_header" : "data_year,population,total_agency_count,published_agency_count,active_agency_count,covered_agency_count,population_covered,agency_count_nibrs_submitting,agency_count_leoka_submitting,agency_count_pe_submitting,agency_count_srs_submitting"
  }, {
    "data_year" : 2018,
    "population" : 3041963,
    "total_agency_count" : 360,
    "published_agency_count" : 358,
    "active_agency_count" : 360,
    "covered_agency_count" : 2,
    "population_covered" : 0,
    "agency_count_nibrs_submitting" : 360,
    "agency_count_leoka_submitting" : 358,
    "agency_count_pe_submitting" : 360,
    "agency_count_srs_submitting" : 360,
    "state_id" : 55,
    "state_abbr" : "WV",
    "csv_header" : "data_year,population,total_agency_count,published_agency_count,active_agency_count,covered_agency_count,population_covered,agency_count_nibrs_submitting,agency_count_leoka_submitting,agency_count_pe_submitting,agency_count_srs_submitting"
  }, {
    "data_year" : 2017,
    "population" : 1828820,
    "total_agency_count" : 245,
    "published_agency_count" : 245,
    "active_agency_count" : 245,
    "covered_agency_count" : 0,
    "population_covered" : 0,
    "agency_count_nibrs_submitting" : 245,
    "agency_count_leoka_submitting" : 244,
    "agency_count_pe_submitting" : 245,
    "agency_count_srs_submitting" : 245,
    "state_id" : 55,
    "state_abbr" : "WV",
    "csv_header" : "data_year,population,total_agency_count,published_agency_count,active_agency_count,covered_agency_count,population_covered,agency_count_nibrs_submitting,agency_count_leoka_submitting,agency_count_pe_submitting,agency_count_srs_submitting"
  }, {
    "data_year" : 2016,
    "population" : 2070862,
    "total_agency_count" : 353,
    "published_agency_count" : 353,
    "active_agency_count" : 353,
    "covered_agency_count" : 0,
    "population_covered" : 0,
    "agency_count_nibrs_submitting" : 353,
    "agency_count_leoka_submitting" : 329,
    "agency_count_pe_submitting" : 353,
    "agency_count_srs_submitting" : 353,
    "state_id" : 55,
    "state_abbr" : "WV",
    "csv_header" : "data_year,population,total_agency_count,published_agency_count,active_agency_count,covered_agency_count,population_covered,agency_count_nibrs_submitting,agency_count_leoka_submitting,agency_count_pe_submitting,agency_count_srs_submitting"
  }, {
    "data_year" : 2015,
    "population" : 2329806,
    "total_agency_count" : 293,
    "published_agency_count" : 293,
    "active_agency_count" : 293,
    "covered_agency_count" : 0,
    "population_covered" : 0,
    "agency_count_nibrs_submitting" : 293,
    "agency_count_leoka_submitting" : 287,
    "agency_count_pe_submitting" : 293,
    "agency_count_srs_submitting" : 293,
    "state_id" : 55,
    "state_abbr" : "WV",
    "csv_header" : "data_year,population,total_agency_count,published_agency_count,active_agency_count,covered_agency_count,population_covered,agency_count_nibrs_submitting,agency_count_leoka_submitting,agency_count_pe_submitting,agency_count_srs_submitting"
  }, {
    "data_year" : 2014,
    "population" : 2550526,
    "total_agency_count" : 294,
    "published_agency_count" : 294,
    "active_agency_count" : 294,
    "covered_agency_count" : 0,
    "population_covered" : 0,
    "agency_count_nibrs_submitting" : 294,
    "agency_count_leoka_submitting" : 285,
    "agency_count_pe_submitting" : 294,
    "agency_count_srs_submitting" : 294,
    "state_id" : 55,
    "state_abbr" : "WV",
    "csv_header" : "data_year,population,total_agency_count,published_agency_count,active_agency_count,covered_agency_count,population_covered,agency_count_nibrs_submitting,agency_count_leoka_submitting,agency_count_pe_submitting,agency_count_srs_submitting"
  }, {
    "data_year" : 2013,
    "population" : 2132339,
    "total_agency_count" : 275,
    "published_agency_count" : 275,
    "active_agency_count" : 275,
    "covered_agency_count" : 0,
    "population_covered" : 0,
    "agency_count_nibrs_submitting" : 275,
    "agency_count_leoka_submitting" : 267,
    "agency_count_pe_submitting" : 275,
    "agency_count_srs_submitting" : 275,
    "state_id" : 55,
    "state_abbr" : "WV",
    "csv_header" : "data_year,population,total_agency_count,published_agency_count,active_agency_count,covered_agency_count,population_covered,agency_count_nibrs_submitting,agency_count_leoka_submitting,agency_count_pe_submitting,agency_count_srs_submitting"
  }, {
    "data_year" : 2012,
    "population" : 2101925,
    "total_agency_count" : 301,
    "published_agency_count" : 301,
    "active_agency_count" : 301,
    "covered_agency_count" : 0,
    "population_covered" : 0,
    "agency_count_nibrs_submitting" : 301,
    "agency_count_leoka_submitting" : 287,
    "agency_count_pe_submitting" : 301,
    "agency_count_srs_submitting" : 301,
    "state_id" : 55,
    "state_abbr" : "WV",
    "csv_header" : "data_year,population,total_agency_count,published_agency_count,active_agency_count,covered_agency_count,population_covered,agency_count_nibrs_submitting,agency_count_leoka_submitting,agency_count_pe_submitting,agency_count_srs_submitting"
  }, {
    "data_year" : 2011,
    "population" : 2508635,
    "total_agency_count" : 329,
    "published_agency_count" : 329,
    "active_agency_count" : 329,
    "covered_agency_count" : 0,
    "population_covered" : 0,
    "agency_count_nibrs_submitting" : 329,
    "agency_count_leoka_submitting" : 306,
    "agency_count_pe_submitting" : 329,
    "agency_count_srs_submitting" : 329,
    "state_id" : 55,
    "state_abbr" : "WV",
    "csv_header" : "data_year,population,total_agency_count,published_agency_count,active_agency_count,covered_agency_count,population_covered,agency_count_nibrs_submitting,agency_count_leoka_submitting,agency_count_pe_submitting,agency_count_srs_submitting"
  }, {
    "data_year" : 2010,
    "population" : 2511368,
    "total_agency_count" : 400,
    "published_agency_count" : 400,
    "active_agency_count" : 400,
    "covered_agency_count" : 0,
    "population_covered" : 0,
    "agency_count_nibrs_submitting" : 400,
    "agency_count_leoka_submitting" : 369,
    "agency_count_pe_submitting" : 400,
    "agency_count_srs_submitting" : 400,
    "state_id" : 55,
    "state_abbr" : "WV",
    "csv_header" : "data_year,population,total_agency_count,published_agency_count,active_agency_count,covered_agency_count,population_covered,agency_count_nibrs_submitting,agency_count_leoka_submitting,agency_count_pe_submitting,agency_count_srs_submitting"
  }, {
    "data_year" : 2009,
    "population" : 2393190,
    "total_agency_count" : 356,
    "published_agency_count" : 356,
    "active_agency_count" : 356,
    "covered_agency_count" : 0,
    "population_covered" : 0,
    "agency_count_nibrs_submitting" : 355,
    "agency_count_leoka_submitting" : 323,
    "agency_count_pe_submitting" : 356,
    "agency_count_srs_submitting" : 356,
    "state_id" : 55,
    "state_abbr" : "WV",
    "csv_header" : "data_year,population,total_agency_count,published_agency_count,active_agency_count,covered_agency_count,population_covered,agency_count_nibrs_submitting,agency_count_leoka_submitting,agency_count_pe_submitting,agency_count_srs_submitting"
  }, {
    "data_year" : 2008,
    "population" : 2340627,
    "total_agency_count" : 429,
    "published_agency_count" : 429,
    "active_agency_count" : 429,
    "covered_agency_count" : 0,
    "population_covered" : 0,
    "agency_count_nibrs_submitting" : 425,
    "agency_count_leoka_submitting" : 336,
    "agency_count_pe_submitting" : 429,
    "agency_count_srs_submitting" : 429,
    "state_id" : 55,
    "state_abbr" : "WV",
    "csv_header" : "data_year,population,total_agency_count,published_agency_count,active_agency_count,covered_agency_count,population_covered,agency_count_nibrs_submitting,agency_count_leoka_submitting,agency_count_pe_submitting,agency_count_srs_submitting"
  }, {
    "data_year" : 2007,
    "population" : 2365317,
    "total_agency_count" : 405,
    "published_agency_count" : 405,
    "active_agency_count" : 405,
    "covered_agency_count" : 0,
    "population_covered" : 0,
    "agency_count_nibrs_submitting" : 403,
    "agency_count_leoka_submitting" : 294,
    "agency_count_pe_submitting" : 405,
    "agency_count_srs_submitting" : 405,
    "state_id" : 55,
    "state_abbr" : "WV",
    "csv_header" : "data_year,population,total_agency_count,published_agency_count,active_agency_count,covered_agency_count,population_covered,agency_count_nibrs_submitting,agency_count_leoka_submitting,agency_count_pe_submitting,agency_count_srs_submitting"
  }, {
    "data_year" : 2006,
    "population" : 2250145,
    "total_agency_count" : 472,
    "published_agency_count" : 472,
    "active_agency_count" : 472,
    "covered_agency_count" : 0,
    "population_covered" : 0,
    "agency_count_nibrs_submitting" : 466,
    "agency_count_leoka_submitting" : 338,
    "agency_count_pe_submitting" : 472,
    "agency_count_srs_submitting" : 472,
    "state_id" : 55,
    "state_abbr" : "WV",
    "csv_header" : "data_year,population,total_agency_count,published_agency_count,active_agency_count,covered_agency_count,population_covered,agency_count_nibrs_submitting,agency_count_leoka_submitting,agency_count_pe_submitting,agency_count_srs_submitting"
  }, {
    "data_year" : 2005,
    "population" : 2109327,
    "total_agency_count" : 391,
    "published_agency_count" : 391,
    "active_agency_count" : 391,
    "covered_agency_count" : 0,
    "population_covered" : 0,
    "agency_count_nibrs_submitting" : 384,
    "agency_count_leoka_submitting" : 284,
    "agency_count_pe_submitting" : 391,
    "agency_count_srs_submitting" : 391,
    "state_id" : 55,
    "state_abbr" : "WV",
    "csv_header" : "data_year,population,total_agency_count,published_agency_count,active_agency_count,covered_agency_count,population_covered,agency_count_nibrs_submitting,agency_count_leoka_submitting,agency_count_pe_submitting,agency_count_srs_submitting"
  }, {
    "data_year" : 2004,
    "population" : 2173620,
    "total_agency_count" : 415,
    "published_agency_count" : 415,
    "active_agency_count" : 415,
    "covered_agency_count" : 0,
    "population_covered" : 0,
    "agency_count_nibrs_submitting" : 407,
    "agency_count_leoka_submitting" : 291,
    "agency_count_pe_submitting" : 415,
    "agency_count_srs_submitting" : 415,
    "state_id" : 55,
    "state_abbr" : "WV",
    "csv_header" : "data_year,population,total_agency_count,published_agency_count,active_agency_count,covered_agency_count,population_covered,agency_count_nibrs_submitting,agency_count_leoka_submitting,agency_count_pe_submitting,agency_count_srs_submitting"
  }, {
    "data_year" : 2003,
    "population" : 2803078,
    "total_agency_count" : 522,
    "published_agency_count" : 522,
    "active_agency_count" : 522,
    "covered_agency_count" : 0,
    "population_covered" : 0,
    "agency_count_nibrs_submitting" : 511,
    "agency_count_leoka_submitting" : 0,
    "agency_count_pe_submitting" : 522,
    "agency_count_srs_submitting" : 522,
    "state_id" : 55,
    "state_abbr" : "WV",
    "csv_header" : "data_year,population,total_agency_count,published_agency_count,active_agency_count,covered_agency_count,population_covered,agency_count_nibrs_submitting,agency_count_leoka_submitting,agency_count_pe_submitting,agency_count_srs_submitting"
  }, {
    "data_year" : 2002,
    "population" : 2692077,
    "total_agency_count" : 386,
    "published_agency_count" : 386,
    "active_agency_count" : 386,
    "covered_agency_count" : 0,
    "population_covered" : 0,
    "agency_count_nibrs_submitting" : 379,
    "agency_count_leoka_submitting" : 0,
    "agency_count_pe_submitting" : 386,
    "agency_count_srs_submitting" : 386,
    "state_id" : 55,
    "state_abbr" : "WV",
    "csv_header" : "data_year,population,total_agency_count,published_agency_count,active_agency_count,covered_agency_count,population_covered,agency_count_nibrs_submitting,agency_count_leoka_submitting,agency_count_pe_submitting,agency_count_srs_submitting"
  }, {
    "data_year" : 2001,
    "population" : 2364529,
    "total_agency_count" : 354,
    "published_agency_count" : 354,
    "active_agency_count" : 354,
    "covered_agency_count" : 0,
    "population_covered" : 0,
    "agency_count_nibrs_submitting" : 343,
    "agency_count_leoka_submitting" : 0,
    "agency_count_pe_submitting" : 354,
    "agency_count_srs_submitting" : 354,
    "state_id" : 55,
    "state_abbr" : "WV",
    "csv_header" : "data_year,population,total_agency_count,published_agency_count,active_agency_count,covered_agency_count,population_covered,agency_count_nibrs_submitting,agency_count_leoka_submitting,agency_count_pe_submitting,agency_count_srs_submitting"
  }, {
    "data_year" : 2000,
    "population" : 2610193,
    "total_agency_count" : 354,
    "published_agency_count" : 354,
    "active_agency_count" : 354,
    "covered_agency_count" : 0,
    "population_covered" : 0,
    "agency_count_nibrs_submitting" : 354,
    "agency_count_leoka_submitting" : 0,
    "agency_count_pe_submitting" : 354,
    "agency_count_srs_submitting" : 354,
    "state_id" : 55,
    "state_abbr" : "WV",
    "csv_header" : "data_year,population,total_agency_count,published_agency_count,active_agency_count,covered_agency_count,population_covered,agency_count_nibrs_submitting,agency_count_leoka_submitting,agency_count_pe_submitting,agency_count_srs_submitting"
  } ],
  "pagination" : {
    "count" : 25,
    "page" : 0,
    "pages" : 2,
    "per_page" : 20
  }
}