{
  "results" : [ {
    "data_year" : 2019,
    "population" : 69571490,
    "total_agency_count" : 0,
    "published_agency_count" : 0,
    "active_agency_count" : 0,
    "covered_agency_count" : 0,
    "population_covered" : 0,
    "agency_count_nibrs_submitting" : 0,
    "agency_count_leoka_submitting" : 0,
    "agency_count_pe_submitting" : 0,
    "agency_count_srs_submitting" : 0,
    "region_code" : 2,
    "region_name" : "Midwest",
    "csv_header" : "data_year,population,total_agency_count,published_agency_count,active_agency_count,covered_agency_count,population_covered,agency_count_nibrs_submitting,agency_count_leoka_submitting,agency_count_pe_submitting,agency_count_srs_submitting"
  }, {
    "data_year" : 2018,
    "population" : 98073634,
    "total_agency_count" : 5079,
    "published_agency_count" : 5079,
    "active_agency_count" : 5079,
    "covered_agency_count" : 0,
    "population_covered" : 0,
    "agency_count_nibrs_submitting" : 3944,
    "agency_count_leoka_submitting" : 2500,
    "agency_count_pe_submitting" : 5079,
    "agency_count_srs_submitting" : 5079,
    "region_code" : 2,
    "region_name" : "Midwest",
    "csv_header" : "data_year,population,total_agency_count,published_agency_count,active_agency_count,covered_agency_count,population_covered,agency_count_nibrs_submitting,agency_count_leoka_submitting,agency_count_pe_submitting,agency_count_srs_submitting"
  }, {
    "data_year" : 2017,
    "population" : 69619651,
    "total_agency_count" : 4740,
    "published_agency_count" : 4737,
    "active_agency_count" : 4740,
    "covered_agency_count" : 3,
    "population_covered" : 2725,
    "agency_count_nibrs_submitting" : 2399,
    "agency_count_leoka_submitting" : 1399,
    "agency_count_pe_submitting" : 4740,
    "agency_count_srs_submitting" : 4740,
    "region_code" : 2,
    "region_name" : "Midwest",
    "csv_header" : "data_year,population,total_agency_count,published_agency_count,active_agency_count,covered_agency_count,population_covered,agency_count_nibrs_submitting,agency_count_leoka_submitting,agency_count_pe_submitting,agency_count_srs_submitting"
  }, {
    "data_year" : 2016,
    "population" : 73131189,
    "total_agency_count" : 5107,
    "published_agency_count" : 5099,
    "active_agency_count" : 5106,
    "covered_agency_count" : 7,
    "population_covered" : 80974,
    "agency_count_nibrs_submitting" : 2621,
    "agency_count_leoka_submitting" : 1315,
    "agency_count_pe_submitting" : 5107,
    "agency_count_srs_submitting" : 5107,
    "region_code" : 2,
    "region_name" : "Midwest",
    "csv_header" : "data_year,population,total_agency_count,published_agency_count,active_agency_count,covered_agency_count,population_covered,agency_count_nibrs_submitting,agency_count_leoka_submitting,agency_count_pe_submitting,agency_count_srs_submitting"
  }, {
    "data_year" : 2015,
    "population" : 73750796,
    "total_agency_count" : 5147,
    "published_agency_count" : 5147,
    "active_agency_count" : 5147,
    "covered_agency_count" : 0,
    "population_covered" : 0,
    "agency_count_nibrs_submitting" : 2618,
    "agency_count_leoka_submitting" : 1081,
    "agency_count_pe_submitting" : 5147,
    "agency_count_srs_submitting" : 5147,
    "region_code" : 2,
    "region_name" : "Midwest",
    "csv_header" : "data_year,population,total_agency_count,published_agency_count,active_agency_count,covered_agency_count,population_covered,agency_count_nibrs_submitting,agency_count_leoka_submitting,agency_count_pe_submitting,agency_count_srs_submitting"
  }, {
    "data_year" : 2014,
    "population" : 73600906,
    "total_agency_count" : 5121,
    "published_agency_count" : 5121,
    "active_agency_count" : 5121,
    "covered_agency_count" : 0,
    "population_covered" : 0,
    "agency_count_nibrs_submitting" : 2649,
    "agency_count_leoka_submitting" : 1090,
    "agency_count_pe_submitting" : 5121,
    "agency_count_srs_submitting" : 5121,
    "region_code" : 2,
    "region_name" : "Midwest",
    "csv_header" : "data_year,population,total_agency_count,published_agency_count,active_agency_count,covered_agency_count,population_covered,agency_count_nibrs_submitting,agency_count_leoka_submitting,agency_count_pe_submitting,agency_count_srs_submitting"
  }, {
    "data_year" : 2013,
    "population" : 74104060,
    "total_agency_count" : 5188,
    "published_agency_count" : 5188,
    "active_agency_count" : 5188,
    "covered_agency_count" : 0,
    "population_covered" : 0,
    "agency_count_nibrs_submitting" : 2671,
    "agency_count_leoka_submitting" : 997,
    "agency_count_pe_submitting" : 5188,
    "agency_count_srs_submitting" : 5188,
    "region_code" : 2,
    "region_name" : "Midwest",
    "csv_header" : "data_year,population,total_agency_count,published_agency_count,active_agency_count,covered_agency_count,population_covered,agency_count_nibrs_submitting,agency_count_leoka_submitting,agency_count_pe_submitting,agency_count_srs_submitting"
  }, {
    "data_year" : 2012,
    "population" : 73790632,
    "total_agency_count" : 5100,
    "published_agency_count" : 5100,
    "active_agency_count" : 5100,
    "covered_agency_count" : 0,
    "population_covered" : 0,
    "agency_count_nibrs_submitting" : 2451,
    "agency_count_leoka_submitting" : 962,
    "agency_count_pe_submitting" : 5100,
    "agency_count_srs_submitting" : 5100,
    "region_code" : 2,
    "region_name" : "Midwest",
    "csv_header" : "data_year,population,total_agency_count,published_agency_count,active_agency_count,covered_agency_count,population_covered,agency_count_nibrs_submitting,agency_count_leoka_submitting,agency_count_pe_submitting,agency_count_srs_submitting"
  }, {
    "data_year" : 2011,
    "population" : 72444821,
    "total_agency_count" : 5045,
    "published_agency_count" : 5045,
    "active_agency_count" : 5045,
    "covered_agency_count" : 0,
    "population_covered" : 0,
    "agency_count_nibrs_submitting" : 2423,
    "agency_count_leoka_submitting" : 970,
    "agency_count_pe_submitting" : 5045,
    "agency_count_srs_submitting" : 5045,
    "region_code" : 2,
    "region_name" : "Midwest",
    "csv_header" : "data_year,population,total_agency_count,published_agency_count,active_agency_count,covered_agency_count,population_covered,agency_count_nibrs_submitting,agency_count_leoka_submitting,agency_count_pe_submitting,agency_count_srs_submitting"
  }, {
    "data_year" : 2010,
    "population" : 73399729,
    "total_agency_count" : 5114,
    "published_agency_count" : 5114,
    "active_agency_count" : 5114,
    "covered_agency_count" : 0,
    "population_covered" : 0,
    "agency_count_nibrs_submitting" : 2467,
    "agency_count_leoka_submitting" : 973,
    "agency_count_pe_submitting" : 5114,
    "agency_count_srs_submitting" : 5114,
    "region_code" : 2,
    "region_name" : "Midwest",
    "csv_header" : "data_year,population,total_agency_count,published_agency_count,active_agency_count,covered_agency_count,population_covered,agency_count_nibrs_submitting,agency_count_leoka_submitting,agency_count_pe_submitting,agency_count_srs_submitting"
  }, {
    "data_year" : 2009,
    "population" : 73085643,
    "total_agency_count" : 4665,
    "published_agency_count" : 4665,
    "active_agency_count" : 4665,
    "covered_agency_count" : 0,
    "population_covered" : 0,
    "agency_count_nibrs_submitting" : 2431,
    "agency_count_leoka_submitting" : 839,
    "agency_count_pe_submitting" : 4665,
    "agency_count_srs_submitting" : 4665,
    "region_code" : 2,
    "region_name" : "Midwest",
    "csv_header" : "data_year,population,total_agency_count,published_agency_count,active_agency_count,covered_agency_count,population_covered,agency_count_nibrs_submitting,agency_count_leoka_submitting,agency_count_pe_submitting,agency_count_srs_submitting"
  }, {
    "data_year" : 2008,
    "population" : 72831242,
    "total_agency_count" : 4545,
    "published_agency_count" : 4545,
    "active_agency_count" : 4545,
    "covered_agency_count" : 0,
    "population_covered" : 0,
    "agency_count_nibrs_submitting" : 2339,
    "agency_count_leoka_submitting" : 268,
    "agency_count_pe_submitting" : 4545,
    "agency_count_srs_submitting" : 4545,
    "region_code" : 2,
    "region_name" : "Midwest",
    "csv_header" : "data_year,population,total_agency_count,published_agency_count,active_agency_count,covered_agency_count,population_covered,agency_count_nibrs_submitting,agency_count_leoka_submitting,agency_count_pe_submitting,agency_count_srs_submitting"
  }, {
    "data_year" : 2007,
    "population" : 72068820,
    "total_agency_count" : 4549,
    "published_agency_count" : 4549,
    "active_agency_count" : 4549,
    "covered_agency_count" : 0,
    "population_covered" : 0,
    "agency_count_nibrs_submitting" : 2337,
    "agency_count_leoka_submitting" : 248,
    "agency_count_pe_submitting" : 4549,
    "agency_count_srs_submitting" : 4549,
    "region_code" : 2,
    "region_name" : "Midwest",
    "csv_header" : "data_year,population,total_agency_count,published_agency_count,active_agency_count,covered_agency_count,population_covered,agency_count_nibrs_submitting,agency_count_leoka_submitting,agency_count_pe_submitting,agency_count_srs_submitting"
  }, {
    "data_year" : 2006,
    "population" : 73169452,
    "total_agency_count" : 4455,
    "published_agency_count" : 4455,
    "active_agency_count" : 4455,
    "covered_agency_count" : 0,
    "population_covered" : 0,
    "agency_count_nibrs_submitting" : 2258,
    "agency_count_leoka_submitting" : 174,
    "agency_count_pe_submitting" : 4455,
    "agency_count_srs_submitting" : 4455,
    "region_code" : 2,
    "region_name" : "Midwest",
    "csv_header" : "data_year,population,total_agency_count,published_agency_count,active_agency_count,covered_agency_count,population_covered,agency_count_nibrs_submitting,agency_count_leoka_submitting,agency_count_pe_submitting,agency_count_srs_submitting"
  }, {
    "data_year" : 2005,
    "population" : 73262506,
    "total_agency_count" : 4105,
    "published_agency_count" : 4105,
    "active_agency_count" : 4105,
    "covered_agency_count" : 0,
    "population_covered" : 0,
    "agency_count_nibrs_submitting" : 2132,
    "agency_count_leoka_submitting" : 82,
    "agency_count_pe_submitting" : 4105,
    "agency_count_srs_submitting" : 4105,
    "region_code" : 2,
    "region_name" : "Midwest",
    "csv_header" : "data_year,population,total_agency_count,published_agency_count,active_agency_count,covered_agency_count,population_covered,agency_count_nibrs_submitting,agency_count_leoka_submitting,agency_count_pe_submitting,agency_count_srs_submitting"
  }, {
    "data_year" : 2004,
    "population" : 73040236,
    "total_agency_count" : 4068,
    "published_agency_count" : 4068,
    "active_agency_count" : 4068,
    "covered_agency_count" : 0,
    "population_covered" : 0,
    "agency_count_nibrs_submitting" : 2038,
    "agency_count_leoka_submitting" : 39,
    "agency_count_pe_submitting" : 4068,
    "agency_count_srs_submitting" : 4068,
    "region_code" : 2,
    "region_name" : "Midwest",
    "csv_header" : "data_year,population,total_agency_count,published_agency_count,active_agency_count,covered_agency_count,population_covered,agency_count_nibrs_submitting,agency_count_leoka_submitting,agency_count_pe_submitting,agency_count_srs_submitting"
  }, {
    "data_year" : 2003,
    "population" : 73541184,
    "total_agency_count" : 3940,
    "published_agency_count" : 3940,
    "active_agency_count" : 3940,
    "covered_agency_count" : 0,
    "population_covered" : 0,
    "agency_count_nibrs_submitting" : 1891,
    "agency_count_leoka_submitting" : 0,
    "agency_count_pe_submitting" : 3940,
    "agency_count_srs_submitting" : 3940,
    "region_code" : 2,
    "region_name" : "Midwest",
    "csv_header" : "data_year,population,total_agency_count,published_agency_count,active_agency_count,covered_agency_count,population_covered,agency_count_nibrs_submitting,agency_count_leoka_submitting,agency_count_pe_submitting,agency_count_srs_submitting"
  }, {
    "data_year" : 2002,
    "population" : 71804693,
    "total_agency_count" : 3880,
    "published_agency_count" : 3880,
    "active_agency_count" : 3880,
    "covered_agency_count" : 0,
    "population_covered" : 0,
    "agency_count_nibrs_submitting" : 1846,
    "agency_count_leoka_submitting" : 0,
    "agency_count_pe_submitting" : 3880,
    "agency_count_srs_submitting" : 3880,
    "region_code" : 2,
    "region_name" : "Midwest",
    "csv_header" : "data_year,population,total_agency_count,published_agency_count,active_agency_count,covered_agency_count,population_covered,agency_count_nibrs_submitting,agency_count_leoka_submitting,agency_count_pe_submitting,agency_count_srs_submitting"
  }, {
    "data_year" : 2001,
    "population" : 73374144,
    "total_agency_count" : 3575,
    "published_agency_count" : 3575,
    "active_agency_count" : 3575,
    "covered_agency_count" : 0,
    "population_covered" : 0,
    "agency_count_nibrs_submitting" : 1788,
    "agency_count_leoka_submitting" : 0,
    "agency_count_pe_submitting" : 3575,
    "agency_count_srs_submitting" : 3575,
    "region_code" : 2,
    "region_name" : "Midwest",
    "csv_header" : "data_year,population,total_agency_count,published_agency_count,active_agency_count,covered_agency_count,population_covered,agency_count_nibrs_submitting,agency_count_leoka_submitting,agency_count_pe_submitting,agency_count_srs_submitting"
  }, {
    "data_year" : 2000,
    "population" : 72240860,
    "total_agency_count" : 3397,
    "published_agency_count" : 3397,
    "active_agency_count" : 3397,
    "covered_agency_count" : 0,
    "population_covered" : 0,
    "agency_count_nibrs_submitting" : 1637,
    "agency_count_leoka_submitting" : 0,
    "agency_count_pe_submitting" : 3397,
    "agency_count_srs_submitting" : 3397,
    "region_code" : 2,
    "region_name" : "Midwest",
    "csv_header" : "data_year,population,total_agency_count,published_agency_count,active_agency_count,covered_agency_count,population_covered,agency_count_nibrs_submitting,agency_count_leoka_submitting,agency_count_pe_submitting,agency_count_srs_submitting"
  } ],
  "pagination" : {
    "count" : 25,
    "page" : 0,
    "pages" : 2,
    "per_page" : 20
  }
}