{
  "results" : [ {
    "data_year" : 2019,
    "population" : 59393542,
    "total_agency_count" : 0,
    "published_agency_count" : 0,
    "active_agency_count" : 0,
    "covered_agency_count" : 0,
    "population_covered" : 0,
    "agency_count_nibrs_submitting" : 0,
    "agency_count_leoka_submitting" : 0,
    "agency_count_pe_submitting" : 0,
    "agency_count_srs_submitting" : 0,
    "region_code" : 1,
    "region_name" : "Northeast",
    "csv_header" : "data_year,population,total_agency_count,published_agency_count,active_agency_count,covered_agency_count,population_covered,agency_count_nibrs_submitting,agency_count_leoka_submitting,agency_count_pe_submitting,agency_count_srs_submitting"
  }, {
    "data_year" : 2018,
    "population" : 69682368,
    "total_agency_count" : 2454,
    "published_agency_count" : 2452,
    "active_agency_count" : 2454,
    "covered_agency_count" : 2,
    "population_covered" : 10294,
    "agency_count_nibrs_submitting" : 1144,
    "agency_count_leoka_submitting" : 943,
    "agency_count_pe_submitting" : 2454,
    "agency_count_srs_submitting" : 2454,
    "region_code" : 1,
    "region_name" : "Northeast",
    "csv_header" : "data_year,population,total_agency_count,published_agency_count,active_agency_count,covered_agency_count,population_covered,agency_count_nibrs_submitting,agency_count_leoka_submitting,agency_count_pe_submitting,agency_count_srs_submitting"
  }, {
    "data_year" : 2017,
    "population" : 59611896,
    "total_agency_count" : 3549,
    "published_agency_count" : 3549,
    "active_agency_count" : 3549,
    "covered_agency_count" : 0,
    "population_covered" : 0,
    "agency_count_nibrs_submitting" : 762,
    "agency_count_leoka_submitting" : 659,
    "agency_count_pe_submitting" : 3549,
    "agency_count_srs_submitting" : 3549,
    "region_code" : 1,
    "region_name" : "Northeast",
    "csv_header" : "data_year,population,total_agency_count,published_agency_count,active_agency_count,covered_agency_count,population_covered,agency_count_nibrs_submitting,agency_count_leoka_submitting,agency_count_pe_submitting,agency_count_srs_submitting"
  }, {
    "data_year" : 2016,
    "population" : 59852885,
    "total_agency_count" : 3678,
    "published_agency_count" : 3678,
    "active_agency_count" : 3678,
    "covered_agency_count" : 0,
    "population_covered" : 0,
    "agency_count_nibrs_submitting" : 800,
    "agency_count_leoka_submitting" : 693,
    "agency_count_pe_submitting" : 3678,
    "agency_count_srs_submitting" : 3678,
    "region_code" : 1,
    "region_name" : "Northeast",
    "csv_header" : "data_year,population,total_agency_count,published_agency_count,active_agency_count,covered_agency_count,population_covered,agency_count_nibrs_submitting,agency_count_leoka_submitting,agency_count_pe_submitting,agency_count_srs_submitting"
  }, {
    "data_year" : 2015,
    "population" : 59974947,
    "total_agency_count" : 3630,
    "published_agency_count" : 3630,
    "active_agency_count" : 3630,
    "covered_agency_count" : 0,
    "population_covered" : 0,
    "agency_count_nibrs_submitting" : 759,
    "agency_count_leoka_submitting" : 658,
    "agency_count_pe_submitting" : 3630,
    "agency_count_srs_submitting" : 3630,
    "region_code" : 1,
    "region_name" : "Northeast",
    "csv_header" : "data_year,population,total_agency_count,published_agency_count,active_agency_count,covered_agency_count,population_covered,agency_count_nibrs_submitting,agency_count_leoka_submitting,agency_count_pe_submitting,agency_count_srs_submitting"
  }, {
    "data_year" : 2014,
    "population" : 59945700,
    "total_agency_count" : 3657,
    "published_agency_count" : 3656,
    "active_agency_count" : 3656,
    "covered_agency_count" : 0,
    "population_covered" : 0,
    "agency_count_nibrs_submitting" : 782,
    "agency_count_leoka_submitting" : 640,
    "agency_count_pe_submitting" : 3657,
    "agency_count_srs_submitting" : 3657,
    "region_code" : 1,
    "region_name" : "Northeast",
    "csv_header" : "data_year,population,total_agency_count,published_agency_count,active_agency_count,covered_agency_count,population_covered,agency_count_nibrs_submitting,agency_count_leoka_submitting,agency_count_pe_submitting,agency_count_srs_submitting"
  }, {
    "data_year" : 2013,
    "population" : 59953472,
    "total_agency_count" : 3620,
    "published_agency_count" : 3620,
    "active_agency_count" : 3620,
    "covered_agency_count" : 0,
    "population_covered" : 0,
    "agency_count_nibrs_submitting" : 767,
    "agency_count_leoka_submitting" : 361,
    "agency_count_pe_submitting" : 3620,
    "agency_count_srs_submitting" : 3620,
    "region_code" : 1,
    "region_name" : "Northeast",
    "csv_header" : "data_year,population,total_agency_count,published_agency_count,active_agency_count,covered_agency_count,population_covered,agency_count_nibrs_submitting,agency_count_leoka_submitting,agency_count_pe_submitting,agency_count_srs_submitting"
  }, {
    "data_year" : 2012,
    "population" : 59648024,
    "total_agency_count" : 3553,
    "published_agency_count" : 3553,
    "active_agency_count" : 3553,
    "covered_agency_count" : 0,
    "population_covered" : 0,
    "agency_count_nibrs_submitting" : 723,
    "agency_count_leoka_submitting" : 314,
    "agency_count_pe_submitting" : 3553,
    "agency_count_srs_submitting" : 3553,
    "region_code" : 1,
    "region_name" : "Northeast",
    "csv_header" : "data_year,population,total_agency_count,published_agency_count,active_agency_count,covered_agency_count,population_covered,agency_count_nibrs_submitting,agency_count_leoka_submitting,agency_count_pe_submitting,agency_count_srs_submitting"
  }, {
    "data_year" : 2011,
    "population" : 59008587,
    "total_agency_count" : 3551,
    "published_agency_count" : 3550,
    "active_agency_count" : 3550,
    "covered_agency_count" : 0,
    "population_covered" : 0,
    "agency_count_nibrs_submitting" : 727,
    "agency_count_leoka_submitting" : 325,
    "agency_count_pe_submitting" : 3551,
    "agency_count_srs_submitting" : 3551,
    "region_code" : 1,
    "region_name" : "Northeast",
    "csv_header" : "data_year,population,total_agency_count,published_agency_count,active_agency_count,covered_agency_count,population_covered,agency_count_nibrs_submitting,agency_count_leoka_submitting,agency_count_pe_submitting,agency_count_srs_submitting"
  }, {
    "data_year" : 2010,
    "population" : 58920660,
    "total_agency_count" : 3515,
    "published_agency_count" : 3515,
    "active_agency_count" : 3515,
    "covered_agency_count" : 0,
    "population_covered" : 0,
    "agency_count_nibrs_submitting" : 710,
    "agency_count_leoka_submitting" : 302,
    "agency_count_pe_submitting" : 3515,
    "agency_count_srs_submitting" : 3515,
    "region_code" : 1,
    "region_name" : "Northeast",
    "csv_header" : "data_year,population,total_agency_count,published_agency_count,active_agency_count,covered_agency_count,population_covered,agency_count_nibrs_submitting,agency_count_leoka_submitting,agency_count_pe_submitting,agency_count_srs_submitting"
  }, {
    "data_year" : 2009,
    "population" : 58776672,
    "total_agency_count" : 3489,
    "published_agency_count" : 3489,
    "active_agency_count" : 3489,
    "covered_agency_count" : 0,
    "population_covered" : 0,
    "agency_count_nibrs_submitting" : 693,
    "agency_count_leoka_submitting" : 163,
    "agency_count_pe_submitting" : 3489,
    "agency_count_srs_submitting" : 3489,
    "region_code" : 1,
    "region_name" : "Northeast",
    "csv_header" : "data_year,population,total_agency_count,published_agency_count,active_agency_count,covered_agency_count,population_covered,agency_count_nibrs_submitting,agency_count_leoka_submitting,agency_count_pe_submitting,agency_count_srs_submitting"
  }, {
    "data_year" : 2008,
    "population" : 58553221,
    "total_agency_count" : 3422,
    "published_agency_count" : 3422,
    "active_agency_count" : 3422,
    "covered_agency_count" : 0,
    "population_covered" : 0,
    "agency_count_nibrs_submitting" : 683,
    "agency_count_leoka_submitting" : 153,
    "agency_count_pe_submitting" : 3422,
    "agency_count_srs_submitting" : 3422,
    "region_code" : 1,
    "region_name" : "Northeast",
    "csv_header" : "data_year,population,total_agency_count,published_agency_count,active_agency_count,covered_agency_count,population_covered,agency_count_nibrs_submitting,agency_count_leoka_submitting,agency_count_pe_submitting,agency_count_srs_submitting"
  }, {
    "data_year" : 2007,
    "population" : 58891588,
    "total_agency_count" : 3396,
    "published_agency_count" : 3396,
    "active_agency_count" : 3396,
    "covered_agency_count" : 0,
    "population_covered" : 0,
    "agency_count_nibrs_submitting" : 666,
    "agency_count_leoka_submitting" : 151,
    "agency_count_pe_submitting" : 3396,
    "agency_count_srs_submitting" : 3396,
    "region_code" : 1,
    "region_name" : "Northeast",
    "csv_header" : "data_year,population,total_agency_count,published_agency_count,active_agency_count,covered_agency_count,population_covered,agency_count_nibrs_submitting,agency_count_leoka_submitting,agency_count_pe_submitting,agency_count_srs_submitting"
  }, {
    "data_year" : 2006,
    "population" : 58830646,
    "total_agency_count" : 3237,
    "published_agency_count" : 3236,
    "active_agency_count" : 3236,
    "covered_agency_count" : 0,
    "population_covered" : 0,
    "agency_count_nibrs_submitting" : 649,
    "agency_count_leoka_submitting" : 144,
    "agency_count_pe_submitting" : 3237,
    "agency_count_srs_submitting" : 3237,
    "region_code" : 1,
    "region_name" : "Northeast",
    "csv_header" : "data_year,population,total_agency_count,published_agency_count,active_agency_count,covered_agency_count,population_covered,agency_count_nibrs_submitting,agency_count_leoka_submitting,agency_count_pe_submitting,agency_count_srs_submitting"
  }, {
    "data_year" : 2005,
    "population" : 59414816,
    "total_agency_count" : 3111,
    "published_agency_count" : 3111,
    "active_agency_count" : 3111,
    "covered_agency_count" : 0,
    "population_covered" : 0,
    "agency_count_nibrs_submitting" : 646,
    "agency_count_leoka_submitting" : 129,
    "agency_count_pe_submitting" : 3111,
    "agency_count_srs_submitting" : 3111,
    "region_code" : 1,
    "region_name" : "Northeast",
    "csv_header" : "data_year,population,total_agency_count,published_agency_count,active_agency_count,covered_agency_count,population_covered,agency_count_nibrs_submitting,agency_count_leoka_submitting,agency_count_pe_submitting,agency_count_srs_submitting"
  }, {
    "data_year" : 2004,
    "population" : 60233045,
    "total_agency_count" : 3077,
    "published_agency_count" : 3076,
    "active_agency_count" : 3076,
    "covered_agency_count" : 0,
    "population_covered" : 0,
    "agency_count_nibrs_submitting" : 637,
    "agency_count_leoka_submitting" : 8,
    "agency_count_pe_submitting" : 3077,
    "agency_count_srs_submitting" : 3077,
    "region_code" : 1,
    "region_name" : "Northeast",
    "csv_header" : "data_year,population,total_agency_count,published_agency_count,active_agency_count,covered_agency_count,population_covered,agency_count_nibrs_submitting,agency_count_leoka_submitting,agency_count_pe_submitting,agency_count_srs_submitting"
  }, {
    "data_year" : 2003,
    "population" : 60332901,
    "total_agency_count" : 2987,
    "published_agency_count" : 2987,
    "active_agency_count" : 2987,
    "covered_agency_count" : 0,
    "population_covered" : 0,
    "agency_count_nibrs_submitting" : 527,
    "agency_count_leoka_submitting" : 0,
    "agency_count_pe_submitting" : 2987,
    "agency_count_srs_submitting" : 2987,
    "region_code" : 1,
    "region_name" : "Northeast",
    "csv_header" : "data_year,population,total_agency_count,published_agency_count,active_agency_count,covered_agency_count,population_covered,agency_count_nibrs_submitting,agency_count_leoka_submitting,agency_count_pe_submitting,agency_count_srs_submitting"
  }, {
    "data_year" : 2002,
    "population" : 61018558,
    "total_agency_count" : 3062,
    "published_agency_count" : 3062,
    "active_agency_count" : 3062,
    "covered_agency_count" : 0,
    "population_covered" : 0,
    "agency_count_nibrs_submitting" : 411,
    "agency_count_leoka_submitting" : 0,
    "agency_count_pe_submitting" : 3062,
    "agency_count_srs_submitting" : 3062,
    "region_code" : 1,
    "region_name" : "Northeast",
    "csv_header" : "data_year,population,total_agency_count,published_agency_count,active_agency_count,covered_agency_count,population_covered,agency_count_nibrs_submitting,agency_count_leoka_submitting,agency_count_pe_submitting,agency_count_srs_submitting"
  }, {
    "data_year" : 2001,
    "population" : 60356243,
    "total_agency_count" : 2936,
    "published_agency_count" : 2936,
    "active_agency_count" : 2936,
    "covered_agency_count" : 0,
    "population_covered" : 0,
    "agency_count_nibrs_submitting" : 338,
    "agency_count_leoka_submitting" : 0,
    "agency_count_pe_submitting" : 2936,
    "agency_count_srs_submitting" : 2936,
    "region_code" : 1,
    "region_name" : "Northeast",
    "csv_header" : "data_year,population,total_agency_count,published_agency_count,active_agency_count,covered_agency_count,population_covered,agency_count_nibrs_submitting,agency_count_leoka_submitting,agency_count_pe_submitting,agency_count_srs_submitting"
  }, {
    "data_year" : 2000,
    "population" : 60774451,
    "total_agency_count" : 3036,
    "published_agency_count" : 3036,
    "active_agency_count" : 3036,
    "covered_agency_count" : 0,
    "population_covered" : 0,
    "agency_count_nibrs_submitting" : 305,
    "agency_count_leoka_submitting" : 0,
    "agency_count_pe_submitting" : 3036,
    "agency_count_srs_submitting" : 3036,
    "region_code" : 1,
    "region_name" : "Northeast",
    "csv_header" : "data_year,population,total_agency_count,published_agency_count,active_agency_count,covered_agency_count,population_covered,agency_count_nibrs_submitting,agency_count_leoka_submitting,agency_count_pe_submitting,agency_count_srs_submitting"
  } ],
  "pagination" : {
    "count" : 25,
    "page" : 0,
    "pages" : 2,
    "per_page" : 20
  }
}