{
  "results" : [ {
    "data_year" : 2019,
    "population" : 124698770,
    "total_agency_count" : 0,
    "published_agency_count" : 0,
    "active_agency_count" : 0,
    "covered_agency_count" : 0,
    "population_covered" : 0,
    "agency_count_nibrs_submitting" : 0,
    "agency_count_leoka_submitting" : 0,
    "agency_count_pe_submitting" : 0,
    "agency_count_srs_submitting" : 0,
    "region_code" : 3,
    "region_name" : "South",
    "csv_header" : "data_year,population,total_agency_count,published_agency_count,active_agency_count,covered_agency_count,population_covered,agency_count_nibrs_submitting,agency_count_leoka_submitting,agency_count_pe_submitting,agency_count_srs_submitting"
  }, {
    "data_year" : 2018,
    "population" : 160744877,
    "total_agency_count" : 5753,
    "published_agency_count" : 5737,
    "active_agency_count" : 5753,
    "covered_agency_count" : 16,
    "population_covered" : 4702,
    "agency_count_nibrs_submitting" : 5102,
    "agency_count_leoka_submitting" : 5004,
    "agency_count_pe_submitting" : 5753,
    "agency_count_srs_submitting" : 5753,
    "region_code" : 3,
    "region_name" : "South",
    "csv_header" : "data_year,population,total_agency_count,published_agency_count,active_agency_count,covered_agency_count,population_covered,agency_count_nibrs_submitting,agency_count_leoka_submitting,agency_count_pe_submitting,agency_count_srs_submitting"
  }, {
    "data_year" : 2017,
    "population" : 126722675,
    "total_agency_count" : 5629,
    "published_agency_count" : 5557,
    "active_agency_count" : 5618,
    "covered_agency_count" : 61,
    "population_covered" : 169228,
    "agency_count_nibrs_submitting" : 2982,
    "agency_count_leoka_submitting" : 2843,
    "agency_count_pe_submitting" : 5629,
    "agency_count_srs_submitting" : 5629,
    "region_code" : 3,
    "region_name" : "South",
    "csv_header" : "data_year,population,total_agency_count,published_agency_count,active_agency_count,covered_agency_count,population_covered,agency_count_nibrs_submitting,agency_count_leoka_submitting,agency_count_pe_submitting,agency_count_srs_submitting"
  }, {
    "data_year" : 2016,
    "population" : 125919090,
    "total_agency_count" : 6401,
    "published_agency_count" : 6401,
    "active_agency_count" : 6401,
    "covered_agency_count" : 0,
    "population_covered" : 0,
    "agency_count_nibrs_submitting" : 3012,
    "agency_count_leoka_submitting" : 2848,
    "agency_count_pe_submitting" : 6401,
    "agency_count_srs_submitting" : 6401,
    "region_code" : 3,
    "region_name" : "South",
    "csv_header" : "data_year,population,total_agency_count,published_agency_count,active_agency_count,covered_agency_count,population_covered,agency_count_nibrs_submitting,agency_count_leoka_submitting,agency_count_pe_submitting,agency_count_srs_submitting"
  }, {
    "data_year" : 2015,
    "population" : 127271588,
    "total_agency_count" : 6359,
    "published_agency_count" : 6358,
    "active_agency_count" : 6359,
    "covered_agency_count" : 1,
    "population_covered" : 717,
    "agency_count_nibrs_submitting" : 2921,
    "agency_count_leoka_submitting" : 2804,
    "agency_count_pe_submitting" : 6359,
    "agency_count_srs_submitting" : 6359,
    "region_code" : 3,
    "region_name" : "South",
    "csv_header" : "data_year,population,total_agency_count,published_agency_count,active_agency_count,covered_agency_count,population_covered,agency_count_nibrs_submitting,agency_count_leoka_submitting,agency_count_pe_submitting,agency_count_srs_submitting"
  }, {
    "data_year" : 2014,
    "population" : 125013337,
    "total_agency_count" : 6333,
    "published_agency_count" : 6333,
    "active_agency_count" : 6333,
    "covered_agency_count" : 0,
    "population_covered" : 0,
    "agency_count_nibrs_submitting" : 2962,
    "agency_count_leoka_submitting" : 2757,
    "agency_count_pe_submitting" : 6333,
    "agency_count_srs_submitting" : 6333,
    "region_code" : 3,
    "region_name" : "South",
    "csv_header" : "data_year,population,total_agency_count,published_agency_count,active_agency_count,covered_agency_count,population_covered,agency_count_nibrs_submitting,agency_count_leoka_submitting,agency_count_pe_submitting,agency_count_srs_submitting"
  }, {
    "data_year" : 2013,
    "population" : 124180527,
    "total_agency_count" : 6400,
    "published_agency_count" : 6400,
    "active_agency_count" : 6400,
    "covered_agency_count" : 0,
    "population_covered" : 0,
    "agency_count_nibrs_submitting" : 2921,
    "agency_count_leoka_submitting" : 2480,
    "agency_count_pe_submitting" : 6400,
    "agency_count_srs_submitting" : 6400,
    "region_code" : 3,
    "region_name" : "South",
    "csv_header" : "data_year,population,total_agency_count,published_agency_count,active_agency_count,covered_agency_count,population_covered,agency_count_nibrs_submitting,agency_count_leoka_submitting,agency_count_pe_submitting,agency_count_srs_submitting"
  }, {
    "data_year" : 2012,
    "population" : 121109378,
    "total_agency_count" : 6329,
    "published_agency_count" : 6329,
    "active_agency_count" : 6329,
    "covered_agency_count" : 0,
    "population_covered" : 0,
    "agency_count_nibrs_submitting" : 2773,
    "agency_count_leoka_submitting" : 2298,
    "agency_count_pe_submitting" : 6329,
    "agency_count_srs_submitting" : 6329,
    "region_code" : 3,
    "region_name" : "South",
    "csv_header" : "data_year,population,total_agency_count,published_agency_count,active_agency_count,covered_agency_count,population_covered,agency_count_nibrs_submitting,agency_count_leoka_submitting,agency_count_pe_submitting,agency_count_srs_submitting"
  }, {
    "data_year" : 2011,
    "population" : 120529496,
    "total_agency_count" : 6450,
    "published_agency_count" : 6450,
    "active_agency_count" : 6450,
    "covered_agency_count" : 0,
    "population_covered" : 0,
    "agency_count_nibrs_submitting" : 2807,
    "agency_count_leoka_submitting" : 2372,
    "agency_count_pe_submitting" : 6450,
    "agency_count_srs_submitting" : 6450,
    "region_code" : 3,
    "region_name" : "South",
    "csv_header" : "data_year,population,total_agency_count,published_agency_count,active_agency_count,covered_agency_count,population_covered,agency_count_nibrs_submitting,agency_count_leoka_submitting,agency_count_pe_submitting,agency_count_srs_submitting"
  }, {
    "data_year" : 2010,
    "population" : 120414867,
    "total_agency_count" : 6494,
    "published_agency_count" : 6494,
    "active_agency_count" : 6494,
    "covered_agency_count" : 0,
    "population_covered" : 0,
    "agency_count_nibrs_submitting" : 2847,
    "agency_count_leoka_submitting" : 2270,
    "agency_count_pe_submitting" : 6494,
    "agency_count_srs_submitting" : 6494,
    "region_code" : 3,
    "region_name" : "South",
    "csv_header" : "data_year,population,total_agency_count,published_agency_count,active_agency_count,covered_agency_count,population_covered,agency_count_nibrs_submitting,agency_count_leoka_submitting,agency_count_pe_submitting,agency_count_srs_submitting"
  }, {
    "data_year" : 2009,
    "population" : 118514022,
    "total_agency_count" : 6301,
    "published_agency_count" : 6301,
    "active_agency_count" : 6301,
    "covered_agency_count" : 0,
    "population_covered" : 0,
    "agency_count_nibrs_submitting" : 2717,
    "agency_count_leoka_submitting" : 1811,
    "agency_count_pe_submitting" : 6301,
    "agency_count_srs_submitting" : 6301,
    "region_code" : 3,
    "region_name" : "South",
    "csv_header" : "data_year,population,total_agency_count,published_agency_count,active_agency_count,covered_agency_count,population_covered,agency_count_nibrs_submitting,agency_count_leoka_submitting,agency_count_pe_submitting,agency_count_srs_submitting"
  }, {
    "data_year" : 2008,
    "population" : 118337250,
    "total_agency_count" : 6337,
    "published_agency_count" : 6337,
    "active_agency_count" : 6337,
    "covered_agency_count" : 0,
    "population_covered" : 0,
    "agency_count_nibrs_submitting" : 2445,
    "agency_count_leoka_submitting" : 1274,
    "agency_count_pe_submitting" : 6337,
    "agency_count_srs_submitting" : 6337,
    "region_code" : 3,
    "region_name" : "South",
    "csv_header" : "data_year,population,total_agency_count,published_agency_count,active_agency_count,covered_agency_count,population_covered,agency_count_nibrs_submitting,agency_count_leoka_submitting,agency_count_pe_submitting,agency_count_srs_submitting"
  }, {
    "data_year" : 2007,
    "population" : 116858669,
    "total_agency_count" : 6202,
    "published_agency_count" : 6202,
    "active_agency_count" : 6202,
    "covered_agency_count" : 0,
    "population_covered" : 0,
    "agency_count_nibrs_submitting" : 2220,
    "agency_count_leoka_submitting" : 1182,
    "agency_count_pe_submitting" : 6202,
    "agency_count_srs_submitting" : 6202,
    "region_code" : 3,
    "region_name" : "South",
    "csv_header" : "data_year,population,total_agency_count,published_agency_count,active_agency_count,covered_agency_count,population_covered,agency_count_nibrs_submitting,agency_count_leoka_submitting,agency_count_pe_submitting,agency_count_srs_submitting"
  }, {
    "data_year" : 2006,
    "population" : 114881586,
    "total_agency_count" : 6209,
    "published_agency_count" : 6209,
    "active_agency_count" : 6209,
    "covered_agency_count" : 0,
    "population_covered" : 0,
    "agency_count_nibrs_submitting" : 2314,
    "agency_count_leoka_submitting" : 846,
    "agency_count_pe_submitting" : 6209,
    "agency_count_srs_submitting" : 6209,
    "region_code" : 3,
    "region_name" : "South",
    "csv_header" : "data_year,population,total_agency_count,published_agency_count,active_agency_count,covered_agency_count,population_covered,agency_count_nibrs_submitting,agency_count_leoka_submitting,agency_count_pe_submitting,agency_count_srs_submitting"
  }, {
    "data_year" : 2005,
    "population" : 114035162,
    "total_agency_count" : 6139,
    "published_agency_count" : 6139,
    "active_agency_count" : 6139,
    "covered_agency_count" : 0,
    "population_covered" : 0,
    "agency_count_nibrs_submitting" : 2265,
    "agency_count_leoka_submitting" : 791,
    "agency_count_pe_submitting" : 6139,
    "agency_count_srs_submitting" : 6139,
    "region_code" : 3,
    "region_name" : "South",
    "csv_header" : "data_year,population,total_agency_count,published_agency_count,active_agency_count,covered_agency_count,population_covered,agency_count_nibrs_submitting,agency_count_leoka_submitting,agency_count_pe_submitting,agency_count_srs_submitting"
  }, {
    "data_year" : 2004,
    "population" : 113083227,
    "total_agency_count" : 6074,
    "published_agency_count" : 6074,
    "active_agency_count" : 6074,
    "covered_agency_count" : 0,
    "population_covered" : 0,
    "agency_count_nibrs_submitting" : 2136,
    "agency_count_leoka_submitting" : 775,
    "agency_count_pe_submitting" : 6074,
    "agency_count_srs_submitting" : 6074,
    "region_code" : 3,
    "region_name" : "South",
    "csv_header" : "data_year,population,total_agency_count,published_agency_count,active_agency_count,covered_agency_count,population_covered,agency_count_nibrs_submitting,agency_count_leoka_submitting,agency_count_pe_submitting,agency_count_srs_submitting"
  }, {
    "data_year" : 2003,
    "population" : 114480815,
    "total_agency_count" : 5933,
    "published_agency_count" : 5933,
    "active_agency_count" : 5933,
    "covered_agency_count" : 0,
    "population_covered" : 0,
    "agency_count_nibrs_submitting" : 2254,
    "agency_count_leoka_submitting" : 2,
    "agency_count_pe_submitting" : 5933,
    "agency_count_srs_submitting" : 5933,
    "region_code" : 3,
    "region_name" : "South",
    "csv_header" : "data_year,population,total_agency_count,published_agency_count,active_agency_count,covered_agency_count,population_covered,agency_count_nibrs_submitting,agency_count_leoka_submitting,agency_count_pe_submitting,agency_count_srs_submitting"
  }, {
    "data_year" : 2002,
    "population" : 109780209,
    "total_agency_count" : 5842,
    "published_agency_count" : 5842,
    "active_agency_count" : 5842,
    "covered_agency_count" : 0,
    "population_covered" : 0,
    "agency_count_nibrs_submitting" : 2050,
    "agency_count_leoka_submitting" : 0,
    "agency_count_pe_submitting" : 5842,
    "agency_count_srs_submitting" : 5842,
    "region_code" : 3,
    "region_name" : "South",
    "csv_header" : "data_year,population,total_agency_count,published_agency_count,active_agency_count,covered_agency_count,population_covered,agency_count_nibrs_submitting,agency_count_leoka_submitting,agency_count_pe_submitting,agency_count_srs_submitting"
  }, {
    "data_year" : 2001,
    "population" : 108191001,
    "total_agency_count" : 5590,
    "published_agency_count" : 5590,
    "active_agency_count" : 5590,
    "covered_agency_count" : 0,
    "population_covered" : 0,
    "agency_count_nibrs_submitting" : 1813,
    "agency_count_leoka_submitting" : 0,
    "agency_count_pe_submitting" : 5590,
    "agency_count_srs_submitting" : 5590,
    "region_code" : 3,
    "region_name" : "South",
    "csv_header" : "data_year,population,total_agency_count,published_agency_count,active_agency_count,covered_agency_count,population_covered,agency_count_nibrs_submitting,agency_count_leoka_submitting,agency_count_pe_submitting,agency_count_srs_submitting"
  }, {
    "data_year" : 2000,
    "population" : 108384556,
    "total_agency_count" : 5570,
    "published_agency_count" : 5570,
    "active_agency_count" : 5570,
    "covered_agency_count" : 0,
    "population_covered" : 0,
    "agency_count_nibrs_submitting" : 1880,
    "agency_count_leoka_submitting" : 0,
    "agency_count_pe_submitting" : 5570,
    "agency_count_srs_submitting" : 5570,
    "region_code" : 3,
    "region_name" : "South",
    "csv_header" : "data_year,population,total_agency_count,published_agency_count,active_agency_count,covered_agency_count,population_covered,agency_count_nibrs_submitting,agency_count_leoka_submitting,agency_count_pe_submitting,agency_count_srs_submitting"
  } ],
  "pagination" : {
    "count" : 25,
    "page" : 0,
    "pages" : 2,
    "per_page" : 20
  }
}