{
  "results" : [ {
    "data_year" : 2019,
    "population" : 78176477,
    "total_agency_count" : 0,
    "published_agency_count" : 0,
    "active_agency_count" : 0,
    "covered_agency_count" : 0,
    "population_covered" : 0,
    "agency_count_nibrs_submitting" : 0,
    "agency_count_leoka_submitting" : 0,
    "agency_count_pe_submitting" : 0,
    "agency_count_srs_submitting" : 0,
    "region_code" : 4,
    "region_name" : "West",
    "csv_header" : "data_year,population,total_agency_count,published_agency_count,active_agency_count,covered_agency_count,population_covered,agency_count_nibrs_submitting,agency_count_leoka_submitting,agency_count_pe_submitting,agency_count_srs_submitting"
  }, {
    "data_year" : 2018,
    "population" : 97702400,
    "total_agency_count" : 1837,
    "published_agency_count" : 1837,
    "active_agency_count" : 1837,
    "covered_agency_count" : 0,
    "population_covered" : 0,
    "agency_count_nibrs_submitting" : 1555,
    "agency_count_leoka_submitting" : 1426,
    "agency_count_pe_submitting" : 1837,
    "agency_count_srs_submitting" : 1837,
    "region_code" : 4,
    "region_name" : "West",
    "csv_header" : "data_year,population,total_agency_count,published_agency_count,active_agency_count,covered_agency_count,population_covered,agency_count_nibrs_submitting,agency_count_leoka_submitting,agency_count_pe_submitting,agency_count_srs_submitting"
  }, {
    "data_year" : 2017,
    "population" : 78180006,
    "total_agency_count" : 2163,
    "published_agency_count" : 2163,
    "active_agency_count" : 2163,
    "covered_agency_count" : 0,
    "population_covered" : 0,
    "agency_count_nibrs_submitting" : 933,
    "agency_count_leoka_submitting" : 851,
    "agency_count_pe_submitting" : 2163,
    "agency_count_srs_submitting" : 2163,
    "region_code" : 4,
    "region_name" : "West",
    "csv_header" : "data_year,population,total_agency_count,published_agency_count,active_agency_count,covered_agency_count,population_covered,agency_count_nibrs_submitting,agency_count_leoka_submitting,agency_count_pe_submitting,agency_count_srs_submitting"
  }, {
    "data_year" : 2016,
    "population" : 79087395,
    "total_agency_count" : 2249,
    "published_agency_count" : 2249,
    "active_agency_count" : 2249,
    "covered_agency_count" : 0,
    "population_covered" : 0,
    "agency_count_nibrs_submitting" : 980,
    "agency_count_leoka_submitting" : 849,
    "agency_count_pe_submitting" : 2249,
    "agency_count_srs_submitting" : 2249,
    "region_code" : 4,
    "region_name" : "West",
    "csv_header" : "data_year,population,total_agency_count,published_agency_count,active_agency_count,covered_agency_count,population_covered,agency_count_nibrs_submitting,agency_count_leoka_submitting,agency_count_pe_submitting,agency_count_srs_submitting"
  }, {
    "data_year" : 2015,
    "population" : 82890403,
    "total_agency_count" : 2284,
    "published_agency_count" : 2284,
    "active_agency_count" : 2284,
    "covered_agency_count" : 0,
    "population_covered" : 0,
    "agency_count_nibrs_submitting" : 987,
    "agency_count_leoka_submitting" : 843,
    "agency_count_pe_submitting" : 2284,
    "agency_count_srs_submitting" : 2284,
    "region_code" : 4,
    "region_name" : "West",
    "csv_header" : "data_year,population,total_agency_count,published_agency_count,active_agency_count,covered_agency_count,population_covered,agency_count_nibrs_submitting,agency_count_leoka_submitting,agency_count_pe_submitting,agency_count_srs_submitting"
  }, {
    "data_year" : 2014,
    "population" : 78302040,
    "total_agency_count" : 2276,
    "published_agency_count" : 2276,
    "active_agency_count" : 2276,
    "covered_agency_count" : 0,
    "population_covered" : 0,
    "agency_count_nibrs_submitting" : 943,
    "agency_count_leoka_submitting" : 788,
    "agency_count_pe_submitting" : 2276,
    "agency_count_srs_submitting" : 2276,
    "region_code" : 4,
    "region_name" : "West",
    "csv_header" : "data_year,population,total_agency_count,published_agency_count,active_agency_count,covered_agency_count,population_covered,agency_count_nibrs_submitting,agency_count_leoka_submitting,agency_count_pe_submitting,agency_count_srs_submitting"
  }, {
    "data_year" : 2013,
    "population" : 78210714,
    "total_agency_count" : 2228,
    "published_agency_count" : 2228,
    "active_agency_count" : 2228,
    "covered_agency_count" : 0,
    "population_covered" : 0,
    "agency_count_nibrs_submitting" : 840,
    "agency_count_leoka_submitting" : 763,
    "agency_count_pe_submitting" : 2228,
    "agency_count_srs_submitting" : 2228,
    "region_code" : 4,
    "region_name" : "West",
    "csv_header" : "data_year,population,total_agency_count,published_agency_count,active_agency_count,covered_agency_count,population_covered,agency_count_nibrs_submitting,agency_count_leoka_submitting,agency_count_pe_submitting,agency_count_srs_submitting"
  }, {
    "data_year" : 2012,
    "population" : 76319808,
    "total_agency_count" : 2204,
    "published_agency_count" : 2204,
    "active_agency_count" : 2204,
    "covered_agency_count" : 0,
    "population_covered" : 0,
    "agency_count_nibrs_submitting" : 856,
    "agency_count_leoka_submitting" : 774,
    "agency_count_pe_submitting" : 2204,
    "agency_count_srs_submitting" : 2204,
    "region_code" : 4,
    "region_name" : "West",
    "csv_header" : "data_year,population,total_agency_count,published_agency_count,active_agency_count,covered_agency_count,population_covered,agency_count_nibrs_submitting,agency_count_leoka_submitting,agency_count_pe_submitting,agency_count_srs_submitting"
  }, {
    "data_year" : 2011,
    "population" : 76805397,
    "total_agency_count" : 2235,
    "published_agency_count" : 2235,
    "active_agency_count" : 2235,
    "covered_agency_count" : 0,
    "population_covered" : 0,
    "agency_count_nibrs_submitting" : 803,
    "agency_count_leoka_submitting" : 707,
    "agency_count_pe_submitting" : 2235,
    "agency_count_srs_submitting" : 2235,
    "region_code" : 4,
    "region_name" : "West",
    "csv_header" : "data_year,population,total_agency_count,published_agency_count,active_agency_count,covered_agency_count,population_covered,agency_count_nibrs_submitting,agency_count_leoka_submitting,agency_count_pe_submitting,agency_count_srs_submitting"
  }, {
    "data_year" : 2010,
    "population" : 75096014,
    "total_agency_count" : 2198,
    "published_agency_count" : 2198,
    "active_agency_count" : 2198,
    "covered_agency_count" : 0,
    "population_covered" : 0,
    "agency_count_nibrs_submitting" : 694,
    "agency_count_leoka_submitting" : 591,
    "agency_count_pe_submitting" : 2198,
    "agency_count_srs_submitting" : 2198,
    "region_code" : 4,
    "region_name" : "West",
    "csv_header" : "data_year,population,total_agency_count,published_agency_count,active_agency_count,covered_agency_count,population_covered,agency_count_nibrs_submitting,agency_count_leoka_submitting,agency_count_pe_submitting,agency_count_srs_submitting"
  }, {
    "data_year" : 2009,
    "population" : 73999168,
    "total_agency_count" : 2166,
    "published_agency_count" : 2166,
    "active_agency_count" : 2166,
    "covered_agency_count" : 0,
    "population_covered" : 0,
    "agency_count_nibrs_submitting" : 623,
    "agency_count_leoka_submitting" : 431,
    "agency_count_pe_submitting" : 2166,
    "agency_count_srs_submitting" : 2166,
    "region_code" : 4,
    "region_name" : "West",
    "csv_header" : "data_year,population,total_agency_count,published_agency_count,active_agency_count,covered_agency_count,population_covered,agency_count_nibrs_submitting,agency_count_leoka_submitting,agency_count_pe_submitting,agency_count_srs_submitting"
  }, {
    "data_year" : 2008,
    "population" : 73135558,
    "total_agency_count" : 2141,
    "published_agency_count" : 2141,
    "active_agency_count" : 2141,
    "covered_agency_count" : 0,
    "population_covered" : 0,
    "agency_count_nibrs_submitting" : 569,
    "agency_count_leoka_submitting" : 324,
    "agency_count_pe_submitting" : 2141,
    "agency_count_srs_submitting" : 2141,
    "region_code" : 4,
    "region_name" : "West",
    "csv_header" : "data_year,population,total_agency_count,published_agency_count,active_agency_count,covered_agency_count,population_covered,agency_count_nibrs_submitting,agency_count_leoka_submitting,agency_count_pe_submitting,agency_count_srs_submitting"
  }, {
    "data_year" : 2007,
    "population" : 71393392,
    "total_agency_count" : 2155,
    "published_agency_count" : 2155,
    "active_agency_count" : 2155,
    "covered_agency_count" : 0,
    "population_covered" : 0,
    "agency_count_nibrs_submitting" : 536,
    "agency_count_leoka_submitting" : 291,
    "agency_count_pe_submitting" : 2155,
    "agency_count_srs_submitting" : 2155,
    "region_code" : 4,
    "region_name" : "West",
    "csv_header" : "data_year,population,total_agency_count,published_agency_count,active_agency_count,covered_agency_count,population_covered,agency_count_nibrs_submitting,agency_count_leoka_submitting,agency_count_pe_submitting,agency_count_srs_submitting"
  }, {
    "data_year" : 2006,
    "population" : 70908425,
    "total_agency_count" : 2144,
    "published_agency_count" : 2144,
    "active_agency_count" : 2144,
    "covered_agency_count" : 0,
    "population_covered" : 0,
    "agency_count_nibrs_submitting" : 535,
    "agency_count_leoka_submitting" : 288,
    "agency_count_pe_submitting" : 2144,
    "agency_count_srs_submitting" : 2144,
    "region_code" : 4,
    "region_name" : "West",
    "csv_header" : "data_year,population,total_agency_count,published_agency_count,active_agency_count,covered_agency_count,population_covered,agency_count_nibrs_submitting,agency_count_leoka_submitting,agency_count_pe_submitting,agency_count_srs_submitting"
  }, {
    "data_year" : 2005,
    "population" : 71150495,
    "total_agency_count" : 2072,
    "published_agency_count" : 2072,
    "active_agency_count" : 2072,
    "covered_agency_count" : 0,
    "population_covered" : 0,
    "agency_count_nibrs_submitting" : 520,
    "agency_count_leoka_submitting" : 272,
    "agency_count_pe_submitting" : 2072,
    "agency_count_srs_submitting" : 2072,
    "region_code" : 4,
    "region_name" : "West",
    "csv_header" : "data_year,population,total_agency_count,published_agency_count,active_agency_count,covered_agency_count,population_covered,agency_count_nibrs_submitting,agency_count_leoka_submitting,agency_count_pe_submitting,agency_count_srs_submitting"
  }, {
    "data_year" : 2004,
    "population" : 70510268,
    "total_agency_count" : 2076,
    "published_agency_count" : 2076,
    "active_agency_count" : 2076,
    "covered_agency_count" : 0,
    "population_covered" : 0,
    "agency_count_nibrs_submitting" : 461,
    "agency_count_leoka_submitting" : 155,
    "agency_count_pe_submitting" : 2076,
    "agency_count_srs_submitting" : 2076,
    "region_code" : 4,
    "region_name" : "West",
    "csv_header" : "data_year,population,total_agency_count,published_agency_count,active_agency_count,covered_agency_count,population_covered,agency_count_nibrs_submitting,agency_count_leoka_submitting,agency_count_pe_submitting,agency_count_srs_submitting"
  }, {
    "data_year" : 2003,
    "population" : 70122870,
    "total_agency_count" : 2020,
    "published_agency_count" : 2020,
    "active_agency_count" : 2020,
    "covered_agency_count" : 0,
    "population_covered" : 0,
    "agency_count_nibrs_submitting" : 394,
    "agency_count_leoka_submitting" : 140,
    "agency_count_pe_submitting" : 2020,
    "agency_count_srs_submitting" : 2020,
    "region_code" : 4,
    "region_name" : "West",
    "csv_header" : "data_year,population,total_agency_count,published_agency_count,active_agency_count,covered_agency_count,population_covered,agency_count_nibrs_submitting,agency_count_leoka_submitting,agency_count_pe_submitting,agency_count_srs_submitting"
  }, {
    "data_year" : 2002,
    "population" : 68518990,
    "total_agency_count" : 1986,
    "published_agency_count" : 1986,
    "active_agency_count" : 1986,
    "covered_agency_count" : 0,
    "population_covered" : 0,
    "agency_count_nibrs_submitting" : 338,
    "agency_count_leoka_submitting" : 0,
    "agency_count_pe_submitting" : 1986,
    "agency_count_srs_submitting" : 1986,
    "region_code" : 4,
    "region_name" : "West",
    "csv_header" : "data_year,population,total_agency_count,published_agency_count,active_agency_count,covered_agency_count,population_covered,agency_count_nibrs_submitting,agency_count_leoka_submitting,agency_count_pe_submitting,agency_count_srs_submitting"
  }, {
    "data_year" : 2001,
    "population" : 67841012,
    "total_agency_count" : 2021,
    "published_agency_count" : 2021,
    "active_agency_count" : 2021,
    "covered_agency_count" : 0,
    "population_covered" : 0,
    "agency_count_nibrs_submitting" : 341,
    "agency_count_leoka_submitting" : 0,
    "agency_count_pe_submitting" : 2021,
    "agency_count_srs_submitting" : 2021,
    "region_code" : 4,
    "region_name" : "West",
    "csv_header" : "data_year,population,total_agency_count,published_agency_count,active_agency_count,covered_agency_count,population_covered,agency_count_nibrs_submitting,agency_count_leoka_submitting,agency_count_pe_submitting,agency_count_srs_submitting"
  }, {
    "data_year" : 2000,
    "population" : 67728864,
    "total_agency_count" : 2028,
    "published_agency_count" : 2028,
    "active_agency_count" : 2028,
    "covered_agency_count" : 0,
    "population_covered" : 0,
    "agency_count_nibrs_submitting" : 339,
    "agency_count_leoka_submitting" : 0,
    "agency_count_pe_submitting" : 2028,
    "agency_count_srs_submitting" : 2028,
    "region_code" : 4,
    "region_name" : "West",
    "csv_header" : "data_year,population,total_agency_count,published_agency_count,active_agency_count,covered_agency_count,population_covered,agency_count_nibrs_submitting,agency_count_leoka_submitting,agency_count_pe_submitting,agency_count_srs_submitting"
  } ],
  "pagination" : {
    "count" : 25,
    "page" : 0,
    "pages" : 2,
    "per_page" : 20
  }
}